location,last_observation_date,source_name,source_url
Austria,2021-11-16,European Centre for Disease Prevention and Control (ECDC),https://www.ecdc.europa.eu/en/publications-data/data-covid-19-vaccination-eu-eea
Belgium,2021-11-12,European Centre for Disease Prevention and Control (ECDC),https://www.ecdc.europa.eu/en/publications-data/data-covid-19-vaccination-eu-eea
Bulgaria,2021-11-12,European Centre for Disease Prevention and Control (ECDC),https://www.ecdc.europa.eu/en/publications-data/data-covid-19-vaccination-eu-eea
Croatia,2021-11-12,European Centre for Disease Prevention and Control (ECDC),https://www.ecdc.europa.eu/en/publications-data/data-covid-19-vaccination-eu-eea
Cyprus,2021-11-12,European Centre for Disease Prevention and Control (ECDC),https://www.ecdc.europa.eu/en/publications-data/data-covid-19-vaccination-eu-eea
Czechia,2021-11-12,European Centre for Disease Prevention and Control (ECDC),https://www.ecdc.europa.eu/en/publications-data/data-covid-19-vaccination-eu-eea
Denmark,2021-11-05,European Centre for Disease Prevention and Control (ECDC),https://www.ecdc.europa.eu/en/publications-data/data-covid-19-vaccination-eu-eea
Estonia,2021-11-12,European Centre for Disease Prevention and Control (ECDC),https://www.ecdc.europa.eu/en/publications-data/data-covid-19-vaccination-eu-eea
Finland,2021-11-12,European Centre for Disease Prevention and Control (ECDC),https://www.ecdc.europa.eu/en/publications-data/data-covid-19-vaccination-eu-eea
France,2021-11-05,European Centre for Disease Prevention and Control (ECDC),https://www.ecdc.europa.eu/en/publications-data/data-covid-19-vaccination-eu-eea
Hungary,2021-11-12,European Centre for Disease Prevention and Control (ECDC),https://www.ecdc.europa.eu/en/publications-data/data-covid-19-vaccination-eu-eea
Iceland,2021-11-05,European Centre for Disease Prevention and Control (ECDC),https://www.ecdc.europa.eu/en/publications-data/data-covid-19-vaccination-eu-eea
Ireland,2021-11-12,European Centre for Disease Prevention and Control (ECDC),https://www.ecdc.europa.eu/en/publications-data/data-covid-19-vaccination-eu-eea
Israel,2021-11-14,Ministry of Health via github.com/dancarmoz/israel_moh_covid_dashboard_data,https://github.com/dancarmoz/israel_moh_covid_dashboard_data/raw/master/vaccinated_by_age.csv
Italy,2021-11-12,European Centre for Disease Prevention and Control (ECDC),https://www.ecdc.europa.eu/en/publications-data/data-covid-19-vaccination-eu-eea
Jersey,2021-11-10,Government of Jersey,https://www.gov.je/Datasets/ListOpenData?ListName=COVID19Weekly&clean=true
Latvia,2021-11-05,European Centre for Disease Prevention and Control (ECDC),https://www.ecdc.europa.eu/en/publications-data/data-covid-19-vaccination-eu-eea
Liechtenstein,2021-11-14,Federal Office of Public Health,https://opendata.swiss/en/dataset/covid-19-schweiz
Lithuania,2021-10-29,European Centre for Disease Prevention and Control (ECDC),https://www.ecdc.europa.eu/en/publications-data/data-covid-19-vaccination-eu-eea
Luxembourg,2021-11-12,European Centre for Disease Prevention and Control (ECDC),https://www.ecdc.europa.eu/en/publications-data/data-covid-19-vaccination-eu-eea
Malta,2021-11-05,European Centre for Disease Prevention and Control (ECDC),https://www.ecdc.europa.eu/en/publications-data/data-covid-19-vaccination-eu-eea
Norway,2021-11-05,European Centre for Disease Prevention and Control (ECDC),https://www.ecdc.europa.eu/en/publications-data/data-covid-19-vaccination-eu-eea
Peru,2021-11-08,Ministerio de Salud via https://github.com/jmcastagnetto/covid-19-peru-vacunas,https://www.datosabiertos.gob.pe/dataset/vacunacion
Poland,2021-11-16,European Centre for Disease Prevention and Control (ECDC),https://www.ecdc.europa.eu/en/publications-data/data-covid-19-vaccination-eu-eea
Portugal,2021-11-12,European Centre for Disease Prevention and Control (ECDC),https://www.ecdc.europa.eu/en/publications-data/data-covid-19-vaccination-eu-eea
Romania,2021-11-05,European Centre for Disease Prevention and Control (ECDC),https://www.ecdc.europa.eu/en/publications-data/data-covid-19-vaccination-eu-eea
Slovakia,2021-11-12,European Centre for Disease Prevention and Control (ECDC),https://www.ecdc.europa.eu/en/publications-data/data-covid-19-vaccination-eu-eea
Slovenia,2021-11-05,European Centre for Disease Prevention and Control (ECDC),https://www.ecdc.europa.eu/en/publications-data/data-covid-19-vaccination-eu-eea
Spain,2021-11-12,European Centre for Disease Prevention and Control (ECDC),https://www.ecdc.europa.eu/en/publications-data/data-covid-19-vaccination-eu-eea
Sweden,2021-11-12,European Centre for Disease Prevention and Control (ECDC),https://www.ecdc.europa.eu/en/publications-data/data-covid-19-vaccination-eu-eea
Switzerland,2021-11-14,Federal Office of Public Health,https://opendata.swiss/en/dataset/covid-19-schweiz
Uruguay,2021-07-09,Ministry of Health via vacuna.uy,https://raw.githubusercontent.com/3dgiordano/covid-19-uy-vacc-data/main/data/Age.csv
