date,people_vaccinated,people_fully_vaccinated,vaccine,total_vaccinations,source_url,location
2020-12-02,0,0,Pfizer/BioNTech,0,https://www.fhi.no/sv/vaksine/koronavaksinasjonsprogrammet/koronavaksinasjonsstatistikk/,Norway
2020-12-03,0,0,Pfizer/BioNTech,0,https://www.fhi.no/sv/vaksine/koronavaksinasjonsprogrammet/koronavaksinasjonsstatistikk/,Norway
2020-12-04,0,0,Pfizer/BioNTech,0,https://www.fhi.no/sv/vaksine/koronavaksinasjonsprogrammet/koronavaksinasjonsstatistikk/,Norway
2020-12-05,0,0,Pfizer/BioNTech,0,https://www.fhi.no/sv/vaksine/koronavaksinasjonsprogrammet/koronavaksinasjonsstatistikk/,Norway
2020-12-06,0,0,Pfizer/BioNTech,0,https://www.fhi.no/sv/vaksine/koronavaksinasjonsprogrammet/koronavaksinasjonsstatistikk/,Norway
2020-12-07,0,0,Pfizer/BioNTech,0,https://www.fhi.no/sv/vaksine/koronavaksinasjonsprogrammet/koronavaksinasjonsstatistikk/,Norway
2020-12-08,0,0,Pfizer/BioNTech,0,https://www.fhi.no/sv/vaksine/koronavaksinasjonsprogrammet/koronavaksinasjonsstatistikk/,Norway
2020-12-09,0,0,Pfizer/BioNTech,0,https://www.fhi.no/sv/vaksine/koronavaksinasjonsprogrammet/koronavaksinasjonsstatistikk/,Norway
2020-12-10,0,0,Pfizer/BioNTech,0,https://www.fhi.no/sv/vaksine/koronavaksinasjonsprogrammet/koronavaksinasjonsstatistikk/,Norway
2020-12-11,0,0,Pfizer/BioNTech,0,https://www.fhi.no/sv/vaksine/koronavaksinasjonsprogrammet/koronavaksinasjonsstatistikk/,Norway
2020-12-12,0,0,Pfizer/BioNTech,0,https://www.fhi.no/sv/vaksine/koronavaksinasjonsprogrammet/koronavaksinasjonsstatistikk/,Norway
2020-12-13,0,0,Pfizer/BioNTech,0,https://www.fhi.no/sv/vaksine/koronavaksinasjonsprogrammet/koronavaksinasjonsstatistikk/,Norway
2020-12-14,0,0,Pfizer/BioNTech,0,https://www.fhi.no/sv/vaksine/koronavaksinasjonsprogrammet/koronavaksinasjonsstatistikk/,Norway
2020-12-15,0,0,Pfizer/BioNTech,0,https://www.fhi.no/sv/vaksine/koronavaksinasjonsprogrammet/koronavaksinasjonsstatistikk/,Norway
2020-12-16,0,0,Pfizer/BioNTech,0,https://www.fhi.no/sv/vaksine/koronavaksinasjonsprogrammet/koronavaksinasjonsstatistikk/,Norway
2020-12-17,6,0,Pfizer/BioNTech,6,https://www.fhi.no/sv/vaksine/koronavaksinasjonsprogrammet/koronavaksinasjonsstatistikk/,Norway
2020-12-18,20,0,Pfizer/BioNTech,20,https://www.fhi.no/sv/vaksine/koronavaksinasjonsprogrammet/koronavaksinasjonsstatistikk/,Norway
2020-12-19,25,0,Pfizer/BioNTech,25,https://www.fhi.no/sv/vaksine/koronavaksinasjonsprogrammet/koronavaksinasjonsstatistikk/,Norway
2020-12-20,32,0,Pfizer/BioNTech,32,https://www.fhi.no/sv/vaksine/koronavaksinasjonsprogrammet/koronavaksinasjonsstatistikk/,Norway
2020-12-21,44,0,Pfizer/BioNTech,44,https://www.fhi.no/sv/vaksine/koronavaksinasjonsprogrammet/koronavaksinasjonsstatistikk/,Norway
2020-12-22,57,0,Pfizer/BioNTech,57,https://www.fhi.no/sv/vaksine/koronavaksinasjonsprogrammet/koronavaksinasjonsstatistikk/,Norway
2020-12-23,72,0,Pfizer/BioNTech,72,https://www.fhi.no/sv/vaksine/koronavaksinasjonsprogrammet/koronavaksinasjonsstatistikk/,Norway
2020-12-24,84,0,Pfizer/BioNTech,84,https://www.fhi.no/sv/vaksine/koronavaksinasjonsprogrammet/koronavaksinasjonsstatistikk/,Norway
2020-12-25,84,0,Pfizer/BioNTech,84,https://www.fhi.no/sv/vaksine/koronavaksinasjonsprogrammet/koronavaksinasjonsstatistikk/,Norway
2020-12-26,92,0,Pfizer/BioNTech,92,https://www.fhi.no/sv/vaksine/koronavaksinasjonsprogrammet/koronavaksinasjonsstatistikk/,Norway
2020-12-27,108,0,Pfizer/BioNTech,108,https://www.fhi.no/sv/vaksine/koronavaksinasjonsprogrammet/koronavaksinasjonsstatistikk/,Norway
2020-12-28,732,0,Pfizer/BioNTech,732,https://www.fhi.no/sv/vaksine/koronavaksinasjonsprogrammet/koronavaksinasjonsstatistikk/,Norway
2020-12-29,1818,0,Pfizer/BioNTech,1818,https://www.fhi.no/sv/vaksine/koronavaksinasjonsprogrammet/koronavaksinasjonsstatistikk/,Norway
2020-12-30,2281,0,Pfizer/BioNTech,2281,https://www.fhi.no/sv/vaksine/koronavaksinasjonsprogrammet/koronavaksinasjonsstatistikk/,Norway
2020-12-31,2367,0,Pfizer/BioNTech,2367,https://www.fhi.no/sv/vaksine/koronavaksinasjonsprogrammet/koronavaksinasjonsstatistikk/,Norway
2021-01-01,2391,0,Pfizer/BioNTech,2391,https://www.fhi.no/sv/vaksine/koronavaksinasjonsprogrammet/koronavaksinasjonsstatistikk/,Norway
2021-01-02,2407,0,Pfizer/BioNTech,2407,https://www.fhi.no/sv/vaksine/koronavaksinasjonsprogrammet/koronavaksinasjonsstatistikk/,Norway
2021-01-03,2443,0,Pfizer/BioNTech,2443,https://www.fhi.no/sv/vaksine/koronavaksinasjonsprogrammet/koronavaksinasjonsstatistikk/,Norway
2021-01-04,2472,0,Pfizer/BioNTech,2472,https://www.fhi.no/sv/vaksine/koronavaksinasjonsprogrammet/koronavaksinasjonsstatistikk/,Norway
2021-01-05,5903,0,Pfizer/BioNTech,5903,https://www.fhi.no/sv/vaksine/koronavaksinasjonsprogrammet/koronavaksinasjonsstatistikk/,Norway
2021-01-06,15032,7,Pfizer/BioNTech,15039,https://www.fhi.no/sv/vaksine/koronavaksinasjonsprogrammet/koronavaksinasjonsstatistikk/,Norway
2021-01-07,21639,7,Pfizer/BioNTech,21646,https://www.fhi.no/sv/vaksine/koronavaksinasjonsprogrammet/koronavaksinasjonsstatistikk/,Norway
2021-01-08,23292,16,Pfizer/BioNTech,23308,https://www.fhi.no/sv/vaksine/koronavaksinasjonsprogrammet/koronavaksinasjonsstatistikk/,Norway
2021-01-09,23462,16,Pfizer/BioNTech,23478,https://www.fhi.no/sv/vaksine/koronavaksinasjonsprogrammet/koronavaksinasjonsstatistikk/,Norway
2021-01-10,23597,22,Pfizer/BioNTech,23619,https://www.fhi.no/sv/vaksine/koronavaksinasjonsprogrammet/koronavaksinasjonsstatistikk/,Norway
2021-01-11,24010,31,Pfizer/BioNTech,24041,https://www.fhi.no/sv/vaksine/koronavaksinasjonsprogrammet/koronavaksinasjonsstatistikk/,Norway
2021-01-12,28360,40,Pfizer/BioNTech,28400,https://www.fhi.no/sv/vaksine/koronavaksinasjonsprogrammet/koronavaksinasjonsstatistikk/,Norway
2021-01-13,38297,49,Pfizer/BioNTech,38346,https://www.fhi.no/sv/vaksine/koronavaksinasjonsprogrammet/koronavaksinasjonsstatistikk/,Norway
2021-01-14,46877,59,Pfizer/BioNTech,46936,https://www.fhi.no/sv/vaksine/koronavaksinasjonsprogrammet/koronavaksinasjonsstatistikk/,Norway
2021-01-15,51478,59,"Moderna, Pfizer/BioNTech",51537,https://www.fhi.no/sv/vaksine/koronavaksinasjonsprogrammet/koronavaksinasjonsstatistikk/,Norway
2021-01-16,52316,59,"Moderna, Pfizer/BioNTech",52375,https://www.fhi.no/sv/vaksine/koronavaksinasjonsprogrammet/koronavaksinasjonsstatistikk/,Norway
2021-01-17,52696,67,"Moderna, Pfizer/BioNTech",52763,https://www.fhi.no/sv/vaksine/koronavaksinasjonsprogrammet/koronavaksinasjonsstatistikk/,Norway
2021-01-18,54013,374,"Moderna, Pfizer/BioNTech",54387,https://www.fhi.no/sv/vaksine/koronavaksinasjonsprogrammet/koronavaksinasjonsstatistikk/,Norway
2021-01-19,58660,1208,"Moderna, Pfizer/BioNTech",59868,https://www.fhi.no/sv/vaksine/koronavaksinasjonsprogrammet/koronavaksinasjonsstatistikk/,Norway
2021-01-20,68806,1917,"Moderna, Pfizer/BioNTech",70723,https://www.fhi.no/sv/vaksine/koronavaksinasjonsprogrammet/koronavaksinasjonsstatistikk/,Norway
2021-01-21,77394,2095,"Moderna, Pfizer/BioNTech",79489,https://www.fhi.no/sv/vaksine/koronavaksinasjonsprogrammet/koronavaksinasjonsstatistikk/,Norway
2021-01-22,80814,2114,"Moderna, Pfizer/BioNTech",82928,https://www.fhi.no/sv/vaksine/koronavaksinasjonsprogrammet/koronavaksinasjonsstatistikk/,Norway
2021-01-23,81224,2123,"Moderna, Pfizer/BioNTech",83347,https://www.fhi.no/sv/vaksine/koronavaksinasjonsprogrammet/koronavaksinasjonsstatistikk/,Norway
2021-01-24,81313,2132,"Moderna, Pfizer/BioNTech",83445,https://www.fhi.no/sv/vaksine/koronavaksinasjonsprogrammet/koronavaksinasjonsstatistikk/,Norway
2021-01-25,81912,2151,"Moderna, Pfizer/BioNTech",84063,https://www.fhi.no/sv/vaksine/koronavaksinasjonsprogrammet/koronavaksinasjonsstatistikk/,Norway
2021-01-26,84268,4555,"Moderna, Pfizer/BioNTech",88823,https://www.fhi.no/sv/vaksine/koronavaksinasjonsprogrammet/koronavaksinasjonsstatistikk/,Norway
2021-01-27,95941,12400,"Moderna, Pfizer/BioNTech",108341,https://www.fhi.no/sv/vaksine/koronavaksinasjonsprogrammet/koronavaksinasjonsstatistikk/,Norway
2021-01-28,106962,19093,"Moderna, Pfizer/BioNTech",126055,https://www.fhi.no/sv/vaksine/koronavaksinasjonsprogrammet/koronavaksinasjonsstatistikk/,Norway
2021-01-29,110877,21230,"Moderna, Pfizer/BioNTech",132107,https://www.fhi.no/sv/vaksine/koronavaksinasjonsprogrammet/koronavaksinasjonsstatistikk/,Norway
2021-01-30,111079,21455,"Moderna, Pfizer/BioNTech",132534,https://www.fhi.no/sv/vaksine/koronavaksinasjonsprogrammet/koronavaksinasjonsstatistikk/,Norway
2021-01-31,111257,21523,"Moderna, Pfizer/BioNTech",132780,https://www.fhi.no/sv/vaksine/koronavaksinasjonsprogrammet/koronavaksinasjonsstatistikk/,Norway
2021-02-01,111504,21882,"Moderna, Pfizer/BioNTech",133386,https://www.fhi.no/sv/vaksine/koronavaksinasjonsprogrammet/koronavaksinasjonsstatistikk/,Norway
2021-02-02,117924,25231,"Moderna, Pfizer/BioNTech",143155,https://www.fhi.no/sv/vaksine/koronavaksinasjonsprogrammet/koronavaksinasjonsstatistikk/,Norway
2021-02-03,143294,34064,"Moderna, Pfizer/BioNTech",177358,https://www.fhi.no/sv/vaksine/koronavaksinasjonsprogrammet/koronavaksinasjonsstatistikk/,Norway
2021-02-04,169538,42996,"Moderna, Pfizer/BioNTech",212534,https://www.fhi.no/sv/vaksine/koronavaksinasjonsprogrammet/koronavaksinasjonsstatistikk/,Norway
2021-02-05,180372,48051,"Moderna, Pfizer/BioNTech",228423,https://www.fhi.no/sv/vaksine/koronavaksinasjonsprogrammet/koronavaksinasjonsstatistikk/,Norway
2021-02-06,181233,48835,"Moderna, Pfizer/BioNTech",230068,https://www.fhi.no/sv/vaksine/koronavaksinasjonsprogrammet/koronavaksinasjonsstatistikk/,Norway
2021-02-07,181579,49178,"Moderna, Pfizer/BioNTech",230757,https://www.fhi.no/sv/vaksine/koronavaksinasjonsprogrammet/koronavaksinasjonsstatistikk/,Norway
2021-02-08,181710,50145,"Moderna, Pfizer/BioNTech",231855,https://www.fhi.no/sv/vaksine/koronavaksinasjonsprogrammet/koronavaksinasjonsstatistikk/,Norway
2021-02-09,187380,53583,"Moderna, Pfizer/BioNTech",240963,https://www.fhi.no/sv/vaksine/koronavaksinasjonsprogrammet/koronavaksinasjonsstatistikk/,Norway
2021-02-10,210606,62688,"Moderna, Oxford/AstraZeneca, Pfizer/BioNTech",273294,https://www.fhi.no/sv/vaksine/koronavaksinasjonsprogrammet/koronavaksinasjonsstatistikk/,Norway
2021-02-11,231793,71611,"Moderna, Oxford/AstraZeneca, Pfizer/BioNTech",303404,https://www.fhi.no/sv/vaksine/koronavaksinasjonsprogrammet/koronavaksinasjonsstatistikk/,Norway
2021-02-12,240004,75359,"Moderna, Oxford/AstraZeneca, Pfizer/BioNTech",315363,https://www.fhi.no/sv/vaksine/koronavaksinasjonsprogrammet/koronavaksinasjonsstatistikk/,Norway
2021-02-13,240959,75704,"Moderna, Oxford/AstraZeneca, Pfizer/BioNTech",316663,https://www.fhi.no/sv/vaksine/koronavaksinasjonsprogrammet/koronavaksinasjonsstatistikk/,Norway
2021-02-14,241100,75720,"Moderna, Oxford/AstraZeneca, Pfizer/BioNTech",316820,https://www.fhi.no/sv/vaksine/koronavaksinasjonsprogrammet/koronavaksinasjonsstatistikk/,Norway
2021-02-15,241968,76506,"Moderna, Oxford/AstraZeneca, Pfizer/BioNTech",318474,https://www.fhi.no/sv/vaksine/koronavaksinasjonsprogrammet/koronavaksinasjonsstatistikk/,Norway
2021-02-16,248177,78819,"Moderna, Oxford/AstraZeneca, Pfizer/BioNTech",326996,https://www.fhi.no/sv/vaksine/koronavaksinasjonsprogrammet/koronavaksinasjonsstatistikk/,Norway
2021-02-17,270117,89584,"Moderna, Oxford/AstraZeneca, Pfizer/BioNTech",359701,https://www.fhi.no/sv/vaksine/koronavaksinasjonsprogrammet/koronavaksinasjonsstatistikk/,Norway
2021-02-18,289230,100767,"Moderna, Oxford/AstraZeneca, Pfizer/BioNTech",389997,https://www.fhi.no/sv/vaksine/koronavaksinasjonsprogrammet/koronavaksinasjonsstatistikk/,Norway
2021-02-19,300088,105718,"Moderna, Oxford/AstraZeneca, Pfizer/BioNTech",405806,https://www.fhi.no/sv/vaksine/koronavaksinasjonsprogrammet/koronavaksinasjonsstatistikk/,Norway
2021-02-20,300653,105942,"Moderna, Oxford/AstraZeneca, Pfizer/BioNTech",406595,https://www.fhi.no/sv/vaksine/koronavaksinasjonsprogrammet/koronavaksinasjonsstatistikk/,Norway
2021-02-21,300743,106114,"Moderna, Oxford/AstraZeneca, Pfizer/BioNTech",406857,https://www.fhi.no/sv/vaksine/koronavaksinasjonsprogrammet/koronavaksinasjonsstatistikk/,Norway
2021-02-22,303369,106304,"Moderna, Oxford/AstraZeneca, Pfizer/BioNTech",409673,https://www.fhi.no/sv/vaksine/koronavaksinasjonsprogrammet/koronavaksinasjonsstatistikk/,Norway
2021-02-23,309445,111742,"Moderna, Oxford/AstraZeneca, Pfizer/BioNTech",421187,https://www.fhi.no/sv/vaksine/koronavaksinasjonsprogrammet/koronavaksinasjonsstatistikk/,Norway
2021-02-24,320691,134976,"Moderna, Oxford/AstraZeneca, Pfizer/BioNTech",455667,https://www.fhi.no/sv/vaksine/koronavaksinasjonsprogrammet/koronavaksinasjonsstatistikk/,Norway
2021-02-25,331942,161797,"Moderna, Oxford/AstraZeneca, Pfizer/BioNTech",493739,https://www.fhi.no/sv/vaksine/koronavaksinasjonsprogrammet/koronavaksinasjonsstatistikk/,Norway
2021-02-26,340396,172084,"Moderna, Oxford/AstraZeneca, Pfizer/BioNTech",512480,https://www.fhi.no/sv/vaksine/koronavaksinasjonsprogrammet/koronavaksinasjonsstatistikk/,Norway
2021-02-27,340898,172377,"Moderna, Oxford/AstraZeneca, Pfizer/BioNTech",513275,https://www.fhi.no/sv/vaksine/koronavaksinasjonsprogrammet/koronavaksinasjonsstatistikk/,Norway
2021-02-28,341454,172560,"Moderna, Oxford/AstraZeneca, Pfizer/BioNTech",514014,https://www.fhi.no/sv/vaksine/koronavaksinasjonsprogrammet/koronavaksinasjonsstatistikk/,Norway
2021-03-01,347559,172664,"Moderna, Oxford/AstraZeneca, Pfizer/BioNTech",520223,https://www.fhi.no/sv/vaksine/koronavaksinasjonsprogrammet/koronavaksinasjonsstatistikk/,Norway
2021-03-02,358339,176668,"Moderna, Oxford/AstraZeneca, Pfizer/BioNTech",535007,https://www.fhi.no/sv/vaksine/koronavaksinasjonsprogrammet/koronavaksinasjonsstatistikk/,Norway
2021-03-03,376422,195496,"Moderna, Oxford/AstraZeneca, Pfizer/BioNTech",571918,https://www.fhi.no/sv/vaksine/koronavaksinasjonsprogrammet/koronavaksinasjonsstatistikk/,Norway
2021-03-04,392863,214556,"Moderna, Oxford/AstraZeneca, Pfizer/BioNTech",607419,https://www.fhi.no/sv/vaksine/koronavaksinasjonsprogrammet/koronavaksinasjonsstatistikk/,Norway
2021-03-05,404968,221388,"Moderna, Oxford/AstraZeneca, Pfizer/BioNTech",626356,https://www.fhi.no/sv/vaksine/koronavaksinasjonsprogrammet/koronavaksinasjonsstatistikk/,Norway
2021-03-06,405466,221919,"Moderna, Oxford/AstraZeneca, Pfizer/BioNTech",627385,https://www.fhi.no/sv/vaksine/koronavaksinasjonsprogrammet/koronavaksinasjonsstatistikk/,Norway
2021-03-07,405654,221938,"Moderna, Oxford/AstraZeneca, Pfizer/BioNTech",627592,https://www.fhi.no/sv/vaksine/koronavaksinasjonsprogrammet/koronavaksinasjonsstatistikk/,Norway
2021-03-08,410825,222012,"Moderna, Oxford/AstraZeneca, Pfizer/BioNTech",632837,https://www.fhi.no/sv/vaksine/koronavaksinasjonsprogrammet/koronavaksinasjonsstatistikk/,Norway
2021-03-09,423697,226423,"Moderna, Oxford/AstraZeneca, Pfizer/BioNTech",650120,https://www.fhi.no/sv/vaksine/koronavaksinasjonsprogrammet/koronavaksinasjonsstatistikk/,Norway
2021-03-10,445173,244340,"Moderna, Oxford/AstraZeneca, Pfizer/BioNTech",689513,https://www.fhi.no/sv/vaksine/koronavaksinasjonsprogrammet/koronavaksinasjonsstatistikk/,Norway
2021-03-11,457280,261730,"Moderna, Pfizer/BioNTech",719010,https://www.fhi.no/sv/vaksine/koronavaksinasjonsprogrammet/koronavaksinasjonsstatistikk/,Norway
2021-03-12,459729,270367,"Moderna, Pfizer/BioNTech",730096,https://www.fhi.no/sv/vaksine/koronavaksinasjonsprogrammet/koronavaksinasjonsstatistikk/,Norway
2021-03-13,459879,270713,"Moderna, Pfizer/BioNTech",730592,https://www.fhi.no/sv/vaksine/koronavaksinasjonsprogrammet/koronavaksinasjonsstatistikk/,Norway
2021-03-14,459943,270855,"Moderna, Pfizer/BioNTech",730798,https://www.fhi.no/sv/vaksine/koronavaksinasjonsprogrammet/koronavaksinasjonsstatistikk/,Norway
2021-03-15,460133,271331,"Moderna, Pfizer/BioNTech",731464,https://www.fhi.no/sv/vaksine/koronavaksinasjonsprogrammet/koronavaksinasjonsstatistikk/,Norway
2021-03-16,466107,272117,"Moderna, Pfizer/BioNTech",738224,https://www.fhi.no/sv/vaksine/koronavaksinasjonsprogrammet/koronavaksinasjonsstatistikk/,Norway
2021-03-17,489695,274080,"Moderna, Pfizer/BioNTech",763775,https://www.fhi.no/sv/vaksine/koronavaksinasjonsprogrammet/koronavaksinasjonsstatistikk/,Norway
2021-03-18,511127,275713,"Moderna, Pfizer/BioNTech",786840,https://www.fhi.no/sv/vaksine/koronavaksinasjonsprogrammet/koronavaksinasjonsstatistikk/,Norway
2021-03-19,518184,276789,"Moderna, Pfizer/BioNTech",794973,https://www.fhi.no/sv/vaksine/koronavaksinasjonsprogrammet/koronavaksinasjonsstatistikk/,Norway
2021-03-20,518811,276841,"Moderna, Pfizer/BioNTech",795652,https://www.fhi.no/sv/vaksine/koronavaksinasjonsprogrammet/koronavaksinasjonsstatistikk/,Norway
2021-03-21,519088,276922,"Moderna, Pfizer/BioNTech",796010,https://www.fhi.no/sv/vaksine/koronavaksinasjonsprogrammet/koronavaksinasjonsstatistikk/,Norway
2021-03-22,520770,277046,"Moderna, Pfizer/BioNTech",797816,https://www.fhi.no/sv/vaksine/koronavaksinasjonsprogrammet/koronavaksinasjonsstatistikk/,Norway
2021-03-23,534197,278116,"Moderna, Pfizer/BioNTech",812313,https://www.fhi.no/sv/vaksine/koronavaksinasjonsprogrammet/koronavaksinasjonsstatistikk/,Norway
2021-03-24,573893,282099,"Moderna, Pfizer/BioNTech",855992,https://www.fhi.no/sv/vaksine/koronavaksinasjonsprogrammet/koronavaksinasjonsstatistikk/,Norway
2021-03-25,613171,284750,"Moderna, Pfizer/BioNTech",897921,https://www.fhi.no/sv/vaksine/koronavaksinasjonsprogrammet/koronavaksinasjonsstatistikk/,Norway
2021-03-26,630857,286032,"Moderna, Pfizer/BioNTech",916889,https://www.fhi.no/sv/vaksine/koronavaksinasjonsprogrammet/koronavaksinasjonsstatistikk/,Norway
2021-03-27,631721,286079,"Moderna, Pfizer/BioNTech",917800,https://www.fhi.no/sv/vaksine/koronavaksinasjonsprogrammet/koronavaksinasjonsstatistikk/,Norway
2021-03-28,632133,286117,"Moderna, Pfizer/BioNTech",918250,https://www.fhi.no/sv/vaksine/koronavaksinasjonsprogrammet/koronavaksinasjonsstatistikk/,Norway
2021-03-29,637084,286289,"Moderna, Pfizer/BioNTech",923373,https://www.fhi.no/sv/vaksine/koronavaksinasjonsprogrammet/koronavaksinasjonsstatistikk/,Norway
2021-03-30,669852,290806,"Moderna, Pfizer/BioNTech",960658,https://www.fhi.no/sv/vaksine/koronavaksinasjonsprogrammet/koronavaksinasjonsstatistikk/,Norway
2021-03-31,707301,298796,"Moderna, Pfizer/BioNTech",1006097,https://www.fhi.no/sv/vaksine/koronavaksinasjonsprogrammet/koronavaksinasjonsstatistikk/,Norway
2021-04-01,717035,300386,"Moderna, Pfizer/BioNTech",1017421,https://www.fhi.no/sv/vaksine/koronavaksinasjonsprogrammet/koronavaksinasjonsstatistikk/,Norway
2021-04-02,721537,301169,"Moderna, Pfizer/BioNTech",1022706,https://www.fhi.no/sv/vaksine/koronavaksinasjonsprogrammet/koronavaksinasjonsstatistikk/,Norway
2021-04-03,721917,301221,"Moderna, Pfizer/BioNTech",1023138,https://www.fhi.no/sv/vaksine/koronavaksinasjonsprogrammet/koronavaksinasjonsstatistikk/,Norway
2021-04-04,722382,301291,"Moderna, Pfizer/BioNTech",1023673,https://www.fhi.no/sv/vaksine/koronavaksinasjonsprogrammet/koronavaksinasjonsstatistikk/,Norway
2021-04-05,723912,301441,"Moderna, Pfizer/BioNTech",1025353,https://www.fhi.no/sv/vaksine/koronavaksinasjonsprogrammet/koronavaksinasjonsstatistikk/,Norway
2021-04-06,742991,304203,"Moderna, Pfizer/BioNTech",1047194,https://www.fhi.no/sv/vaksine/koronavaksinasjonsprogrammet/koronavaksinasjonsstatistikk/,Norway
2021-04-07,802555,308052,"Moderna, Pfizer/BioNTech",1110607,https://www.fhi.no/sv/vaksine/koronavaksinasjonsprogrammet/koronavaksinasjonsstatistikk/,Norway
2021-04-08,860677,312439,"Moderna, Pfizer/BioNTech",1173116,https://www.fhi.no/sv/vaksine/koronavaksinasjonsprogrammet/koronavaksinasjonsstatistikk/,Norway
2021-04-09,888522,313202,"Moderna, Pfizer/BioNTech",1201724,https://www.fhi.no/sv/vaksine/koronavaksinasjonsprogrammet/koronavaksinasjonsstatistikk/,Norway
2021-04-10,889744,313311,"Moderna, Pfizer/BioNTech",1203055,https://www.fhi.no/sv/vaksine/koronavaksinasjonsprogrammet/koronavaksinasjonsstatistikk/,Norway
2021-04-11,890383,313371,"Moderna, Pfizer/BioNTech",1203754,https://www.fhi.no/sv/vaksine/koronavaksinasjonsprogrammet/koronavaksinasjonsstatistikk/,Norway
2021-04-12,894253,313543,"Moderna, Pfizer/BioNTech",1207796,https://www.fhi.no/sv/vaksine/koronavaksinasjonsprogrammet/koronavaksinasjonsstatistikk/,Norway
2021-04-13,920229,314055,"Moderna, Pfizer/BioNTech",1234284,https://www.fhi.no/sv/vaksine/koronavaksinasjonsprogrammet/koronavaksinasjonsstatistikk/,Norway
2021-04-14,988295,315638,"Moderna, Pfizer/BioNTech",1303933,https://www.fhi.no/sv/vaksine/koronavaksinasjonsprogrammet/koronavaksinasjonsstatistikk/,Norway
2021-04-15,1054377,317001,"Moderna, Pfizer/BioNTech",1371378,https://www.fhi.no/sv/vaksine/koronavaksinasjonsprogrammet/koronavaksinasjonsstatistikk/,Norway
2021-04-16,1083782,317988,"Moderna, Pfizer/BioNTech",1401770,https://www.fhi.no/sv/vaksine/koronavaksinasjonsprogrammet/koronavaksinasjonsstatistikk/,Norway
2021-04-17,1085912,318215,"Moderna, Pfizer/BioNTech",1404127,https://www.fhi.no/sv/vaksine/koronavaksinasjonsprogrammet/koronavaksinasjonsstatistikk/,Norway
2021-04-18,1087281,318273,"Moderna, Pfizer/BioNTech",1405554,https://www.fhi.no/sv/vaksine/koronavaksinasjonsprogrammet/koronavaksinasjonsstatistikk/,Norway
2021-04-19,1093901,318543,"Moderna, Pfizer/BioNTech",1412444,https://www.fhi.no/sv/vaksine/koronavaksinasjonsprogrammet/koronavaksinasjonsstatistikk/,Norway
2021-04-20,1113816,319512,"Moderna, Pfizer/BioNTech",1433328,https://www.fhi.no/sv/vaksine/koronavaksinasjonsprogrammet/koronavaksinasjonsstatistikk/,Norway
2021-04-21,1173644,322644,"Moderna, Pfizer/BioNTech",1496288,https://www.fhi.no/sv/vaksine/koronavaksinasjonsprogrammet/koronavaksinasjonsstatistikk/,Norway
2021-04-22,1225250,325285,"Moderna, Pfizer/BioNTech",1550535,https://www.fhi.no/sv/vaksine/koronavaksinasjonsprogrammet/koronavaksinasjonsstatistikk/,Norway
2021-04-23,1243886,326758,"Moderna, Pfizer/BioNTech",1570644,https://www.fhi.no/sv/vaksine/koronavaksinasjonsprogrammet/koronavaksinasjonsstatistikk/,Norway
2021-04-24,1244378,326893,"Moderna, Pfizer/BioNTech",1571271,https://www.fhi.no/sv/vaksine/koronavaksinasjonsprogrammet/koronavaksinasjonsstatistikk/,Norway
2021-04-25,1244742,326945,"Moderna, Pfizer/BioNTech",1571687,https://www.fhi.no/sv/vaksine/koronavaksinasjonsprogrammet/koronavaksinasjonsstatistikk/,Norway
2021-04-26,1247201,327570,"Moderna, Pfizer/BioNTech",1574771,https://www.fhi.no/sv/vaksine/koronavaksinasjonsprogrammet/koronavaksinasjonsstatistikk/,Norway
2021-04-27,1266861,333780,"Moderna, Pfizer/BioNTech",1600641,https://www.fhi.no/sv/vaksine/koronavaksinasjonsprogrammet/koronavaksinasjonsstatistikk/,Norway
2021-04-28,1325927,358971,"Moderna, Pfizer/BioNTech",1684898,https://www.fhi.no/sv/vaksine/koronavaksinasjonsprogrammet/koronavaksinasjonsstatistikk/,Norway
2021-04-29,1380515,380324,"Moderna, Pfizer/BioNTech",1760839,https://www.fhi.no/sv/vaksine/koronavaksinasjonsprogrammet/koronavaksinasjonsstatistikk/,Norway
2021-04-30,1406299,388729,"Moderna, Pfizer/BioNTech",1795028,https://www.fhi.no/sv/vaksine/koronavaksinasjonsprogrammet/koronavaksinasjonsstatistikk/,Norway
2021-05-01,1407889,389122,"Moderna, Pfizer/BioNTech",1797011,https://www.fhi.no/sv/vaksine/koronavaksinasjonsprogrammet/koronavaksinasjonsstatistikk/,Norway
2021-05-02,1408977,389437,"Moderna, Pfizer/BioNTech",1798414,https://www.fhi.no/sv/vaksine/koronavaksinasjonsprogrammet/koronavaksinasjonsstatistikk/,Norway
2021-05-03,1412173,390982,"Moderna, Pfizer/BioNTech",1803155,https://www.fhi.no/sv/vaksine/koronavaksinasjonsprogrammet/koronavaksinasjonsstatistikk/,Norway
2021-05-04,1422514,403340,"Moderna, Pfizer/BioNTech",1825854,https://www.fhi.no/sv/vaksine/koronavaksinasjonsprogrammet/koronavaksinasjonsstatistikk/,Norway
2021-05-05,1463387,442425,"Moderna, Pfizer/BioNTech",1905812,https://www.fhi.no/sv/vaksine/koronavaksinasjonsprogrammet/koronavaksinasjonsstatistikk/,Norway
2021-05-06,1498678,478776,"Moderna, Pfizer/BioNTech",1977454,https://www.fhi.no/sv/vaksine/koronavaksinasjonsprogrammet/koronavaksinasjonsstatistikk/,Norway
2021-05-07,1514201,495236,"Moderna, Pfizer/BioNTech",2009437,https://www.fhi.no/sv/vaksine/koronavaksinasjonsprogrammet/koronavaksinasjonsstatistikk/,Norway
2021-05-08,1514804,495900,"Moderna, Pfizer/BioNTech",2010704,https://www.fhi.no/sv/vaksine/koronavaksinasjonsprogrammet/koronavaksinasjonsstatistikk/,Norway
2021-05-09,1515110,496311,"Moderna, Pfizer/BioNTech",2011421,https://www.fhi.no/sv/vaksine/koronavaksinasjonsprogrammet/koronavaksinasjonsstatistikk/,Norway
2021-05-10,1517574,502908,"Moderna, Pfizer/BioNTech",2020482,https://www.fhi.no/sv/vaksine/koronavaksinasjonsprogrammet/koronavaksinasjonsstatistikk/,Norway
2021-05-11,1535675,534819,"Moderna, Pfizer/BioNTech",2070494,https://www.fhi.no/sv/vaksine/koronavaksinasjonsprogrammet/koronavaksinasjonsstatistikk/,Norway
2021-05-12,1578042,588695,"Moderna, Pfizer/BioNTech",2166737,https://www.fhi.no/sv/vaksine/koronavaksinasjonsprogrammet/koronavaksinasjonsstatistikk/,Norway
2021-05-13,1590946,597563,"Moderna, Pfizer/BioNTech",2188509,https://www.fhi.no/sv/vaksine/koronavaksinasjonsprogrammet/koronavaksinasjonsstatistikk/,Norway
2021-05-14,1602215,606035,"Moderna, Pfizer/BioNTech",2208250,https://www.fhi.no/sv/vaksine/koronavaksinasjonsprogrammet/koronavaksinasjonsstatistikk/,Norway
2021-05-15,1604256,606875,"Moderna, Pfizer/BioNTech",2211131,https://www.fhi.no/sv/vaksine/koronavaksinasjonsprogrammet/koronavaksinasjonsstatistikk/,Norway
2021-05-16,1605587,607975,"Moderna, Pfizer/BioNTech",2213562,https://www.fhi.no/sv/vaksine/koronavaksinasjonsprogrammet/koronavaksinasjonsstatistikk/,Norway
2021-05-17,1605871,608450,"Moderna, Pfizer/BioNTech",2214321,https://www.fhi.no/sv/vaksine/koronavaksinasjonsprogrammet/koronavaksinasjonsstatistikk/,Norway
2021-05-18,1610499,632396,"Moderna, Pfizer/BioNTech",2242895,https://www.fhi.no/sv/vaksine/koronavaksinasjonsprogrammet/koronavaksinasjonsstatistikk/,Norway
2021-05-19,1618759,705185,"Moderna, Pfizer/BioNTech",2323944,https://www.fhi.no/sv/vaksine/koronavaksinasjonsprogrammet/koronavaksinasjonsstatistikk/,Norway
2021-05-20,1627582,774408,"Moderna, Pfizer/BioNTech",2401990,https://www.fhi.no/sv/vaksine/koronavaksinasjonsprogrammet/koronavaksinasjonsstatistikk/,Norway
2021-05-21,1632676,805826,"Moderna, Pfizer/BioNTech",2438502,https://www.fhi.no/sv/vaksine/koronavaksinasjonsprogrammet/koronavaksinasjonsstatistikk/,Norway
2021-05-22,1634068,806918,"Moderna, Pfizer/BioNTech",2440986,https://www.fhi.no/sv/vaksine/koronavaksinasjonsprogrammet/koronavaksinasjonsstatistikk/,Norway
2021-05-23,1634950,807353,"Moderna, Pfizer/BioNTech",2442303,https://www.fhi.no/sv/vaksine/koronavaksinasjonsprogrammet/koronavaksinasjonsstatistikk/,Norway
2021-05-24,1635866,809963,"Moderna, Pfizer/BioNTech",2445829,https://www.fhi.no/sv/vaksine/koronavaksinasjonsprogrammet/koronavaksinasjonsstatistikk/,Norway
2021-05-25,1640039,839319,"Moderna, Pfizer/BioNTech",2479358,https://www.fhi.no/sv/vaksine/koronavaksinasjonsprogrammet/koronavaksinasjonsstatistikk/,Norway
2021-05-26,1649846,923733,"Moderna, Pfizer/BioNTech",2573579,https://www.fhi.no/sv/vaksine/koronavaksinasjonsprogrammet/koronavaksinasjonsstatistikk/,Norway
2021-05-27,1659426,998212,"Moderna, Pfizer/BioNTech",2657638,https://www.fhi.no/sv/vaksine/koronavaksinasjonsprogrammet/koronavaksinasjonsstatistikk/,Norway
2021-05-28,1664545,1030457,"Moderna, Pfizer/BioNTech",2695002,https://www.fhi.no/sv/vaksine/koronavaksinasjonsprogrammet/koronavaksinasjonsstatistikk/,Norway
2021-05-29,1665270,1032630,"Moderna, Pfizer/BioNTech",2697900,https://www.fhi.no/sv/vaksine/koronavaksinasjonsprogrammet/koronavaksinasjonsstatistikk/,Norway
2021-05-30,1665466,1034272,"Moderna, Pfizer/BioNTech",2699738,https://www.fhi.no/sv/vaksine/koronavaksinasjonsprogrammet/koronavaksinasjonsstatistikk/,Norway
2021-05-31,1668708,1040958,"Moderna, Pfizer/BioNTech",2709666,https://www.fhi.no/sv/vaksine/koronavaksinasjonsprogrammet/koronavaksinasjonsstatistikk/,Norway
2021-06-01,1687689,1064276,"Moderna, Pfizer/BioNTech",2751965,https://www.fhi.no/sv/vaksine/koronavaksinasjonsprogrammet/koronavaksinasjonsstatistikk/,Norway
2021-06-02,1741022,1134938,"Moderna, Pfizer/BioNTech",2875960,https://www.fhi.no/sv/vaksine/koronavaksinasjonsprogrammet/koronavaksinasjonsstatistikk/,Norway
2021-06-03,1796441,1193893,"Moderna, Pfizer/BioNTech",2990334,https://www.fhi.no/sv/vaksine/koronavaksinasjonsprogrammet/koronavaksinasjonsstatistikk/,Norway
2021-06-04,1828183,1213760,"Moderna, Pfizer/BioNTech",3041943,https://www.fhi.no/sv/vaksine/koronavaksinasjonsprogrammet/koronavaksinasjonsstatistikk/,Norway
2021-06-05,1832000,1214530,"Moderna, Pfizer/BioNTech",3046530,https://www.fhi.no/sv/vaksine/koronavaksinasjonsprogrammet/koronavaksinasjonsstatistikk/,Norway
2021-06-06,1835128,1214906,"Moderna, Pfizer/BioNTech",3050034,https://www.fhi.no/sv/vaksine/koronavaksinasjonsprogrammet/koronavaksinasjonsstatistikk/,Norway
2021-06-07,1850949,1217858,"Moderna, Pfizer/BioNTech",3068807,https://www.fhi.no/sv/vaksine/koronavaksinasjonsprogrammet/koronavaksinasjonsstatistikk/,Norway
2021-06-08,1878378,1237395,"Moderna, Pfizer/BioNTech",3115773,https://www.fhi.no/sv/vaksine/koronavaksinasjonsprogrammet/koronavaksinasjonsstatistikk/,Norway
2021-06-09,1918804,1298277,"Moderna, Pfizer/BioNTech",3217081,https://www.fhi.no/sv/vaksine/koronavaksinasjonsprogrammet/koronavaksinasjonsstatistikk/,Norway
2021-06-10,1958913,1353973,"Moderna, Pfizer/BioNTech",3312886,https://www.fhi.no/sv/vaksine/koronavaksinasjonsprogrammet/koronavaksinasjonsstatistikk/,Norway
2021-06-11,1980736,1375067,"Moderna, Pfizer/BioNTech",3355803,https://www.fhi.no/sv/vaksine/koronavaksinasjonsprogrammet/koronavaksinasjonsstatistikk/,Norway
2021-06-12,1983967,1375954,"Moderna, Pfizer/BioNTech",3359921,https://www.fhi.no/sv/vaksine/koronavaksinasjonsprogrammet/koronavaksinasjonsstatistikk/,Norway
2021-06-13,1986297,1376655,"Moderna, Pfizer/BioNTech",3362952,https://www.fhi.no/sv/vaksine/koronavaksinasjonsprogrammet/koronavaksinasjonsstatistikk/,Norway
2021-06-14,2006030,1379276,"Moderna, Pfizer/BioNTech",3385306,https://www.fhi.no/sv/vaksine/koronavaksinasjonsprogrammet/koronavaksinasjonsstatistikk/,Norway
2021-06-15,2035356,1389942,"Moderna, Pfizer/BioNTech",3425298,https://www.fhi.no/sv/vaksine/koronavaksinasjonsprogrammet/koronavaksinasjonsstatistikk/,Norway
2021-06-16,2100323,1431249,"Moderna, Pfizer/BioNTech",3531572,https://www.fhi.no/sv/vaksine/koronavaksinasjonsprogrammet/koronavaksinasjonsstatistikk/,Norway
2021-06-17,2160231,1464102,"Moderna, Pfizer/BioNTech",3624333,https://www.fhi.no/sv/vaksine/koronavaksinasjonsprogrammet/koronavaksinasjonsstatistikk/,Norway
2021-06-18,2192331,1476533,"Moderna, Pfizer/BioNTech",3668864,https://www.fhi.no/sv/vaksine/koronavaksinasjonsprogrammet/koronavaksinasjonsstatistikk/,Norway
2021-06-19,2198779,1477261,"Moderna, Pfizer/BioNTech",3676040,https://www.fhi.no/sv/vaksine/koronavaksinasjonsprogrammet/koronavaksinasjonsstatistikk/,Norway
2021-06-20,2203250,1477395,"Moderna, Pfizer/BioNTech",3680645,https://www.fhi.no/sv/vaksine/koronavaksinasjonsprogrammet/koronavaksinasjonsstatistikk/,Norway
2021-06-21,2221147,1480213,"Moderna, Pfizer/BioNTech",3701360,https://www.fhi.no/sv/vaksine/koronavaksinasjonsprogrammet/koronavaksinasjonsstatistikk/,Norway
2021-06-22,2258526,1493527,"Moderna, Pfizer/BioNTech",3752053,https://www.fhi.no/sv/vaksine/koronavaksinasjonsprogrammet/koronavaksinasjonsstatistikk/,Norway
2021-06-23,2336906,1525837,"Moderna, Pfizer/BioNTech",3862743,https://www.fhi.no/sv/vaksine/koronavaksinasjonsprogrammet/koronavaksinasjonsstatistikk/,Norway
2021-06-24,2428508,1547817,"Moderna, Pfizer/BioNTech",3976325,https://www.fhi.no/sv/vaksine/koronavaksinasjonsprogrammet/koronavaksinasjonsstatistikk/,Norway
2021-06-25,2473458,1557315,"Moderna, Pfizer/BioNTech",4030773,https://www.fhi.no/sv/vaksine/koronavaksinasjonsprogrammet/koronavaksinasjonsstatistikk/,Norway
2021-06-26,2482227,1559004,"Moderna, Pfizer/BioNTech",4041231,https://www.fhi.no/sv/vaksine/koronavaksinasjonsprogrammet/koronavaksinasjonsstatistikk/,Norway
2021-06-27,2486804,1560277,"Moderna, Pfizer/BioNTech",4047081,https://www.fhi.no/sv/vaksine/koronavaksinasjonsprogrammet/koronavaksinasjonsstatistikk/,Norway
2021-06-28,2519156,1561548,"Moderna, Pfizer/BioNTech",4080704,https://www.fhi.no/sv/vaksine/koronavaksinasjonsprogrammet/koronavaksinasjonsstatistikk/,Norway
2021-06-29,2567397,1564915,"Moderna, Pfizer/BioNTech",4132312,https://www.fhi.no/sv/vaksine/koronavaksinasjonsprogrammet/koronavaksinasjonsstatistikk/,Norway
2021-06-30,2672896,1571630,"Moderna, Pfizer/BioNTech",4244526,https://www.fhi.no/sv/vaksine/koronavaksinasjonsprogrammet/koronavaksinasjonsstatistikk/,Norway
2021-07-01,2775806,1579600,"Moderna, Pfizer/BioNTech",4355406,https://www.fhi.no/sv/vaksine/koronavaksinasjonsprogrammet/koronavaksinasjonsstatistikk/,Norway
2021-07-02,2827147,1582874,"Moderna, Pfizer/BioNTech",4410021,https://www.fhi.no/sv/vaksine/koronavaksinasjonsprogrammet/koronavaksinasjonsstatistikk/,Norway
2021-07-03,2836418,1583479,"Moderna, Pfizer/BioNTech",4419897,https://www.fhi.no/sv/vaksine/koronavaksinasjonsprogrammet/koronavaksinasjonsstatistikk/,Norway
2021-07-04,2842475,1583992,"Moderna, Pfizer/BioNTech",4426467,https://www.fhi.no/sv/vaksine/koronavaksinasjonsprogrammet/koronavaksinasjonsstatistikk/,Norway
2021-07-05,2869266,1584662,"Moderna, Pfizer/BioNTech",4453928,https://www.fhi.no/sv/vaksine/koronavaksinasjonsprogrammet/koronavaksinasjonsstatistikk/,Norway
2021-07-06,2911274,1588101,"Moderna, Pfizer/BioNTech",4499375,https://www.fhi.no/sv/vaksine/koronavaksinasjonsprogrammet/koronavaksinasjonsstatistikk/,Norway
2021-07-07,2988566,1596869,"Moderna, Pfizer/BioNTech",4585435,https://www.fhi.no/sv/vaksine/koronavaksinasjonsprogrammet/koronavaksinasjonsstatistikk/,Norway
2021-07-08,3057908,1605896,"Moderna, Pfizer/BioNTech",4663804,https://www.fhi.no/sv/vaksine/koronavaksinasjonsprogrammet/koronavaksinasjonsstatistikk/,Norway
2021-07-09,3084975,1609335,"Moderna, Pfizer/BioNTech",4694310,https://www.fhi.no/sv/vaksine/koronavaksinasjonsprogrammet/koronavaksinasjonsstatistikk/,Norway
2021-07-10,3089137,1609649,"Moderna, Pfizer/BioNTech",4698786,https://www.fhi.no/sv/vaksine/koronavaksinasjonsprogrammet/koronavaksinasjonsstatistikk/,Norway
2021-07-11,3092114,1609826,"Moderna, Pfizer/BioNTech",4701940,https://www.fhi.no/sv/vaksine/koronavaksinasjonsprogrammet/koronavaksinasjonsstatistikk/,Norway
2021-07-12,3105338,1611800,"Moderna, Pfizer/BioNTech",4717138,https://www.fhi.no/sv/vaksine/koronavaksinasjonsprogrammet/koronavaksinasjonsstatistikk/,Norway
2021-07-13,3129072,1620886,"Moderna, Pfizer/BioNTech",4749958,https://www.fhi.no/sv/vaksine/koronavaksinasjonsprogrammet/koronavaksinasjonsstatistikk/,Norway
2021-07-14,3177606,1650221,"Moderna, Pfizer/BioNTech",4827827,https://www.fhi.no/sv/vaksine/koronavaksinasjonsprogrammet/koronavaksinasjonsstatistikk/,Norway
2021-07-15,3220685,1679673,"Moderna, Pfizer/BioNTech",4900358,https://www.fhi.no/sv/vaksine/koronavaksinasjonsprogrammet/koronavaksinasjonsstatistikk/,Norway
2021-07-16,3237105,1689705,"Moderna, Pfizer/BioNTech",4926810,https://www.fhi.no/sv/vaksine/koronavaksinasjonsprogrammet/koronavaksinasjonsstatistikk/,Norway
2021-07-17,3237590,1690279,"Moderna, Pfizer/BioNTech",4927869,https://www.fhi.no/sv/vaksine/koronavaksinasjonsprogrammet/koronavaksinasjonsstatistikk/,Norway
2021-07-18,3237883,1690527,"Moderna, Pfizer/BioNTech",4928410,https://www.fhi.no/sv/vaksine/koronavaksinasjonsprogrammet/koronavaksinasjonsstatistikk/,Norway
2021-07-19,3246883,1693817,"Moderna, Pfizer/BioNTech",4940700,https://www.fhi.no/sv/vaksine/koronavaksinasjonsprogrammet/koronavaksinasjonsstatistikk/,Norway
2021-07-20,3268540,1702464,"Moderna, Pfizer/BioNTech",4971004,https://www.fhi.no/sv/vaksine/koronavaksinasjonsprogrammet/koronavaksinasjonsstatistikk/,Norway
2021-07-21,3333931,1722358,"Moderna, Pfizer/BioNTech",5056289,https://www.fhi.no/sv/vaksine/koronavaksinasjonsprogrammet/koronavaksinasjonsstatistikk/,Norway
2021-07-22,3402051,1744581,"Moderna, Pfizer/BioNTech",5146632,https://www.fhi.no/sv/vaksine/koronavaksinasjonsprogrammet/koronavaksinasjonsstatistikk/,Norway
2021-07-23,3423787,1752035,"Moderna, Pfizer/BioNTech",5175822,https://www.fhi.no/sv/vaksine/koronavaksinasjonsprogrammet/koronavaksinasjonsstatistikk/,Norway
2021-07-24,3423932,1752443,"Moderna, Pfizer/BioNTech",5176375,https://www.fhi.no/sv/vaksine/koronavaksinasjonsprogrammet/koronavaksinasjonsstatistikk/,Norway
2021-07-25,3424001,1752700,"Moderna, Pfizer/BioNTech",5176701,https://www.fhi.no/sv/vaksine/koronavaksinasjonsprogrammet/koronavaksinasjonsstatistikk/,Norway
2021-07-26,3432763,1755864,"Moderna, Pfizer/BioNTech",5188627,https://www.fhi.no/sv/vaksine/koronavaksinasjonsprogrammet/koronavaksinasjonsstatistikk/,Norway
2021-07-27,3454224,1764707,"Moderna, Pfizer/BioNTech",5218931,https://www.fhi.no/sv/vaksine/koronavaksinasjonsprogrammet/koronavaksinasjonsstatistikk/,Norway
2021-07-28,3522214,1790726,"Moderna, Pfizer/BioNTech",5312940,https://www.fhi.no/sv/vaksine/koronavaksinasjonsprogrammet/koronavaksinasjonsstatistikk/,Norway
2021-07-29,3589467,1817462,"Moderna, Pfizer/BioNTech",5406929,https://www.fhi.no/sv/vaksine/koronavaksinasjonsprogrammet/koronavaksinasjonsstatistikk/,Norway
2021-07-30,3611258,1828473,"Moderna, Pfizer/BioNTech",5439731,https://www.fhi.no/sv/vaksine/koronavaksinasjonsprogrammet/koronavaksinasjonsstatistikk/,Norway
2021-07-31,3611676,1829271,"Moderna, Pfizer/BioNTech",5440947,https://www.fhi.no/sv/vaksine/koronavaksinasjonsprogrammet/koronavaksinasjonsstatistikk/,Norway
2021-08-01,3611731,1829413,"Moderna, Pfizer/BioNTech",5441144,https://www.fhi.no/sv/vaksine/koronavaksinasjonsprogrammet/koronavaksinasjonsstatistikk/,Norway
2021-08-02,3620943,1838510,"Moderna, Pfizer/BioNTech",5459453,https://www.fhi.no/sv/vaksine/koronavaksinasjonsprogrammet/koronavaksinasjonsstatistikk/,Norway
2021-08-03,3636383,1856170,"Moderna, Pfizer/BioNTech",5492553,https://www.fhi.no/sv/vaksine/koronavaksinasjonsprogrammet/koronavaksinasjonsstatistikk/,Norway
2021-08-04,3678332,1899746,"Moderna, Pfizer/BioNTech",5578078,https://www.fhi.no/sv/vaksine/koronavaksinasjonsprogrammet/koronavaksinasjonsstatistikk/,Norway
2021-08-05,3714267,1948282,"Moderna, Pfizer/BioNTech",5662549,https://www.fhi.no/sv/vaksine/koronavaksinasjonsprogrammet/koronavaksinasjonsstatistikk/,Norway
2021-08-06,3724835,1969836,"Moderna, Pfizer/BioNTech",5694671,https://www.fhi.no/sv/vaksine/koronavaksinasjonsprogrammet/koronavaksinasjonsstatistikk/,Norway
2021-08-07,3725083,1971104,"Moderna, Pfizer/BioNTech",5696187,https://www.fhi.no/sv/vaksine/koronavaksinasjonsprogrammet/koronavaksinasjonsstatistikk/,Norway
2021-08-08,3725163,1971955,"Moderna, Pfizer/BioNTech",5697118,https://www.fhi.no/sv/vaksine/koronavaksinasjonsprogrammet/koronavaksinasjonsstatistikk/,Norway
2021-08-09,3728183,1993452,"Moderna, Pfizer/BioNTech",5721635,https://www.fhi.no/sv/vaksine/koronavaksinasjonsprogrammet/koronavaksinasjonsstatistikk/,Norway
2021-08-10,3735288,2027496,"Moderna, Pfizer/BioNTech",5762784,https://www.fhi.no/sv/vaksine/koronavaksinasjonsprogrammet/koronavaksinasjonsstatistikk/,Norway
2021-08-11,3756738,2109319,"Moderna, Pfizer/BioNTech",5866057,https://www.fhi.no/sv/vaksine/koronavaksinasjonsprogrammet/koronavaksinasjonsstatistikk/,Norway
2021-08-12,3775393,2194345,"Moderna, Pfizer/BioNTech",5969738,https://www.fhi.no/sv/vaksine/koronavaksinasjonsprogrammet/koronavaksinasjonsstatistikk/,Norway
2021-08-13,3781116,2233670,"Moderna, Pfizer/BioNTech",6014786,https://www.fhi.no/sv/vaksine/koronavaksinasjonsprogrammet/koronavaksinasjonsstatistikk/,Norway
2021-08-14,3781372,2235973,"Moderna, Pfizer/BioNTech",6017345,https://www.fhi.no/sv/vaksine/koronavaksinasjonsprogrammet/koronavaksinasjonsstatistikk/,Norway
2021-08-15,3781438,2237109,"Moderna, Pfizer/BioNTech",6018547,https://www.fhi.no/sv/vaksine/koronavaksinasjonsprogrammet/koronavaksinasjonsstatistikk/,Norway
2021-08-16,3783742,2268152,"Moderna, Pfizer/BioNTech",6051894,https://www.fhi.no/sv/vaksine/koronavaksinasjonsprogrammet/koronavaksinasjonsstatistikk/,Norway
2021-08-17,3788178,2313138,"Moderna, Pfizer/BioNTech",6101316,https://www.fhi.no/sv/vaksine/koronavaksinasjonsprogrammet/koronavaksinasjonsstatistikk/,Norway
2021-08-18,3799334,2419882,"Moderna, Pfizer/BioNTech",6219216,https://www.fhi.no/sv/vaksine/koronavaksinasjonsprogrammet/koronavaksinasjonsstatistikk/,Norway
2021-08-19,3809226,2521165,"Moderna, Pfizer/BioNTech",6330391,https://www.fhi.no/sv/vaksine/koronavaksinasjonsprogrammet/koronavaksinasjonsstatistikk/,Norway
2021-08-20,3814149,2574574,"Moderna, Pfizer/BioNTech",6388723,https://www.fhi.no/sv/vaksine/koronavaksinasjonsprogrammet/koronavaksinasjonsstatistikk/,Norway
2021-08-21,3814498,2581426,"Moderna, Pfizer/BioNTech",6395924,https://www.fhi.no/sv/vaksine/koronavaksinasjonsprogrammet/koronavaksinasjonsstatistikk/,Norway
2021-08-22,3814618,2583255,"Moderna, Pfizer/BioNTech",6397873,https://www.fhi.no/sv/vaksine/koronavaksinasjonsprogrammet/koronavaksinasjonsstatistikk/,Norway
2021-08-23,3816892,2624675,"Moderna, Pfizer/BioNTech",6441567,https://www.fhi.no/sv/vaksine/koronavaksinasjonsprogrammet/koronavaksinasjonsstatistikk/,Norway
2021-08-24,3822204,2691430,"Moderna, Pfizer/BioNTech",6513634,https://www.fhi.no/sv/vaksine/koronavaksinasjonsprogrammet/koronavaksinasjonsstatistikk/,Norway
2021-08-25,3834414,2817365,"Moderna, Pfizer/BioNTech",6651779,https://www.fhi.no/sv/vaksine/koronavaksinasjonsprogrammet/koronavaksinasjonsstatistikk/,Norway
2021-08-26,3847885,2942457,"Moderna, Pfizer/BioNTech",6790342,https://www.fhi.no/sv/vaksine/koronavaksinasjonsprogrammet/koronavaksinasjonsstatistikk/,Norway
2021-08-27,3856706,3003995,"Moderna, Pfizer/BioNTech",6860701,https://www.fhi.no/sv/vaksine/koronavaksinasjonsprogrammet/koronavaksinasjonsstatistikk/,Norway
2021-08-28,3859047,3014041,"Moderna, Pfizer/BioNTech",6873088,https://www.fhi.no/sv/vaksine/koronavaksinasjonsprogrammet/koronavaksinasjonsstatistikk/,Norway
2021-08-29,3859206,3018783,"Moderna, Pfizer/BioNTech",6877989,https://www.fhi.no/sv/vaksine/koronavaksinasjonsprogrammet/koronavaksinasjonsstatistikk/,Norway
2021-08-30,3868000,3056278,"Moderna, Pfizer/BioNTech",6924278,https://www.fhi.no/sv/vaksine/koronavaksinasjonsprogrammet/koronavaksinasjonsstatistikk/,Norway
2021-08-31,3876651,3102532,"Moderna, Pfizer/BioNTech",6979183,https://www.fhi.no/sv/vaksine/koronavaksinasjonsprogrammet/koronavaksinasjonsstatistikk/,Norway
2021-09-01,3892833,3182605,"Moderna, Pfizer/BioNTech",7075438,https://www.fhi.no/sv/vaksine/koronavaksinasjonsprogrammet/koronavaksinasjonsstatistikk/,Norway
2021-09-02,3909844,3262303,"Moderna, Pfizer/BioNTech",7172147,https://www.fhi.no/sv/vaksine/koronavaksinasjonsprogrammet/koronavaksinasjonsstatistikk/,Norway
2021-09-03,3918916,3298390,"Moderna, Pfizer/BioNTech",7217306,https://www.fhi.no/sv/vaksine/koronavaksinasjonsprogrammet/koronavaksinasjonsstatistikk/,Norway
2021-09-04,3920063,3304323,"Moderna, Pfizer/BioNTech",7224386,https://www.fhi.no/sv/vaksine/koronavaksinasjonsprogrammet/koronavaksinasjonsstatistikk/,Norway
2021-09-05,3920305,3305342,"Moderna, Pfizer/BioNTech",7225647,https://www.fhi.no/sv/vaksine/koronavaksinasjonsprogrammet/koronavaksinasjonsstatistikk/,Norway
2021-09-06,3925212,3325510,"Moderna, Pfizer/BioNTech",7250722,https://www.fhi.no/sv/vaksine/koronavaksinasjonsprogrammet/koronavaksinasjonsstatistikk/,Norway
2021-09-07,3933116,3351460,"Moderna, Pfizer/BioNTech",7284576,https://www.fhi.no/sv/vaksine/koronavaksinasjonsprogrammet/koronavaksinasjonsstatistikk/,Norway
2021-09-08,3952980,3404157,"Moderna, Pfizer/BioNTech",7357137,https://www.fhi.no/sv/vaksine/koronavaksinasjonsprogrammet/koronavaksinasjonsstatistikk/,Norway
2021-09-09,3971399,3449291,"Moderna, Pfizer/BioNTech",7420690,https://www.fhi.no/sv/vaksine/koronavaksinasjonsprogrammet/koronavaksinasjonsstatistikk/,Norway
2021-09-10,3980792,3469729,"Moderna, Pfizer/BioNTech",7450521,https://www.fhi.no/sv/vaksine/koronavaksinasjonsprogrammet/koronavaksinasjonsstatistikk/,Norway
2021-09-11,3981881,3472487,"Moderna, Pfizer/BioNTech",7454368,https://www.fhi.no/sv/vaksine/koronavaksinasjonsprogrammet/koronavaksinasjonsstatistikk/,Norway
2021-09-12,3982285,3472614,"Moderna, Pfizer/BioNTech",7454899,https://www.fhi.no/sv/vaksine/koronavaksinasjonsprogrammet/koronavaksinasjonsstatistikk/,Norway
2021-09-13,3987392,3483470,"Moderna, Pfizer/BioNTech",7470862,https://www.fhi.no/sv/vaksine/koronavaksinasjonsprogrammet/koronavaksinasjonsstatistikk/,Norway
2021-09-14,4003544,3495849,"Moderna, Pfizer/BioNTech",7499393,https://www.fhi.no/sv/vaksine/koronavaksinasjonsprogrammet/koronavaksinasjonsstatistikk/,Norway
2021-09-15,4033263,3525878,"Moderna, Pfizer/BioNTech",7559141,https://www.fhi.no/sv/vaksine/koronavaksinasjonsprogrammet/koronavaksinasjonsstatistikk/,Norway
2021-09-16,4059622,3550207,"Moderna, Pfizer/BioNTech",7609829,https://www.fhi.no/sv/vaksine/koronavaksinasjonsprogrammet/koronavaksinasjonsstatistikk/,Norway
2021-09-17,4072922,3560945,"Moderna, Pfizer/BioNTech",7633867,https://www.fhi.no/sv/vaksine/koronavaksinasjonsprogrammet/koronavaksinasjonsstatistikk/,Norway
2021-09-18,4075214,3561409,"Moderna, Pfizer/BioNTech",7636623,https://www.fhi.no/sv/vaksine/koronavaksinasjonsprogrammet/koronavaksinasjonsstatistikk/,Norway
2021-09-19,4075229,3561482,"Moderna, Pfizer/BioNTech",7636711,https://www.fhi.no/sv/vaksine/koronavaksinasjonsprogrammet/koronavaksinasjonsstatistikk/,Norway
2021-09-20,4088017,3568098,"Moderna, Pfizer/BioNTech",7656115,https://www.fhi.no/sv/vaksine/koronavaksinasjonsprogrammet/koronavaksinasjonsstatistikk/,Norway
2021-09-21,4103344,3577552,"Moderna, Pfizer/BioNTech",7680896,https://www.fhi.no/sv/vaksine/koronavaksinasjonsprogrammet/koronavaksinasjonsstatistikk/,Norway
2021-09-22,4120223,3596470,"Moderna, Pfizer/BioNTech",7716693,https://www.fhi.no/sv/vaksine/koronavaksinasjonsprogrammet/koronavaksinasjonsstatistikk/,Norway
2021-09-23,4135181,3613290,"Moderna, Pfizer/BioNTech",7748471,https://www.fhi.no/sv/vaksine/koronavaksinasjonsprogrammet/koronavaksinasjonsstatistikk/,Norway
2021-09-24,4141760,3620634,"Moderna, Pfizer/BioNTech",7762394,https://www.fhi.no/sv/vaksine/koronavaksinasjonsprogrammet/koronavaksinasjonsstatistikk/,Norway
2021-09-25,4143399,3620793,"Moderna, Pfizer/BioNTech",7764192,https://www.fhi.no/sv/vaksine/koronavaksinasjonsprogrammet/koronavaksinasjonsstatistikk/,Norway
2021-09-26,4143408,3620866,"Moderna, Pfizer/BioNTech",7764274,https://www.fhi.no/sv/vaksine/koronavaksinasjonsprogrammet/koronavaksinasjonsstatistikk/,Norway
2021-09-27,4147756,3626067,"Moderna, Pfizer/BioNTech",7773823,https://www.fhi.no/sv/vaksine/koronavaksinasjonsprogrammet/koronavaksinasjonsstatistikk/,Norway
2021-09-28,4152787,3633373,"Moderna, Pfizer/BioNTech",7786160,https://www.fhi.no/sv/vaksine/koronavaksinasjonsprogrammet/koronavaksinasjonsstatistikk/,Norway
2021-09-29,4162902,3648032,"Moderna, Pfizer/BioNTech",7810934,https://www.fhi.no/sv/vaksine/koronavaksinasjonsprogrammet/koronavaksinasjonsstatistikk/,Norway
2021-09-30,4173125,3661934,"Moderna, Pfizer/BioNTech",7835059,https://www.fhi.no/sv/vaksine/koronavaksinasjonsprogrammet/koronavaksinasjonsstatistikk/,Norway
2021-10-01,4175682,3668199,"Moderna, Pfizer/BioNTech",7843881,https://www.fhi.no/sv/vaksine/koronavaksinasjonsprogrammet/koronavaksinasjonsstatistikk/,Norway
2021-10-02,4175803,3668480,"Moderna, Pfizer/BioNTech",7844283,https://www.fhi.no/sv/vaksine/koronavaksinasjonsprogrammet/koronavaksinasjonsstatistikk/,Norway
2021-10-03,4175803,3668490,"Moderna, Pfizer/BioNTech",7844293,https://www.fhi.no/sv/vaksine/koronavaksinasjonsprogrammet/koronavaksinasjonsstatistikk/,Norway
2021-10-04,4176916,3671492,"Moderna, Pfizer/BioNTech",7848408,https://www.fhi.no/sv/vaksine/koronavaksinasjonsprogrammet/koronavaksinasjonsstatistikk/,Norway
2021-10-05,4179624,3676609,"Moderna, Pfizer/BioNTech",7856233,https://www.fhi.no/sv/vaksine/koronavaksinasjonsprogrammet/koronavaksinasjonsstatistikk/,Norway
2021-10-06,4183315,3683685,"Moderna, Pfizer/BioNTech",7867000,https://www.fhi.no/sv/vaksine/koronavaksinasjonsprogrammet/koronavaksinasjonsstatistikk/,Norway
2021-10-07,4186824,3691297,"Moderna, Pfizer/BioNTech",7878121,https://www.fhi.no/sv/vaksine/koronavaksinasjonsprogrammet/koronavaksinasjonsstatistikk/,Norway
2021-10-08,4188204,3695069,"Moderna, Pfizer/BioNTech",7883273,https://www.fhi.no/sv/vaksine/koronavaksinasjonsprogrammet/koronavaksinasjonsstatistikk/,Norway
2021-10-09,4188231,3695155,"Moderna, Pfizer/BioNTech",7883386,https://www.fhi.no/sv/vaksine/koronavaksinasjonsprogrammet/koronavaksinasjonsstatistikk/,Norway
2021-10-10,4188244,3695167,"Moderna, Pfizer/BioNTech",7883411,https://www.fhi.no/sv/vaksine/koronavaksinasjonsprogrammet/koronavaksinasjonsstatistikk/,Norway
2021-10-11,4189339,3697118,"Moderna, Pfizer/BioNTech",7886457,https://www.fhi.no/sv/vaksine/koronavaksinasjonsprogrammet/koronavaksinasjonsstatistikk/,Norway
2021-10-12,4190647,3699712,"Moderna, Pfizer/BioNTech",7890359,https://www.fhi.no/sv/vaksine/koronavaksinasjonsprogrammet/koronavaksinasjonsstatistikk/,Norway
2021-10-13,4192720,3705285,"Moderna, Pfizer/BioNTech",7898005,https://www.fhi.no/sv/vaksine/koronavaksinasjonsprogrammet/koronavaksinasjonsstatistikk/,Norway
2021-10-14,4194006,3708839,"Moderna, Pfizer/BioNTech",7902845,https://www.fhi.no/sv/vaksine/koronavaksinasjonsprogrammet/koronavaksinasjonsstatistikk/,Norway
2021-10-15,4194864,3711016,"Moderna, Pfizer/BioNTech",7905880,https://www.fhi.no/sv/vaksine/koronavaksinasjonsprogrammet/koronavaksinasjonsstatistikk/,Norway
2021-10-16,4194878,3711051,"Moderna, Pfizer/BioNTech",7905929,https://www.fhi.no/sv/vaksine/koronavaksinasjonsprogrammet/koronavaksinasjonsstatistikk/,Norway
2021-10-17,4194884,3711070,"Moderna, Pfizer/BioNTech",7905954,https://www.fhi.no/sv/vaksine/koronavaksinasjonsprogrammet/koronavaksinasjonsstatistikk/,Norway
2021-10-18,4195293,3712433,"Moderna, Pfizer/BioNTech",7907726,https://www.fhi.no/sv/vaksine/koronavaksinasjonsprogrammet/koronavaksinasjonsstatistikk/,Norway
2021-10-19,4196211,3714786,"Moderna, Pfizer/BioNTech",7910997,https://www.fhi.no/sv/vaksine/koronavaksinasjonsprogrammet/koronavaksinasjonsstatistikk/,Norway
2021-10-20,4198518,3719528,"Moderna, Pfizer/BioNTech",7918046,https://www.fhi.no/sv/vaksine/koronavaksinasjonsprogrammet/koronavaksinasjonsstatistikk/,Norway
2021-10-21,4200388,3724643,"Moderna, Pfizer/BioNTech",7925031,https://www.fhi.no/sv/vaksine/koronavaksinasjonsprogrammet/koronavaksinasjonsstatistikk/,Norway
2021-10-22,4201228,3727010,"Moderna, Pfizer/BioNTech",7928238,https://www.fhi.no/sv/vaksine/koronavaksinasjonsprogrammet/koronavaksinasjonsstatistikk/,Norway
2021-10-23,4201267,3727043,"Moderna, Pfizer/BioNTech",7928310,https://www.fhi.no/sv/vaksine/koronavaksinasjonsprogrammet/koronavaksinasjonsstatistikk/,Norway
2021-10-24,4201267,3727043,"Moderna, Pfizer/BioNTech",7928310,https://www.fhi.no/sv/vaksine/koronavaksinasjonsprogrammet/koronavaksinasjonsstatistikk/,Norway
2021-10-25,4201807,3728650,"Moderna, Pfizer/BioNTech",7930457,https://www.fhi.no/sv/vaksine/koronavaksinasjonsprogrammet/koronavaksinasjonsstatistikk/,Norway
2021-10-26,4202731,3730716,"Moderna, Pfizer/BioNTech",7933447,https://www.fhi.no/sv/vaksine/koronavaksinasjonsprogrammet/koronavaksinasjonsstatistikk/,Norway
2021-10-27,4204476,3736281,"Moderna, Pfizer/BioNTech",7940757,https://www.fhi.no/sv/vaksine/koronavaksinasjonsprogrammet/koronavaksinasjonsstatistikk/,Norway
2021-10-28,4205935,3742213,"Moderna, Pfizer/BioNTech",7948148,https://www.fhi.no/sv/vaksine/koronavaksinasjonsprogrammet/koronavaksinasjonsstatistikk/,Norway
2021-10-29,4206646,3744012,"Moderna, Pfizer/BioNTech",7950658,https://www.fhi.no/sv/vaksine/koronavaksinasjonsprogrammet/koronavaksinasjonsstatistikk/,Norway
2021-10-30,4206706,3744063,"Moderna, Pfizer/BioNTech",7950769,https://www.fhi.no/sv/vaksine/koronavaksinasjonsprogrammet/koronavaksinasjonsstatistikk/,Norway
2021-10-31,4206706,3744063,"Moderna, Pfizer/BioNTech",7950769,https://www.fhi.no/sv/vaksine/koronavaksinasjonsprogrammet/koronavaksinasjonsstatistikk/,Norway
2021-11-01,4207228,3745168,"Moderna, Pfizer/BioNTech",7952396,https://www.fhi.no/sv/vaksine/koronavaksinasjonsprogrammet/koronavaksinasjonsstatistikk/,Norway
2021-11-02,4208162,3746960,"Moderna, Pfizer/BioNTech",7955122,https://www.fhi.no/sv/vaksine/koronavaksinasjonsprogrammet/koronavaksinasjonsstatistikk/,Norway
2021-11-03,4210191,3751646,"Moderna, Pfizer/BioNTech",7961837,https://www.fhi.no/sv/vaksine/koronavaksinasjonsprogrammet/koronavaksinasjonsstatistikk/,Norway
2021-11-04,4212389,3756261,"Moderna, Pfizer/BioNTech",7968650,https://www.fhi.no/sv/vaksine/koronavaksinasjonsprogrammet/koronavaksinasjonsstatistikk/,Norway
2021-11-05,4213411,3758505,"Moderna, Pfizer/BioNTech",7971916,https://www.fhi.no/sv/vaksine/koronavaksinasjonsprogrammet/koronavaksinasjonsstatistikk/,Norway
2021-11-06,4213468,3758615,"Moderna, Pfizer/BioNTech",7972083,https://www.fhi.no/sv/vaksine/koronavaksinasjonsprogrammet/koronavaksinasjonsstatistikk/,Norway
2021-11-07,4213468,3758626,"Moderna, Pfizer/BioNTech",7972094,https://www.fhi.no/sv/vaksine/koronavaksinasjonsprogrammet/koronavaksinasjonsstatistikk/,Norway
2021-11-08,4214121,3760184,"Moderna, Pfizer/BioNTech",7974305,https://www.fhi.no/sv/vaksine/koronavaksinasjonsprogrammet/koronavaksinasjonsstatistikk/,Norway
2021-11-09,4215375,3763342,"Moderna, Pfizer/BioNTech",7978717,https://www.fhi.no/sv/vaksine/koronavaksinasjonsprogrammet/koronavaksinasjonsstatistikk/,Norway
2021-11-10,4217379,3767513,"Moderna, Pfizer/BioNTech",7984892,https://www.fhi.no/sv/vaksine/koronavaksinasjonsprogrammet/koronavaksinasjonsstatistikk/,Norway
2021-11-11,4219569,3773049,"Moderna, Pfizer/BioNTech",7992618,https://www.fhi.no/sv/vaksine/koronavaksinasjonsprogrammet/koronavaksinasjonsstatistikk/,Norway
2021-11-12,4220504,3774676,"Moderna, Pfizer/BioNTech",7995180,https://www.fhi.no/sv/vaksine/koronavaksinasjonsprogrammet/koronavaksinasjonsstatistikk/,Norway
2021-11-13,4220581,3774787,"Moderna, Pfizer/BioNTech",7995368,https://www.fhi.no/sv/vaksine/koronavaksinasjonsprogrammet/koronavaksinasjonsstatistikk/,Norway
2021-11-14,4220581,3774787,"Moderna, Pfizer/BioNTech",7995368,https://www.fhi.no/sv/vaksine/koronavaksinasjonsprogrammet/koronavaksinasjonsstatistikk/,Norway
2021-11-15,4221419,3776895,"Moderna, Pfizer/BioNTech",7998314,https://www.fhi.no/sv/vaksine/koronavaksinasjonsprogrammet/koronavaksinasjonsstatistikk/,Norway
