date,people_vaccinated,people_fully_vaccinated,total_vaccinations,location,source_url,vaccine
2020-12-27,6196.0,,6196.0,Slovenia,https://covid-19.sledilnik.org/en/stats,"Oxford/AstraZeneca, Pfizer/BioNTech"
2020-12-28,7859.0,,7859.0,Slovenia,https://covid-19.sledilnik.org/en/stats,"Oxford/AstraZeneca, Pfizer/BioNTech"
2020-12-29,9184.0,,9184.0,Slovenia,https://covid-19.sledilnik.org/en/stats,"Oxford/AstraZeneca, Pfizer/BioNTech"
2020-12-30,9606.0,,9606.0,Slovenia,https://covid-19.sledilnik.org/en/stats,"Oxford/AstraZeneca, Pfizer/BioNTech"
2020-12-31,11463.0,,11463.0,Slovenia,https://covid-19.sledilnik.org/en/stats,"Oxford/AstraZeneca, Pfizer/BioNTech"
2021-01-01,11614.0,,11614.0,Slovenia,https://covid-19.sledilnik.org/en/stats,"Oxford/AstraZeneca, Pfizer/BioNTech"
2021-01-02,12018.0,,12018.0,Slovenia,https://covid-19.sledilnik.org/en/stats,"Oxford/AstraZeneca, Pfizer/BioNTech"
2021-01-03,12573.0,,12573.0,Slovenia,https://covid-19.sledilnik.org/en/stats,"Oxford/AstraZeneca, Pfizer/BioNTech"
2021-01-04,13664.0,,13664.0,Slovenia,https://covid-19.sledilnik.org/en/stats,"Oxford/AstraZeneca, Pfizer/BioNTech"
2021-01-05,16207.0,,16207.0,Slovenia,https://covid-19.sledilnik.org/en/stats,"Oxford/AstraZeneca, Pfizer/BioNTech"
2021-01-06,21597.0,1.0,21598.0,Slovenia,https://covid-19.sledilnik.org/en/stats,"Oxford/AstraZeneca, Pfizer/BioNTech"
2021-01-07,27095.0,1.0,27096.0,Slovenia,https://covid-19.sledilnik.org/en/stats,"Oxford/AstraZeneca, Pfizer/BioNTech"
2021-01-08,30360.0,2.0,30362.0,Slovenia,https://covid-19.sledilnik.org/en/stats,"Oxford/AstraZeneca, Pfizer/BioNTech"
2021-01-09,30614.0,2.0,30616.0,Slovenia,https://covid-19.sledilnik.org/en/stats,"Oxford/AstraZeneca, Pfizer/BioNTech"
2021-01-10,30615.0,2.0,30617.0,Slovenia,https://covid-19.sledilnik.org/en/stats,"Oxford/AstraZeneca, Pfizer/BioNTech"
2021-01-11,31099.0,2.0,31101.0,Slovenia,https://covid-19.sledilnik.org/en/stats,"Oxford/AstraZeneca, Pfizer/BioNTech"
2021-01-12,32982.0,2.0,32984.0,Slovenia,https://covid-19.sledilnik.org/en/stats,"Oxford/AstraZeneca, Pfizer/BioNTech"
2021-01-13,37718.0,8.0,37726.0,Slovenia,https://covid-19.sledilnik.org/en/stats,"Oxford/AstraZeneca, Pfizer/BioNTech"
2021-01-14,44465.0,9.0,44474.0,Slovenia,https://covid-19.sledilnik.org/en/stats,"Oxford/AstraZeneca, Pfizer/BioNTech"
2021-01-15,49210.0,157.0,49367.0,Slovenia,https://covid-19.sledilnik.org/en/stats,"Oxford/AstraZeneca, Pfizer/BioNTech"
2021-01-16,49534.0,157.0,49691.0,Slovenia,https://covid-19.sledilnik.org/en/stats,"Oxford/AstraZeneca, Pfizer/BioNTech"
2021-01-17,49538.0,158.0,49696.0,Slovenia,https://covid-19.sledilnik.org/en/stats,"Oxford/AstraZeneca, Pfizer/BioNTech"
2021-01-18,49581.0,324.0,49905.0,Slovenia,https://covid-19.sledilnik.org/en/stats,"Oxford/AstraZeneca, Pfizer/BioNTech"
2021-01-19,50125.0,1971.0,52096.0,Slovenia,https://covid-19.sledilnik.org/en/stats,"Oxford/AstraZeneca, Pfizer/BioNTech"
2021-01-20,51316.0,5779.0,57095.0,Slovenia,https://covid-19.sledilnik.org/en/stats,"Oxford/AstraZeneca, Pfizer/BioNTech"
2021-01-21,52606.0,9271.0,61877.0,Slovenia,https://covid-19.sledilnik.org/en/stats,"Oxford/AstraZeneca, Pfizer/BioNTech"
2021-01-22,53794.0,10267.0,64061.0,Slovenia,https://covid-19.sledilnik.org/en/stats,"Oxford/AstraZeneca, Pfizer/BioNTech"
2021-01-23,54025.0,10757.0,64782.0,Slovenia,https://covid-19.sledilnik.org/en/stats,"Oxford/AstraZeneca, Pfizer/BioNTech"
2021-01-24,54042.0,10891.0,64933.0,Slovenia,https://covid-19.sledilnik.org/en/stats,"Oxford/AstraZeneca, Pfizer/BioNTech"
2021-01-25,54045.0,10896.0,64941.0,Slovenia,https://covid-19.sledilnik.org/en/stats,"Oxford/AstraZeneca, Pfizer/BioNTech"
2021-01-26,54126.0,12650.0,66776.0,Slovenia,https://covid-19.sledilnik.org/en/stats,"Oxford/AstraZeneca, Pfizer/BioNTech"
2021-01-27,54392.0,17507.0,71899.0,Slovenia,https://covid-19.sledilnik.org/en/stats,"Oxford/AstraZeneca, Pfizer/BioNTech"
2021-01-28,54915.0,23318.0,78233.0,Slovenia,https://covid-19.sledilnik.org/en/stats,"Oxford/AstraZeneca, Pfizer/BioNTech"
2021-01-29,55463.0,27372.0,82835.0,Slovenia,https://covid-19.sledilnik.org/en/stats,"Oxford/AstraZeneca, Pfizer/BioNTech"
2021-01-30,55474.0,27478.0,82952.0,Slovenia,https://covid-19.sledilnik.org/en/stats,"Oxford/AstraZeneca, Pfizer/BioNTech"
2021-01-31,55475.0,27480.0,82955.0,Slovenia,https://covid-19.sledilnik.org/en/stats,"Oxford/AstraZeneca, Pfizer/BioNTech"
2021-02-01,55498.0,27524.0,83022.0,Slovenia,https://covid-19.sledilnik.org/en/stats,"Oxford/AstraZeneca, Pfizer/BioNTech"
2021-02-02,55517.0,28625.0,84142.0,Slovenia,https://covid-19.sledilnik.org/en/stats,"Oxford/AstraZeneca, Pfizer/BioNTech"
2021-02-03,55702.0,33301.0,89003.0,Slovenia,https://covid-19.sledilnik.org/en/stats,"Oxford/AstraZeneca, Pfizer/BioNTech"
2021-02-04,56312.0,40155.0,96467.0,Slovenia,https://covid-19.sledilnik.org/en/stats,"Oxford/AstraZeneca, Pfizer/BioNTech"
2021-02-05,56677.0,45491.0,102168.0,Slovenia,https://covid-19.sledilnik.org/en/stats,"Oxford/AstraZeneca, Pfizer/BioNTech"
2021-02-06,56705.0,46067.0,102772.0,Slovenia,https://covid-19.sledilnik.org/en/stats,"Oxford/AstraZeneca, Pfizer/BioNTech"
2021-02-07,56705.0,46067.0,102772.0,Slovenia,https://covid-19.sledilnik.org/en/stats,"Oxford/AstraZeneca, Pfizer/BioNTech"
2021-02-08,57104.0,46068.0,103172.0,Slovenia,https://covid-19.sledilnik.org/en/stats,"Oxford/AstraZeneca, Pfizer/BioNTech"
2021-02-09,57192.0,46100.0,103292.0,Slovenia,https://covid-19.sledilnik.org/en/stats,"Oxford/AstraZeneca, Pfizer/BioNTech"
2021-02-10,59686.0,46830.0,106516.0,Slovenia,https://covid-19.sledilnik.org/en/stats,"Oxford/AstraZeneca, Pfizer/BioNTech"
2021-02-11,66598.0,48704.0,115302.0,Slovenia,https://covid-19.sledilnik.org/en/stats,"Oxford/AstraZeneca, Pfizer/BioNTech"
2021-02-12,73527.0,50513.0,124040.0,Slovenia,https://covid-19.sledilnik.org/en/stats,"Oxford/AstraZeneca, Pfizer/BioNTech"
2021-02-13,74238.0,50705.0,124943.0,Slovenia,https://covid-19.sledilnik.org/en/stats,"Oxford/AstraZeneca, Pfizer/BioNTech"
2021-02-14,74255.0,50721.0,124976.0,Slovenia,https://covid-19.sledilnik.org/en/stats,"Oxford/AstraZeneca, Pfizer/BioNTech"
2021-02-15,74331.0,50729.0,125060.0,Slovenia,https://covid-19.sledilnik.org/en/stats,"Oxford/AstraZeneca, Pfizer/BioNTech"
2021-02-16,75386.0,50806.0,126192.0,Slovenia,https://covid-19.sledilnik.org/en/stats,"Oxford/AstraZeneca, Pfizer/BioNTech"
2021-02-17,80334.0,51438.0,131772.0,Slovenia,https://covid-19.sledilnik.org/en/stats,"Oxford/AstraZeneca, Pfizer/BioNTech"
2021-02-18,88663.0,52208.0,140871.0,Slovenia,https://covid-19.sledilnik.org/en/stats,"Oxford/AstraZeneca, Pfizer/BioNTech"
2021-02-19,94831.0,52815.0,147646.0,Slovenia,https://covid-19.sledilnik.org/en/stats,"Oxford/AstraZeneca, Pfizer/BioNTech"
2021-02-20,97356.0,52833.0,150189.0,Slovenia,https://covid-19.sledilnik.org/en/stats,"Oxford/AstraZeneca, Pfizer/BioNTech"
2021-02-21,97356.0,52834.0,150190.0,Slovenia,https://covid-19.sledilnik.org/en/stats,"Oxford/AstraZeneca, Pfizer/BioNTech"
2021-02-22,97831.0,52838.0,150669.0,Slovenia,https://covid-19.sledilnik.org/en/stats,"Oxford/AstraZeneca, Pfizer/BioNTech"
2021-02-23,99355.0,52850.0,152205.0,Slovenia,https://covid-19.sledilnik.org/en/stats,"Oxford/AstraZeneca, Pfizer/BioNTech"
2021-02-24,106174.0,53040.0,159214.0,Slovenia,https://covid-19.sledilnik.org/en/stats,"Oxford/AstraZeneca, Pfizer/BioNTech"
2021-02-25,116975.0,53232.0,170207.0,Slovenia,https://covid-19.sledilnik.org/en/stats,"Oxford/AstraZeneca, Pfizer/BioNTech"
2021-02-26,124227.0,53780.0,178007.0,Slovenia,https://covid-19.sledilnik.org/en/stats,"Oxford/AstraZeneca, Pfizer/BioNTech"
2021-02-27,125146.0,53791.0,178937.0,Slovenia,https://covid-19.sledilnik.org/en/stats,"Oxford/AstraZeneca, Pfizer/BioNTech"
2021-02-28,125146.0,53791.0,178937.0,Slovenia,https://covid-19.sledilnik.org/en/stats,"Oxford/AstraZeneca, Pfizer/BioNTech"
2021-03-01,126285.0,53791.0,180076.0,Slovenia,https://covid-19.sledilnik.org/en/stats,"Oxford/AstraZeneca, Pfizer/BioNTech"
2021-03-02,128466.0,53802.0,182268.0,Slovenia,https://covid-19.sledilnik.org/en/stats,"Oxford/AstraZeneca, Pfizer/BioNTech"
2021-03-03,135049.0,54705.0,189754.0,Slovenia,https://covid-19.sledilnik.org/en/stats,"Oxford/AstraZeneca, Pfizer/BioNTech"
2021-03-04,141784.0,59374.0,201158.0,Slovenia,https://covid-19.sledilnik.org/en/stats,"Oxford/AstraZeneca, Pfizer/BioNTech"
2021-03-05,146381.0,65149.0,211530.0,Slovenia,https://covid-19.sledilnik.org/en/stats,"Oxford/AstraZeneca, Pfizer/BioNTech"
2021-03-06,147745.0,65751.0,213496.0,Slovenia,https://covid-19.sledilnik.org/en/stats,"Oxford/AstraZeneca, Pfizer/BioNTech"
2021-03-07,147747.0,65751.0,213498.0,Slovenia,https://covid-19.sledilnik.org/en/stats,"Oxford/AstraZeneca, Pfizer/BioNTech"
2021-03-08,149158.0,66147.0,215305.0,Slovenia,https://covid-19.sledilnik.org/en/stats,"Oxford/AstraZeneca, Pfizer/BioNTech"
2021-03-09,152852.0,66649.0,219501.0,Slovenia,https://covid-19.sledilnik.org/en/stats,"Oxford/AstraZeneca, Pfizer/BioNTech"
2021-03-10,157645.0,71627.0,229272.0,Slovenia,https://covid-19.sledilnik.org/en/stats,"Oxford/AstraZeneca, Pfizer/BioNTech"
2021-03-11,163918.0,79560.0,243478.0,Slovenia,https://covid-19.sledilnik.org/en/stats,"Oxford/AstraZeneca, Pfizer/BioNTech"
2021-03-12,172402.0,84742.0,257144.0,Slovenia,https://covid-19.sledilnik.org/en/stats,"Oxford/AstraZeneca, Pfizer/BioNTech"
2021-03-13,178842.0,86972.0,265814.0,Slovenia,https://covid-19.sledilnik.org/en/stats,"Oxford/AstraZeneca, Pfizer/BioNTech"
2021-03-14,178843.0,86972.0,265815.0,Slovenia,https://covid-19.sledilnik.org/en/stats,"Oxford/AstraZeneca, Pfizer/BioNTech"
2021-03-15,180184.0,87265.0,267449.0,Slovenia,https://covid-19.sledilnik.org/en/stats,"Oxford/AstraZeneca, Pfizer/BioNTech"
2021-03-16,180463.0,88050.0,268513.0,Slovenia,https://covid-19.sledilnik.org/en/stats,"Oxford/AstraZeneca, Pfizer/BioNTech"
2021-03-17,180914.0,93763.0,274677.0,Slovenia,https://covid-19.sledilnik.org/en/stats,"Oxford/AstraZeneca, Pfizer/BioNTech"
2021-03-18,182593.0,102206.0,284799.0,Slovenia,https://covid-19.sledilnik.org/en/stats,"Oxford/AstraZeneca, Pfizer/BioNTech"
2021-03-19,185587.0,106737.0,292324.0,Slovenia,https://covid-19.sledilnik.org/en/stats,"Oxford/AstraZeneca, Pfizer/BioNTech"
2021-03-20,189653.0,106918.0,296571.0,Slovenia,https://covid-19.sledilnik.org/en/stats,"Oxford/AstraZeneca, Pfizer/BioNTech"
2021-03-21,189654.0,106919.0,296573.0,Slovenia,https://covid-19.sledilnik.org/en/stats,"Oxford/AstraZeneca, Pfizer/BioNTech"
2021-03-22,190781.0,106928.0,297709.0,Slovenia,https://covid-19.sledilnik.org/en/stats,"Oxford/AstraZeneca, Pfizer/BioNTech"
2021-03-23,194782.0,107244.0,302026.0,Slovenia,https://covid-19.sledilnik.org/en/stats,"Oxford/AstraZeneca, Pfizer/BioNTech"
2021-03-24,202154.0,109872.0,312026.0,Slovenia,https://covid-19.sledilnik.org/en/stats,"Oxford/AstraZeneca, Pfizer/BioNTech"
2021-03-25,214081.0,112436.0,326517.0,Slovenia,https://covid-19.sledilnik.org/en/stats,"Oxford/AstraZeneca, Pfizer/BioNTech"
2021-03-26,227864.0,114793.0,342657.0,Slovenia,https://covid-19.sledilnik.org/en/stats,"Oxford/AstraZeneca, Pfizer/BioNTech"
2021-03-27,234671.0,115290.0,349961.0,Slovenia,https://covid-19.sledilnik.org/en/stats,"Oxford/AstraZeneca, Pfizer/BioNTech"
2021-03-28,235929.0,115293.0,351222.0,Slovenia,https://covid-19.sledilnik.org/en/stats,"Oxford/AstraZeneca, Pfizer/BioNTech"
2021-03-29,237059.0,115300.0,352359.0,Slovenia,https://covid-19.sledilnik.org/en/stats,"Oxford/AstraZeneca, Pfizer/BioNTech"
2021-03-30,244787.0,115624.0,360411.0,Slovenia,https://covid-19.sledilnik.org/en/stats,"Oxford/AstraZeneca, Pfizer/BioNTech"
2021-03-31,258222.0,116958.0,375180.0,Slovenia,https://covid-19.sledilnik.org/en/stats,"Oxford/AstraZeneca, Pfizer/BioNTech"
2021-04-01,275018.0,119649.0,394667.0,Slovenia,https://covid-19.sledilnik.org/en/stats,"Oxford/AstraZeneca, Pfizer/BioNTech"
2021-04-02,285153.0,121778.0,406931.0,Slovenia,https://covid-19.sledilnik.org/en/stats,"Oxford/AstraZeneca, Pfizer/BioNTech"
2021-04-03,288254.0,121807.0,410061.0,Slovenia,https://covid-19.sledilnik.org/en/stats,"Oxford/AstraZeneca, Pfizer/BioNTech"
2021-04-04,289848.0,121809.0,411657.0,Slovenia,https://covid-19.sledilnik.org/en/stats,"Oxford/AstraZeneca, Pfizer/BioNTech"
2021-04-05,289849.0,121809.0,411658.0,Slovenia,https://covid-19.sledilnik.org/en/stats,"Oxford/AstraZeneca, Pfizer/BioNTech"
2021-04-06,292319.0,122178.0,414497.0,Slovenia,https://covid-19.sledilnik.org/en/stats,"Oxford/AstraZeneca, Pfizer/BioNTech"
2021-04-07,298466.0,122199.0,420665.0,Slovenia,https://covid-19.sledilnik.org/en/stats,"Oxford/AstraZeneca, Pfizer/BioNTech"
2021-04-08,313225.0,122867.0,436092.0,Slovenia,https://covid-19.sledilnik.org/en/stats,"Oxford/AstraZeneca, Pfizer/BioNTech"
2021-04-09,331789.0,124573.0,456362.0,Slovenia,https://covid-19.sledilnik.org/en/stats,"Oxford/AstraZeneca, Pfizer/BioNTech"
2021-04-10,340870.0,124704.0,465574.0,Slovenia,https://covid-19.sledilnik.org/en/stats,"Oxford/AstraZeneca, Pfizer/BioNTech"
2021-04-11,342485.0,124721.0,467206.0,Slovenia,https://covid-19.sledilnik.org/en/stats,"Oxford/AstraZeneca, Pfizer/BioNTech"
2021-04-12,344142.0,124927.0,469069.0,Slovenia,https://covid-19.sledilnik.org/en/stats,"Oxford/AstraZeneca, Pfizer/BioNTech"
2021-04-13,347234.0,125714.0,472948.0,Slovenia,https://covid-19.sledilnik.org/en/stats,"Oxford/AstraZeneca, Pfizer/BioNTech"
2021-04-14,355074.0,129576.0,484650.0,Slovenia,https://covid-19.sledilnik.org/en/stats,"Oxford/AstraZeneca, Pfizer/BioNTech"
2021-04-15,364568.0,139634.0,504202.0,Slovenia,https://covid-19.sledilnik.org/en/stats,"Oxford/AstraZeneca, Pfizer/BioNTech"
2021-04-16,372983.0,145379.0,518362.0,Slovenia,https://covid-19.sledilnik.org/en/stats,"Oxford/AstraZeneca, Pfizer/BioNTech"
2021-04-17,375490.0,149037.0,524527.0,Slovenia,https://covid-19.sledilnik.org/en/stats,"Oxford/AstraZeneca, Pfizer/BioNTech"
2021-04-18,376769.0,149044.0,525813.0,Slovenia,https://covid-19.sledilnik.org/en/stats,"Oxford/AstraZeneca, Pfizer/BioNTech"
2021-04-19,379104.0,149418.0,528522.0,Slovenia,https://covid-19.sledilnik.org/en/stats,"Oxford/AstraZeneca, Pfizer/BioNTech"
2021-04-20,384324.0,150922.0,535246.0,Slovenia,https://covid-19.sledilnik.org/en/stats,"Oxford/AstraZeneca, Pfizer/BioNTech"
2021-04-21,392071.0,160088.0,552159.0,Slovenia,https://covid-19.sledilnik.org/en/stats,"Oxford/AstraZeneca, Pfizer/BioNTech"
2021-04-22,400214.0,172021.0,572235.0,Slovenia,https://covid-19.sledilnik.org/en/stats,"Oxford/AstraZeneca, Pfizer/BioNTech"
2021-04-23,411103.0,178894.0,589997.0,Slovenia,https://covid-19.sledilnik.org/en/stats,"Oxford/AstraZeneca, Pfizer/BioNTech"
2021-04-24,413594.0,179373.0,592967.0,Slovenia,https://covid-19.sledilnik.org/en/stats,"Oxford/AstraZeneca, Pfizer/BioNTech"
2021-04-25,414252.0,179396.0,593648.0,Slovenia,https://covid-19.sledilnik.org/en/stats,"Oxford/AstraZeneca, Pfizer/BioNTech"
2021-04-26,414631.0,179404.0,594035.0,Slovenia,https://covid-19.sledilnik.org/en/stats,"Oxford/AstraZeneca, Pfizer/BioNTech"
2021-04-27,415092.0,179416.0,594508.0,Slovenia,https://covid-19.sledilnik.org/en/stats,"Oxford/AstraZeneca, Pfizer/BioNTech"
2021-04-28,418294.0,184247.0,602541.0,Slovenia,https://covid-19.sledilnik.org/en/stats,"Oxford/AstraZeneca, Pfizer/BioNTech"
2021-04-29,424315.0,197646.0,621961.0,Slovenia,https://covid-19.sledilnik.org/en/stats,"Oxford/AstraZeneca, Pfizer/BioNTech"
2021-04-30,430667.0,212545.0,643212.0,Slovenia,https://covid-19.sledilnik.org/en/stats,"Oxford/AstraZeneca, Pfizer/BioNTech"
2021-05-01,431540.0,218920.0,650460.0,Slovenia,https://covid-19.sledilnik.org/en/stats,"Oxford/AstraZeneca, Pfizer/BioNTech"
2021-05-02,432832.0,221083.0,653915.0,Slovenia,https://covid-19.sledilnik.org/en/stats,"Oxford/AstraZeneca, Pfizer/BioNTech"
2021-05-03,437936.0,224031.0,661967.0,Slovenia,https://covid-19.sledilnik.org/en/stats,"Oxford/AstraZeneca, Pfizer/BioNTech"
2021-05-04,445117.0,226851.0,671968.0,Slovenia,https://covid-19.sledilnik.org/en/stats,"Oxford/AstraZeneca, Pfizer/BioNTech"
2021-05-05,455307.0,234842.0,690149.0,Slovenia,https://covid-19.sledilnik.org/en/stats,"Oxford/AstraZeneca, Pfizer/BioNTech"
2021-05-06,471009.0,247143.0,718152.0,Slovenia,https://covid-19.sledilnik.org/en/stats,"Oxford/AstraZeneca, Pfizer/BioNTech"
2021-05-07,484605.0,255798.0,740403.0,Slovenia,https://covid-19.sledilnik.org/en/stats,"Oxford/AstraZeneca, Pfizer/BioNTech"
2021-05-08,490140.0,261110.0,751250.0,Slovenia,https://covid-19.sledilnik.org/en/stats,"Oxford/AstraZeneca, Pfizer/BioNTech"
2021-05-09,491807.0,261243.0,753050.0,Slovenia,https://covid-19.sledilnik.org/en/stats,"Oxford/AstraZeneca, Pfizer/BioNTech"
2021-05-10,494140.0,262626.0,756766.0,Slovenia,https://covid-19.sledilnik.org/en/stats,"Oxford/AstraZeneca, Pfizer/BioNTech"
2021-05-11,502416.0,264779.0,767195.0,Slovenia,https://covid-19.sledilnik.org/en/stats,"Oxford/AstraZeneca, Pfizer/BioNTech"
2021-05-12,519034.0,270667.0,789701.0,Slovenia,https://covid-19.sledilnik.org/en/stats,"Oxford/AstraZeneca, Pfizer/BioNTech"
2021-05-13,538559.0,280445.0,819004.0,Slovenia,https://covid-19.sledilnik.org/en/stats,"Oxford/AstraZeneca, Pfizer/BioNTech"
2021-05-14,556011.0,289186.0,845197.0,Slovenia,https://covid-19.sledilnik.org/en/stats,"Oxford/AstraZeneca, Pfizer/BioNTech"
2021-05-15,562950.0,293540.0,856490.0,Slovenia,https://covid-19.sledilnik.org/en/stats,"Oxford/AstraZeneca, Pfizer/BioNTech"
2021-05-16,563133.0,296496.0,859629.0,Slovenia,https://covid-19.sledilnik.org/en/stats,"Oxford/AstraZeneca, Pfizer/BioNTech"
2021-05-17,566692.0,301634.0,868326.0,Slovenia,https://covid-19.sledilnik.org/en/stats,"Oxford/AstraZeneca, Pfizer/BioNTech"
2021-05-18,577055.0,305295.0,882350.0,Slovenia,https://covid-19.sledilnik.org/en/stats,"Oxford/AstraZeneca, Pfizer/BioNTech"
2021-05-19,593000.0,313404.0,906404.0,Slovenia,https://covid-19.sledilnik.org/en/stats,"Oxford/AstraZeneca, Pfizer/BioNTech"
2021-05-20,616641.0,320533.0,937174.0,Slovenia,https://covid-19.sledilnik.org/en/stats,"Oxford/AstraZeneca, Pfizer/BioNTech"
2021-05-21,631743.0,333413.0,965156.0,Slovenia,https://covid-19.sledilnik.org/en/stats,"Oxford/AstraZeneca, Pfizer/BioNTech"
2021-05-22,635230.0,341021.0,976251.0,Slovenia,https://covid-19.sledilnik.org/en/stats,"Oxford/AstraZeneca, Pfizer/BioNTech"
2021-05-23,636447.0,342880.0,979327.0,Slovenia,https://covid-19.sledilnik.org/en/stats,"Oxford/AstraZeneca, Pfizer/BioNTech"
2021-05-24,637657.0,348240.0,985897.0,Slovenia,https://covid-19.sledilnik.org/en/stats,"Oxford/AstraZeneca, Pfizer/BioNTech"
2021-05-25,641400.0,355275.0,996675.0,Slovenia,https://covid-19.sledilnik.org/en/stats,"Oxford/AstraZeneca, Pfizer/BioNTech"
2021-05-26,648683.0,370465.0,1019148.0,Slovenia,https://covid-19.sledilnik.org/en/stats,"Oxford/AstraZeneca, Pfizer/BioNTech"
2021-05-27,657971.0,391080.0,1049051.0,Slovenia,https://covid-19.sledilnik.org/en/stats,"Oxford/AstraZeneca, Pfizer/BioNTech"
2021-05-28,666533.0,405334.0,1071867.0,Slovenia,https://covid-19.sledilnik.org/en/stats,"Oxford/AstraZeneca, Pfizer/BioNTech"
2021-05-29,670406.0,412248.0,1082654.0,Slovenia,https://covid-19.sledilnik.org/en/stats,"Oxford/AstraZeneca, Pfizer/BioNTech"
2021-05-30,670407.0,412250.0,1082657.0,Slovenia,https://covid-19.sledilnik.org/en/stats,"Oxford/AstraZeneca, Pfizer/BioNTech"
2021-05-31,673408.0,416353.0,1089761.0,Slovenia,https://covid-19.sledilnik.org/en/stats,"Oxford/AstraZeneca, Pfizer/BioNTech"
2021-06-01,678160.0,428254.0,1106414.0,Slovenia,https://covid-19.sledilnik.org/en/stats,"Oxford/AstraZeneca, Pfizer/BioNTech"
2021-06-02,694088.0,442881.0,1136969.0,Slovenia,https://covid-19.sledilnik.org/en/stats,"Oxford/AstraZeneca, Pfizer/BioNTech"
2021-06-03,712434.0,462901.0,1175335.0,Slovenia,https://covid-19.sledilnik.org/en/stats,"Oxford/AstraZeneca, Pfizer/BioNTech"
2021-06-04,723610.0,483992.0,1207602.0,Slovenia,https://covid-19.sledilnik.org/en/stats,"Oxford/AstraZeneca, Pfizer/BioNTech"
2021-06-05,730256.0,490914.0,1221170.0,Slovenia,https://covid-19.sledilnik.org/en/stats,"Oxford/AstraZeneca, Pfizer/BioNTech"
2021-06-06,734320.0,493645.0,1227965.0,Slovenia,https://covid-19.sledilnik.org/en/stats,"Oxford/AstraZeneca, Pfizer/BioNTech"
2021-06-07,737412.0,498114.0,1235526.0,Slovenia,https://covid-19.sledilnik.org/en/stats,"Oxford/AstraZeneca, Pfizer/BioNTech"
2021-06-08,744926.0,505967.0,1250893.0,Slovenia,https://covid-19.sledilnik.org/en/stats,"Oxford/AstraZeneca, Pfizer/BioNTech"
2021-06-09,754729.0,520114.0,1274843.0,Slovenia,https://covid-19.sledilnik.org/en/stats,"Oxford/AstraZeneca, Pfizer/BioNTech"
2021-06-10,770953.0,537952.0,1308905.0,Slovenia,https://covid-19.sledilnik.org/en/stats,"Oxford/AstraZeneca, Pfizer/BioNTech"
2021-06-11,778778.0,555422.0,1334200.0,Slovenia,https://covid-19.sledilnik.org/en/stats,"Oxford/AstraZeneca, Pfizer/BioNTech"
2021-06-12,783467.0,562128.0,1345595.0,Slovenia,https://covid-19.sledilnik.org/en/stats,"Oxford/AstraZeneca, Pfizer/BioNTech"
2021-06-13,786095.0,562844.0,1348939.0,Slovenia,https://covid-19.sledilnik.org/en/stats,"Oxford/AstraZeneca, Pfizer/BioNTech"
2021-06-14,789034.0,566791.0,1355825.0,Slovenia,https://covid-19.sledilnik.org/en/stats,"Oxford/AstraZeneca, Pfizer/BioNTech"
2021-06-15,794733.0,571773.0,1366506.0,Slovenia,https://covid-19.sledilnik.org/en/stats,"Oxford/AstraZeneca, Pfizer/BioNTech"
2021-06-16,802021.0,582465.0,1384486.0,Slovenia,https://covid-19.sledilnik.org/en/stats,"Oxford/AstraZeneca, Pfizer/BioNTech"
2021-06-17,809772.0,596730.0,1406502.0,Slovenia,https://covid-19.sledilnik.org/en/stats,"Oxford/AstraZeneca, Pfizer/BioNTech"
2021-06-18,814699.0,606761.0,1421460.0,Slovenia,https://covid-19.sledilnik.org/en/stats,"Oxford/AstraZeneca, Pfizer/BioNTech"
2021-06-19,816035.0,608109.0,1424144.0,Slovenia,https://covid-19.sledilnik.org/en/stats,"Oxford/AstraZeneca, Pfizer/BioNTech"
2021-06-20,816125.0,609526.0,1425651.0,Slovenia,https://covid-19.sledilnik.org/en/stats,"Oxford/AstraZeneca, Pfizer/BioNTech"
2021-06-21,817874.0,613657.0,1431531.0,Slovenia,https://covid-19.sledilnik.org/en/stats,"Oxford/AstraZeneca, Pfizer/BioNTech"
2021-06-22,820957.0,621520.0,1442477.0,Slovenia,https://covid-19.sledilnik.org/en/stats,"Oxford/AstraZeneca, Pfizer/BioNTech"
2021-06-23,825933.0,637402.0,1463335.0,Slovenia,https://covid-19.sledilnik.org/en/stats,"Oxford/AstraZeneca, Pfizer/BioNTech"
2021-06-24,831068.0,659164.0,1490232.0,Slovenia,https://covid-19.sledilnik.org/en/stats,"Oxford/AstraZeneca, Pfizer/BioNTech"
2021-06-25,831078.0,659223.0,1490301.0,Slovenia,https://covid-19.sledilnik.org/en/stats,"Oxford/AstraZeneca, Pfizer/BioNTech"
2021-06-26,831517.0,662976.0,1494493.0,Slovenia,https://covid-19.sledilnik.org/en/stats,"Oxford/AstraZeneca, Pfizer/BioNTech"
2021-06-27,831527.0,662987.0,1494514.0,Slovenia,https://covid-19.sledilnik.org/en/stats,"Oxford/AstraZeneca, Pfizer/BioNTech"
2021-06-28,832837.0,668199.0,1501036.0,Slovenia,https://covid-19.sledilnik.org/en/stats,"Oxford/AstraZeneca, Pfizer/BioNTech"
2021-06-29,834791.0,678565.0,1513356.0,Slovenia,https://covid-19.sledilnik.org/en/stats,"Oxford/AstraZeneca, Pfizer/BioNTech"
2021-06-30,838549.0,689919.0,1528468.0,Slovenia,https://covid-19.sledilnik.org/en/stats,"Oxford/AstraZeneca, Pfizer/BioNTech"
2021-07-01,842253.0,706843.0,1549096.0,Slovenia,https://covid-19.sledilnik.org/en/stats,"Oxford/AstraZeneca, Pfizer/BioNTech"
2021-07-02,846138.0,718185.0,1564323.0,Slovenia,https://covid-19.sledilnik.org/en/stats,"Oxford/AstraZeneca, Pfizer/BioNTech"
2021-07-03,846561.0,719392.0,1565953.0,Slovenia,https://covid-19.sledilnik.org/en/stats,"Oxford/AstraZeneca, Pfizer/BioNTech"
2021-07-04,846561.0,719410.0,1565971.0,Slovenia,https://covid-19.sledilnik.org/en/stats,"Oxford/AstraZeneca, Pfizer/BioNTech"
2021-07-05,848013.0,724957.0,1572970.0,Slovenia,https://covid-19.sledilnik.org/en/stats,"Oxford/AstraZeneca, Pfizer/BioNTech"
2021-07-06,850260.0,731685.0,1581945.0,Slovenia,https://covid-19.sledilnik.org/en/stats,"Oxford/AstraZeneca, Pfizer/BioNTech"
2021-07-07,854754.0,740915.0,1595669.0,Slovenia,https://covid-19.sledilnik.org/en/stats,"Oxford/AstraZeneca, Pfizer/BioNTech"
2021-07-08,860477.0,752305.0,1612782.0,Slovenia,https://covid-19.sledilnik.org/en/stats,"Oxford/AstraZeneca, Pfizer/BioNTech"
2021-07-09,864790.0,760512.0,1625302.0,Slovenia,https://covid-19.sledilnik.org/en/stats,"Oxford/AstraZeneca, Pfizer/BioNTech"
2021-07-10,865515.0,761139.0,1626654.0,Slovenia,https://covid-19.sledilnik.org/en/stats,"Oxford/AstraZeneca, Pfizer/BioNTech"
2021-07-11,865731.0,761278.0,1627009.0,Slovenia,https://covid-19.sledilnik.org/en/stats,"Oxford/AstraZeneca, Pfizer/BioNTech"
2021-07-12,868742.0,765367.0,1634109.0,Slovenia,https://covid-19.sledilnik.org/en/stats,"Oxford/AstraZeneca, Pfizer/BioNTech"
2021-07-13,871818.0,769748.0,1641566.0,Slovenia,https://covid-19.sledilnik.org/en/stats,"Oxford/AstraZeneca, Pfizer/BioNTech"
2021-07-14,878076.0,776283.0,1654359.0,Slovenia,https://covid-19.sledilnik.org/en/stats,"Oxford/AstraZeneca, Pfizer/BioNTech"
2021-07-15,885618.0,785262.0,1670880.0,Slovenia,https://covid-19.sledilnik.org/en/stats,"Oxford/AstraZeneca, Pfizer/BioNTech"
2021-07-16,891951.0,791270.0,1683221.0,Slovenia,https://covid-19.sledilnik.org/en/stats,"Oxford/AstraZeneca, Pfizer/BioNTech"
2021-07-17,893332.0,792363.0,1685695.0,Slovenia,https://covid-19.sledilnik.org/en/stats,"Oxford/AstraZeneca, Pfizer/BioNTech"
2021-07-18,893360.0,792373.0,1685733.0,Slovenia,https://covid-19.sledilnik.org/en/stats,"Oxford/AstraZeneca, Pfizer/BioNTech"
2021-07-19,896528.0,795383.0,1691911.0,Slovenia,https://covid-19.sledilnik.org/en/stats,"Oxford/AstraZeneca, Pfizer/BioNTech"
2021-07-20,899997.0,798761.0,1698758.0,Slovenia,https://covid-19.sledilnik.org/en/stats,"Oxford/AstraZeneca, Pfizer/BioNTech"
2021-07-21,906165.0,804265.0,1710430.0,Slovenia,https://covid-19.sledilnik.org/en/stats,"Oxford/AstraZeneca, Pfizer/BioNTech"
2021-07-22,912596.0,810588.0,1723184.0,Slovenia,https://covid-19.sledilnik.org/en/stats,"Oxford/AstraZeneca, Pfizer/BioNTech"
2021-07-23,918464.0,815889.0,1734353.0,Slovenia,https://covid-19.sledilnik.org/en/stats,"Oxford/AstraZeneca, Pfizer/BioNTech"
2021-07-24,919576.0,816648.0,1736224.0,Slovenia,https://covid-19.sledilnik.org/en/stats,"Oxford/AstraZeneca, Pfizer/BioNTech"
2021-07-25,919584.0,816665.0,1736249.0,Slovenia,https://covid-19.sledilnik.org/en/stats,"Oxford/AstraZeneca, Pfizer/BioNTech"
2021-07-26,922918.0,819306.0,1742224.0,Slovenia,https://covid-19.sledilnik.org/en/stats,"Oxford/AstraZeneca, Pfizer/BioNTech"
2021-07-27,927781.0,822207.0,1749988.0,Slovenia,https://covid-19.sledilnik.org/en/stats,"Oxford/AstraZeneca, Pfizer/BioNTech"
2021-07-28,932999.0,827352.0,1760351.0,Slovenia,https://covid-19.sledilnik.org/en/stats,"Oxford/AstraZeneca, Pfizer/BioNTech"
2021-07-29,938649.0,833602.0,1772251.0,Slovenia,https://covid-19.sledilnik.org/en/stats,"Oxford/AstraZeneca, Pfizer/BioNTech"
2021-07-30,942758.0,838900.0,1781658.0,Slovenia,https://covid-19.sledilnik.org/en/stats,"Oxford/AstraZeneca, Pfizer/BioNTech"
2021-07-31,944199.0,840124.0,1784323.0,Slovenia,https://covid-19.sledilnik.org/en/stats,"Oxford/AstraZeneca, Pfizer/BioNTech"
2021-08-01,944207.0,840133.0,1784340.0,Slovenia,https://covid-19.sledilnik.org/en/stats,"Oxford/AstraZeneca, Pfizer/BioNTech"
2021-08-02,946838.0,843117.0,1789955.0,Slovenia,https://covid-19.sledilnik.org/en/stats,"Oxford/AstraZeneca, Pfizer/BioNTech"
2021-08-03,950566.0,845842.0,1796408.0,Slovenia,https://covid-19.sledilnik.org/en/stats,"Oxford/AstraZeneca, Pfizer/BioNTech"
2021-08-04,954701.0,850846.0,1805547.0,Slovenia,https://covid-19.sledilnik.org/en/stats,"Oxford/AstraZeneca, Pfizer/BioNTech"
2021-08-05,959519.0,857146.0,1816665.0,Slovenia,https://covid-19.sledilnik.org/en/stats,"Oxford/AstraZeneca, Pfizer/BioNTech"
2021-08-06,962720.0,862548.0,1825268.0,Slovenia,https://covid-19.sledilnik.org/en/stats,"Oxford/AstraZeneca, Pfizer/BioNTech"
2021-08-07,963379.0,863036.0,1826415.0,Slovenia,https://covid-19.sledilnik.org/en/stats,"Oxford/AstraZeneca, Pfizer/BioNTech"
2021-08-08,963765.0,863197.0,1826962.0,Slovenia,https://covid-19.sledilnik.org/en/stats,"Oxford/AstraZeneca, Pfizer/BioNTech"
2021-08-09,965963.0,865516.0,1831479.0,Slovenia,https://covid-19.sledilnik.org/en/stats,"Oxford/AstraZeneca, Pfizer/BioNTech"
2021-08-10,968638.0,868370.0,1837008.0,Slovenia,https://covid-19.sledilnik.org/en/stats,"Oxford/AstraZeneca, Pfizer/BioNTech"
2021-08-11,972035.0,872605.0,1844640.0,Slovenia,https://covid-19.sledilnik.org/en/stats,"Oxford/AstraZeneca, Pfizer/BioNTech"
2021-08-12,975942.0,878878.0,1854820.0,Slovenia,https://covid-19.sledilnik.org/en/stats,"Oxford/AstraZeneca, Pfizer/BioNTech"
2021-08-13,979193.0,884269.0,1863462.0,Slovenia,https://covid-19.sledilnik.org/en/stats,"Oxford/AstraZeneca, Pfizer/BioNTech"
2021-08-14,979664.0,884725.0,1864389.0,Slovenia,https://covid-19.sledilnik.org/en/stats,"Oxford/AstraZeneca, Pfizer/BioNTech"
2021-08-15,979731.0,884764.0,1864495.0,Slovenia,https://covid-19.sledilnik.org/en/stats,"Oxford/AstraZeneca, Pfizer/BioNTech"
2021-08-16,982569.0,887975.0,1870544.0,Slovenia,https://covid-19.sledilnik.org/en/stats,"Oxford/AstraZeneca, Pfizer/BioNTech"
2021-08-17,986085.0,891745.0,1877830.0,Slovenia,https://covid-19.sledilnik.org/en/stats,"Oxford/AstraZeneca, Pfizer/BioNTech"
2021-08-18,990112.0,896192.0,1886304.0,Slovenia,https://covid-19.sledilnik.org/en/stats,"Oxford/AstraZeneca, Pfizer/BioNTech"
2021-08-19,994401.0,901926.0,1896327.0,Slovenia,https://covid-19.sledilnik.org/en/stats,"Oxford/AstraZeneca, Pfizer/BioNTech"
2021-08-20,998116.0,906593.0,1904709.0,Slovenia,https://covid-19.sledilnik.org/en/stats,"Oxford/AstraZeneca, Pfizer/BioNTech"
2021-08-21,998673.0,907157.0,1905830.0,Slovenia,https://covid-19.sledilnik.org/en/stats,"Oxford/AstraZeneca, Pfizer/BioNTech"
2021-08-22,998675.0,907159.0,1905834.0,Slovenia,https://covid-19.sledilnik.org/en/stats,"Oxford/AstraZeneca, Pfizer/BioNTech"
2021-08-23,1001169.0,909846.0,1911015.0,Slovenia,https://covid-19.sledilnik.org/en/stats,"Oxford/AstraZeneca, Pfizer/BioNTech"
2021-08-24,1004809.0,913498.0,1918307.0,Slovenia,https://covid-19.sledilnik.org/en/stats,"Oxford/AstraZeneca, Pfizer/BioNTech"
2021-08-25,1008657.0,917467.0,1926124.0,Slovenia,https://covid-19.sledilnik.org/en/stats,"Oxford/AstraZeneca, Pfizer/BioNTech"
2021-08-26,1013473.0,922760.0,1936233.0,Slovenia,https://covid-19.sledilnik.org/en/stats,"Oxford/AstraZeneca, Pfizer/BioNTech"
2021-08-27,1017052.0,927035.0,1944087.0,Slovenia,https://covid-19.sledilnik.org/en/stats,"Oxford/AstraZeneca, Pfizer/BioNTech"
2021-08-28,1017791.0,927612.0,1945403.0,Slovenia,https://covid-19.sledilnik.org/en/stats,"Oxford/AstraZeneca, Pfizer/BioNTech"
2021-08-29,1017839.0,927637.0,1945476.0,Slovenia,https://covid-19.sledilnik.org/en/stats,"Oxford/AstraZeneca, Pfizer/BioNTech"
2021-08-30,1020400.0,930008.0,1950408.0,Slovenia,https://covid-19.sledilnik.org/en/stats,"Oxford/AstraZeneca, Pfizer/BioNTech"
2021-08-31,1023430.0,932651.0,1956081.0,Slovenia,https://covid-19.sledilnik.org/en/stats,"Oxford/AstraZeneca, Pfizer/BioNTech"
2021-09-01,1026330.0,935635.0,1961965.0,Slovenia,https://covid-19.sledilnik.org/en/stats,"Oxford/AstraZeneca, Pfizer/BioNTech"
2021-09-02,1030201.0,940489.0,1970690.0,Slovenia,https://covid-19.sledilnik.org/en/stats,"Oxford/AstraZeneca, Pfizer/BioNTech"
2021-09-03,1033693.0,944146.0,1977839.0,Slovenia,https://covid-19.sledilnik.org/en/stats,"Oxford/AstraZeneca, Pfizer/BioNTech"
2021-09-04,1034136.0,944459.0,1978595.0,Slovenia,https://covid-19.sledilnik.org/en/stats,"Oxford/AstraZeneca, Pfizer/BioNTech"
2021-09-05,1034136.0,944459.0,1978595.0,Slovenia,https://covid-19.sledilnik.org/en/stats,"Oxford/AstraZeneca, Pfizer/BioNTech"
2021-09-06,1036759.0,946885.0,1983644.0,Slovenia,https://covid-19.sledilnik.org/en/stats,"Oxford/AstraZeneca, Pfizer/BioNTech"
2021-09-07,1041317.0,950351.0,1991668.0,Slovenia,https://covid-19.sledilnik.org/en/stats,"Oxford/AstraZeneca, Pfizer/BioNTech"
2021-09-08,1046223.0,954550.0,2000773.0,Slovenia,https://covid-19.sledilnik.org/en/stats,"Oxford/AstraZeneca, Pfizer/BioNTech"
2021-09-09,1052609.0,959995.0,2012604.0,Slovenia,https://covid-19.sledilnik.org/en/stats,"Oxford/AstraZeneca, Pfizer/BioNTech"
2021-09-10,1057809.0,964590.0,2022399.0,Slovenia,https://covid-19.sledilnik.org/en/stats,"Oxford/AstraZeneca, Pfizer/BioNTech"
2021-09-11,1058991.0,965332.0,2024323.0,Slovenia,https://covid-19.sledilnik.org/en/stats,"Oxford/AstraZeneca, Pfizer/BioNTech"
2021-09-12,1058992.0,965333.0,2024325.0,Slovenia,https://covid-19.sledilnik.org/en/stats,"Oxford/AstraZeneca, Pfizer/BioNTech"
2021-09-13,1065833.0,968929.0,2034762.0,Slovenia,https://covid-19.sledilnik.org/en/stats,"Oxford/AstraZeneca, Pfizer/BioNTech"
2021-09-14,1078332.0,974535.0,2052867.0,Slovenia,https://covid-19.sledilnik.org/en/stats,"Oxford/AstraZeneca, Pfizer/BioNTech"
2021-09-15,1090660.0,980851.0,2071511.0,Slovenia,https://covid-19.sledilnik.org/en/stats,"Oxford/AstraZeneca, Pfizer/BioNTech"
2021-09-16,1105540.0,990083.0,2095623.0,Slovenia,https://covid-19.sledilnik.org/en/stats,"Oxford/AstraZeneca, Pfizer/BioNTech"
2021-09-17,1117138.0,997247.0,2114385.0,Slovenia,https://covid-19.sledilnik.org/en/stats,"Oxford/AstraZeneca, Pfizer/BioNTech"
2021-09-18,1123480.0,999558.0,2123038.0,Slovenia,https://covid-19.sledilnik.org/en/stats,"Oxford/AstraZeneca, Pfizer/BioNTech"
2021-09-19,1126180.0,1000312.0,2126492.0,Slovenia,https://covid-19.sledilnik.org/en/stats,"Oxford/AstraZeneca, Pfizer/BioNTech"
2021-09-20,1131133.0,1002925.0,2134058.0,Slovenia,https://covid-19.sledilnik.org/en/stats,"Oxford/AstraZeneca, Pfizer/BioNTech"
2021-09-21,1135993.0,1005512.0,2141505.0,Slovenia,https://covid-19.sledilnik.org/en/stats,"Oxford/AstraZeneca, Pfizer/BioNTech"
2021-09-22,1140297.0,1008477.0,2148774.0,Slovenia,https://covid-19.sledilnik.org/en/stats,"Oxford/AstraZeneca, Pfizer/BioNTech"
2021-09-23,1146464.0,1014116.0,2160580.0,Slovenia,https://covid-19.sledilnik.org/en/stats,"Oxford/AstraZeneca, Pfizer/BioNTech"
2021-09-24,1152297.0,1019648.0,2171945.0,Slovenia,https://covid-19.sledilnik.org/en/stats,"Oxford/AstraZeneca, Pfizer/BioNTech"
2021-09-25,1153516.0,1020636.0,2174152.0,Slovenia,https://covid-19.sledilnik.org/en/stats,"Oxford/AstraZeneca, Pfizer/BioNTech"
2021-09-26,1154024.0,1021087.0,2175111.0,Slovenia,https://covid-19.sledilnik.org/en/stats,"Oxford/AstraZeneca, Pfizer/BioNTech"
2021-09-27,1156800.0,1023926.0,2180726.0,Slovenia,https://covid-19.sledilnik.org/en/stats,"Oxford/AstraZeneca, Pfizer/BioNTech"
2021-09-28,1160645.0,1027898.0,2188543.0,Slovenia,https://covid-19.sledilnik.org/en/stats,"Oxford/AstraZeneca, Pfizer/BioNTech"
2021-09-29,1163003.0,1031249.0,2194252.0,Slovenia,https://covid-19.sledilnik.org/en/stats,"Oxford/AstraZeneca, Pfizer/BioNTech"
2021-09-30,1165537.0,1036113.0,2201650.0,Slovenia,https://covid-19.sledilnik.org/en/stats,"Oxford/AstraZeneca, Pfizer/BioNTech"
2021-10-01,1167216.0,1040210.0,2207426.0,Slovenia,https://covid-19.sledilnik.org/en/stats,"Oxford/AstraZeneca, Pfizer/BioNTech"
2021-10-02,1167585.0,1040728.0,2208313.0,Slovenia,https://covid-19.sledilnik.org/en/stats,"Oxford/AstraZeneca, Pfizer/BioNTech"
2021-10-03,1167610.0,1040748.0,2208358.0,Slovenia,https://covid-19.sledilnik.org/en/stats,"Oxford/AstraZeneca, Pfizer/BioNTech"
2021-10-04,1168615.0,1044393.0,2213008.0,Slovenia,https://covid-19.sledilnik.org/en/stats,"Oxford/AstraZeneca, Pfizer/BioNTech"
2021-10-05,1169870.0,1050286.0,2220156.0,Slovenia,https://covid-19.sledilnik.org/en/stats,"Oxford/AstraZeneca, Pfizer/BioNTech"
2021-10-06,1171125.0,1056679.0,2227804.0,Slovenia,https://covid-19.sledilnik.org/en/stats,"Oxford/AstraZeneca, Pfizer/BioNTech"
2021-10-07,1172671.0,1066756.0,2239427.0,Slovenia,https://covid-19.sledilnik.org/en/stats,"Oxford/AstraZeneca, Pfizer/BioNTech"
2021-10-08,1173697.0,1074957.0,2248654.0,Slovenia,https://covid-19.sledilnik.org/en/stats,"Oxford/AstraZeneca, Pfizer/BioNTech"
2021-10-09,1173944.0,1076390.0,2250334.0,Slovenia,https://covid-19.sledilnik.org/en/stats,"Oxford/AstraZeneca, Pfizer/BioNTech"
2021-10-10,1173982.0,1076597.0,2250579.0,Slovenia,https://covid-19.sledilnik.org/en/stats,"Oxford/AstraZeneca, Pfizer/BioNTech"
2021-10-11,1174687.0,1081126.0,2255813.0,Slovenia,https://covid-19.sledilnik.org/en/stats,"Oxford/AstraZeneca, Pfizer/BioNTech"
2021-10-12,1175751.0,1085571.0,2261322.0,Slovenia,https://covid-19.sledilnik.org/en/stats,"Oxford/AstraZeneca, Pfizer/BioNTech"
2021-10-13,1176594.0,1089506.0,2266100.0,Slovenia,https://covid-19.sledilnik.org/en/stats,"Oxford/AstraZeneca, Pfizer/BioNTech"
2021-10-14,1177635.0,1095256.0,2272891.0,Slovenia,https://covid-19.sledilnik.org/en/stats,"Oxford/AstraZeneca, Pfizer/BioNTech"
2021-10-15,1178527.0,1099127.0,2277654.0,Slovenia,https://covid-19.sledilnik.org/en/stats,"Oxford/AstraZeneca, Pfizer/BioNTech"
2021-10-16,1178675.0,1099408.0,2278083.0,Slovenia,https://covid-19.sledilnik.org/en/stats,"Oxford/AstraZeneca, Pfizer/BioNTech"
2021-10-17,1178685.0,1099438.0,2278123.0,Slovenia,https://covid-19.sledilnik.org/en/stats,"Oxford/AstraZeneca, Pfizer/BioNTech"
2021-10-18,1179350.0,1101357.0,2280707.0,Slovenia,https://covid-19.sledilnik.org/en/stats,"Oxford/AstraZeneca, Pfizer/BioNTech"
2021-10-19,1180075.0,1103486.0,2283561.0,Slovenia,https://covid-19.sledilnik.org/en/stats,"Oxford/AstraZeneca, Pfizer/BioNTech"
2021-10-20,1180892.0,1105651.0,2286543.0,Slovenia,https://covid-19.sledilnik.org/en/stats,"Oxford/AstraZeneca, Pfizer/BioNTech"
2021-10-21,1182040.0,1109022.0,2291062.0,Slovenia,https://covid-19.sledilnik.org/en/stats,"Oxford/AstraZeneca, Pfizer/BioNTech"
2021-10-22,1182925.0,1111224.0,2294149.0,Slovenia,https://covid-19.sledilnik.org/en/stats,"Oxford/AstraZeneca, Pfizer/BioNTech"
2021-10-23,1183073.0,1111433.0,2294506.0,Slovenia,https://covid-19.sledilnik.org/en/stats,"Oxford/AstraZeneca, Pfizer/BioNTech"
2021-10-24,1183073.0,1111433.0,2294506.0,Slovenia,https://covid-19.sledilnik.org/en/stats,"Oxford/AstraZeneca, Pfizer/BioNTech"
2021-10-25,1183887.0,1112487.0,2296374.0,Slovenia,https://covid-19.sledilnik.org/en/stats,"Oxford/AstraZeneca, Pfizer/BioNTech"
2021-10-26,1184925.0,1114024.0,2298949.0,Slovenia,https://covid-19.sledilnik.org/en/stats,"Oxford/AstraZeneca, Pfizer/BioNTech"
2021-10-27,1185797.0,1115186.0,2300983.0,Slovenia,https://covid-19.sledilnik.org/en/stats,"Oxford/AstraZeneca, Pfizer/BioNTech"
2021-10-28,1187411.0,1117312.0,2304723.0,Slovenia,https://covid-19.sledilnik.org/en/stats,"Oxford/AstraZeneca, Pfizer/BioNTech"
2021-10-29,1188402.0,1118477.0,2306879.0,Slovenia,https://covid-19.sledilnik.org/en/stats,"Oxford/AstraZeneca, Pfizer/BioNTech"
2021-10-30,1188614.0,1118610.0,2307224.0,Slovenia,https://covid-19.sledilnik.org/en/stats,"Oxford/AstraZeneca, Pfizer/BioNTech"
2021-10-31,1188614.0,1118610.0,2307224.0,Slovenia,https://covid-19.sledilnik.org/en/stats,"Oxford/AstraZeneca, Pfizer/BioNTech"
2021-11-01,1188614.0,1118610.0,2307224.0,Slovenia,https://covid-19.sledilnik.org/en/stats,"Oxford/AstraZeneca, Pfizer/BioNTech"
2021-11-02,1190014.0,1120005.0,2310019.0,Slovenia,https://covid-19.sledilnik.org/en/stats,"Oxford/AstraZeneca, Pfizer/BioNTech"
2021-11-03,1191195.0,1121123.0,2312318.0,Slovenia,https://covid-19.sledilnik.org/en/stats,"Oxford/AstraZeneca, Pfizer/BioNTech"
2021-11-04,1193189.0,1122829.0,2316018.0,Slovenia,https://covid-19.sledilnik.org/en/stats,"Oxford/AstraZeneca, Pfizer/BioNTech"
2021-11-05,1194949.0,1124130.0,2319079.0,Slovenia,https://covid-19.sledilnik.org/en/stats,"Oxford/AstraZeneca, Pfizer/BioNTech"
2021-11-06,1195681.0,1124413.0,2320094.0,Slovenia,https://covid-19.sledilnik.org/en/stats,"Oxford/AstraZeneca, Pfizer/BioNTech"
2021-11-07,1195927.0,1124543.0,2320470.0,Slovenia,https://covid-19.sledilnik.org/en/stats,"Oxford/AstraZeneca, Pfizer/BioNTech"
2021-11-08,1197734.0,1125477.0,2323211.0,Slovenia,https://covid-19.sledilnik.org/en/stats,"Oxford/AstraZeneca, Pfizer/BioNTech"
2021-11-09,1199791.0,1126453.0,2326244.0,Slovenia,https://covid-19.sledilnik.org/en/stats,"Oxford/AstraZeneca, Pfizer/BioNTech"
2021-11-10,1201788.0,1127697.0,2329485.0,Slovenia,https://covid-19.sledilnik.org/en/stats,"Oxford/AstraZeneca, Pfizer/BioNTech"
2021-11-11,1204484.0,1129402.0,2333886.0,Slovenia,https://covid-19.sledilnik.org/en/stats,"Oxford/AstraZeneca, Pfizer/BioNTech"
2021-11-12,1206973.0,1130949.0,2337922.0,Slovenia,https://covid-19.sledilnik.org/en/stats,"Oxford/AstraZeneca, Pfizer/BioNTech"
2021-11-13,1208104.0,1131334.0,2339438.0,Slovenia,https://covid-19.sledilnik.org/en/stats,"Oxford/AstraZeneca, Pfizer/BioNTech"
2021-11-14,1208339.0,1131406.0,2339745.0,Slovenia,https://covid-19.sledilnik.org/en/stats,"Oxford/AstraZeneca, Pfizer/BioNTech"
2021-11-15,1210331.0,1132283.0,2342614.0,Slovenia,https://covid-19.sledilnik.org/en/stats,"Oxford/AstraZeneca, Pfizer/BioNTech"
2021-11-16,1212523.0,1133262.0,2345785.0,Slovenia,https://covid-19.sledilnik.org/en/stats,"Oxford/AstraZeneca, Pfizer/BioNTech"
