date,location,total_vaccinations,people_vaccinated,people_fully_vaccinated,total_boosters,source_url,vaccine
2020-12-13,United States,21027.0,17893.0,3756.0,0.0,https://covid.cdc.gov/covid-data-tracker/#vaccination-trends,Pfizer/BioNTech
2020-12-14,United States,25342.0,22072.0,3852.0,0.0,https://covid.cdc.gov/covid-data-tracker/#vaccination-trends,Pfizer/BioNTech
2020-12-15,United States,74003.0,68543.0,4037.0,0.0,https://covid.cdc.gov/covid-data-tracker/#vaccination-trends,Pfizer/BioNTech
2020-12-16,United States,232766.0,221883.0,4412.0,0.0,https://covid.cdc.gov/covid-data-tracker/#vaccination-trends,Pfizer/BioNTech
2020-12-17,United States,503357.0,485460.0,4961.0,0.0,https://covid.cdc.gov/covid-data-tracker/#vaccination-trends,Pfizer/BioNTech
2020-12-18,United States,916756.0,890338.0,5928.0,0.0,https://covid.cdc.gov/covid-data-tracker/#vaccination-trends,Pfizer/BioNTech
2020-12-19,United States,1097709.0,1067526.0,6873.0,0.0,https://covid.cdc.gov/covid-data-tracker/#vaccination-trends,Pfizer/BioNTech
2020-12-20,United States,1201994.0,1169924.0,7516.0,0.0,https://covid.cdc.gov/covid-data-tracker/#vaccination-trends,Pfizer/BioNTech
2020-12-21,United States,1582720.0,1544287.0,8667.0,0.0,https://covid.cdc.gov/covid-data-tracker/#vaccination-trends,Pfizer/BioNTech
2020-12-22,United States,2031176.0,1984201.0,11114.0,0.0,https://covid.cdc.gov/covid-data-tracker/#vaccination-trends,Pfizer/BioNTech
2020-12-23,United States,2603364.0,2544901.0,13165.0,0.0,https://covid.cdc.gov/covid-data-tracker/#vaccination-trends,"Moderna, Pfizer/BioNTech"
2020-12-24,United States,2799107.0,2735830.0,14068.0,0.0,https://covid.cdc.gov/covid-data-tracker/#vaccination-trends,"Moderna, Pfizer/BioNTech"
2020-12-25,United States,2811753.0,2748344.0,14153.0,0.0,https://covid.cdc.gov/covid-data-tracker/#vaccination-trends,"Moderna, Pfizer/BioNTech"
2020-12-26,United States,2952808.0,2886484.0,14754.0,0.0,https://covid.cdc.gov/covid-data-tracker/#vaccination-trends,"Moderna, Pfizer/BioNTech"
2020-12-27,United States,3049290.0,2980142.0,15318.0,0.0,https://covid.cdc.gov/covid-data-tracker/#vaccination-trends,"Moderna, Pfizer/BioNTech"
2020-12-28,United States,3636494.0,3555408.0,18337.0,0.0,https://covid.cdc.gov/covid-data-tracker/#vaccination-trends,"Moderna, Pfizer/BioNTech"
2020-12-29,United States,4353187.0,4255248.0,22507.0,0.0,https://covid.cdc.gov/covid-data-tracker/#vaccination-trends,"Moderna, Pfizer/BioNTech"
2020-12-30,United States,5190769.0,5076235.0,28524.0,0.0,https://covid.cdc.gov/covid-data-tracker/#vaccination-trends,"Moderna, Pfizer/BioNTech"
2020-12-31,United States,5611100.0,5488040.0,31288.0,0.0,https://covid.cdc.gov/covid-data-tracker/#vaccination-trends,"Moderna, Pfizer/BioNTech"
2021-01-01,United States,5694892.0,5565169.0,36619.0,0.0,https://covid.cdc.gov/covid-data-tracker/#vaccination-trends,"Moderna, Pfizer/BioNTech"
2021-01-02,United States,5956377.0,5818031.0,39211.0,0.0,https://covid.cdc.gov/covid-data-tracker/#vaccination-trends,"Moderna, Pfizer/BioNTech"
2021-01-03,United States,6093365.0,5947863.0,41551.0,0.0,https://covid.cdc.gov/covid-data-tracker/#vaccination-trends,"Moderna, Pfizer/BioNTech"
2021-01-04,United States,6743521.0,6540552.0,86364.0,0.0,https://covid.cdc.gov/covid-data-tracker/#vaccination-trends,"Moderna, Pfizer/BioNTech"
2021-01-05,United States,7567691.0,7265749.0,173631.0,0.0,https://covid.cdc.gov/covid-data-tracker/#vaccination-trends,"Moderna, Pfizer/BioNTech"
2021-01-06,United States,8582099.0,8093071.0,344514.0,0.0,https://covid.cdc.gov/covid-data-tracker/#vaccination-trends,"Moderna, Pfizer/BioNTech"
2021-01-07,United States,9743345.0,8955144.0,622579.0,0.0,https://covid.cdc.gov/covid-data-tracker/#vaccination-trends,"Moderna, Pfizer/BioNTech"
2021-01-08,United States,10971730.0,9798659.0,982903.0,0.0,https://covid.cdc.gov/covid-data-tracker/#vaccination-trends,"Moderna, Pfizer/BioNTech"
2021-01-09,United States,11478216.0,10168093.0,1110790.0,0.0,https://covid.cdc.gov/covid-data-tracker/#vaccination-trends,"Moderna, Pfizer/BioNTech"
2021-01-10,United States,11727209.0,10343264.0,1179568.0,0.0,https://covid.cdc.gov/covid-data-tracker/#vaccination-trends,"Moderna, Pfizer/BioNTech"
2021-01-11,United States,12792940.0,11065372.0,1501311.0,0.0,https://covid.cdc.gov/covid-data-tracker/#vaccination-trends,"Moderna, Pfizer/BioNTech"
2021-01-12,United States,14044459.0,11977604.0,1815083.0,0.0,https://covid.cdc.gov/covid-data-tracker/#vaccination-trends,"Moderna, Pfizer/BioNTech"
2021-01-13,United States,15363261.0,13004935.0,2085373.0,0.0,https://covid.cdc.gov/covid-data-tracker/#vaccination-trends,"Moderna, Pfizer/BioNTech"
2021-01-14,United States,16670928.0,14157284.0,2219819.0,0.0,https://covid.cdc.gov/covid-data-tracker/#vaccination-trends,"Moderna, Pfizer/BioNTech"
2021-01-15,United States,17931543.0,15280869.0,2339335.0,0.0,https://covid.cdc.gov/covid-data-tracker/#vaccination-trends,"Moderna, Pfizer/BioNTech"
2021-01-16,United States,18586792.0,15853724.0,2410784.0,0.0,https://covid.cdc.gov/covid-data-tracker/#vaccination-trends,"Moderna, Pfizer/BioNTech"
2021-01-17,United States,18893687.0,16110849.0,2453046.0,0.0,https://covid.cdc.gov/covid-data-tracker/#vaccination-trends,"Moderna, Pfizer/BioNTech"
2021-01-18,United States,19778735.0,16750310.0,2680929.0,0.0,https://covid.cdc.gov/covid-data-tracker/#vaccination-trends,"Moderna, Pfizer/BioNTech"
2021-01-19,United States,21128881.0,17723680.0,3032906.0,0.0,https://covid.cdc.gov/covid-data-tracker/#vaccination-trends,"Moderna, Pfizer/BioNTech"
2021-01-20,United States,22753208.0,18900908.0,3452541.0,0.0,https://covid.cdc.gov/covid-data-tracker/#vaccination-trends,"Moderna, Pfizer/BioNTech"
2021-01-21,United States,24399260.0,20248683.0,3725101.0,0.0,https://covid.cdc.gov/covid-data-tracker/#vaccination-trends,"Moderna, Pfizer/BioNTech"
2021-01-22,United States,26021176.0,21641606.0,3931311.0,0.0,https://covid.cdc.gov/covid-data-tracker/#vaccination-trends,"Moderna, Pfizer/BioNTech"
2021-01-23,United States,26928517.0,22385984.0,4079409.0,0.0,https://covid.cdc.gov/covid-data-tracker/#vaccination-trends,"Moderna, Pfizer/BioNTech"
2021-01-24,United States,27325903.0,22688956.0,4166385.0,0.0,https://covid.cdc.gov/covid-data-tracker/#vaccination-trends,"Moderna, Pfizer/BioNTech"
2021-01-25,United States,28695191.0,23549765.0,4648714.0,0.0,https://covid.cdc.gov/covid-data-tracker/#vaccination-trends,"Moderna, Pfizer/BioNTech"
2021-01-26,United States,30351988.0,24604382.0,5221606.0,0.0,https://covid.cdc.gov/covid-data-tracker/#vaccination-trends,"Moderna, Pfizer/BioNTech"
2021-01-27,United States,32277651.0,25855310.0,5860242.0,0.0,https://covid.cdc.gov/covid-data-tracker/#vaccination-trends,"Moderna, Pfizer/BioNTech"
2021-01-28,United States,34233930.0,27225653.0,6408340.0,0.0,https://covid.cdc.gov/covid-data-tracker/#vaccination-trends,"Moderna, Pfizer/BioNTech"
2021-01-29,United States,36145198.0,28600659.0,6894020.0,0.0,https://covid.cdc.gov/covid-data-tracker/#vaccination-trends,"Moderna, Pfizer/BioNTech"
2021-01-30,United States,37167683.0,29365466.0,7133171.0,0.0,https://covid.cdc.gov/covid-data-tracker/#vaccination-trends,"Moderna, Pfizer/BioNTech"
2021-01-31,United States,37630549.0,29692573.0,7257812.0,0.0,https://covid.cdc.gov/covid-data-tracker/#vaccination-trends,"Moderna, Pfizer/BioNTech"
2021-02-01,United States,38997282.0,30456512.0,7818199.0,0.0,https://covid.cdc.gov/covid-data-tracker/#vaccination-trends,"Moderna, Pfizer/BioNTech"
2021-02-02,United States,40684472.0,31419914.0,8504522.0,0.0,https://covid.cdc.gov/covid-data-tracker/#vaccination-trends,"Moderna, Pfizer/BioNTech"
2021-02-03,United States,42820941.0,32683696.0,9326794.0,0.0,https://covid.cdc.gov/covid-data-tracker/#vaccination-trends,"Moderna, Pfizer/BioNTech"
2021-02-04,United States,45158297.0,34075455.0,10224897.0,0.0,https://covid.cdc.gov/covid-data-tracker/#vaccination-trends,"Moderna, Pfizer/BioNTech"
2021-02-05,United States,47515672.0,35439908.0,11169199.0,0.0,https://covid.cdc.gov/covid-data-tracker/#vaccination-trends,"Moderna, Pfizer/BioNTech"
2021-02-06,United States,48814684.0,36295427.0,11586829.0,0.0,https://covid.cdc.gov/covid-data-tracker/#vaccination-trends,"Moderna, Pfizer/BioNTech"
2021-02-07,United States,49263910.0,36575939.0,11742116.0,0.0,https://covid.cdc.gov/covid-data-tracker/#vaccination-trends,"Moderna, Pfizer/BioNTech"
2021-02-08,United States,50839431.0,37414439.0,12439449.0,0.0,https://covid.cdc.gov/covid-data-tracker/#vaccination-trends,"Moderna, Pfizer/BioNTech"
2021-02-09,United States,52808441.0,38456074.0,13321892.0,0.0,https://covid.cdc.gov/covid-data-tracker/#vaccination-trends,"Moderna, Pfizer/BioNTech"
2021-02-10,United States,55106218.0,39684720.0,14347307.0,0.0,https://covid.cdc.gov/covid-data-tracker/#vaccination-trends,"Moderna, Pfizer/BioNTech"
2021-02-11,United States,57505378.0,40959779.0,15425786.0,0.0,https://covid.cdc.gov/covid-data-tracker/#vaccination-trends,"Moderna, Pfizer/BioNTech"
2021-02-12,United States,60085929.0,42340096.0,16572644.0,0.0,https://covid.cdc.gov/covid-data-tracker/#vaccination-trends,"Moderna, Pfizer/BioNTech"
2021-02-13,United States,61558836.0,43204969.0,17145337.0,0.0,https://covid.cdc.gov/covid-data-tracker/#vaccination-trends,"Moderna, Pfizer/BioNTech"
2021-02-14,United States,62151531.0,43552360.0,17373611.0,0.0,https://covid.cdc.gov/covid-data-tracker/#vaccination-trends,"Moderna, Pfizer/BioNTech"
2021-02-15,United States,63330892.0,44169029.0,17902738.0,0.0,https://covid.cdc.gov/covid-data-tracker/#vaccination-trends,"Moderna, Pfizer/BioNTech"
2021-02-16,United States,64954453.0,44970293.0,18683403.0,0.0,https://covid.cdc.gov/covid-data-tracker/#vaccination-trends,"Moderna, Pfizer/BioNTech"
2021-02-17,United States,66918169.0,45902055.0,19670587.0,0.0,https://covid.cdc.gov/covid-data-tracker/#vaccination-trends,"Moderna, Pfizer/BioNTech"
2021-02-18,United States,68775298.0,46737141.0,20639034.0,0.0,https://covid.cdc.gov/covid-data-tracker/#vaccination-trends,"Moderna, Pfizer/BioNTech"
2021-02-19,United States,70743532.0,47570367.0,21723542.0,0.0,https://covid.cdc.gov/covid-data-tracker/#vaccination-trends,"Moderna, Pfizer/BioNTech"
2021-02-20,United States,72051132.0,48176781.0,22393804.0,0.0,https://covid.cdc.gov/covid-data-tracker/#vaccination-trends,"Moderna, Pfizer/BioNTech"
2021-02-21,United States,72646281.0,48436332.0,22710604.0,0.0,https://covid.cdc.gov/covid-data-tracker/#vaccination-trends,"Moderna, Pfizer/BioNTech"
2021-02-22,United States,74108209.0,49066090.0,23497913.0,0.0,https://covid.cdc.gov/covid-data-tracker/#vaccination-trends,"Moderna, Pfizer/BioNTech"
2021-02-23,United States,76050608.0,49953852.0,24503512.0,0.0,https://covid.cdc.gov/covid-data-tracker/#vaccination-trends,"Moderna, Pfizer/BioNTech"
2021-02-24,United States,78578233.0,51217752.0,25713974.0,0.0,https://covid.cdc.gov/covid-data-tracker/#vaccination-trends,"Moderna, Pfizer/BioNTech"
2021-02-25,United States,81513290.0,52771723.0,27028161.0,0.0,https://covid.cdc.gov/covid-data-tracker/#vaccination-trends,"Moderna, Pfizer/BioNTech"
2021-02-26,United States,84617220.0,54458867.0,28379118.0,0.0,https://covid.cdc.gov/covid-data-tracker/#vaccination-trends,"Moderna, Pfizer/BioNTech"
2021-02-27,United States,86607223.0,55609618.0,29180339.0,0.0,https://covid.cdc.gov/covid-data-tracker/#vaccination-trends,"Moderna, Pfizer/BioNTech"
2021-02-28,United States,87461880.0,56151623.0,29468240.0,0.0,https://covid.cdc.gov/covid-data-tracker/#vaccination-trends,"Moderna, Pfizer/BioNTech"
2021-03-01,United States,89479057.0,57341063.0,30239937.0,0.0,https://covid.cdc.gov/covid-data-tracker/#vaccination-trends,"Moderna, Pfizer/BioNTech"
2021-03-02,United States,91938367.0,58814258.0,31181668.0,0.0,https://covid.cdc.gov/covid-data-tracker/#vaccination-trends,"Moderna, Pfizer/BioNTech"
2021-03-03,United States,94839499.0,60562931.0,32292699.0,0.0,https://covid.cdc.gov/covid-data-tracker/#vaccination-trends,"Moderna, Pfizer/BioNTech"
2021-03-04,United States,98038661.0,62530000.0,33516500.0,0.0,https://covid.cdc.gov/covid-data-tracker/#vaccination-trends,"Moderna, Pfizer/BioNTech"
2021-03-05,United States,101262565.0,64541937.0,34802059.0,0.0,https://covid.cdc.gov/covid-data-tracker/#vaccination-trends,"Johnson&Johnson, Moderna, Pfizer/BioNTech"
2021-03-06,United States,103314687.0,65894441.0,35654983.0,0.0,https://covid.cdc.gov/covid-data-tracker/#vaccination-trends,"Johnson&Johnson, Moderna, Pfizer/BioNTech"
2021-03-07,United States,104242614.0,66576385.0,35996333.0,0.0,https://covid.cdc.gov/covid-data-tracker/#vaccination-trends,"Johnson&Johnson, Moderna, Pfizer/BioNTech"
2021-03-08,United States,106401483.0,68063156.0,36836639.0,0.0,https://covid.cdc.gov/covid-data-tracker/#vaccination-trends,"Johnson&Johnson, Moderna, Pfizer/BioNTech"
2021-03-09,United States,109110000.0,69878402.0,37908936.0,0.0,https://covid.cdc.gov/covid-data-tracker/#vaccination-trends,"Johnson&Johnson, Moderna, Pfizer/BioNTech"
2021-03-10,United States,112236576.0,71951315.0,39165636.0,0.0,https://covid.cdc.gov/covid-data-tracker/#vaccination-trends,"Johnson&Johnson, Moderna, Pfizer/BioNTech"
2021-03-11,United States,115677817.0,74241429.0,40549335.0,0.0,https://covid.cdc.gov/covid-data-tracker/#vaccination-trends,"Johnson&Johnson, Moderna, Pfizer/BioNTech"
2021-03-12,United States,119103321.0,76370102.0,42056878.0,0.0,https://covid.cdc.gov/covid-data-tracker/#vaccination-trends,"Johnson&Johnson, Moderna, Pfizer/BioNTech"
2021-03-13,United States,121300362.0,77769033.0,43068530.0,0.0,https://covid.cdc.gov/covid-data-tracker/#vaccination-trends,"Johnson&Johnson, Moderna, Pfizer/BioNTech"
2021-03-14,United States,122287426.0,78421757.0,43494137.0,0.0,https://covid.cdc.gov/covid-data-tracker/#vaccination-trends,"Johnson&Johnson, Moderna, Pfizer/BioNTech"
2021-03-15,United States,124569678.0,79925461.0,44354926.0,0.0,https://covid.cdc.gov/covid-data-tracker/#vaccination-trends,"Johnson&Johnson, Moderna, Pfizer/BioNTech"
2021-03-16,United States,127454780.0,81861870.0,45390442.0,0.0,https://covid.cdc.gov/covid-data-tracker/#vaccination-trends,"Johnson&Johnson, Moderna, Pfizer/BioNTech"
2021-03-17,United States,130620114.0,83998553.0,46503111.0,0.0,https://covid.cdc.gov/covid-data-tracker/#vaccination-trends,"Johnson&Johnson, Moderna, Pfizer/BioNTech"
2021-03-18,United States,134030514.0,86307587.0,47695020.0,0.0,https://covid.cdc.gov/covid-data-tracker/#vaccination-trends,"Johnson&Johnson, Moderna, Pfizer/BioNTech"
2021-03-19,United States,137366317.0,88534113.0,48896441.0,0.0,https://covid.cdc.gov/covid-data-tracker/#vaccination-trends,"Johnson&Johnson, Moderna, Pfizer/BioNTech"
2021-03-20,United States,139523554.0,89955420.0,49746416.0,0.0,https://covid.cdc.gov/covid-data-tracker/#vaccination-trends,"Johnson&Johnson, Moderna, Pfizer/BioNTech"
2021-03-21,United States,140546223.0,90644821.0,50113589.0,0.0,https://covid.cdc.gov/covid-data-tracker/#vaccination-trends,"Johnson&Johnson, Moderna, Pfizer/BioNTech"
2021-03-22,United States,142908265.0,92258953.0,50903310.0,0.0,https://covid.cdc.gov/covid-data-tracker/#vaccination-trends,"Johnson&Johnson, Moderna, Pfizer/BioNTech"
2021-03-23,United States,145968972.0,94253438.0,52033076.0,0.0,https://covid.cdc.gov/covid-data-tracker/#vaccination-trends,"Johnson&Johnson, Moderna, Pfizer/BioNTech"
2021-03-24,United States,149521379.0,96474262.0,53430379.0,0.0,https://covid.cdc.gov/covid-data-tracker/#vaccination-trends,"Johnson&Johnson, Moderna, Pfizer/BioNTech"
2021-03-25,United States,153351249.0,98755025.0,55047148.0,0.0,https://covid.cdc.gov/covid-data-tracker/#vaccination-trends,"Johnson&Johnson, Moderna, Pfizer/BioNTech"
2021-03-26,United States,157177495.0,100878091.0,56815739.0,0.0,https://covid.cdc.gov/covid-data-tracker/#vaccination-trends,"Johnson&Johnson, Moderna, Pfizer/BioNTech"
2021-03-27,United States,159643837.0,102258993.0,57960457.0,0.0,https://covid.cdc.gov/covid-data-tracker/#vaccination-trends,"Johnson&Johnson, Moderna, Pfizer/BioNTech"
2021-03-28,United States,160852275.0,102937207.0,58501598.0,0.0,https://covid.cdc.gov/covid-data-tracker/#vaccination-trends,"Johnson&Johnson, Moderna, Pfizer/BioNTech"
2021-03-29,United States,163685312.0,104556770.0,59753055.0,0.0,https://covid.cdc.gov/covid-data-tracker/#vaccination-trends,"Johnson&Johnson, Moderna, Pfizer/BioNTech"
2021-03-30,United States,167271406.0,106582827.0,61384197.0,0.0,https://covid.cdc.gov/covid-data-tracker/#vaccination-trends,"Johnson&Johnson, Moderna, Pfizer/BioNTech"
2021-03-31,United States,171431910.0,109002841.0,63295415.0,0.0,https://covid.cdc.gov/covid-data-tracker/#vaccination-trends,"Johnson&Johnson, Moderna, Pfizer/BioNTech"
2021-04-01,United States,175948799.0,111529913.0,65494470.0,0.0,https://covid.cdc.gov/covid-data-tracker/#vaccination-trends,"Johnson&Johnson, Moderna, Pfizer/BioNTech"
2021-04-02,United States,179595924.0,113597824.0,67279969.0,0.0,https://covid.cdc.gov/covid-data-tracker/#vaccination-trends,"Johnson&Johnson, Moderna, Pfizer/BioNTech"
2021-04-03,United States,181895060.0,114927215.0,68425604.0,0.0,https://covid.cdc.gov/covid-data-tracker/#vaccination-trends,"Johnson&Johnson, Moderna, Pfizer/BioNTech"
2021-04-04,United States,182655374.0,115364331.0,68793083.0,0.0,https://covid.cdc.gov/covid-data-tracker/#vaccination-trends,"Johnson&Johnson, Moderna, Pfizer/BioNTech"
2021-04-05,United States,185749025.0,117104191.0,70367992.0,0.0,https://covid.cdc.gov/covid-data-tracker/#vaccination-trends,"Johnson&Johnson, Moderna, Pfizer/BioNTech"
2021-04-06,United States,189721419.0,119402439.0,72419012.0,0.0,https://covid.cdc.gov/covid-data-tracker/#vaccination-trends,"Johnson&Johnson, Moderna, Pfizer/BioNTech"
2021-04-07,United States,194072273.0,121974459.0,74696998.0,0.0,https://covid.cdc.gov/covid-data-tracker/#vaccination-trends,"Johnson&Johnson, Moderna, Pfizer/BioNTech"
2021-04-08,United States,198562384.0,124550326.0,77177397.0,0.0,https://covid.cdc.gov/covid-data-tracker/#vaccination-trends,"Johnson&Johnson, Moderna, Pfizer/BioNTech"
2021-04-09,United States,202869342.0,126999210.0,79576692.0,0.0,https://covid.cdc.gov/covid-data-tracker/#vaccination-trends,"Johnson&Johnson, Moderna, Pfizer/BioNTech"
2021-04-10,United States,205745735.0,128726828.0,81210310.0,0.0,https://covid.cdc.gov/covid-data-tracker/#vaccination-trends,"Johnson&Johnson, Moderna, Pfizer/BioNTech"
2021-04-11,United States,207146472.0,129565467.0,82002262.0,0.0,https://covid.cdc.gov/covid-data-tracker/#vaccination-trends,"Johnson&Johnson, Moderna, Pfizer/BioNTech"
2021-04-12,United States,210151141.0,131203474.0,83699009.0,0.0,https://covid.cdc.gov/covid-data-tracker/#vaccination-trends,"Johnson&Johnson, Moderna, Pfizer/BioNTech"
2021-04-13,United States,213617596.0,132956614.0,85387928.0,0.0,https://covid.cdc.gov/covid-data-tracker/#vaccination-trends,"Johnson&Johnson, Moderna, Pfizer/BioNTech"
2021-04-14,United States,217299468.0,134705790.0,87281768.0,0.0,https://covid.cdc.gov/covid-data-tracker/#vaccination-trends,"Johnson&Johnson, Moderna, Pfizer/BioNTech"
2021-04-15,United States,221031829.0,136473774.0,89202950.0,0.0,https://covid.cdc.gov/covid-data-tracker/#vaccination-trends,"Johnson&Johnson, Moderna, Pfizer/BioNTech"
2021-04-16,United States,224621878.0,138121314.0,91103503.0,0.0,https://covid.cdc.gov/covid-data-tracker/#vaccination-trends,"Johnson&Johnson, Moderna, Pfizer/BioNTech"
2021-04-17,United States,226977022.0,139292353.0,92265942.0,0.0,https://covid.cdc.gov/covid-data-tracker/#vaccination-trends,"Johnson&Johnson, Moderna, Pfizer/BioNTech"
2021-04-18,United States,228102057.0,139833781.0,92837215.0,0.0,https://covid.cdc.gov/covid-data-tracker/#vaccination-trends,"Johnson&Johnson, Moderna, Pfizer/BioNTech"
2021-04-19,United States,230666126.0,140925615.0,94276477.0,0.0,https://covid.cdc.gov/covid-data-tracker/#vaccination-trends,"Johnson&Johnson, Moderna, Pfizer/BioNTech"
2021-04-20,United States,233901742.0,142314053.0,96084433.0,0.0,https://covid.cdc.gov/covid-data-tracker/#vaccination-trends,"Johnson&Johnson, Moderna, Pfizer/BioNTech"
2021-04-21,United States,237361499.0,143712973.0,98104627.0,0.0,https://covid.cdc.gov/covid-data-tracker/#vaccination-trends,"Johnson&Johnson, Moderna, Pfizer/BioNTech"
2021-04-22,United States,240837792.0,145126898.0,100126605.0,0.0,https://covid.cdc.gov/covid-data-tracker/#vaccination-trends,"Johnson&Johnson, Moderna, Pfizer/BioNTech"
2021-04-23,United States,244121912.0,146500198.0,101997015.0,0.0,https://covid.cdc.gov/covid-data-tracker/#vaccination-trends,"Johnson&Johnson, Moderna, Pfizer/BioNTech"
2021-04-24,United States,246322429.0,147511981.0,103168743.0,0.0,https://covid.cdc.gov/covid-data-tracker/#vaccination-trends,"Johnson&Johnson, Moderna, Pfizer/BioNTech"
2021-04-25,United States,247314295.0,148007941.0,103657911.0,0.0,https://covid.cdc.gov/covid-data-tracker/#vaccination-trends,"Johnson&Johnson, Moderna, Pfizer/BioNTech"
2021-04-26,United States,249689547.0,148954134.0,105064404.0,0.0,https://covid.cdc.gov/covid-data-tracker/#vaccination-trends,"Johnson&Johnson, Moderna, Pfizer/BioNTech"
2021-04-27,United States,252561764.0,150070457.0,106828501.0,0.0,https://covid.cdc.gov/covid-data-tracker/#vaccination-trends,"Johnson&Johnson, Moderna, Pfizer/BioNTech"
2021-04-28,United States,255632099.0,151231130.0,108768333.0,0.0,https://covid.cdc.gov/covid-data-tracker/#vaccination-trends,"Johnson&Johnson, Moderna, Pfizer/BioNTech"
2021-04-29,United States,258659459.0,152350788.0,110717804.0,0.0,https://covid.cdc.gov/covid-data-tracker/#vaccination-trends,"Johnson&Johnson, Moderna, Pfizer/BioNTech"
2021-04-30,United States,261549274.0,153466278.0,112537151.0,0.0,https://covid.cdc.gov/covid-data-tracker/#vaccination-trends,"Johnson&Johnson, Moderna, Pfizer/BioNTech"
2021-05-01,United States,263369168.0,154172273.0,113680557.0,0.0,https://covid.cdc.gov/covid-data-tracker/#vaccination-trends,"Johnson&Johnson, Moderna, Pfizer/BioNTech"
2021-05-02,United States,264242590.0,154499750.0,114256285.0,0.0,https://covid.cdc.gov/covid-data-tracker/#vaccination-trends,"Johnson&Johnson, Moderna, Pfizer/BioNTech"
2021-05-03,United States,266201968.0,155145310.0,115641129.0,0.0,https://covid.cdc.gov/covid-data-tracker/#vaccination-trends,"Johnson&Johnson, Moderna, Pfizer/BioNTech"
2021-05-04,United States,268702957.0,155973022.0,117377058.0,0.0,https://covid.cdc.gov/covid-data-tracker/#vaccination-trends,"Johnson&Johnson, Moderna, Pfizer/BioNTech"
2021-05-05,United States,271233456.0,156793617.0,119152271.0,0.0,https://covid.cdc.gov/covid-data-tracker/#vaccination-trends,"Johnson&Johnson, Moderna, Pfizer/BioNTech"
2021-05-06,United States,273733567.0,157579118.0,120930114.0,0.0,https://covid.cdc.gov/covid-data-tracker/#vaccination-trends,"Johnson&Johnson, Moderna, Pfizer/BioNTech"
2021-05-07,United States,276218774.0,158378475.0,122676207.0,0.0,https://covid.cdc.gov/covid-data-tracker/#vaccination-trends,"Johnson&Johnson, Moderna, Pfizer/BioNTech"
2021-05-08,United States,277744607.0,158889856.0,123746487.0,0.0,https://covid.cdc.gov/covid-data-tracker/#vaccination-trends,"Johnson&Johnson, Moderna, Pfizer/BioNTech"
2021-05-09,United States,278356931.0,159097710.0,124176826.0,0.0,https://covid.cdc.gov/covid-data-tracker/#vaccination-trends,"Johnson&Johnson, Moderna, Pfizer/BioNTech"
2021-05-10,United States,279947774.0,159590261.0,125321866.0,0.0,https://covid.cdc.gov/covid-data-tracker/#vaccination-trends,"Johnson&Johnson, Moderna, Pfizer/BioNTech"
2021-05-11,United States,281980864.0,160256957.0,126742553.0,0.0,https://covid.cdc.gov/covid-data-tracker/#vaccination-trends,"Johnson&Johnson, Moderna, Pfizer/BioNTech"
2021-05-12,United States,283985897.0,160910095.0,128154082.0,0.0,https://covid.cdc.gov/covid-data-tracker/#vaccination-trends,"Johnson&Johnson, Moderna, Pfizer/BioNTech"
2021-05-13,United States,286250304.0,161846392.0,129532930.0,0.0,https://covid.cdc.gov/covid-data-tracker/#vaccination-trends,"Johnson&Johnson, Moderna, Pfizer/BioNTech"
2021-05-14,United States,288689955.0,162944844.0,130939515.0,0.0,https://covid.cdc.gov/covid-data-tracker/#vaccination-trends,"Johnson&Johnson, Moderna, Pfizer/BioNTech"
2021-05-15,United States,290526603.0,163856890.0,131913805.0,0.0,https://covid.cdc.gov/covid-data-tracker/#vaccination-trends,"Johnson&Johnson, Moderna, Pfizer/BioNTech"
2021-05-16,United States,291455021.0,164336587.0,132391940.0,0.0,https://covid.cdc.gov/covid-data-tracker/#vaccination-trends,"Johnson&Johnson, Moderna, Pfizer/BioNTech"
2021-05-17,United States,293267219.0,165229842.0,133380660.0,0.0,https://covid.cdc.gov/covid-data-tracker/#vaccination-trends,"Johnson&Johnson, Moderna, Pfizer/BioNTech"
2021-05-18,United States,295329661.0,166225907.0,134520921.0,0.0,https://covid.cdc.gov/covid-data-tracker/#vaccination-trends,"Johnson&Johnson, Moderna, Pfizer/BioNTech"
2021-05-19,United States,297406455.0,167215902.0,135678634.0,0.0,https://covid.cdc.gov/covid-data-tracker/#vaccination-trends,"Johnson&Johnson, Moderna, Pfizer/BioNTech"
2021-05-20,United States,299412104.0,168141828.0,136828481.0,0.0,https://covid.cdc.gov/covid-data-tracker/#vaccination-trends,"Johnson&Johnson, Moderna, Pfizer/BioNTech"
2021-05-21,United States,301457957.0,169079653.0,138003140.0,0.0,https://covid.cdc.gov/covid-data-tracker/#vaccination-trends,"Johnson&Johnson, Moderna, Pfizer/BioNTech"
2021-05-22,United States,302897644.0,169812586.0,138758866.0,0.0,https://covid.cdc.gov/covid-data-tracker/#vaccination-trends,"Johnson&Johnson, Moderna, Pfizer/BioNTech"
2021-05-23,United States,303552300.0,170152813.0,139098825.0,0.0,https://covid.cdc.gov/covid-data-tracker/#vaccination-trends,"Johnson&Johnson, Moderna, Pfizer/BioNTech"
2021-05-24,United States,304862554.0,170788606.0,139832810.0,0.0,https://covid.cdc.gov/covid-data-tracker/#vaccination-trends,"Johnson&Johnson, Moderna, Pfizer/BioNTech"
2021-05-25,United States,306289394.0,171457428.0,140652253.0,0.0,https://covid.cdc.gov/covid-data-tracker/#vaccination-trends,"Johnson&Johnson, Moderna, Pfizer/BioNTech"
2021-05-26,United States,307711366.0,172118822.0,141469182.0,0.0,https://covid.cdc.gov/covid-data-tracker/#vaccination-trends,"Johnson&Johnson, Moderna, Pfizer/BioNTech"
2021-05-27,United States,309046005.0,172735460.0,142243772.0,0.0,https://covid.cdc.gov/covid-data-tracker/#vaccination-trends,"Johnson&Johnson, Moderna, Pfizer/BioNTech"
2021-05-28,United States,310361644.0,173341381.0,143009450.0,0.0,https://covid.cdc.gov/covid-data-tracker/#vaccination-trends,"Johnson&Johnson, Moderna, Pfizer/BioNTech"
2021-05-29,United States,311120615.0,173722844.0,143420879.0,0.0,https://covid.cdc.gov/covid-data-tracker/#vaccination-trends,"Johnson&Johnson, Moderna, Pfizer/BioNTech"
2021-05-30,United States,311501322.0,173924215.0,143620486.0,0.0,https://covid.cdc.gov/covid-data-tracker/#vaccination-trends,"Johnson&Johnson, Moderna, Pfizer/BioNTech"
2021-05-31,United States,311698973.0,174012584.0,143738933.0,0.0,https://covid.cdc.gov/covid-data-tracker/#vaccination-trends,"Johnson&Johnson, Moderna, Pfizer/BioNTech"
2021-06-01,United States,312945226.0,174538047.0,144501099.0,0.0,https://covid.cdc.gov/covid-data-tracker/#vaccination-trends,"Johnson&Johnson, Moderna, Pfizer/BioNTech"
2021-06-02,United States,314051856.0,175033686.0,145164210.0,0.0,https://covid.cdc.gov/covid-data-tracker/#vaccination-trends,"Johnson&Johnson, Moderna, Pfizer/BioNTech"
2021-06-03,United States,315287672.0,175500286.0,145981826.0,0.0,https://covid.cdc.gov/covid-data-tracker/#vaccination-trends,"Johnson&Johnson, Moderna, Pfizer/BioNTech"
2021-06-04,United States,316676318.0,176005658.0,146912984.0,0.0,https://covid.cdc.gov/covid-data-tracker/#vaccination-trends,"Johnson&Johnson, Moderna, Pfizer/BioNTech"
2021-06-05,United States,317736007.0,176361063.0,147646183.0,0.0,https://covid.cdc.gov/covid-data-tracker/#vaccination-trends,"Johnson&Johnson, Moderna, Pfizer/BioNTech"
2021-06-06,United States,318245770.0,176533986.0,147998848.0,0.0,https://covid.cdc.gov/covid-data-tracker/#vaccination-trends,"Johnson&Johnson, Moderna, Pfizer/BioNTech"
2021-06-07,United States,319304571.0,176907798.0,148720090.0,0.0,https://covid.cdc.gov/covid-data-tracker/#vaccination-trends,"Johnson&Johnson, Moderna, Pfizer/BioNTech"
2021-06-08,United States,320468716.0,177314088.0,149518467.0,0.0,https://covid.cdc.gov/covid-data-tracker/#vaccination-trends,"Johnson&Johnson, Moderna, Pfizer/BioNTech"
2021-06-09,United States,321624012.0,177708324.0,150320549.0,0.0,https://covid.cdc.gov/covid-data-tracker/#vaccination-trends,"Johnson&Johnson, Moderna, Pfizer/BioNTech"
2021-06-10,United States,322782436.0,178115828.0,151113298.0,0.0,https://covid.cdc.gov/covid-data-tracker/#vaccination-trends,"Johnson&Johnson, Moderna, Pfizer/BioNTech"
2021-06-11,United States,324004021.0,178546248.0,151945573.0,0.0,https://covid.cdc.gov/covid-data-tracker/#vaccination-trends,"Johnson&Johnson, Moderna, Pfizer/BioNTech"
2021-06-12,United States,324890168.0,178828608.0,152573415.0,0.0,https://covid.cdc.gov/covid-data-tracker/#vaccination-trends,"Johnson&Johnson, Moderna, Pfizer/BioNTech"
2021-06-13,United States,325278636.0,178942348.0,152862904.0,0.0,https://covid.cdc.gov/covid-data-tracker/#vaccination-trends,"Johnson&Johnson, Moderna, Pfizer/BioNTech"
2021-06-14,United States,326181976.0,179275586.0,153466643.0,0.0,https://covid.cdc.gov/covid-data-tracker/#vaccination-trends,"Johnson&Johnson, Moderna, Pfizer/BioNTech"
2021-06-15,United States,327151242.0,179638481.0,154110354.0,0.0,https://covid.cdc.gov/covid-data-tracker/#vaccination-trends,"Johnson&Johnson, Moderna, Pfizer/BioNTech"
2021-06-16,United States,328087578.0,179998686.0,154725932.0,0.0,https://covid.cdc.gov/covid-data-tracker/#vaccination-trends,"Johnson&Johnson, Moderna, Pfizer/BioNTech"
2021-06-17,United States,328972310.0,180351206.0,155300396.0,0.0,https://covid.cdc.gov/covid-data-tracker/#vaccination-trends,"Johnson&Johnson, Moderna, Pfizer/BioNTech"
2021-06-18,United States,329885131.0,180721477.0,155881035.0,0.0,https://covid.cdc.gov/covid-data-tracker/#vaccination-trends,"Johnson&Johnson, Moderna, Pfizer/BioNTech"
2021-06-19,United States,330455882.0,180953737.0,156242425.0,0.0,https://covid.cdc.gov/covid-data-tracker/#vaccination-trends,"Johnson&Johnson, Moderna, Pfizer/BioNTech"
2021-06-20,United States,330729492.0,181065945.0,156414195.0,0.0,https://covid.cdc.gov/covid-data-tracker/#vaccination-trends,"Johnson&Johnson, Moderna, Pfizer/BioNTech"
2021-06-21,United States,331284210.0,181367893.0,156698065.0,0.0,https://covid.cdc.gov/covid-data-tracker/#vaccination-trends,"Johnson&Johnson, Moderna, Pfizer/BioNTech"
2021-06-22,United States,332032993.0,181693261.0,157154669.0,0.0,https://covid.cdc.gov/covid-data-tracker/#vaccination-trends,"Johnson&Johnson, Moderna, Pfizer/BioNTech"
2021-06-23,United States,332762429.0,182025113.0,157584102.0,0.0,https://covid.cdc.gov/covid-data-tracker/#vaccination-trends,"Johnson&Johnson, Moderna, Pfizer/BioNTech"
2021-06-24,United States,333456239.0,182345667.0,157990193.0,0.0,https://covid.cdc.gov/covid-data-tracker/#vaccination-trends,"Johnson&Johnson, Moderna, Pfizer/BioNTech"
2021-06-25,United States,334216194.0,182698218.0,158427774.0,0.0,https://covid.cdc.gov/covid-data-tracker/#vaccination-trends,"Johnson&Johnson, Moderna, Pfizer/BioNTech"
2021-06-26,United States,334711246.0,182924545.0,158715550.0,0.0,https://covid.cdc.gov/covid-data-tracker/#vaccination-trends,"Johnson&Johnson, Moderna, Pfizer/BioNTech"
2021-06-27,United States,334976113.0,183051872.0,158862139.0,0.0,https://covid.cdc.gov/covid-data-tracker/#vaccination-trends,"Johnson&Johnson, Moderna, Pfizer/BioNTech"
2021-06-28,United States,335524433.0,183328411.0,159158516.0,0.0,https://covid.cdc.gov/covid-data-tracker/#vaccination-trends,"Johnson&Johnson, Moderna, Pfizer/BioNTech"
2021-06-29,United States,336147194.0,183627302.0,159506957.0,0.0,https://covid.cdc.gov/covid-data-tracker/#vaccination-trends,"Johnson&Johnson, Moderna, Pfizer/BioNTech"
2021-06-30,United States,336772315.0,183935831.0,159849266.0,0.0,https://covid.cdc.gov/covid-data-tracker/#vaccination-trends,"Johnson&Johnson, Moderna, Pfizer/BioNTech"
2021-07-01,United States,337365524.0,184226493.0,160172710.0,0.0,https://covid.cdc.gov/covid-data-tracker/#vaccination-trends,"Johnson&Johnson, Moderna, Pfizer/BioNTech"
2021-07-02,United States,337979828.0,184533161.0,160504655.0,0.0,https://covid.cdc.gov/covid-data-tracker/#vaccination-trends,"Johnson&Johnson, Moderna, Pfizer/BioNTech"
2021-07-03,United States,338332207.0,184713075.0,160688630.0,0.0,https://covid.cdc.gov/covid-data-tracker/#vaccination-trends,"Johnson&Johnson, Moderna, Pfizer/BioNTech"
2021-07-04,United States,338381726.0,184740614.0,160715041.0,0.0,https://covid.cdc.gov/covid-data-tracker/#vaccination-trends,"Johnson&Johnson, Moderna, Pfizer/BioNTech"
2021-07-05,United States,338773993.0,184941754.0,160917962.0,0.0,https://covid.cdc.gov/covid-data-tracker/#vaccination-trends,"Johnson&Johnson, Moderna, Pfizer/BioNTech"
2021-07-06,United States,339351653.0,185216453.0,161244532.0,0.0,https://covid.cdc.gov/covid-data-tracker/#vaccination-trends,"Johnson&Johnson, Moderna, Pfizer/BioNTech"
2021-07-07,United States,339915532.0,185498703.0,161552225.0,0.0,https://covid.cdc.gov/covid-data-tracker/#vaccination-trends,"Johnson&Johnson, Moderna, Pfizer/BioNTech"
2021-07-08,United States,340475423.0,185787764.0,161851385.0,0.0,https://covid.cdc.gov/covid-data-tracker/#vaccination-trends,"Johnson&Johnson, Moderna, Pfizer/BioNTech"
2021-07-09,United States,341101821.0,186110023.0,162184542.0,0.0,https://covid.cdc.gov/covid-data-tracker/#vaccination-trends,"Johnson&Johnson, Moderna, Pfizer/BioNTech"
2021-07-10,United States,341498870.0,186321306.0,162385852.0,0.0,https://covid.cdc.gov/covid-data-tracker/#vaccination-trends,"Johnson&Johnson, Moderna, Pfizer/BioNTech"
2021-07-11,United States,341713051.0,186437532.0,162490816.0,0.0,https://covid.cdc.gov/covid-data-tracker/#vaccination-trends,"Johnson&Johnson, Moderna, Pfizer/BioNTech"
2021-07-12,United States,342226916.0,186711872.0,162753616.0,0.0,https://covid.cdc.gov/covid-data-tracker/#vaccination-trends,"Johnson&Johnson, Moderna, Pfizer/BioNTech"
2021-07-13,United States,342748208.0,186992787.0,163014005.0,0.0,https://covid.cdc.gov/covid-data-tracker/#vaccination-trends,"Johnson&Johnson, Moderna, Pfizer/BioNTech"
2021-07-14,United States,343272826.0,187275490.0,163275345.0,0.0,https://covid.cdc.gov/covid-data-tracker/#vaccination-trends,"Johnson&Johnson, Moderna, Pfizer/BioNTech"
2021-07-15,United States,343807815.0,187572644.0,163532301.0,0.0,https://covid.cdc.gov/covid-data-tracker/#vaccination-trends,"Johnson&Johnson, Moderna, Pfizer/BioNTech"
2021-07-16,United States,344426777.0,187919550.0,163822800.0,0.0,https://covid.cdc.gov/covid-data-tracker/#vaccination-trends,"Johnson&Johnson, Moderna, Pfizer/BioNTech"
2021-07-17,United States,344823270.0,188143120.0,164006879.0,0.0,https://covid.cdc.gov/covid-data-tracker/#vaccination-trends,"Johnson&Johnson, Moderna, Pfizer/BioNTech"
2021-07-18,United States,345055091.0,188278314.0,164109371.0,0.0,https://covid.cdc.gov/covid-data-tracker/#vaccination-trends,"Johnson&Johnson, Moderna, Pfizer/BioNTech"
2021-07-19,United States,345617997.0,188617513.0,164351605.0,0.0,https://covid.cdc.gov/covid-data-tracker/#vaccination-trends,"Johnson&Johnson, Moderna, Pfizer/BioNTech"
2021-07-20,United States,346216596.0,188989069.0,164598823.0,0.0,https://covid.cdc.gov/covid-data-tracker/#vaccination-trends,"Johnson&Johnson, Moderna, Pfizer/BioNTech"
2021-07-21,United States,346840366.0,189374601.0,164856132.0,0.0,https://covid.cdc.gov/covid-data-tracker/#vaccination-trends,"Johnson&Johnson, Moderna, Pfizer/BioNTech"
2021-07-22,United States,347483520.0,189789879.0,165103910.0,0.0,https://covid.cdc.gov/covid-data-tracker/#vaccination-trends,"Johnson&Johnson, Moderna, Pfizer/BioNTech"
2021-07-23,United States,348224551.0,190276649.0,165380325.0,0.0,https://covid.cdc.gov/covid-data-tracker/#vaccination-trends,"Johnson&Johnson, Moderna, Pfizer/BioNTech"
2021-07-24,United States,348684441.0,190578043.0,165549545.0,0.0,https://covid.cdc.gov/covid-data-tracker/#vaccination-trends,"Johnson&Johnson, Moderna, Pfizer/BioNTech"
2021-07-25,United States,348941640.0,190779215.0,165610506.0,0.0,https://covid.cdc.gov/covid-data-tracker/#vaccination-trends,"Johnson&Johnson, Moderna, Pfizer/BioNTech"
2021-07-26,United States,349579262.0,191224594.0,165824096.0,0.0,https://covid.cdc.gov/covid-data-tracker/#vaccination-trends,"Johnson&Johnson, Moderna, Pfizer/BioNTech"
2021-07-27,United States,350274189.0,191703343.0,166066126.0,0.0,https://covid.cdc.gov/covid-data-tracker/#vaccination-trends,"Johnson&Johnson, Moderna, Pfizer/BioNTech"
2021-07-28,United States,350987023.0,192191929.0,166316046.0,0.0,https://covid.cdc.gov/covid-data-tracker/#vaccination-trends,"Johnson&Johnson, Moderna, Pfizer/BioNTech"
2021-07-29,United States,351699882.0,192687104.0,166559594.0,0.0,https://covid.cdc.gov/covid-data-tracker/#vaccination-trends,"Johnson&Johnson, Moderna, Pfizer/BioNTech"
2021-07-30,United States,352525372.0,193258326.0,166841126.0,0.0,https://covid.cdc.gov/covid-data-tracker/#vaccination-trends,"Johnson&Johnson, Moderna, Pfizer/BioNTech"
2021-07-31,United States,353034295.0,193602869.0,167016191.0,0.0,https://covid.cdc.gov/covid-data-tracker/#vaccination-trends,"Johnson&Johnson, Moderna, Pfizer/BioNTech"
2021-08-01,United States,353349813.0,193824031.0,167110947.0,0.0,https://covid.cdc.gov/covid-data-tracker/#vaccination-trends,"Johnson&Johnson, Moderna, Pfizer/BioNTech"
2021-08-02,United States,354060273.0,194325482.0,167341234.0,0.0,https://covid.cdc.gov/covid-data-tracker/#vaccination-trends,"Johnson&Johnson, Moderna, Pfizer/BioNTech"
2021-08-03,United States,354814411.0,194859676.0,167587719.0,0.0,https://covid.cdc.gov/covid-data-tracker/#vaccination-trends,"Johnson&Johnson, Moderna, Pfizer/BioNTech"
2021-08-04,United States,355582955.0,195407414.0,167835785.0,0.0,https://covid.cdc.gov/covid-data-tracker/#vaccination-trends,"Johnson&Johnson, Moderna, Pfizer/BioNTech"
2021-08-05,United States,356366144.0,195962456.0,168093180.0,0.0,https://covid.cdc.gov/covid-data-tracker/#vaccination-trends,"Johnson&Johnson, Moderna, Pfizer/BioNTech"
2021-08-06,United States,357262815.0,196583155.0,168396098.0,0.0,https://covid.cdc.gov/covid-data-tracker/#vaccination-trends,"Johnson&Johnson, Moderna, Pfizer/BioNTech"
2021-08-07,United States,357814695.0,196962300.0,168580984.0,0.0,https://covid.cdc.gov/covid-data-tracker/#vaccination-trends,"Johnson&Johnson, Moderna, Pfizer/BioNTech"
2021-08-08,United States,358159676.0,197197279.0,168695381.0,0.0,https://covid.cdc.gov/covid-data-tracker/#vaccination-trends,"Johnson&Johnson, Moderna, Pfizer/BioNTech"
2021-08-09,United States,358932537.0,197713463.0,168974842.0,0.0,https://covid.cdc.gov/covid-data-tracker/#vaccination-trends,"Johnson&Johnson, Moderna, Pfizer/BioNTech"
2021-08-10,United States,359722112.0,198239237.0,169261892.0,0.0,https://covid.cdc.gov/covid-data-tracker/#vaccination-trends,"Johnson&Johnson, Moderna, Pfizer/BioNTech"
2021-08-11,United States,360481039.0,198733710.0,169550236.0,0.0,https://covid.cdc.gov/covid-data-tracker/#vaccination-trends,"Johnson&Johnson, Moderna, Pfizer/BioNTech"
2021-08-12,United States,361274320.0,199243480.0,169856122.0,0.0,https://covid.cdc.gov/covid-data-tracker/#vaccination-trends,"Johnson&Johnson, Moderna, Pfizer/BioNTech"
2021-08-13,United States,362210249.0,199819452.0,170236448.0,12499.0,https://covid.cdc.gov/covid-data-tracker/#vaccination-trends,"Johnson&Johnson, Moderna, Pfizer/BioNTech"
2021-08-14,United States,362827321.0,200179955.0,170473514.0,46102.0,https://covid.cdc.gov/covid-data-tracker/#vaccination-trends,"Johnson&Johnson, Moderna, Pfizer/BioNTech"
2021-08-15,United States,363220674.0,200390600.0,170631411.0,76770.0,https://covid.cdc.gov/covid-data-tracker/#vaccination-trends,"Johnson&Johnson, Moderna, Pfizer/BioNTech"
2021-08-16,United States,364079717.0,200853696.0,170977761.0,152374.0,https://covid.cdc.gov/covid-data-tracker/#vaccination-trends,"Johnson&Johnson, Moderna, Pfizer/BioNTech"
2021-08-17,United States,364989961.0,201342486.0,171333030.0,245959.0,https://covid.cdc.gov/covid-data-tracker/#vaccination-trends,"Johnson&Johnson, Moderna, Pfizer/BioNTech"
2021-08-18,United States,365927931.0,201828157.0,171702690.0,355910.0,https://covid.cdc.gov/covid-data-tracker/#vaccination-trends,"Johnson&Johnson, Moderna, Pfizer/BioNTech"
2021-08-19,United States,366857951.0,202306491.0,172074700.0,463852.0,https://covid.cdc.gov/covid-data-tracker/#vaccination-trends,"Johnson&Johnson, Moderna, Pfizer/BioNTech"
2021-08-20,United States,367947112.0,202842239.0,172540914.0,578438.0,https://covid.cdc.gov/covid-data-tracker/#vaccination-trends,"Johnson&Johnson, Moderna, Pfizer/BioNTech"
2021-08-21,United States,368602343.0,203162169.0,172830472.0,636106.0,https://covid.cdc.gov/covid-data-tracker/#vaccination-trends,"Johnson&Johnson, Moderna, Pfizer/BioNTech"
2021-08-22,United States,368985717.0,203345084.0,173005241.0,665590.0,https://covid.cdc.gov/covid-data-tracker/#vaccination-trends,"Johnson&Johnson, Moderna, Pfizer/BioNTech"
2021-08-23,United States,369891656.0,203785339.0,173400171.0,757063.0,https://covid.cdc.gov/covid-data-tracker/#vaccination-trends,"Johnson&Johnson, Moderna, Pfizer/BioNTech"
2021-08-24,United States,370826465.0,204245470.0,173803866.0,851461.0,https://covid.cdc.gov/covid-data-tracker/#vaccination-trends,"Johnson&Johnson, Moderna, Pfizer/BioNTech"
2021-08-25,United States,371776844.0,204713017.0,174214561.0,948714.0,https://covid.cdc.gov/covid-data-tracker/#vaccination-trends,"Johnson&Johnson, Moderna, Pfizer/BioNTech"
2021-08-26,United States,372749926.0,205187047.0,174635110.0,1053110.0,https://covid.cdc.gov/covid-data-tracker/#vaccination-trends,"Johnson&Johnson, Moderna, Pfizer/BioNTech"
2021-08-27,United States,373900018.0,205718972.0,175158844.0,1172216.0,https://covid.cdc.gov/covid-data-tracker/#vaccination-trends,"Johnson&Johnson, Moderna, Pfizer/BioNTech"
2021-08-28,United States,374600012.0,206036816.0,175489958.0,1232619.0,https://covid.cdc.gov/covid-data-tracker/#vaccination-trends,"Johnson&Johnson, Moderna, Pfizer/BioNTech"
2021-08-29,United States,375022607.0,206229459.0,175689702.0,1265906.0,https://covid.cdc.gov/covid-data-tracker/#vaccination-trends,"Johnson&Johnson, Moderna, Pfizer/BioNTech"
2021-08-30,United States,375930314.0,206644300.0,176107617.0,1359641.0,https://covid.cdc.gov/covid-data-tracker/#vaccination-trends,"Johnson&Johnson, Moderna, Pfizer/BioNTech"
2021-08-31,United States,376839231.0,207061495.0,176516112.0,1461844.0,https://covid.cdc.gov/covid-data-tracker/#vaccination-trends,"Johnson&Johnson, Moderna, Pfizer/BioNTech"
2021-09-01,United States,377742259.0,207483093.0,176909938.0,1569757.0,https://covid.cdc.gov/covid-data-tracker/#vaccination-trends,"Johnson&Johnson, Moderna, Pfizer/BioNTech"
2021-09-02,United States,378618690.0,207883654.0,177297665.0,1677199.0,https://covid.cdc.gov/covid-data-tracker/#vaccination-trends,"Johnson&Johnson, Moderna, Pfizer/BioNTech"
2021-09-03,United States,379639210.0,208335739.0,177772370.0,1789412.0,https://covid.cdc.gov/covid-data-tracker/#vaccination-trends,"Johnson&Johnson, Moderna, Pfizer/BioNTech"
2021-09-04,United States,380189282.0,208580941.0,178041505.0,1830902.0,https://covid.cdc.gov/covid-data-tracker/#vaccination-trends,"Johnson&Johnson, Moderna, Pfizer/BioNTech"
2021-09-05,United States,380548785.0,208748508.0,178209475.0,1856344.0,https://covid.cdc.gov/covid-data-tracker/#vaccination-trends,"Johnson&Johnson, Moderna, Pfizer/BioNTech"
2021-09-06,United States,380720166.0,208829475.0,178292568.0,1866444.0,https://covid.cdc.gov/covid-data-tracker/#vaccination-trends,"Johnson&Johnson, Moderna, Pfizer/BioNTech"
2021-09-07,United States,381610791.0,209182319.0,178757783.0,1953191.0,https://covid.cdc.gov/covid-data-tracker/#vaccination-trends,"Johnson&Johnson, Moderna, Pfizer/BioNTech"
2021-09-08,United States,382437833.0,209547511.0,179146674.0,2043082.0,https://covid.cdc.gov/covid-data-tracker/#vaccination-trends,"Johnson&Johnson, Moderna, Pfizer/BioNTech"
2021-09-09,United States,383265641.0,209918075.0,179530652.0,2134362.0,https://covid.cdc.gov/covid-data-tracker/#vaccination-trends,"Johnson&Johnson, Moderna, Pfizer/BioNTech"
2021-09-10,United States,384277051.0,210365257.0,180014791.0,2234604.0,https://covid.cdc.gov/covid-data-tracker/#vaccination-trends,"Johnson&Johnson, Moderna, Pfizer/BioNTech"
2021-09-11,United States,384862137.0,210622588.0,180304930.0,2280286.0,https://covid.cdc.gov/covid-data-tracker/#vaccination-trends,"Johnson&Johnson, Moderna, Pfizer/BioNTech"
2021-09-12,United States,385204630.0,210778502.0,180472722.0,2301229.0,https://covid.cdc.gov/covid-data-tracker/#vaccination-trends,"Johnson&Johnson, Moderna, Pfizer/BioNTech"
2021-09-13,United States,385967089.0,211113028.0,180844138.0,2371922.0,https://covid.cdc.gov/covid-data-tracker/#vaccination-trends,"Johnson&Johnson, Moderna, Pfizer/BioNTech"
2021-09-14,United States,386699984.0,211427255.0,181210349.0,2441341.0,https://covid.cdc.gov/covid-data-tracker/#vaccination-trends,"Johnson&Johnson, Moderna, Pfizer/BioNTech"
2021-09-15,United States,387441350.0,211737625.0,181586835.0,2512467.0,https://covid.cdc.gov/covid-data-tracker/#vaccination-trends,"Johnson&Johnson, Moderna, Pfizer/BioNTech"
2021-09-16,United States,388183396.0,212046759.0,181965878.0,2584642.0,https://covid.cdc.gov/covid-data-tracker/#vaccination-trends,"Johnson&Johnson, Moderna, Pfizer/BioNTech"
2021-09-17,United States,389065008.0,212396293.0,182431192.0,2668945.0,https://covid.cdc.gov/covid-data-tracker/#vaccination-trends,"Johnson&Johnson, Moderna, Pfizer/BioNTech"
2021-09-18,United States,389574921.0,212600632.0,182698078.0,2714206.0,https://covid.cdc.gov/covid-data-tracker/#vaccination-trends,"Johnson&Johnson, Moderna, Pfizer/BioNTech"
2021-09-19,United States,389872686.0,212719331.0,182857325.0,2735538.0,https://covid.cdc.gov/covid-data-tracker/#vaccination-trends,"Johnson&Johnson, Moderna, Pfizer/BioNTech"
2021-09-20,United States,390543168.0,212984042.0,183196156.0,2815619.0,https://covid.cdc.gov/covid-data-tracker/#vaccination-trends,"Johnson&Johnson, Moderna, Pfizer/BioNTech"
2021-09-21,United States,391202689.0,213245605.0,183526823.0,2898942.0,https://covid.cdc.gov/covid-data-tracker/#vaccination-trends,"Johnson&Johnson, Moderna, Pfizer/BioNTech"
2021-09-22,United States,391852636.0,213500149.0,183851512.0,2979501.0,https://covid.cdc.gov/covid-data-tracker/#vaccination-trends,"Johnson&Johnson, Moderna, Pfizer/BioNTech"
2021-09-23,United States,392511732.0,213756336.0,184168649.0,3076240.0,https://covid.cdc.gov/covid-data-tracker/#vaccination-trends,"Johnson&Johnson, Moderna, Pfizer/BioNTech"
2021-09-24,United States,393470679.0,214081766.0,184567559.0,3321086.0,https://covid.cdc.gov/covid-data-tracker/#vaccination-trends,"Johnson&Johnson, Moderna, Pfizer/BioNTech"
2021-09-25,United States,394126934.0,214291699.0,184788822.0,3549613.0,https://covid.cdc.gov/covid-data-tracker/#vaccination-trends,"Johnson&Johnson, Moderna, Pfizer/BioNTech"
2021-09-26,United States,394524232.0,214415068.0,184929017.0,3683818.0,https://covid.cdc.gov/covid-data-tracker/#vaccination-trends,"Johnson&Johnson, Moderna, Pfizer/BioNTech"
2021-09-27,United States,395518395.0,214724500.0,185142615.0,4163087.0,https://covid.cdc.gov/covid-data-tracker/#vaccination-trends,"Johnson&Johnson, Moderna, Pfizer/BioNTech"
2021-09-28,United States,396610316.0,215026636.0,185435090.0,4668816.0,https://covid.cdc.gov/covid-data-tracker/#vaccination-trends,"Johnson&Johnson, Moderna, Pfizer/BioNTech"
2021-09-29,United States,397705069.0,215324584.0,185734064.0,5175470.0,https://covid.cdc.gov/covid-data-tracker/#vaccination-trends,"Johnson&Johnson, Moderna, Pfizer/BioNTech"
2021-09-30,United States,398819292.0,215623913.0,186038361.0,5694392.0,https://covid.cdc.gov/covid-data-tracker/#vaccination-trends,"Johnson&Johnson, Moderna, Pfizer/BioNTech"
2021-10-01,United States,400048230.0,215947304.0,186396882.0,6248415.0,https://covid.cdc.gov/covid-data-tracker/#vaccination-trends,"Johnson&Johnson, Moderna, Pfizer/BioNTech"
2021-10-02,United States,400656588.0,216125555.0,186595779.0,6483355.0,https://covid.cdc.gov/covid-data-tracker/#vaccination-trends,"Johnson&Johnson, Moderna, Pfizer/BioNTech"
2021-10-03,United States,401010419.0,216234953.0,186720824.0,6603335.0,https://covid.cdc.gov/covid-data-tracker/#vaccination-trends,"Johnson&Johnson, Moderna, Pfizer/BioNTech"
2021-10-04,United States,401953161.0,216492536.0,186964503.0,7051243.0,https://covid.cdc.gov/covid-data-tracker/#vaccination-trends,"Johnson&Johnson, Moderna, Pfizer/BioNTech"
2021-10-05,United States,402928845.0,216746899.0,187209869.0,7535179.0,https://covid.cdc.gov/covid-data-tracker/#vaccination-trends,"Johnson&Johnson, Moderna, Pfizer/BioNTech"
2021-10-06,United States,403911932.0,217003416.0,187456333.0,8022787.0,https://covid.cdc.gov/covid-data-tracker/#vaccination-trends,"Johnson&Johnson, Moderna, Pfizer/BioNTech"
2021-10-07,United States,404870153.0,217260308.0,187697597.0,8491250.0,https://covid.cdc.gov/covid-data-tracker/#vaccination-trends,"Johnson&Johnson, Moderna, Pfizer/BioNTech"
2021-10-08,United States,405961768.0,217553336.0,187993933.0,9002860.0,https://covid.cdc.gov/covid-data-tracker/#vaccination-trends,"Johnson&Johnson, Moderna, Pfizer/BioNTech"
2021-10-09,United States,406479394.0,217705347.0,188155547.0,9211008.0,https://covid.cdc.gov/covid-data-tracker/#vaccination-trends,"Johnson&Johnson, Moderna, Pfizer/BioNTech"
2021-10-10,United States,406781392.0,217801257.0,188255841.0,9317707.0,https://covid.cdc.gov/covid-data-tracker/#vaccination-trends,"Johnson&Johnson, Moderna, Pfizer/BioNTech"
2021-10-11,United States,407599615.0,218035432.0,188467451.0,9698547.0,https://covid.cdc.gov/covid-data-tracker/#vaccination-trends,"Johnson&Johnson, Moderna, Pfizer/BioNTech"
2021-10-12,United States,408480795.0,218272799.0,188689524.0,10128547.0,https://covid.cdc.gov/covid-data-tracker/#vaccination-trends,"Johnson&Johnson, Moderna, Pfizer/BioNTech"
2021-10-13,United States,409338396.0,218506317.0,188906757.0,10545058.0,https://covid.cdc.gov/covid-data-tracker/#vaccination-trends,"Johnson&Johnson, Moderna, Pfizer/BioNTech"
2021-10-14,United States,410204763.0,218739939.0,189123328.0,10971025.0,https://covid.cdc.gov/covid-data-tracker/#vaccination-trends,"Johnson&Johnson, Moderna, Pfizer/BioNTech"
2021-10-15,United States,411199104.0,219009018.0,189387401.0,11443358.0,https://covid.cdc.gov/covid-data-tracker/#vaccination-trends,"Johnson&Johnson, Moderna, Pfizer/BioNTech"
2021-10-16,United States,411671555.0,219153908.0,189525317.0,11637689.0,https://covid.cdc.gov/covid-data-tracker/#vaccination-trends,"Johnson&Johnson, Moderna, Pfizer/BioNTech"
2021-10-17,United States,411930992.0,219239848.0,189606068.0,11731499.0,https://covid.cdc.gov/covid-data-tracker/#vaccination-trends,"Johnson&Johnson, Moderna, Pfizer/BioNTech"
2021-10-18,United States,412721990.0,219469543.0,189807533.0,12100998.0,https://covid.cdc.gov/covid-data-tracker/#vaccination-trends,"Johnson&Johnson, Moderna, Pfizer/BioNTech"
2021-10-19,United States,413500409.0,219678573.0,189991480.0,12496125.0,https://covid.cdc.gov/covid-data-tracker/#vaccination-trends,"Johnson&Johnson, Moderna, Pfizer/BioNTech"
2021-10-20,United States,414283537.0,219886458.0,190176540.0,12896955.0,https://covid.cdc.gov/covid-data-tracker/#vaccination-trends,"Johnson&Johnson, Moderna, Pfizer/BioNTech"
2021-10-21,United States,415086956.0,220099038.0,190363338.0,13311086.0,https://covid.cdc.gov/covid-data-tracker/#vaccination-trends,"Johnson&Johnson, Moderna, Pfizer/BioNTech"
2021-10-22,United States,416389090.0,220407875.0,190596598.0,14080942.0,https://covid.cdc.gov/covid-data-tracker/#vaccination-trends,"Johnson&Johnson, Moderna, Pfizer/BioNTech"
2021-10-23,United States,417184844.0,220598936.0,190724804.0,14562127.0,https://covid.cdc.gov/covid-data-tracker/#vaccination-trends,"Johnson&Johnson, Moderna, Pfizer/BioNTech"
2021-10-24,United States,417639137.0,220715892.0,190801419.0,14824317.0,https://covid.cdc.gov/covid-data-tracker/#vaccination-trends,"Johnson&Johnson, Moderna, Pfizer/BioNTech"
2021-10-25,United States,419085220.0,221042987.0,190995780.0,15757567.0,https://covid.cdc.gov/covid-data-tracker/#vaccination-trends,"Johnson&Johnson, Moderna, Pfizer/BioNTech"
2021-10-26,United States,420556152.0,221364448.0,191186907.0,16727538.0,https://covid.cdc.gov/covid-data-tracker/#vaccination-trends,"Johnson&Johnson, Moderna, Pfizer/BioNTech"
2021-10-27,United States,422078277.0,221692014.0,191382346.0,17738745.0,https://covid.cdc.gov/covid-data-tracker/#vaccination-trends,"Johnson&Johnson, Moderna, Pfizer/BioNTech"
2021-10-28,United States,423581300.0,222010908.0,191579030.0,18739952.0,https://covid.cdc.gov/covid-data-tracker/#vaccination-trends,"Johnson&Johnson, Moderna, Pfizer/BioNTech"
2021-10-29,United States,425253160.0,222363699.0,191803776.0,19848460.0,https://covid.cdc.gov/covid-data-tracker/#vaccination-trends,"Johnson&Johnson, Moderna, Pfizer/BioNTech"
2021-10-30,United States,426030448.0,222545934.0,191917386.0,20337918.0,https://covid.cdc.gov/covid-data-tracker/#vaccination-trends,"Johnson&Johnson, Moderna, Pfizer/BioNTech"
2021-10-31,United States,426447794.0,222656048.0,191984579.0,20581398.0,https://covid.cdc.gov/covid-data-tracker/#vaccination-trends,"Johnson&Johnson, Moderna, Pfizer/BioNTech"
2021-11-01,United States,427785845.0,222961767.0,192166567.0,21445420.0,https://covid.cdc.gov/covid-data-tracker/#vaccination-trends,"Johnson&Johnson, Moderna, Pfizer/BioNTech"
2021-11-02,United States,429172593.0,223267055.0,192341679.0,22365370.0,https://covid.cdc.gov/covid-data-tracker/#vaccination-trends,"Johnson&Johnson, Moderna, Pfizer/BioNTech"
2021-11-03,United States,430594569.0,223588681.0,192518951.0,23303532.0,https://covid.cdc.gov/covid-data-tracker/#vaccination-trends,"Johnson&Johnson, Moderna, Pfizer/BioNTech"
2021-11-04,United States,432062165.0,223932289.0,192694985.0,24264691.0,https://covid.cdc.gov/covid-data-tracker/#vaccination-trends,"Johnson&Johnson, Moderna, Pfizer/BioNTech"
2021-11-05,United States,433760143.0,224360599.0,192905511.0,25340558.0,https://covid.cdc.gov/covid-data-tracker/#vaccination-trends,"Johnson&Johnson, Moderna, Pfizer/BioNTech"
2021-11-06,United States,434650261.0,224682838.0,193014401.0,25807374.0,https://covid.cdc.gov/covid-data-tracker/#vaccination-trends,"Johnson&Johnson, Moderna, Pfizer/BioNTech"
2021-11-07,United States,435123363.0,224866866.0,193079821.0,26035983.0,https://covid.cdc.gov/covid-data-tracker/#vaccination-trends,"Johnson&Johnson, Moderna, Pfizer/BioNTech"
2021-11-08,United States,436373845.0,225268973.0,193236420.0,26741033.0,https://covid.cdc.gov/covid-data-tracker/#vaccination-trends,"Johnson&Johnson, Moderna, Pfizer/BioNTech"
2021-11-09,United States,437768895.0,225718269.0,193385814.0,27550235.0,https://covid.cdc.gov/covid-data-tracker/#vaccination-trends,"Johnson&Johnson, Moderna, Pfizer/BioNTech"
2021-11-10,United States,439233172.0,226195941.0,193535901.0,28400006.0,https://covid.cdc.gov/covid-data-tracker/#vaccination-trends,"Johnson&Johnson, Moderna, Pfizer/BioNTech"
2021-11-11,United States,440535568.0,226644497.0,193668031.0,29133014.0,https://covid.cdc.gov/covid-data-tracker/#vaccination-trends,"Johnson&Johnson, Moderna, Pfizer/BioNTech"
2021-11-12,United States,442106031.0,227149368.0,193835988.0,30044509.0,https://covid.cdc.gov/covid-data-tracker/#vaccination-trends,"Johnson&Johnson, Moderna, Pfizer/BioNTech"
2021-11-13,United States,443009805.0,227545172.0,193923090.0,30471974.0,https://covid.cdc.gov/covid-data-tracker/#vaccination-trends,"Johnson&Johnson, Moderna, Pfizer/BioNTech"
2021-11-14,United States,443281184.0,227663683.0,193952113.0,30598292.0,https://covid.cdc.gov/covid-data-tracker/#vaccination-trends,"Johnson&Johnson, Moderna, Pfizer/BioNTech"
2021-11-15,United States,443374199.0,227691941.0,193963821.0,30651760.0,https://covid.cdc.gov/covid-data-tracker/#vaccination-trends,"Johnson&Johnson, Moderna, Pfizer/BioNTech"
2021-11-16,United States,443374199.0,227691941.0,193963821.0,30651760.0,https://covid.cdc.gov/covid-data-tracker/#vaccination-trends,"Johnson&Johnson, Moderna, Pfizer/BioNTech"
