,Country,Deaths,C10,C11,C12,C13,C20,C21,C22,C23,C30,C31,C32,C40,C41,C42,C43,C44,C50,C51,C52,C60,C61,C62,C63,C70,C71,C72,C80,C81,C82,C83,C84,logpop
0,Aruba,,30.502599653379548,33.44887348353553,19.930675909878683,16.11785095320624,32.92894280762565,12.478336221837088,48.353552859618716,6.239168110918544,8.665511265164644,19.930675909878683,71.40381282495667,29.636048526863085,0.0,0.0,20.97053726169844,49.393414211438476,100.0,0.0,0.0,29.80935875216638,26.16984402079723,43.500866551126514,0.5199306759098787,71.92374350086655,17.157712305025996,10.918544194107453,6.58578856152513,32.92894280762565,5.025996533795494,40.72790294627383,14.731369150779896,11.582404884740031
1,Afghanistan,7204.0,15.625,29.6875,17.01388888888889,37.673611111111114,37.96133567662566,0.0,37.609841827768015,24.428822495606326,42.00351493848858,0.0,57.99648506151142,68.97163120567376,0.0,0.0,0.0,31.02836879432624,72.16312056737588,0.0,27.836879432624112,69.32624113475177,0.0,29.609929078014183,1.0638297872340425,59.02777777777778,17.708333333333332,23.26388888888889,5.902777777777778,60.59027777777778,7.291666666666667,17.36111111111111,8.854166666666666,17.500267225059204
2,Angola,1537.0,33.567662565905096,10.54481546572935,21.61687170474517,34.27065026362039,4.569420035149385,11.423550087873462,79.26186291739894,4.745166959578207,4.569420035149385,59.05096660808436,36.37961335676626,4.042179261862917,4.569420035149385,8.084358523725834,45.69420035149385,37.609841827768015,11.072056239015817,84.18277680140598,4.745166959578207,4.569420035149385,69.24428822495607,26.186291739894553,0.0,11.072056239015817,24.428822495606326,64.49912126537785,0.0,4.569420035149385,11.072056239015817,38.840070298769774,45.518453427065026,17.33991655609031
3,Albania,2685.0,1.3864818024263432,12.305025996533795,73.83015597920277,12.478336221837088,1.733102253032929,41.59445407279029,56.672443674176776,0.0,1.3864818024263432,19.75736568457539,78.85615251299826,1.3864818024263432,0.0,13.691507798960139,12.998266897746968,71.92374350086655,74.52339688041594,5.545927209705373,19.930675909878683,2.079722703639515,28.422876949740036,69.49740034662045,0.0,76.42980935875217,0.0,23.570190641247834,18.890814558058924,32.23570190641248,12.305025996533795,24.4367417677643,12.131715771230503,14.870844365194944
4,Andorra,130.0,2.5951557093425603,76.98961937716263,6.920415224913495,13.494809688581315,2.2491349480968856,24.567474048442907,66.78200692041523,6.401384083044983,2.0761245674740483,45.32871972318339,52.59515570934256,22.14532871972318,0.0,0.0,13.14878892733564,64.70588235294117,4.1522491349480966,95.8477508650519,0.0,77.68166089965398,20.069204152249135,2.2491349480968856,0.0,97.75086505190312,2.2491349480968856,0.0,6.57439446366782,24.913494809688583,62.80276816608997,5.709342560553633,0.0,11.256147567657031
5,United Arab Emirates,2095.0,0.0,59.34256055363322,12.802768166089965,27.85467128027682,0.0,52.42214532871972,47.57785467128028,0.0,2.5951557093425603,6.57439446366782,90.83044982698962,4.498269896193771,0.0,0.0,10.899653979238755,84.60207612456747,46.53979238754325,50.865051903114185,2.5951557093425603,83.04498269896193,10.034602076124568,6.920415224913495,0.0,9.86159169550173,45.8477508650519,44.29065743944636,0.0,4.325259515570934,51.03806228373703,27.335640138408305,17.301038062283737,16.117203553157378
6,Argentina,115130.0,2.608695652173913,13.91304347826087,10.434782608695652,73.04347826086956,3.130434782608696,0.0,73.04347826086956,23.82608695652174,1.7391304347826086,0.0,98.26086956521739,3.130434782608696,0.0,0.0,1.2173913043478262,95.65217391304348,3.8260869565217392,0.0,96.17391304347827,3.130434782608696,0.0,90.08695652173913,6.782608695652174,3.3043478260869565,2.4347826086956523,94.26086956521739,1.7391304347826086,0.0,0.8695652173913043,31.130434782608695,66.26086956521739,17.63554596370042
7,Australia,1291.0,10.296684118673648,30.89005235602094,39.09249563699826,19.720767888307154,3.8394415357766145,20.767888307155324,47.99301919720768,27.399650959860384,2.6178010471204187,27.225130890052355,70.15706806282722,2.6178010471204187,0.0,2.7923211169284468,20.418848167539267,74.17102966841186,13.612565445026178,86.38743455497382,0.0,33.333333333333336,13.089005235602095,52.181500872600346,1.3961605584642234,3.141361256544503,5.4101221640488655,91.44851657940663,0.0,0.0,0.0,3.3158813263525304,96.68411867364748,17.065428240143802
8,Austria,10998.0,2.5951557093425603,29.58477508650519,52.07612456747405,15.7439446366782,1.9031141868512111,17.82006920415225,58.65051903114187,21.62629757785467,1.7301038062283738,33.73702422145329,64.53287197231833,2.5951557093425603,0.0,24.048442906574394,20.069204152249135,53.28719723183391,32.35294117647059,67.6470588235294,0.0,52.42214532871972,3.114186851211073,44.463667820069205,0.0,38.92733564013841,23.875432525951556,37.19723183391003,1.3840830449826989,0.0,0.0,98.6159169550173,0.0,16.017509497650448
9,Azerbaijan,6513.0,0.3472222222222222,0.0,38.888888888888886,60.763888888888886,3.8194444444444446,14.583333333333334,70.13888888888889,11.458333333333334,1.5625,0.6944444444444444,97.74305555555556,2.2569444444444446,0.0,5.381944444444445,10.069444444444445,82.29166666666667,14.409722222222221,45.833333333333336,39.75694444444444,5.208333333333333,60.06944444444444,16.319444444444443,18.40277777777778,38.36805555555556,14.930555555555555,46.701388888888886,0.0,1.3888888888888888,0.0,7.986111111111111,90.625,16.14018429078663
10,Burundi,38.0,75.4325259515571,24.567474048442907,0.0,0.0,61.07266435986159,8.650519031141869,30.27681660899654,0.0,99.48096885813149,0.5190311418685121,0.0,98.6159169550173,0.0,0.0,1.3840830449826989,0.0,100.0,0.0,0.0,100.0,0.0,0.0,0.0,100.0,0.0,0.0,4.325259515570934,30.79584775086505,39.792387543252595,22.837370242214533,2.2491349480968856,16.3214795804516
11,Belgium,25595.0,2.2491349480968856,72.14532871972318,21.972318339100347,3.633217993079585,2.0761245674740483,0.17301038062283736,83.39100346020761,14.359861591695502,1.5570934256055364,32.69896193771626,65.7439446366782,2.9411764705882355,0.0,0.0,8.823529411764707,88.23529411764706,97.2318339100346,2.7681660899653977,0.0,31.66089965397924,15.22491349480969,53.11418685121107,0.0,82.52595155709342,2.0761245674740483,15.397923875432525,0.5190311418685121,2.7681660899653977,0.0,74.5674740484429,22.14532871972318,16.269299192235913
12,Benin,159.0,45.155709342560556,19.031141868512112,28.546712802768166,7.26643598615917,43.59861591695502,42.733564013840834,13.667820069204152,0.0,18.166089965397923,50.69204152249135,31.141868512110726,5.017301038062284,0.0,0.0,87.71626297577855,7.26643598615917,69.37716262975779,19.55017301038062,11.07266435986159,89.96539792387543,10.034602076124568,0.0,0.0,72.31833910034602,20.41522491349481,7.26643598615917,0.0,32.00692041522491,40.65743944636678,14.705882352941176,12.629757785467127,16.33731398869131
13,Burkina Faso,183.0,86.28472222222223,0.3472222222222222,0.0,13.368055555555555,90.49295774647888,0.0,9.507042253521126,0.0,62.15277777777778,0.0,37.84722222222222,55.729166666666664,7.638888888888889,0.0,36.63194444444444,0.0,92.53472222222223,0.0,7.465277777777778,64.0625,17.53472222222222,18.40277777777778,0.0,65.14084507042253,0.0,34.859154929577464,3.4722222222222223,38.888888888888886,19.96527777777778,5.902777777777778,31.770833333333332,16.883428460725618
14,Bangladesh,27487.0,2.640845070422535,1.408450704225352,0.0,95.95070422535211,10.211267605633802,22.007042253521128,4.225352112676056,63.556338028169016,4.049295774647887,0.8802816901408451,95.07042253521126,4.577464788732394,0.0,0.0,2.816901408450704,92.6056338028169,11.619718309859154,32.92253521126761,55.45774647887324,4.577464788732394,5.633802816901408,78.69718309859155,11.091549295774648,16.549295774647888,2.992957746478873,80.45774647887323,0.0,2.640845070422535,36.61971830985915,60.563380281690144,0.176056338028169,18.929324954164933
15,Bulgaria,20812.0,6.375227686703097,8.014571948998178,70.67395264116576,14.936247723132968,2.185792349726776,47.540983606557376,47.17668488160292,3.096539162112933,7.468123861566484,50.81967213114754,41.712204007285976,7.832422586520948,16.029143897996356,8.37887067395264,53.005464480874316,14.754098360655737,95.99271402550092,4.007285974499089,0.0,82.51366120218579,10.746812386156648,6.739526411657559,0.0,87.06739526411657,4.007285974499089,8.925318761384336,0.0,10.018214936247723,10.746812386156648,73.77049180327869,5.46448087431694,15.746547069413712
16,Bahrain,1389.0,7.612456747404845,34.42906574394463,10.380622837370241,47.57785467128028,2.9411764705882355,0.0,94.63667820069205,2.422145328719723,8.650519031141869,6.401384083044983,84.94809688581314,5.017301038062284,2.5951557093425603,4.1522491349480966,23.01038062283737,65.22491349480968,77.68166089965398,22.31833910034602,0.0,7.26643598615917,70.58823529411765,22.14532871972318,0.0,48.09688581314879,51.90311418685121,0.0,0.0,24.913494809688583,27.335640138408305,47.75086505190311,0.0,14.374151585260584
17,Bahamas,531.0,2.6548672566371683,3.7168141592920354,27.787610619469028,65.84070796460178,3.3628318584070795,0.5309734513274337,71.15044247787611,24.95575221238938,3.3628318584070795,18.23008849557522,78.40707964601769,3.3628318584070795,0.0,0.0,4.424778761061947,92.21238938053098,26.371681415929203,46.72566371681416,26.902654867256636,3.3628318584070795,0.0,93.6283185840708,3.0088495575221237,12.743362831858407,4.601769911504425,82.65486725663717,4.070796460176991,56.283185840707965,18.23008849557522,3.893805309734513,17.52212389380531,12.891474911517673
18,Bosnia and Herzegovina,10574.0,1.7301038062283738,60.38062283737024,7.958477508650519,29.930795847750865,2.7681660899653977,45.674740484429066,42.04152249134948,9.515570934256056,1.5570934256055364,50.69204152249135,47.75086505190311,1.5570934256055364,0.0,8.477508650519031,71.45328719723183,18.5121107266436,89.7923875432526,0.6920415224913494,9.515570934256056,55.19031141868512,0.0,38.75432525951557,6.055363321799308,72.66435986159169,15.22491349480969,12.110726643598616,7.439446366782007,67.1280276816609,0.0,21.79930795847751,3.633217993079585,14.998298233779472
19,Belarus,4114.0,97.18804920913884,0.0,2.81195079086116,0.0,82.77680140597539,17.223198594024606,0.0,0.0,10.017574692442881,89.98242530755712,0.0,10.369068541300527,1.5817223198594024,0.0,0.0,88.04920913884007,100.0,0.0,0.0,11.599297012302285,88.40070298769771,0.0,0.0,100.0,0.0,0.0,2.2847100175746924,5.0966608084358525,36.7311072056239,19.332161687170476,36.55536028119508,16.060770199638977
20,Belize,409.0,10.193321616871705,4.92091388400703,0.0,84.88576449912127,3.3391915641476273,2.10896309314587,82.42530755711775,12.126537785588752,2.6362038664323375,28.471001757469246,68.89279437609842,7.381370826010545,0.0,0.0,33.91915641476274,58.699472759226715,61.86291739894552,38.13708260105448,0.0,10.017574692442881,48.154657293497365,41.82776801405976,0.0,10.017574692442881,24.253075571177504,65.72934973637962,0.0,61.33567662565905,3.51493848857645,5.975395430579965,29.173989455184536,12.911432447518303
21,Bermuda,,3.28719723183391,51.03806228373703,22.14532871972318,23.529411764705884,3.28719723183391,63.84083044982699,23.875432525951556,8.996539792387543,5.882352941176471,63.667820069204154,30.44982698961938,5.882352941176471,0.0,1.5570934256055364,62.80276816608997,29.757785467128027,58.710801393728225,32.055749128919864,9.233449477351916,37.0242214532872,17.647058823529413,45.32871972318339,0.0,73.35640138408304,21.79930795847751,4.844290657439446,0.0,19.72318339100346,62.62975778546713,3.28719723183391,14.359861591695502,11.036372435146333
22,Bolivia,18726.0,1.9097222222222223,0.0,41.49305555555556,56.59722222222222,35.763888888888886,14.0625,33.50694444444444,16.666666666666668,34.72222222222222,19.444444444444443,45.833333333333336,40.798611111111114,14.23611111111111,0.0,0.0,44.96527777777778,41.49305555555556,13.368055555555555,45.138888888888886,28.395061728395063,6.172839506172839,64.72663139329806,0.7054673721340388,36.28472222222222,19.444444444444443,44.270833333333336,2.0833333333333335,28.645833333333332,7.291666666666667,11.979166666666666,50.0,16.28639738774901
23,Brazil,596122.0,3.2064128256513027,0.0,15.430861723446894,81.3627254509018,3.8076152304609217,16.23246492985972,39.078156312625254,40.88176352705411,2.404809619238477,17.635270541082164,79.95991983967936,18.637274549098198,0.0,0.6012024048096193,0.8016032064128257,79.95991983967936,3.8076152304609217,36.47294589178357,59.71943887775551,3.8076152304609217,62.324649298597194,33.86773547094188,0.0,3.406813627254509,0.40080160320641284,96.19238476953907,2.404809619238477,69.93987975951904,1.002004008016032,1.8036072144288577,24.849699398797597,19.18145592298371
24,Barbados,69.0,3.119584055459272,20.623916811091853,41.074523396880416,35.18197573656846,4.70383275261324,34.84320557491289,47.73519163763066,12.717770034843205,2.7874564459930316,46.68989547038328,50.52264808362369,19.51219512195122,0.0,20.209059233449477,21.428571428571427,38.850174216027874,27.00348432055749,72.99651567944251,0.0,32.22996515679443,9.930313588850174,52.4390243902439,5.400696864111498,71.95121951219512,11.498257839721255,16.550522648083625,0.0,11.091854419410746,88.90814558058925,0.0,0.0,12.569701355896175
25,Brunei,40.0,1.7301038062283738,65.05190311418686,9.86159169550173,23.356401384083046,29.238754325259517,61.418685121107266,0.3460207612456747,8.996539792387543,2.0761245674740483,78.02768166089966,19.896193771626297,2.0761245674740483,0.0,62.11072664359862,26.81660899653979,8.996539792387543,91.00346020761246,8.996539792387543,0.0,90.65743944636678,0.3460207612456747,8.996539792387543,0.0,81.4878892733564,18.5121107266436,0.0,0.0,0.0,28.89273356401384,6.401384083044983,64.70588235294117,12.99800577658079
26,Bhutan,3.0,14.409722222222221,0.0,33.68055555555556,51.90972222222222,4.513888888888889,13.88888888888889,59.72222222222222,21.875,4.513888888888889,19.09722222222222,76.38888888888889,0.8680555555555556,0.0,3.6458333333333335,48.958333333333336,46.52777777777778,22.916666666666668,59.548611111111114,17.53472222222222,4.340277777777778,46.875,41.84027777777778,6.944444444444445,4.513888888888889,40.97222222222222,54.513888888888886,0.0,3.298611111111111,2.951388888888889,69.96527777777777,23.78472222222222,13.566920985318589
27,Botswana,2367.0,6.932409012131716,66.89774696707106,10.051993067590988,16.11785095320624,5.545927209705373,72.09705372616985,15.59792027729636,6.759098786828423,6.58578856152513,39.86135181975737,53.552859618717505,6.58578856152513,0.0,0.0,61.17850953206239,32.23570190641248,85.6152512998267,14.38474870017331,0.0,5.545927209705373,34.48873483535529,59.44540727902946,0.5199306759098787,2.5996533795493932,19.584055459272097,77.81629116117851,0.0,49.04679376083189,10.225303292894282,0.5199306759098787,40.20797227036395,14.689828633560778
28,Central African Republic,100.0,62.565905096660806,0.0,17.926186291739896,19.507908611599298,62.565905096660806,23.90158172231986,13.532513181019333,0.0,63.97188049209139,3.6906854130052724,32.33743409490334,63.97188049209139,0.0,0.0,36.02811950790861,0.0,100.0,0.0,0.0,35.32513181019332,41.82776801405976,17.926186291739896,4.92091388400703,60.38732394366197,20.246478873239436,19.366197183098592,4.393673110720562,0.0,76.27416520210896,0.0,19.332161687170476,15.408816446188577
29,Canada,27875.0,2.6178010471204187,64.92146596858639,12.914485165794066,19.54624781849913,13.961605584642234,2.094240837696335,77.66143106457243,6.282722513089006,0.0,51.65794066317626,48.34205933682374,15.357766143106458,0.0,21.291448516579408,23.56020942408377,39.79057591623037,70.85514834205934,29.144851657940663,0.0,51.13438045375218,48.86561954624782,0.0,0.0,30.017452006980804,69.9825479930192,0.0,0.0,0.0,2.6178010471204187,3.141361256544503,94.24083769633508,17.45488230678771
30,Switzerland,11079.0,32.8719723183391,28.37370242214533,29.06574394463668,9.688581314878892,2.7681660899653977,21.79930795847751,65.05190311418686,10.380622837370241,5.536332179930795,28.37370242214533,66.08996539792388,0.0,4.671280276816609,0.0,45.50173010380623,49.826989619377166,100.0,0.0,0.0,23.356401384083046,76.64359861591696,0.0,0.0,85.98615916955018,14.013840830449826,0.0,2.0761245674740483,0.0,1.7301038062283738,96.19377162629758,0.0,15.98061291920816
31,Chile,37455.0,2.422145328719723,0.0,16.262975778546714,81.31487889273356,2.5951557093425603,0.0,14.186851211072664,83.21799307958477,2.5951557093425603,0.0,97.40484429065744,2.5951557093425603,0.0,1.5570934256055364,39.965397923875436,55.88235294117647,21.453287197231834,42.38754325259516,36.15916955017301,4.1522491349480966,0.0,21.280276816608996,74.5674740484429,4.1522491349480966,0.0,95.8477508650519,2.9411764705882355,2.422145328719723,14.013840830449826,41.522491349480966,39.10034602076124,16.771064483979508
32,China,4636.0,0.0,84.00702987697716,9.490333919156415,6.502636203866432,0.0,78.03163444639719,21.968365553602812,0.0,0.0,78.20738137082601,21.79261862917399,0.0,23.725834797891036,38.840070298769774,15.114235500878735,22.319859402460455,0.0,100.0,0.0,84.71001757469244,8.084358523725834,0.0,7.205623901581722,0.0,81.37082601054482,18.629173989455186,0.0,2.460456942003515,8.787346221441124,56.41476274165202,32.33743409490334,21.09083252134449
33,Cote d'Ivoire,621.0,52.181500872600346,16.05584642233857,21.11692844677138,10.645724258289704,76.61431064572426,0.0,23.38568935427574,0.0,52.705061082024436,23.909249563699827,23.38568935427574,60.73298429319372,0.0,23.7347294938918,15.532286212914485,0.0,78.18499127399652,21.81500872600349,0.0,9.24956369982548,90.75043630017451,0.0,0.0,78.18499127399652,1.9197207678883073,19.895287958115183,2.6178010471204187,27.399650959860384,15.706806282722512,17.801047120418847,36.474694589877835,17.113331713223136
34,Cameroon,1459.0,11.631944444444445,51.736111111111114,23.61111111111111,13.020833333333334,71.70138888888889,20.65972222222222,7.638888888888889,0.0,9.20138888888889,47.22222222222222,43.576388888888886,2.951388888888889,0.0,0.0,97.04861111111111,0.0,65.625,34.375,0.0,100.0,0.0,0.0,0.0,56.423611111111114,43.576388888888886,0.0,2.0833333333333335,46.875,18.40277777777778,9.895833333333334,22.743055555555557,17.11961911897787
35,Democratic Republic of Congo,1084.0,46.43478260869565,23.82608695652174,0.0,29.73913043478261,29.217391304347824,31.130434782608695,39.65217391304348,0.0,22.608695652173914,26.434782608695652,50.95652173913044,40.34782608695652,24.17391304347826,0.0,35.47826086956522,0.0,41.391304347826086,34.608695652173914,24.0,15.304347826086957,26.608695652173914,58.08695652173913,0.0,20.0,11.652173913043478,68.34782608695652,0.0,55.47826086956522,18.782608695652176,0.6956521739130435,25.043478260869566,18.3413992614734
36,Congo,193.0,34.895833333333336,28.993055555555557,27.256944444444443,8.854166666666666,11.979166666666666,46.354166666666664,20.65972222222222,21.006944444444443,4.6875,60.416666666666664,34.895833333333336,4.6875,0.0,0.0,89.23611111111111,6.076388888888889,53.81944444444444,35.24305555555556,10.9375,4.6875,0.0,86.11111111111111,9.20138888888889,48.4375,31.59722222222222,19.96527777777778,0.3472222222222222,14.409722222222221,58.15972222222222,0.0,27.083333333333332,15.548407279447169
37,Colombia,126261.0,2.6132404181184667,0.0,27.526132404181183,69.86062717770035,0.0,37.45644599303136,22.299651567944252,40.24390243902439,1.916376306620209,24.912891986062718,73.17073170731707,5.7491289198606275,0.0,0.8710801393728222,55.400696864111495,37.97909407665505,4.181184668989547,50.174216027874564,45.64459930313589,4.181184668989547,22.299651567944252,51.91637630662021,21.60278745644599,23.130434782608695,29.391304347826086,47.47826086956522,1.916376306620209,18.989547038327526,8.362369337979095,0.34843205574912894,70.38327526132404,17.752535220906417
38,Comoros,147.0,,,,,,,,,,,,,,,,,,,,,,,,,,,,,,,,13.697240403684876
39,Cape Verde,337.0,3.949730700179533,29.622980251346497,4.488330341113106,61.93895870736086,4.770318021201414,0.0,70.14134275618375,25.08833922261484,2.65017667844523,0.0,97.34982332155477,10.954063604240282,0.0,0.0,21.37809187279152,67.6678445229682,78.62190812720848,21.37809187279152,0.0,3.3568904593639575,75.97173144876325,20.671378091872793,0.0,19.081272084805654,12.36749116607774,68.55123674911661,0.0,60.24734982332156,0.0,3.1802120141342756,36.57243816254417,13.239080956774805
40,Costa Rica,6349.0,1.9130434782608696,18.26086956521739,14.26086956521739,65.56521739130434,1.565217391304348,1.565217391304348,90.08695652173913,6.782608695652174,1.565217391304348,0.0,98.43478260869566,9.91304347826087,0.0,14.434782608695652,75.65217391304348,0.0,86.78260869565217,9.217391304347826,4.0,5.391304347826087,94.6086956521739,0.0,0.0,30.434782608695652,13.391304347826088,56.17391304347826,2.782608695652174,58.26086956521739,4.3478260869565215,10.782608695652174,23.82608695652174,15.452379379211708
41,Cuba,7378.0,4.049295774647887,12.67605633802817,0.0,83.27464788732394,6.514084507042254,8.626760563380282,42.429577464788736,42.429577464788736,3.3450704225352115,0.0,96.65492957746478,12.5,0.0,0.0,0.0,87.5,10.56338028169014,18.133802816901408,71.30281690140845,28.52112676056338,19.54225352112676,45.24647887323944,6.690140845070423,3.8732394366197185,0.0,96.12676056338029,0.0,26.056338028169016,36.09154929577465,6.514084507042254,31.338028169014084,16.241860581574763
42,Cyprus,552.0,2.0833333333333335,34.02777777777778,48.958333333333336,14.930555555555555,17.01388888888889,21.006944444444443,55.03472222222222,6.944444444444445,1.5625,51.388888888888886,47.048611111111114,3.8194444444444446,0.0,9.54861111111111,39.93055555555556,46.701388888888886,10.069444444444445,76.5625,13.368055555555555,14.930555555555555,35.06944444444444,50.0,0.0,50.34722222222222,23.09027777777778,26.5625,2.0833333333333335,9.722222222222221,15.104166666666666,58.15972222222222,14.930555555555555,13.70570127229864
43,Czech Republic,,1.757469244288225,32.68892794376099,34.797891036906854,30.755711775043938,2.10896309314587,43.7609841827768,47.62741652021089,6.502636203866432,4.393673110720562,57.11775043936731,38.488576449912124,1.5817223198594024,25.131810193321616,20.91388400702988,6.854130052724077,45.518453427065026,84.88576449912127,15.114235500878735,0.0,56.063268892794376,14.411247803163445,29.52548330404218,0.0,46.748681898066785,20.035149384885763,33.21616871704745,0.0,0.0,20.38664323374341,74.51669595782074,5.0966608084358525,
44,Germany,93643.0,0.0,40.869565217391305,15.130434782608695,44.0,3.652173913043478,0.0,83.30434782608695,13.043478260869565,0.0,1.565217391304348,98.43478260869566,1.565217391304348,1.9130434782608696,0.0,13.565217391304348,82.95652173913044,47.65217391304348,52.34782608695652,0.0,29.565217391304348,30.608695652173914,39.82608695652174,0.0,19.652173913043477,38.08695652173913,42.26086956521739,0.0,2.608695652173913,9.91304347826087,77.21739130434783,10.26086956521739,18.24514178524766
45,Djibouti,167.0,5.7491289198606275,60.278745644599304,23.693379790940767,10.278745644599303,3.658536585365854,59.40766550522648,27.35191637630662,9.581881533101045,3.832752613240418,23.693379790940767,72.47386759581882,3.832752613240418,0.0,0.0,0.0,96.16724738675958,67.24738675958189,9.75609756097561,22.99651567944251,90.41811846689896,0.0,0.0,9.581881533101045,90.41811846689896,0.0,9.581881533101045,2.961672473867596,75.9581881533101,0.0,0.0,21.0801393728223,13.817705148088793
46,Dominica,15.0,21.541155866900176,47.46059544658494,0.0,30.998248686514888,73.73029772329247,2.626970227670753,8.93169877408056,14.711033274956216,39.404553415061294,33.62521891418564,26.970227670753065,5.42907180385289,3.502626970227671,64.09807355516638,2.626970227670753,24.34325744308231,89.14185639229422,8.40630472854641,2.4518388791593697,33.97548161120841,47.285464098073554,18.739054290718038,0.0,78.45884413309983,21.541155866900176,0.0,3.677758318739054,12.784588441330998,60.42031523642732,0.7005253940455342,22.416812609457093,11.18680743802819
47,Denmark,2656.0,5.381944444444445,35.24305555555556,33.50694444444444,25.868055555555557,1.7361111111111112,16.319444444444443,73.78472222222223,8.159722222222221,3.9930555555555554,55.38194444444444,40.625,6.770833333333333,0.0,18.92361111111111,26.73611111111111,47.56944444444444,62.84722222222222,37.15277777777778,0.0,26.90972222222222,73.09027777777777,0.0,0.0,86.11111111111111,13.88888888888889,0.0,0.3472222222222222,0.0,11.631944444444445,57.8125,30.208333333333332,15.575659297854216
48,Dominican Republic,4046.0,3.141361256544503,4.886561954624782,19.022687609075042,72.94938917975567,3.141361256544503,20.244328097731238,65.79406631762653,10.820244328097731,3.141361256544503,0.0,96.8586387434555,2.7923211169284468,0.0,0.0,26.701570680628272,70.50610820244329,3.141361256544503,86.03839441535777,10.820244328097731,2.7923211169284468,9.424083769633508,84.29319371727749,3.4904013961605584,58.1151832460733,4.886561954624782,36.99825479930192,2.6178010471204187,44.85165794066317,15.532286212914485,18.848167539267017,18.150087260034905,16.209189134801093
49,Algeria,5805.0,1.9332161687170475,52.89982425307557,13.708260105448154,31.45869947275923,3.866432337434095,26.537785588752197,65.20210896309315,4.393673110720562,1.5817223198594024,40.94903339191564,57.46924428822496,5.62390158172232,0.0,0.0,17.926186291739896,76.44991212653778,13.532513181019333,22.319859402460455,64.14762741652021,3.866432337434095,0.0,90.50966608084359,5.62390158172232,35.50087873462214,3.866432337434095,60.63268892794376,1.9332161687170475,10.193321616871705,8.611599297012303,0.5272407732864675,78.73462214411248,17.61361712779405
50,Ecuador,32762.0,2.0833333333333335,0.0,36.80555555555556,61.111111111111114,2.7777777777777777,9.722222222222221,66.31944444444444,21.180555555555557,2.0833333333333335,0.0,97.91666666666667,2.81195079086116,0.0,0.0,49.209138840070295,47.978910369068544,19.444444444444443,57.8125,22.743055555555557,19.791666666666668,37.673611111111114,37.673611111111114,4.861111111111111,19.791666666666668,36.80555555555556,43.40277777777778,0.1757469244288225,26.71353251318102,35.50087873462214,14.235500878734623,23.374340949033392,16.699667152796984
51,Egypt,17294.0,2.456140350877193,25.263157894736842,57.54385964912281,14.736842105263158,3.6842105263157894,18.771929824561404,76.66666666666667,0.8771929824561403,4.56140350877193,4.035087719298246,91.40350877192982,4.2105263157894735,37.01754385964912,11.75438596491228,0.0,47.01754385964912,55.43859649122807,24.035087719298247,20.526315789473685,24.385964912280702,59.64912280701754,15.964912280701755,0.0,47.54385964912281,0.0,52.45614035087719,12.982456140350877,65.78947368421052,2.982456140350877,0.0,18.24561403508772,18.462382290753084
52,Eritrea,42.0,33.854166666666664,19.444444444444443,29.166666666666668,17.53472222222222,34.548611111111114,0.0,23.4375,42.013888888888886,3.8194444444444446,0.0,96.18055555555556,3.8194444444444446,0.0,0.0,45.3125,50.86805555555556,3.8194444444444446,30.03472222222222,66.14583333333333,4.513888888888889,35.763888888888886,59.72222222222222,0.0,9.895833333333334,2.7777777777777777,87.32638888888889,1.7361111111111112,0.0,2.4305555555555554,28.819444444444443,67.01388888888889,15.096850432096652
53,Spain,86397.0,1.3840830449826989,56.74740484429066,23.18339100346021,18.685121107266436,1.3840830449826989,24.740484429065745,64.70588235294117,9.16955017301038,1.5570934256055364,0.0,98.44290657439447,1.5570934256055364,3.4602076124567476,2.2491349480968856,3.4602076124567476,89.27335640138408,85.12110726643598,14.878892733564014,0.0,7.093425605536332,26.124567474048444,66.78200692041523,0.0,23.356401384083046,17.993079584775085,58.65051903114187,1.5570934256055364,0.0,12.456747404844291,69.37716262975779,16.608996539792386,17.660222369949114
54,Estonia,1352.0,3.125,66.84027777777777,13.88888888888889,16.145833333333332,19.09722222222222,37.326388888888886,26.5625,17.01388888888889,10.9375,59.375,29.6875,4.166666666666667,34.895833333333336,13.020833333333334,14.23611111111111,33.68055555555556,100.0,0.0,0.0,81.07638888888889,9.20138888888889,9.722222222222221,0.0,90.45138888888889,0.0,9.54861111111111,1.9130434782608696,3.8260869565217392,55.47826086956522,38.78260869565217,0.0,14.097064894129934
55,Ethiopia,5534.0,2.6041666666666665,59.72222222222222,1.5625,36.111111111111114,4.166666666666667,62.15277777777778,33.68055555555556,0.0,2.6041666666666665,59.72222222222222,37.673611111111114,2.6041666666666665,5.381944444444445,2.6041666666666665,58.15972222222222,31.25,15.104166666666666,48.263888888888886,36.63194444444444,64.93055555555556,35.06944444444444,0.0,0.0,44.61805555555556,0.0,55.38194444444444,0.0,3.8194444444444446,66.31944444444444,29.86111111111111,0.0,18.585145699712164
56,Finland,1072.0,2.9411764705882355,50.865051903114185,46.193771626297575,0.0,1.9031141868512111,45.50173010380623,52.59515570934256,0.0,2.2491349480968856,46.88581314878893,50.865051903114185,12.283737024221454,13.494809688581315,0.0,8.650519031141869,65.57093425605537,100.0,0.0,0.0,35.294117647058826,64.70588235294117,0.0,0.0,87.19723183391004,9.688581314878892,3.114186851211073,0.0,0.0,10.55363321799308,79.23875432525952,10.207612456747405,15.529013126793147
57,Fiji,624.0,3.202846975088968,57.47330960854092,1.0676156583629892,38.256227758007114,3.202846975088968,12.633451957295375,66.72597864768683,17.437722419928825,2.6690391459074734,60.1423487544484,37.188612099644125,3.2432432432432434,0.0,51.891891891891895,37.47747747747748,7.387387387387387,80.0711743772242,9.786476868327401,10.142348754448399,3.202846975088968,0.0,96.79715302491103,0.0,53.153153153153156,14.774774774774775,32.072072072072075,0.0,0.0,0.0,59.430604982206404,40.569395017793596,13.713365976752593
58,France,117407.0,0.17301038062283736,55.017301038062286,32.69896193771626,12.110726643598616,2.7681660899653977,9.16955017301038,65.05190311418686,23.01038062283737,0.0,24.048442906574394,75.9515570934256,0.0,0.0,0.0,15.916955017301039,84.08304498269896,74.0484429065744,25.951557093425606,0.0,40.65743944636678,7.26643598615917,52.07612456747405,0.0,37.19723183391003,19.55017301038062,43.25259515570934,0.0,2.7681660899653977,0.0,97.2318339100346,0.0,18.028589569771626
59,Faeroe Islands,,56.94444444444444,32.8125,4.166666666666667,6.076388888888889,13.020833333333334,20.833333333333332,66.14583333333333,0.0,7.986111111111111,43.576388888888886,48.4375,7.986111111111111,0.0,86.63194444444444,1.7361111111111112,3.6458333333333335,89.58333333333333,10.416666666666666,0.0,67.1875,32.8125,0.0,0.0,88.02083333333333,11.979166666666666,0.0,0.5208333333333334,33.854166666666664,47.56944444444444,15.277777777777779,2.7777777777777777,10.800656625202697
60,Gabon,183.0,2.5951557093425603,54.844290657439444,21.62629757785467,20.93425605536332,7.26643598615917,23.01038062283737,67.1280276816609,2.5951557093425603,2.0761245674740483,2.2491349480968856,95.67474048442907,2.0761245674740483,0.0,0.0,58.996539792387544,38.92733564013841,30.622837370242216,69.37716262975779,0.0,3.4602076124567476,0.0,96.53979238754326,0.0,6.920415224913495,0.0,93.0795847750865,0.0,5.190311418685121,27.85467128027682,49.134948096885815,17.82006920415225,14.639172272503542
61,United Kingdom,136906.0,2.9411764705882355,43.944636678200695,9.342560553633218,43.77162629757785,2.5951557093425603,0.8650519031141869,64.18685121107266,32.35294117647059,2.7681660899653977,20.93425605536332,76.29757785467127,3.8062283737024223,0.0,0.0,3.633217993079585,92.56055363321799,3.28719723183391,96.71280276816609,0.0,32.52595155709343,36.332179930795846,31.141868512110726,0.0,23.875432525951556,17.647058823529413,58.477508650519034,17.1280276816609,0.0,34.42906574394463,48.44290657439446,0.0,18.03805942822413
62,Georgia,8917.0,34.42906574394463,0.0,14.53287197231834,51.03806228373703,11.418685121107266,8.131487889273357,73.70242214532873,6.747404844290657,9.16955017301038,19.72318339100346,71.10726643598616,3.4602076124567476,0.0,13.321799307958477,6.57439446366782,76.64359861591696,59.16955017301038,5.190311418685121,35.6401384083045,22.664359861591695,23.529411764705884,32.52595155709343,21.280276816608996,33.391003460207614,14.53287197231834,52.07612456747405,0.0,17.301038062283737,23.70242214532872,39.273356401384085,19.72318339100346,15.196735340458174
63,Ghana,1150.0,42.11469534050179,3.225806451612903,37.096774193548384,17.56272401433692,9.010600706713781,49.46996466431096,37.80918727915194,3.7102473498233217,2.640845070422535,20.422535211267604,76.93661971830986,2.640845070422535,0.0,0.0,97.35915492957747,0.0,89.96478873239437,6.338028169014085,3.6971830985915495,69.63636363636364,26.727272727272727,3.6363636363636362,0.0,96.47887323943662,0.0,3.5211267605633805,0.0,56.690140845070424,0.0,4.577464788732394,38.732394366197184,17.272840227178826
64,Guinea,378.0,15.46572934973638,36.90685413005272,22.671353251318102,24.956063268892795,4.569420035149385,34.44639718804921,57.64499121265378,3.3391915641476273,4.569420035149385,26.71353251318102,68.7170474516696,9.490333919156415,1.2302284710017575,4.92091388400703,69.59578207381371,14.76274165202109,67.33576642335767,32.66423357664234,0.0,5.0966608084358525,0.0,94.90333919156414,0.0,10.54481546572935,1.054481546572935,88.40070298769771,1.054481546572935,33.91915641476274,26.010544815465728,16.87170474516696,22.144112478031634,16.41799555579491
65,Gambia,338.0,40.17391304347826,23.47826086956522,13.043478260869565,23.304347826086957,54.78260869565217,16.52173913043478,18.26086956521739,10.434782608695652,8.0,25.73913043478261,66.26086956521739,5.391304347826087,0.0,0.0,26.26086956521739,68.34782608695652,18.45878136200717,81.54121863799283,0.0,54.26086956521739,34.08695652173913,10.26086956521739,1.391304347826087,68.69565217391305,31.304347826086957,0.0,3.3043478260869565,23.82608695652174,36.34782608695652,0.5217391304347826,36.0,14.72656239073972
66,Greece,14795.0,0.704225352112676,50.0,17.429577464788732,31.866197183098592,1.9400352733686066,43.03350970017637,41.09347442680776,13.932980599647266,7.104795737122558,17.406749555950267,75.48845470692717,8.035714285714286,0.0,0.0,28.392857142857142,63.57142857142857,2.3214285714285716,94.64285714285714,3.0357142857142856,3.9285714285714284,47.32142857142857,44.464285714285715,4.285714285714286,8.571428571428571,37.5,53.92857142857143,2.3172905525846703,15.151515151515152,0.0,82.53119429590018,0.0,16.15449961232686
67,Greenland,,3.2085561497326203,84.1354723707665,6.951871657754011,5.704099821746881,71.11517367458866,5.301645338208409,23.583180987202926,0.0,3.0303030303030303,75.93582887700535,21.033868092691623,2.1390374331550803,0.0,73.97504456327985,20.32085561497326,3.5650623885918002,85.38324420677363,14.616755793226382,0.0,70.58823529411765,29.41176470588235,0.0,0.0,76.8270944741533,16.93404634581105,6.238859180035651,2.1390374331550803,4.634581105169341,26.55971479500891,11.05169340463458,55.61497326203209,10.94848807175559
68,Guatemala,13525.0,2.6362038664323375,25.483304042179263,15.289982425307556,56.59050966608084,2.81195079086116,43.7609841827768,30.22847100175747,23.19859402460457,1.40597539543058,22.49560632688928,76.09841827768014,2.460456942003515,0.0,0.0,3.866432337434095,93.67311072056239,10.193321616871705,61.6871704745167,28.1195079086116,61.159929701230226,0.0,38.840070298769774,0.0,55.53602811950791,7.381370826010545,37.08260105448154,0.0,18.804920913884008,20.210896309314588,34.09490333919157,26.88927943760984,16.719668405089905
69,Guam,,2.5951557093425603,37.71626297577855,15.397923875432525,44.29065743944636,2.5951557093425603,41.003460207612456,41.34948096885813,15.051903114186851,2.5951557093425603,29.58477508650519,67.82006920415225,2.5951557093425603,0.0,0.0,56.055363321799305,41.34948096885813,49.826989619377166,47.2318339100346,2.9411764705882355,25.951557093425606,66.95501730103807,7.093425605536332,0.0,67.99307958477509,32.00692041522491,0.0,2.5951557093425603,8.823529411764707,75.25951557093425,13.321799307958477,0.0,
70,Guyana,783.0,2.608695652173913,15.826086956521738,56.34782608695652,25.217391304347824,11.478260869565217,60.869565217391305,25.565217391304348,2.0869565217391304,1.7391304347826086,4.0,94.26086956521739,5.739130434782608,0.0,0.0,4.3478260869565215,89.91304347826087,49.56521739130435,50.43478260869565,0.0,4.3478260869565215,4.173913043478261,91.47826086956522,0.0,47.130434782608695,6.260869565217392,46.608695652173914,0.0,24.695652173913043,0.0,40.69565217391305,34.608695652173914,13.580204593445801
71,Hong Kong,213.0,0.0,10.676156583629894,61.387900355871885,27.93594306049822,8.362989323843417,14.234875444839858,77.40213523131672,0.0,4.6263345195729535,12.099644128113878,83.27402135231317,4.98220640569395,0.0,0.0,12.099644128113878,82.91814946619218,45.195729537366546,54.804270462633454,0.0,14.234875444839858,85.76512455516014,0.0,0.0,48.754448398576514,51.245551601423486,0.0,0.0,0.0,10.676156583629894,50.5338078291815,38.79003558718861,15.837428913400444
72,Honduras,9777.0,2.1390374331550803,0.0,0.0,97.86096256684492,2.6737967914438503,0.0,39.21568627450981,58.110516934046345,2.1390374331550803,0.0,97.86096256684492,2.6737967914438503,0.0,0.0,0.0,97.32620320855615,40.64171122994652,33.333333333333336,26.02495543672014,2.6690391459074734,18.86120996441281,49.8220640569395,28.647686832740213,2.6737967914438503,0.0,97.32620320855615,2.6737967914438503,16.0427807486631,13.368983957219251,41.35472370766488,26.55971479500891,16.124375292671626
73,Croatia,8628.0,3.9792387543252596,53.11418685121107,32.69896193771626,10.207612456747405,15.22491349480969,34.42906574394463,43.77162629757785,6.57439446366782,11.937716262975778,74.74048442906575,13.321799307958477,11.591695501730104,0.0,24.39446366782007,25.086505190311417,38.92733564013841,50.0,41.1764705882353,8.823529411764707,69.03114186851211,22.491349480968857,8.477508650519031,0.0,86.159169550173,0.0,13.84083044982699,0.0,36.85121107266436,10.207612456747405,40.83044982698962,12.110726643598616,15.222013591383893
74,Haiti,610.0,16.608996539792386,57.266435986159166,1.2110726643598615,24.913494809688583,59.86159169550173,27.162629757785467,7.439446366782007,5.536332179930795,41.86851211072664,3.633217993079585,54.49826989619377,14.013840830449826,0.0,0.0,54.1522491349481,31.833910034602077,69.8961937716263,20.242214532871973,9.86159169550173,8.131487889273357,10.899653979238755,80.96885813148789,0.0,73.70242214532873,5.017301038062284,21.280276816608996,0.0,19.72318339100346,61.937716262975776,5.882352941176471,12.456747404844291,16.26147564896512
75,Hungary,30185.0,16.37323943661972,12.32394366197183,50.17605633802817,21.12676056338028,17.253521126760564,31.514084507042252,45.95070422535211,5.28169014084507,10.915492957746478,38.20422535211268,50.88028169014085,1.7605633802816902,17.6056338028169,28.52112676056338,18.838028169014084,33.274647887323944,46.65492957746479,53.34507042253521,0.0,26.232394366197184,23.06338028169014,50.70422535211268,0.0,67.6056338028169,25.880281690140844,6.514084507042254,1.4035087719298245,4.7368421052631575,8.421052631578947,31.403508771929825,54.03508771929825,16.080825881476223
76,Indonesia,141826.0,0.0,0.0,38.92733564013841,61.07266435986159,2.422145328719723,4.498269896193771,78.02768166089966,15.051903114186851,0.3460207612456747,6.57439446366782,93.0795847750865,6.401384083044983,0.0,0.0,0.0,93.59861591695501,23.875432525951556,76.12456747404845,0.0,6.920415224913495,11.418685121107266,81.66089965397924,0.0,4.844290657439446,35.6401384083045,59.515570934256054,0.0,2.422145328719723,0.0,72.49134948096886,25.086505190311417,19.43722139138591
77,India,448062.0,0.7194244604316546,6.654676258992806,19.06474820143885,73.56115107913669,2.697841726618705,0.8992805755395683,47.66187050359712,48.7410071942446,0.7194244604316546,1.618705035971223,97.66187050359713,3.237410071942446,0.0,6.654676258992806,0.0,90.10791366906474,21.762589928057555,21.0431654676259,57.194244604316545,0.0,3.776978417266187,56.83453237410072,39.388489208633096,12.23021582733813,15.107913669064748,72.66187050359713,0.0,2.158273381294964,0.3597122302158273,58.093525179856115,39.388489208633096,21.055019123243458
78,Ireland,5249.0,2.0761245674740483,34.77508650519031,34.42906574394463,28.719723183391004,1.9031141868512111,11.764705882352942,38.92733564013841,47.40484429065744,9.342560553633218,19.896193771626297,70.76124567474048,1.9031141868512111,0.0,7.958477508650519,38.062283737024224,52.07612456747405,23.356401384083046,64.53287197231833,12.110726643598616,11.764705882352942,46.02076124567474,42.21453287197232,0.0,36.50519031141869,10.034602076124568,53.46020761245675,6.228373702422146,0.0,48.78892733564014,44.982698961937714,0.0,15.42152341157525
79,Iran,120160.0,2.2491349480968856,0.0,33.04498269896194,64.70588235294117,7.093425605536332,3.633217993079585,27.162629757785467,62.11072664359862,0.0,3.8062283737024223,96.19377162629758,16.695957820738137,17.57469244288225,4.21792618629174,9.13884007029877,52.37258347978911,20.242214532871973,79.06574394463668,0.6920415224913494,8.477508650519031,44.982698961937714,46.53979238754325,0.0,0.6920415224913494,0.0,99.30795847750865,22.837370242214533,0.0,0.0,77.16262975778547,0.0,18.25850011016732
80,Iraq,22221.0,0.0,12.717770034843205,11.67247386759582,75.60975609756098,2.7874564459930316,4.529616724738676,79.79094076655052,12.89198606271777,0.0,28.571428571428573,71.42857142857143,0.0,26.306620209059233,0.8710801393728222,19.16376306620209,53.65853658536585,41.46341463414634,25.609756097560975,32.926829268292686,2.0905923344947737,25.609756097560975,71.602787456446,0.6968641114982579,1.7421602787456445,32.40418118466899,65.85365853658537,0.0,28.39721254355401,0.0,43.20557491289198,28.39721254355401,17.53344749936202
81,Iceland,33.0,2.6041666666666665,67.36111111111111,26.73611111111111,3.298611111111111,19.270833333333332,41.31944444444444,39.40972222222222,0.0,7.638888888888889,43.923611111111114,48.4375,7.465277777777778,0.0,35.9375,42.013888888888886,14.583333333333334,92.01388888888889,7.986111111111111,0.0,100.0,0.0,0.0,0.0,100.0,0.0,0.0,0.0,0.0,6.076388888888889,93.92361111111111,0.0,12.74653473842447
82,Israel,7732.0,2.9411764705882355,32.8719723183391,48.26989619377163,15.916955017301039,4.1522491349480966,21.62629757785467,56.40138408304498,17.82006920415225,16.262975778546714,4.498269896193771,79.23875432525952,12.283737024221454,1.3840830449826989,8.131487889273357,52.24913494809689,25.951557093425606,37.54325259515571,62.45674740484429,0.0,54.844290657439444,0.5190311418685121,42.733564013840834,1.9031141868512111,54.844290657439444,2.9411764705882355,42.21453287197232,0.0,0.0,13.84083044982699,10.207612456747405,75.9515570934256,15.989099785832668
83,Italy,130870.0,0.0,20.761245674740483,32.52595155709343,46.71280276816609,0.0,5.709342560553633,52.94117647058823,41.34948096885813,0.0,3.9792387543252596,96.02076124567473,4.844290657439446,5.3633217993079585,27.162629757785467,2.9411764705882355,59.688581314878896,31.4878892733564,64.70588235294117,3.8062283737024223,22.491349480968857,14.53287197231834,62.9757785467128,0.0,26.98961937716263,7.7854671280276815,65.22491349480968,0.0,0.0,13.194444444444445,86.80555555555556,0.0,17.915960958227082
84,Jamaica,1860.0,2.0833333333333335,41.31944444444444,27.604166666666668,28.993055555555557,15.45138888888889,18.055555555555557,61.63194444444444,4.861111111111111,1.5625,2.7777777777777777,95.65972222222223,2.951388888888889,0.0,0.0,62.15277777777778,34.895833333333336,9.027777777777779,87.15277777777777,3.8194444444444446,2.0833333333333335,2.0833333333333335,88.19444444444444,7.638888888888889,2.0833333333333335,0.8680555555555556,97.04861111111111,0.0,9.20138888888889,56.423611111111114,19.444444444444443,14.930555555555555,14.90523748849441
85,Jordan,10710.0,2.422145328719723,20.761245674740483,5.3633217993079585,71.45328719723183,22.49560632688928,27.41652021089631,44.112478031634446,5.975395430579965,6.57439446366782,26.98961937716263,66.43598615916954,17.301038062283737,0.0,0.0,68.85813148788927,13.84083044982699,22.31833910034602,69.55017301038062,8.131487889273357,2.9411764705882355,16.43598615916955,73.70242214532873,6.920415224913495,38.4083044982699,23.356401384083046,38.23529411764706,2.422145328719723,8.996539792387543,0.0,57.95847750865052,30.622837370242216,16.144642348548377
86,Japan,17622.0,0.17301038062283736,76.47058823529412,7.612456747404845,15.7439446366782,20.761245674740483,51.90311418685121,27.335640138408305,0.0,0.0,92.20103986135182,7.79896013864818,53.63321799307958,26.470588235294116,19.896193771626297,0.0,0.0,82.3529411764706,17.647058823529413,0.0,16.608996539792386,83.39100346020761,0.0,0.0,5.536332179930795,94.4636678200692,0.0,0.0,3.28719723183391,4.325259515570934,43.59861591695502,48.78892733564014,18.652195526532648
87,Kazakhstan,15907.0,2.608695652173913,0.0,63.130434782608695,34.26086956521739,5.043478260869565,1.0434782608695652,85.04347826086956,8.869565217391305,1.9130434782608696,0.0,98.08695652173913,1.9130434782608696,1.2173913043478262,0.0,0.0,96.8695652173913,39.130434782608695,28.0,32.869565217391305,33.391304347826086,23.82608695652174,33.56521739130435,9.217391304347826,7.826086956521739,17.73913043478261,74.43478260869566,0.0,0.0,0.0,76.17391304347827,23.82608695652174,16.75968413349323
88,Kenya,5119.0,9.722222222222221,15.625,39.236111111111114,35.416666666666664,2.4305555555555554,51.21527777777778,46.354166666666664,0.0,8.333333333333334,0.0,91.66666666666667,2.0833333333333335,0.0,14.23611111111111,44.791666666666664,38.888888888888886,30.208333333333332,66.14583333333333,3.6458333333333335,3.298611111111111,1.2152777777777777,79.51388888888889,15.972222222222221,29.34027777777778,21.006944444444443,49.65277777777778,0.0,30.381944444444443,28.29861111111111,17.53472222222222,23.78472222222222,17.82258374576398
89,Kyrgyz Republic,,6.920415224913495,2.9411764705882355,60.89965397923876,29.238754325259517,6.57439446366782,1.7301038062283738,85.46712802768167,6.228373702422146,16.43598615916955,1.9031141868512111,81.66089965397924,2.7681660899653977,0.0,0.0,7.439446366782007,89.7923875432526,38.92733564013841,24.22145328719723,36.85121107266436,58.30449826989619,8.477508650519031,25.086505190311417,8.131487889273357,35.46712802768166,28.89273356401384,35.6401384083045,0.0,32.35294117647059,19.20415224913495,26.98961937716263,21.453287197231834,
90,Cambodia,2302.0,1.0582010582010581,23.6331569664903,3.3509700176366843,71.95767195767196,6.525573192239859,0.0,68.25396825396825,25.220458553791886,29.62962962962963,3.527336860670194,66.84303350970018,2.821869488536155,0.0,32.098765432098766,26.455026455026456,38.62433862433863,100.0,0.0,0.0,34.92063492063492,31.21693121693122,24.867724867724867,8.994708994708995,61.904761904761905,6.525573192239859,31.569664902998237,2.1164021164021163,0.0,90.12345679012346,7.760141093474426,0.0,16.645568694289526
91,Kiribati,,93.25259515570934,0.0,1.0380622837370241,5.709342560553633,100.0,0.0,0.0,0.0,97.92387543252595,0.0,2.0761245674740483,87.19723183391004,0.0,0.0,0.0,12.802768166089965,100.0,0.0,0.0,84.42906574394463,0.0,15.570934256055363,0.0,100.0,0.0,0.0,0.0,0.0,0.0,3.4602076124567476,96.53979238754326,11.70674730593439
92,South Korea,2481.0,0.0,34.031413612565444,30.017452006980804,35.95113438045375,0.0,52.87958115183246,44.67713787085515,2.443280977312391,0.0,24.083769633507853,75.91623036649214,6.806282722513089,0.0,3.6649214659685865,14.485165794066317,75.043630017452,100.0,0.0,0.0,21.81500872600349,73.29842931937172,4.886561954624782,0.0,21.81500872600349,56.719022687609076,21.465968586387433,0.0,0.0,44.32809773123909,55.67190226876091,0.0,17.753302357667103
93,Kuwait,2448.0,0.0,0.0,0.0,100.0,1.7543859649122806,54.56140350877193,34.03508771929825,9.649122807017545,1.0526315789473684,0.5263157894736842,98.42105263157895,1.7793594306049823,0.0,21.17437722419929,13.87900355871886,63.16725978647687,24.56140350877193,51.228070175438596,24.210526315789473,26.31578947368421,39.64912280701754,26.140350877192983,7.894736842105263,28.94736842105263,42.80701754385965,28.24561403508772,0.0,0.0,24.912280701754387,41.05263157894737,34.03508771929825,15.280743863989478
94,Laos,17.0,27.85467128027682,37.0242214532872,15.051903114186851,20.069204152249135,28.546712802768166,3.28719723183391,59.16955017301038,8.996539792387543,31.833910034602077,34.77508650519031,33.391003460207614,56.055363321799305,0.0,5.190311418685121,23.529411764705884,15.22491349480969,63.667820069204154,18.166089965397923,18.166089965397923,66.08996539792388,13.84083044982699,18.166089965397923,1.9031141868512111,63.667820069204154,16.608996539792386,19.72318339100346,2.5951557093425603,12.110726643598616,31.141868512110726,25.259515570934255,28.89273356401384,15.814197200922724
95,Lebanon,8316.0,2.7681660899653977,20.761245674740483,33.73702422145329,42.733564013840834,3.114186851211073,0.0,86.50519031141869,10.380622837370241,4.844290657439446,17.301038062283737,77.85467128027682,12.283737024221454,0.0,0.0,22.664359861591695,65.05190311418686,23.18339100346021,52.07612456747405,24.740484429065745,6.57439446366782,15.916955017301039,68.85813148788927,8.650519031141869,8.650519031141869,21.79930795847751,69.55017301038062,0.0,6.401384083044983,65.22491349480968,2.5951557093425603,25.77854671280277,15.727886230820602
96,Liberia,285.0,43.576388888888886,10.416666666666666,26.90972222222222,19.09722222222222,3.6458333333333335,11.631944444444445,77.60416666666667,7.118055555555555,6.25,61.458333333333336,32.291666666666664,3.6458333333333335,0.0,0.0,75.0,21.354166666666668,2.7777777777777777,97.22222222222223,0.0,40.27777777777778,31.42361111111111,28.29861111111111,0.0,58.50694444444444,13.194444444444445,28.29861111111111,1.5625,39.75694444444444,28.29861111111111,30.208333333333332,0.1736111111111111,15.460355767869652
97,Libya,4636.0,6.846846846846847,23.243243243243242,33.153153153153156,36.75675675675676,7.954545454545454,6.25,65.71969696969697,20.075757575757574,2.280701754385965,0.0,97.71929824561404,2.280701754385965,1.4035087719298245,0.0,4.2105263157894735,92.10526315789474,13.508771929824562,33.333333333333336,53.1578947368421,16.140350877192983,8.421052631578947,65.6140350877193,9.824561403508772,10.486891385767791,4.49438202247191,85.0187265917603,0.0,0.0,21.910112359550563,40.0749063670412,38.01498127340824,15.755479952774177
98,Liechtenstein,60.0,2.0761245674740483,87.71626297577855,0.0,10.207612456747405,2.0761245674740483,47.05882352941177,43.0795847750865,7.7854671280276815,0.0,36.85121107266436,63.14878892733564,7.7854671280276815,2.0761245674740483,21.453287197231834,31.314878892733564,37.37024221453287,98.26989619377163,1.7301038062283738,0.0,23.356401384083046,76.64359861591696,0.0,0.0,98.26989619377163,1.7301038062283738,0.0,2.0761245674740483,0.0,14.186851211072664,83.73702422145328,0.0,10.55200340895048
99,Sri Lanka,12847.0,4.1522491349480966,10.726643598615917,15.7439446366782,69.37716262975779,40.13840830449827,8.996539792387543,18.33910034602076,32.52595155709343,22.491349480968857,2.0761245674740483,75.4325259515571,8.304498269896193,0.0,21.10726643598616,6.57439446366782,64.01384083044982,42.04152249134948,21.280276816608996,36.67820069204152,2.9411764705882355,29.238754325259517,32.52595155709343,35.294117647058826,33.910034602076124,0.0,66.08996539792388,0.0,16.089965397923876,48.78892733564014,10.380622837370241,24.740484429065745,16.883438182921317
100,Lesotho,403.0,10.380622837370241,34.2560553633218,36.332179930795846,19.031141868512112,5.536332179930795,53.97923875432526,30.27681660899654,10.207612456747405,2.9411764705882355,41.1764705882353,55.88235294117647,2.9411764705882355,0.0,8.823529411764707,48.96193771626297,39.273356401384085,44.29065743944636,55.70934256055364,0.0,2.9411764705882355,44.982698961937714,52.07612456747405,0.0,44.463667820069205,47.05882352941177,8.477508650519031,0.8650519031141869,30.968858131487888,14.53287197231834,13.667820069204152,39.965397923875436,14.58518674190103
101,Lithuania,4965.0,8.477508650519031,21.79930795847751,53.11418685121107,16.608996539792386,16.608996539792386,31.141868512110726,34.94809688581315,17.301038062283737,19.20415224913495,33.56401384083045,47.2318339100346,11.245674740484429,15.7439446366782,11.245674740484429,2.5951557093425603,59.16955017301038,69.37716262975779,30.622837370242216,0.0,39.10034602076124,39.44636678200692,21.453287197231834,0.0,54.325259515570934,25.77854671280277,19.896193771626297,2.0905923344947737,0.0,74.21602787456446,13.937282229965156,9.75609756097561,14.805000449146833
102,Luxembourg,835.0,3.130434782608696,73.56521739130434,12.347826086956522,10.956521739130435,1.9130434782608696,66.78260869565217,21.565217391304348,9.73913043478261,5.217391304347826,68.8695652173913,25.91304347826087,5.391304347826087,0.0,24.0,30.956521739130434,39.65217391304348,84.17391304347827,15.826086956521738,0.0,14.782608695652174,39.65217391304348,45.56521739130435,0.0,82.08695652173913,11.652173913043478,6.260869565217392,28.52173913043478,1.565217391304348,0.0,69.91304347826087,0.0,13.361087321581497
103,Latvia,2706.0,2.0761245674740483,9.16955017301038,55.536332179930795,33.21799307958477,2.422145328719723,26.470588235294116,62.28373702422145,8.823529411764707,15.570934256055363,36.332179930795846,48.09688581314879,2.0761245674740483,8.823529411764707,14.878892733564014,36.15916955017301,38.062283737024224,87.0242214532872,12.975778546712803,0.0,63.32179930795848,36.67820069204152,0.0,0.0,100.0,0.0,0.0,0.0,0.0,59.86159169550173,29.930795847750865,10.207612456747405,14.439808071068795
104,Macao,,0.0,83.21799307958477,7.26643598615917,9.515570934256056,96.71280276816609,3.114186851211073,0.17301038062283736,0.0,73.52941176470588,5.3633217993079585,21.10726643598616,86.33217993079585,0.0,0.0,0.0,13.667820069204152,99.13494809688581,0.8650519031141869,0.0,100.0,0.0,0.0,0.0,99.65397923875433,0.3460207612456747,0.0,0.0,0.0,16.608996539792386,78.02768166089966,5.3633217993079585,13.397554258749746
105,Morocco,14248.0,17.474048442906575,41.1764705882353,8.650519031141869,32.69896193771626,3.28719723183391,17.474048442906575,64.87889273356402,14.359861591695502,2.2491349480968856,20.069204152249135,77.68166089965398,2.2491349480968856,3.633217993079585,0.0,48.96193771626297,45.155709342560556,26.470588235294116,55.536332179930795,17.993079584775085,10.55363321799308,0.0,89.44636678200692,0.0,2.0761245674740483,16.782006920415224,81.14186851211073,2.0761245674740483,0.0,17.301038062283737,49.826989619377166,30.79584775086505,17.435703888182264
106,Monaco,33.0,12.456747404844291,56.74740484429066,20.58823529411765,10.207612456747405,0.0,23.18339100346021,65.7439446366782,11.07266435986159,1.7301038062283738,58.13148788927336,40.13840830449827,1.7301038062283738,0.0,0.0,1.0380622837370241,97.2318339100346,59.34256055363322,40.65743944636678,0.0,18.33910034602076,36.15916955017301,45.50173010380623,0.0,53.46020761245675,33.04498269896194,13.494809688581315,1.7301038062283738,27.68166089965398,37.0242214532872,33.56401384083045,0.0,10.584562151861805
107,Moldova,6753.0,1.7667844522968197,34.80565371024735,26.148409893992934,37.2791519434629,1.7667844522968197,17.137809187279153,71.20141342756183,9.89399293286219,7.950530035335689,6.890459363957597,85.15901060070671,1.5901060070671378,0.0,6.360424028268551,15.19434628975265,76.85512367491167,56.360424028268554,23.14487632508834,20.49469964664311,25.26501766784452,43.28621908127209,30.3886925795053,1.0600706713780919,31.448763250883392,48.23321554770318,20.318021201413426,0.0,27.738515901060072,20.318021201413426,31.625441696113075,20.318021201413426,15.207793203466071
108,Madagascar,958.0,8.159722222222221,29.51388888888889,24.82638888888889,37.5,32.8125,14.756944444444445,42.88194444444444,9.54861111111111,35.24305555555556,23.4375,41.31944444444444,3.4722222222222223,0.0,54.861111111111114,41.666666666666664,0.0,61.111111111111114,32.638888888888886,6.25,33.333333333333336,15.104166666666666,46.701388888888886,4.861111111111111,22.569444444444443,3.4722222222222223,73.95833333333333,2.4305555555555554,2.951388888888889,0.0,32.8125,61.80555555555556,17.162861669870495
109,Mexico,276973.0,7.958477508650519,0.0,0.0,92.04152249134948,4.325259515570934,0.0,46.36678200692042,49.30795847750865,3.9792387543252596,29.41176470588235,66.60899653979239,32.21830985915493,0.0,1.056338028169014,59.33098591549296,7.394366197183099,5.017301038062284,94.98269896193771,0.0,5.017301038062284,30.622837370242216,64.3598615916955,0.0,3.9792387543252596,1.0380622837370241,94.98269896193771,0.0,68.68512110726644,0.0,31.314878892733564,0.0,18.685060053774706
110,Mali,548.0,14.43661971830986,47.183098591549296,18.309859154929576,20.070422535211268,8.098591549295774,39.08450704225352,43.66197183098591,9.154929577464788,8.098591549295774,15.140845070422536,76.7605633802817,8.098591549295774,0.0,0.0,91.90140845070422,0.0,100.0,0.0,0.0,65.49295774647888,34.50704225352113,0.0,0.0,91.90140845070422,1.5845070422535212,6.514084507042254,2.816901408450704,46.478873239436616,28.169014084507044,1.056338028169014,21.47887323943662,16.85313900090607
111,Malta,457.0,2.0761245674740483,60.726643598615915,13.321799307958477,23.875432525951556,25.60553633217993,21.79930795847751,44.63667820069204,7.958477508650519,1.5570934256055364,25.259515570934255,73.1833910034602,1.5570934256055364,14.013840830449826,2.0761245674740483,7.439446366782007,74.91349480968859,81.14186851211073,18.858131487889274,0.0,85.46712802768167,2.5951557093425603,11.937716262975778,0.0,75.08650519031141,3.633217993079585,21.280276816608996,0.0,0.0,1.5570934256055364,80.79584775086505,17.647058823529413,13.15107521913431
112,Myanmar,17682.0,3.298611111111111,0.0,10.069444444444445,86.63194444444444,4.340277777777778,0.0,52.951388888888886,42.708333333333336,2.0833333333333335,0.0,97.91666666666667,2.0833333333333335,0.0,0.0,36.80555555555556,61.111111111111114,6.423611111111111,70.48611111111111,23.09027777777778,5.902777777777778,1.7361111111111112,78.47222222222223,13.88888888888889,5.381944444444445,41.145833333333336,53.47222222222222,0.0,2.7777777777777777,20.65972222222222,32.638888888888886,43.923611111111114,17.8193104904223
113,Mongolia,1277.0,0.0,10.207612456747405,7.26643598615917,82.52595155709342,0.0,11.764705882352942,72.49134948096886,15.7439446366782,0.0,5.882352941176471,94.11764705882354,22.837370242214533,0.0,4.1522491349480966,3.9792387543252596,69.03114186851211,57.78546712802768,37.0242214532872,5.190311418685121,28.37370242214533,44.463667820069205,27.162629757785467,0.0,16.782006920415224,25.086505190311417,58.13148788927336,0.0,20.93425605536332,0.0,8.823529411764707,70.24221453287197,15.018267223092622
114,Mozambique,1915.0,17.482517482517483,12.412587412587413,40.03496503496503,30.06993006993007,15.384615384615385,38.98601398601399,45.62937062937063,0.0,3.1468531468531467,2.272727272727273,94.58041958041959,5.419580419580419,0.0,0.0,94.58041958041959,0.0,10.839160839160838,89.16083916083916,0.0,20.27972027972028,35.66433566433567,27.622377622377623,16.433566433566433,72.9020979020979,7.3426573426573425,19.755244755244757,0.0,46.32867132867133,26.923076923076923,12.062937062937063,14.685314685314685,17.286328680628724
115,Mauritania,774.0,27.943760984182777,35.67662565905097,10.896309314586995,25.483304042179263,20.56239015817223,74.51669595782074,4.92091388400703,0.0,29.173989455184536,11.072056239015817,59.753954305799645,35.32513181019332,15.641476274165202,5.975395430579965,12.302284710017574,30.755711775043938,99.47275922671353,0.5272407732864675,0.0,30.579964850615113,24.780316344463973,44.63971880492091,0.0,72.58347978910369,9.314586994727593,18.101933216168717,0.0,50.966608084358526,18.98066783831283,0.0,30.052724077328648,15.378927568280842
116,Mauritius,82.0,46.36678200692042,1.2110726643598615,14.878892733564014,37.54325259515571,49.653979238754324,0.0,31.66089965397924,18.685121107266436,50.0,15.397923875432525,34.602076124567475,50.173010380622834,0.0,0.0,30.27681660899654,19.55017301038062,65.57093425605537,27.335640138408305,7.093425605536332,55.19031141868512,25.086505190311417,18.5121107266436,1.2110726643598615,60.55363321799308,18.858131487889274,20.58823529411765,2.9411764705882355,0.8650519031141869,28.027681660899653,17.993079584775085,50.173010380622834,14.057223034700893
117,Malawi,2281.0,41.666666666666664,2.2569444444444446,20.65972222222222,35.416666666666664,5.902777777777778,49.826388888888886,44.270833333333336,0.0,3.298611111111111,41.31944444444444,55.38194444444444,3.298611111111111,0.0,0.0,89.58333333333333,7.118055555555555,71.35416666666667,28.645833333333332,0.0,60.416666666666664,30.90277777777778,8.680555555555555,0.0,100.0,0.0,0.0,3.298611111111111,21.180555555555557,23.26388888888889,8.854166666666666,43.40277777777778,16.793469874048018
118,Malaysia,26143.0,9.581881533101045,6.794425087108014,17.94425087108014,65.6794425087108,2.9565217391304346,3.652173913043478,46.08695652173913,47.30434782608695,1.0434782608695652,11.478260869565217,87.47826086956522,8.996539792387543,0.0,35.46712802768166,3.114186851211073,52.42214532871972,47.47826086956522,45.21739130434783,7.304347826086956,17.984189723320156,21.14624505928854,54.1501976284585,6.719367588932807,12.32638888888889,6.423611111111111,81.25,0.0,0.0,8.680555555555555,80.72916666666667,10.590277777777779,17.30521304766637
119,Namibia,3494.0,23.529411764705884,34.2560553633218,13.321799307958477,28.89273356401384,11.764705882352942,52.7681660899654,35.46712802768166,0.0,2.7681660899653977,66.60899653979239,30.622837370242216,2.7681660899653977,0.0,19.55017301038062,63.14878892733564,14.53287197231834,68.5121107266436,31.4878892733564,0.0,16.955017301038062,32.69896193771626,50.346020761245676,0.0,47.75086505190311,15.916955017301039,36.332179930795846,0.0,70.06920415224913,4.498269896193771,1.7301038062283738,23.70242214532872,14.766142424883183
120,Niger,201.0,52.04262877442274,34.9911190053286,0.0,12.966252220248668,69.9822380106572,30.017761989342805,0.0,0.0,40.49733570159858,29.840142095914743,29.662522202486677,40.49733570159858,18.47246891651865,9.946714031971581,31.08348134991119,0.0,100.0,0.0,0.0,98.22380106571936,1.7761989342806395,0.0,0.0,89.87566607460036,1.9538188277087034,8.170515097690942,7.815275310834814,8.703374777975133,58.259325044404974,0.0,25.22202486678508,17.039605141391885
121,Nigeria,2701.0,24.39446366782007,23.01038062283737,16.608996539792386,35.98615916955017,2.9411764705882355,66.78200692041523,24.048442906574394,6.228373702422146,2.9411764705882355,67.99307958477509,29.06574394463668,2.9411764705882355,0.0,0.0,90.65743944636678,6.401384083044983,46.88581314878893,46.88581314878893,6.228373702422146,3.8062283737024223,6.228373702422146,89.96539792387543,0.0,36.85121107266436,42.04152249134948,21.10726643598616,3.8062283737024223,0.0,71.280276816609,0.0,24.913494809688583,19.16926596157462
122,Nicaragua,204.0,70.58823529411765,9.16955017301038,18.858131487889274,1.3840830449826989,100.0,0.0,0.0,0.0,100.0,0.0,0.0,100.0,0.0,0.0,0.0,0.0,100.0,0.0,0.0,100.0,0.0,0.0,0.0,100.0,0.0,0.0,15.397923875432525,67.1280276816609,17.474048442906575,0.0,0.0,15.717973095963984
123,Netherlands,18581.0,1.9031141868512111,59.688581314878896,19.377162629757784,19.031141868512112,1.9031141868512111,2.422145328719723,79.06574394463668,16.608996539792386,9.86159169550173,23.875432525951556,66.26297577854672,18.166089965397923,0.3460207612456747,8.304498269896193,7.093425605536332,66.08996539792388,42.56055363321799,57.43944636678201,0.0,18.5121107266436,56.57439446366782,24.913494809688583,0.0,39.965397923875436,60.034602076124564,0.0,2.0761245674740483,0.0,0.0,97.92387543252595,0.0,16.658854414659746
124,Norway,861.0,1.9031141868512111,68.16608996539793,21.972318339100347,7.958477508650519,2.422145328719723,39.61937716262976,41.522491349480966,16.43598615916955,29.238754325259517,26.98961937716263,43.77162629757785,10.034602076124568,0.0,2.2491349480968856,48.96193771626297,38.75432525951557,45.155709342560556,54.844290657439444,0.0,43.944636678200695,56.055363321799305,0.0,0.0,32.17993079584775,61.76470588235294,6.055363321799308,2.2491349480968856,0.0,43.42560553633218,38.4083044982699,15.916955017301039,15.513989769035605
125,Nepal,11123.0,3.125,16.493055555555557,16.145833333333332,64.23611111111111,6.076388888888889,37.15277777777778,36.28472222222222,20.48611111111111,2.7777777777777777,21.875,75.34722222222223,13.020833333333334,0.0,0.0,42.88194444444444,44.09722222222222,14.0625,47.048611111111114,38.888888888888886,17.1875,37.673611111111114,38.19444444444444,6.944444444444445,18.40277777777778,38.19444444444444,43.40277777777778,0.0,0.0,44.44444444444444,27.256944444444443,28.29861111111111,17.205812802584425
126,New Zealand,27.0,67.30103806228374,11.245674740484429,7.612456747404845,13.84083044982699,69.8961937716263,8.477508650519031,4.844290657439446,16.782006920415224,64.70588235294117,4.325259515570934,30.968858131487888,64.21052631578948,0.0,3.508771929824561,6.315789473684211,25.964912280701753,83.39100346020761,3.28719723183391,13.321799307958477,79.75778546712803,0.3460207612456747,19.896193771626297,0.0,78.02768166089966,0.3460207612456747,21.62629757785467,0.0,0.0,0.0,3.28719723183391,96.71280276816609,15.396681085917836
127,Oman,4096.0,3.8260869565217392,21.91304347826087,34.08695652173913,40.17391304347826,22.782608695652176,11.478260869565217,56.17391304347826,9.565217391304348,2.782608695652174,3.4782608695652173,93.73913043478261,2.782608695652174,0.0,3.4782608695652173,0.0,93.73913043478261,38.608695652173914,16.695652173913043,44.69565217391305,29.217391304347824,13.565217391304348,43.65217391304348,13.565217391304348,41.91304347826087,17.565217391304348,40.52173913043478,0.0,0.0,41.91304347826087,34.08695652173913,24.0,15.468654494105525
128,Pakistan,27729.0,8.726003490401396,0.0,44.85165794066317,46.42233856893543,4.013961605584642,27.225130890052355,29.842931937172775,38.917975567190226,2.094240837696335,10.471204188481675,87.43455497382199,2.094240837696335,0.0,5.7591623036649215,6.631762652705061,85.51483420593368,56.719022687609076,21.465968586387433,21.81500872600349,3.8394415357766145,30.19197207678883,27.399650959860384,38.56893542757417,53.05410122164049,18.32460732984293,28.62129144851658,0.0,23.56020942408377,55.67190226876091,10.122164048865619,10.645724258289704,19.23249913895445
129,Panama,7223.0,1.9031141868512111,0.3460207612456747,6.055363321799308,91.6955017301038,2.5951557093425603,3.28719723183391,73.35640138408304,20.761245674740483,2.0761245674740483,0.0,97.92387543252595,2.0761245674740483,0.0,0.0,76.8166089965398,21.10726643598616,25.086505190311417,48.78892733564014,26.124567474048444,2.7681660899653977,7.958477508650519,61.5916955017301,27.68166089965398,31.141868512110726,11.764705882352942,57.09342560553633,0.0,17.301038062283737,36.85121107266436,15.22491349480969,30.622837370242216,15.292920632582884
130,Peru,199367.0,1.9031141868512111,0.0,54.844290657439444,43.25259515570934,2.5951557093425603,0.0,78.02768166089966,19.377162629757784,1.9031141868512111,0.0,98.09688581314879,1.9031141868512111,0.0,0.5190311418685121,5.882352941176471,91.6955017301038,8.823529411764707,49.134948096885815,42.04152249134948,2.422145328719723,12.110726643598616,47.40484429065744,38.062283737024224,8.650519031141869,12.456747404844291,78.89273356401384,0.8650519031141869,0.8650519031141869,21.79930795847751,42.04152249134948,34.42906574394463,17.32285059932984
131,Philippines,38164.0,1.565217391304348,6.260869565217392,17.565217391304348,74.6086956521739,4.695652173913044,0.0,78.08695652173913,17.217391304347824,0.0,2.4347826086956523,97.56521739130434,2.4347826086956523,0.0,12.347826086956522,8.869565217391305,76.34782608695652,9.73913043478261,48.52173913043478,41.73913043478261,2.4347826086956523,10.434782608695652,67.47826086956522,19.652173913043477,2.4347826086956523,46.608695652173914,50.95652173913044,0.0,0.0,26.782608695652176,49.56521739130435,23.652173913043477,18.52546328261366
132,Papua New Guinea,229.0,40.38800705467372,44.091710758377424,7.583774250440917,7.936507936507937,4.056437389770723,35.44973544973545,59.61199294532628,0.8818342151675485,4.938271604938271,51.499118165784836,43.5626102292769,8.465608465608465,0.0,4.761904761904762,73.19223985890653,13.580246913580247,21.869488536155202,65.96119929453263,12.16931216931217,33.686067019400355,45.14991181657848,19.753086419753085,1.4109347442680775,43.738977072310405,32.451499118165785,23.80952380952381,0.0,4.938271604938271,65.78483245149911,23.280423280423282,5.99647266313933,16.025871255221386
133,Poland,75623.0,1.9031141868512111,32.17993079584775,31.833910034602077,34.083044982698965,8.477508650519031,16.608996539792386,68.33910034602076,6.57439446366782,18.858131487889274,28.546712802768166,52.59515570934256,8.996539792387543,0.0,40.484429065743946,5.017301038062284,45.50173010380623,41.86851211072664,58.13148788927336,0.0,30.622837370242216,65.91695501730104,3.4602076124567476,0.0,38.062283737024224,50.69204152249135,11.245674740484429,1.3840830449826989,1.0380622837370241,36.15916955017301,45.50173010380623,15.916955017301039,17.447740292360876
134,Puerto Rico,,2.608695652173913,29.73913043478261,4.3478260869565215,63.30434782608695,16.52173913043478,10.782608695652174,63.65217391304348,9.043478260869565,8.347826086956522,15.652173913043478,76.0,15.304347826086957,0.0,6.608695652173913,61.91304347826087,16.17391304347826,24.347826086956523,38.08695652173913,37.56521739130435,24.347826086956523,5.391304347826087,69.91304347826087,0.34782608695652173,45.21739130434783,38.08695652173913,16.695652173913043,0.0,26.956521739130434,0.5217391304347826,72.52173913043478,0.0,
135,Portugal,17968.0,1.3840830449826989,46.02076124567474,29.238754325259517,23.356401384083046,1.9031141868512111,0.0,80.79584775086505,17.301038062283737,1.3840830449826989,0.0,98.6159169550173,1.3840830449826989,0.0,1.0380622837370241,2.0761245674740483,95.50173010380622,9.688581314878892,90.31141868512111,0.0,33.04498269896194,24.22145328719723,42.733564013840834,0.0,76.64359861591696,6.57439446366782,16.782006920415224,1.5570934256055364,0.0,0.0,98.44290657439447,0.0,16.134748519045413
136,Paraguay,16195.0,1.559792027729636,24.263431542461007,15.59792027729636,58.578856152513,1.5845070422535212,17.781690140845072,63.38028169014085,17.253521126760564,1.559792027729636,38.82149046793761,59.61871750433276,1.559792027729636,0.0,8.838821490467938,61.005199306759096,28.596187175043326,66.90140845070422,28.345070422535212,4.753521126760563,1.5845070422535212,1.232394366197183,86.44366197183099,10.73943661971831,69.67071057192375,3.6395147313691507,26.689774696707104,2.2530329289428077,21.317157712305026,33.44887348353553,7.452339688041595,35.52859618717504,15.79231578664109
137,Palestine,4080.0,1.9097222222222223,0.0,20.48611111111111,77.60416666666667,0.8680555555555556,43.75,25.868055555555557,29.51388888888889,14.930555555555555,0.0,85.06944444444444,4.513888888888889,0.0,5.902777777777778,44.44444444444444,45.138888888888886,1.7361111111111112,35.416666666666664,62.84722222222222,4.6875,3.8194444444444446,69.96527777777777,21.52777777777778,0.6944444444444444,0.0,99.30555555555556,0.6944444444444444,0.0,15.79861111111111,0.0,83.50694444444444,15.468535789880702
138,Qatar,605.0,1.5570934256055364,21.62629757785467,37.19723183391003,39.61937716262976,2.7681660899653977,42.38754325259516,48.78892733564014,6.055363321799308,1.9031141868512111,23.356401384083046,74.74048442906575,3.633217993079585,0.0,0.0,41.86851211072664,54.49826989619377,2.422145328719723,52.94117647058823,44.63667820069204,2.7681660899653977,88.23529411764706,8.996539792387543,0.0,39.44636678200692,54.325259515570934,6.228373702422146,0.0,0.0,44.29065743944636,37.0242214532872,18.685121107266436,14.8906918045938
139,Kosovo,2949.0,1.9097222222222223,59.548611111111114,6.25,32.291666666666664,2.4305555555555554,28.125,68.40277777777777,1.0416666666666667,1.7361111111111112,49.479166666666664,48.78472222222222,1.7361111111111112,0.0,18.055555555555557,35.416666666666664,44.791666666666664,12.152777777777779,76.38888888888889,11.458333333333334,24.82638888888889,11.458333333333334,63.71527777777778,0.0,52.604166666666664,0.0,47.395833333333336,1.9097222222222223,38.541666666666664,23.78472222222222,21.875,13.88888888888889,14.38952391596585
140,Romania,36865.0,1.7361111111111112,2.6041666666666665,60.763888888888886,34.895833333333336,1.9097222222222223,53.645833333333336,44.44444444444444,0.0,1.2152777777777777,54.6875,44.09722222222222,1.2152777777777777,0.6944444444444444,22.22222222222222,11.631944444444445,64.23611111111111,80.90277777777777,11.979166666666666,7.118055555555555,25.17361111111111,33.333333333333336,40.27777777777778,1.2152777777777777,47.56944444444444,10.243055555555555,42.1875,0.0,3.6458333333333335,39.583333333333336,41.84027777777778,14.930555555555555,16.766651868350387
141,Russia,202700.0,32.986111111111114,2.2569444444444446,41.145833333333336,23.61111111111111,2.7777777777777777,22.916666666666668,66.66666666666667,7.638888888888889,1.5625,12.152777777777779,86.28472222222223,6.944444444444445,1.0416666666666667,5.902777777777778,59.201388888888886,26.90972222222222,73.09027777777777,26.90972222222222,0.0,37.84722222222222,49.479166666666664,1.3888888888888888,11.284722222222221,56.076388888888886,4.6875,39.236111111111114,0.0,4.6875,15.277777777777779,61.458333333333336,18.57638888888889,18.79851440900177
142,Rwanda,1264.0,6.055363321799308,41.522491349480966,9.86159169550173,42.56055363321799,2.2491349480968856,1.2110726643598615,85.29411764705883,11.245674740484429,1.2110726643598615,21.972318339100347,76.8166089965398,1.2110726643598615,3.633217993079585,9.86159169550173,65.7439446366782,19.55017301038062,24.39446366782007,59.16955017301038,16.43598615916955,4.498269896193771,0.0,93.0795847750865,2.422145328719723,31.53153153153153,12.252252252252251,56.21621621621622,0.0,12.456747404844291,59.16955017301038,0.0,28.37370242214533,16.40150739351631
143,Saudi Arabia,8709.0,1.3840830449826989,2.0761245674740483,9.16955017301038,87.37024221453287,2.5951557093425603,75.25951557093425,22.14532871972318,0.0,2.0761245674740483,0.3460207612456747,97.57785467128028,2.5951557093425603,0.0,0.0,87.71626297577855,9.688581314878892,68.85813148788927,15.22491349480969,15.916955017301039,61.76470588235294,22.664359861591695,6.055363321799308,9.515570934256056,73.01038062283737,8.823529411764707,18.166089965397923,2.422145328719723,0.0,0.3460207612456747,61.418685121107266,35.813148788927336,17.380545266323224
144,Sudan,2901.0,18.246869409660107,6.440071556350627,11.091234347048301,64.22182468694096,22.182468694096602,27.191413237924866,33.09481216457961,17.531305903398927,40.608228980322004,7.334525939177102,52.05724508050089,46.15384615384615,0.0,0.0,39.17710196779964,14.669051878354203,71.55635062611807,7.5134168157423975,20.930232558139537,53.84615384615385,25.760286225402506,16.457960644007155,3.9355992844364938,65.65295169946333,9.123434704830053,25.22361359570662,2.6833631484794274,21.10912343470483,22.361359570661897,32.55813953488372,21.288014311270125,17.62015659383503
145,Senegal,1858.0,28.89273356401384,29.41176470588235,24.22145328719723,17.474048442906575,64.3598615916955,7.612456747404845,28.027681660899653,0.0,41.69550173010381,19.55017301038062,38.75432525951557,30.79584775086505,8.304498269896193,40.13840830449827,12.283737024221454,8.477508650519031,92.38754325259515,7.612456747404845,0.0,65.91304347826087,4.695652173913044,12.521739130434783,16.869565217391305,76.98961937716263,8.823529411764707,14.186851211072664,2.422145328719723,11.591695501730104,0.0,65.39792387543253,20.58823529411765,16.660205267580032
146,Singapore,93.0,6.620209059233449,72.82229965156795,4.006968641114983,16.550522648083625,6.445993031358885,8.18815331010453,79.26829268292683,6.097560975609756,0.0,64.80836236933798,35.19163763066202,0.0,0.0,50.34843205574913,0.0,49.65156794425087,100.0,0.0,0.0,5.7491289198606275,81.70731707317073,12.543554006968641,0.0,86.58536585365853,0.8710801393728222,12.543554006968641,0.0,0.0,0.0,100.0,0.0,15.589900716977388
147,Solomon Islands,,86.95652173913044,0.0,0.0,13.043478260869565,55.338078291814945,0.0,44.12811387900356,0.5338078291814946,3.9145907473309607,96.08540925266904,0.0,100.0,0.0,0.0,0.0,0.0,64.41281138790036,35.05338078291815,0.5338078291814946,99.4661921708185,0.0,0.0,0.5338078291814946,18.327402135231317,70.8185053380783,10.854092526690392,0.0,0.0,0.0,66.54804270462634,33.45195729537367,13.46452653284223
148,Sierra Leone,121.0,8.823529411764707,58.65051903114187,11.07266435986159,21.453287197231834,50.173010380622834,11.591695501730104,37.19723183391003,1.0380622837370241,12.456747404844291,53.63321799307958,33.910034602076124,6.401384083044983,0.0,48.26989619377163,44.80968858131488,0.5190311418685121,31.66089965397924,68.33910034602076,0.0,45.50173010380623,37.88927335640138,15.570934256055363,1.0380622837370241,86.50519031141869,0.0,13.494809688581315,3.4602076124567476,62.80276816608997,12.456747404844291,1.2110726643598615,20.069204152249135,15.912465712084735
149,El Salvador,3222.0,3.28719723183391,29.06574394463668,0.0,67.6470588235294,2.5951557093425603,69.55017301038062,15.22491349480969,12.629757785467127,3.28719723183391,53.11418685121107,43.59861591695502,30.968858131487888,24.39446366782007,7.093425605536332,25.432525951557093,12.110726643598616,66.08996539792388,15.051903114186851,18.858131487889274,37.37024221453287,8.996539792387543,38.581314878892734,15.051903114186851,34.77508650519031,33.21799307958477,32.00692041522491,0.0,53.97923875432526,0.0,12.975778546712803,33.04498269896194,15.69015484608497
150,San Marino,91.0,0.0,45.155709342560556,20.41522491349481,34.42906574394463,19.377162629757784,49.134948096885815,31.4878892733564,0.0,1.2110726643598615,56.40138408304498,42.38754325259516,25.432525951557093,0.0,0.0,19.896193771626297,54.67128027681661,84.77508650519032,6.57439446366782,8.650519031141869,33.56401384083045,42.21453287197232,24.22145328719723,0.0,57.78546712802768,37.54325259515571,4.671280276816609,0.0,39.965397923875436,43.0795847750865,6.055363321799308,10.899653979238755,10.434409878001242
151,Somalia,1111.0,39.54305799648506,27.41652021089631,0.0,33.04042179261863,44.99121265377856,45.518453427065026,9.490333919156415,0.0,29.701230228471,49.560632688927946,20.738137082601053,31.10720562390158,0.0,1.40597539543058,49.384885764499124,18.101933216168717,99.47275922671353,0.0,0.5272407732864675,27.065026362038665,53.60281195079086,19.332161687170476,0.0,89.45518453427066,1.2302284710017575,9.314586994727593,2.2847100175746924,62.03866432337434,8.260105448154658,3.1634446397188047,24.253075571177504,16.61031932632465
152,Serbia,8187.0,2.6315789473684212,50.87719298245614,31.92982456140351,14.56140350877193,8.070175438596491,19.649122807017545,66.84210526315789,5.43859649122807,2.456140350877193,25.614035087719298,71.9298245614035,8.947368421052632,0.8771929824561403,21.92982456140351,4.7368421052631575,63.50877192982456,85.08771929824562,4.912280701754386,10.0,8.596491228070175,82.10526315789474,0.5263157894736842,8.771929824561404,47.19298245614035,42.280701754385966,10.526315789473685,14.912280701754385,71.75438596491227,1.5789473684210527,0.8771929824561403,10.87719298245614,15.748223143895542
153,South Sudan,128.0,23.82608695652174,9.391304347826088,32.0,34.78260869565217,48.0,6.434782608695652,38.43478260869565,7.130434782608695,23.130434782608695,14.782608695652174,62.08695652173913,2.608695652173913,0.0,3.652173913043478,73.21739130434783,20.52173913043478,52.52173913043478,29.391304347826086,18.08695652173913,27.130434782608695,31.130434782608695,41.73913043478261,0.0,41.21739130434783,37.56521739130435,21.217391304347824,0.0,0.0,73.04347826086956,6.434782608695652,20.52173913043478,16.247488981099806
154,Suriname,879.0,2.6041666666666665,18.229166666666668,15.625,63.541666666666664,16.493055555555557,0.0,79.51388888888889,3.9930555555555554,2.0833333333333335,2.6041666666666665,95.3125,4.6875,0.0,0.1736111111111111,15.79861111111111,79.34027777777777,51.388888888888886,0.0,48.611111111111114,4.6875,2.951388888888889,89.23611111111111,3.125,54.34027777777778,0.0,45.65972222222222,2.2569444444444446,0.0,22.395833333333332,14.583333333333334,60.763888888888886,13.290920639422428
155,Slovak Republic,,1.5570934256055364,14.705882352941176,54.67128027681661,29.06574394463668,6.747404844290657,45.674740484429066,43.25259515570934,4.325259515570934,16.782006920415224,13.321799307958477,69.8961937716263,1.9031141868512111,0.0,19.55017301038062,26.643598615916954,51.90311418685121,85.98615916955018,14.013840830449826,0.0,48.26989619377163,15.22491349480969,36.50519031141869,0.0,39.10034602076124,29.58477508650519,31.314878892733564,1.3864818024263432,0.0,81.45580589254766,2.5996533795493932,14.558058925476603,
156,Slovenia,4557.0,2.5951557093425603,50.346020761245676,19.55017301038062,27.508650519031143,19.377162629757784,16.955017301038062,57.266435986159166,6.401384083044983,3.114186851211073,23.529411764705884,73.35640138408304,1.0380622837370241,6.055363321799308,10.380622837370241,38.23529411764706,44.29065743944636,71.10726643598616,14.186851211072664,14.705882352941176,53.776978417266186,14.928057553956835,31.294964028776977,0.0,58.996539792387544,5.536332179930795,35.46712802768166,1.5570934256055364,22.14532871972318,40.65743944636678,35.6401384083045,0.0,14.547264320830058
157,Sweden,14856.0,25.432525951557093,28.20069204152249,46.36678200692042,0.0,15.916955017301039,51.3840830449827,32.69896193771626,0.0,2.0761245674740483,23.70242214532872,74.22145328719724,2.0761245674740483,0.0,2.9411764705882355,57.09342560553633,37.88927335640138,18.685121107266436,81.31487889273356,0.0,4.325259515570934,95.67474048442907,0.0,0.0,42.38754325259516,57.61245674740484,0.0,0.17301038062283736,0.0,0.0,99.82698961937716,0.0,16.133984649598457
158,Eswatini,1217.0,2.7777777777777777,21.180555555555557,39.93055555555556,36.111111111111114,4.513888888888889,71.70138888888889,23.78472222222222,0.0,2.2569444444444446,41.666666666666664,56.076388888888886,5.034722222222222,0.0,24.305555555555557,56.94444444444444,13.715277777777779,28.645833333333332,67.88194444444444,3.4722222222222223,6.770833333333333,31.07638888888889,62.15277777777778,0.0,2.7777777777777777,29.166666666666668,68.05555555555556,0.0,46.875,13.88888888888889,1.7361111111111112,37.5,13.974537045981744
159,Seychelles,112.0,5.034722222222222,43.40277777777778,11.284722222222221,40.27777777777778,48.263888888888886,12.152777777777779,30.208333333333332,9.375,22.04861111111111,22.743055555555557,55.208333333333336,28.125,17.881944444444443,0.0,0.0,53.99305555555556,55.55555555555556,35.24305555555556,9.20138888888889,44.61805555555556,19.444444444444443,35.9375,0.0,60.06944444444444,15.79861111111111,24.131944444444443,0.0,15.104166666666666,1.5625,78.47222222222223,4.861111111111111,11.501965624733886
160,Syria,2238.0,16.262975778546714,0.3460207612456747,39.792387543252595,43.59861591695502,10.034602076124568,20.242214532871973,57.95847750865052,11.764705882352942,18.166089965397923,18.858131487889274,62.9757785467128,28.20069204152249,0.0,26.643598615916954,45.155709342560556,0.0,88.92733564013841,0.0,11.07266435986159,60.89965397923876,14.186851211072664,24.913494809688583,0.0,19.896193771626297,3.9792387543252596,76.12456747404845,0.0,64.53287197231833,0.0,35.46712802768166,0.0,16.72108308542996
161,Chad,174.0,48.96193771626297,11.245674740484429,19.377162629757784,20.41522491349481,48.96193771626297,13.84083044982699,27.508650519031143,9.688581314878892,48.96193771626297,5.882352941176471,45.155709342560556,27.162629757785467,0.0,0.0,50.51903114186851,22.31833910034602,75.25951557093425,18.685121107266436,6.055363321799308,38.581314878892734,4.498269896193771,56.9204152249135,0.0,35.6401384083045,5.709342560553633,58.65051903114187,1.2110726643598615,2.7681660899653977,57.95847750865052,11.764705882352942,26.29757785467128,16.643710473409676
162,Togo,228.0,36.47686832740214,15.480427046263346,33.80782918149466,14.234875444839858,20.640569395017792,8.718861209964412,70.64056939501779,0.0,25.97864768683274,20.106761565836297,53.91459074733096,5.871886120996441,0.0,29.00355871886121,65.12455516014235,0.0,79.8932384341637,20.106761565836297,0.0,31.494661921708186,51.60142348754449,16.90391459074733,0.0,20.818505338078293,5.516014234875445,73.66548042704626,3.380782918149466,12.633451957295375,48.754448398576514,0.0,35.23131672597865,15.953013674955368
163,Thailand,16620.0,2.422145328719723,43.59861591695502,14.013840830449826,39.965397923875436,2.7681660899653977,63.49480968858131,24.048442906574394,9.688581314878892,1.5570934256055364,39.273356401384085,59.16955017301038,7.256637168141593,0.0,39.469026548672566,19.82300884955752,33.45132743362832,30.622837370242216,69.37716262975779,0.0,3.4602076124567476,85.12110726643598,11.418685121107266,0.0,4.325259515570934,49.653979238754324,46.02076124567474,0.8650519031141869,0.0,34.083044982698965,46.71280276816609,18.33910034602076,18.06330332476423
164,Tajikistan,125.0,29.238754325259517,70.76124567474048,0.0,0.0,61.76470588235294,29.41176470588235,8.823529411764707,0.0,50.173010380622834,0.0,49.826989619377166,13.667820069204152,0.0,33.391003460207614,48.96193771626297,3.9792387543252596,84.42906574394463,0.6920415224913494,14.878892733564014,91.17647058823529,8.304498269896193,0.5190311418685121,0.0,83.21799307958477,11.418685121107266,5.3633217993079585,0.0,0.0,0.3460207612456747,67.1280276816609,32.52595155709343,16.092739380695903
165,Turkmenistan,,4.166666666666667,95.83333333333333,0.0,0.0,22.395833333333332,0.0,39.0625,38.541666666666664,22.569444444444443,8.159722222222221,69.27083333333333,40.625,49.30555555555556,0.0,5.208333333333333,4.861111111111111,75.17361111111111,7.291666666666667,17.53472222222222,96.52777777777777,3.4722222222222223,0.0,0.0,3.125,1.3888888888888888,95.48611111111111,0.0,0.0,0.0,14.0625,85.9375,
166,Timor-Leste,,24.61005199306759,16.984402079722702,27.03639514731369,31.369150779896014,54.81611208406305,4.728546409807356,17.162872154115586,23.29246935201401,37.54325259515571,22.14532871972318,40.311418685121104,45.8477508650519,0.0,0.0,3.4602076124567476,50.69204152249135,58.996539792387544,11.937716262975778,29.06574394463668,31.369150779896014,22.703639514731368,44.0207972270364,1.9064124783362217,57.638888888888886,3.4722222222222223,38.888888888888886,0.0,0.0,29.757785467128027,4.1522491349480966,66.08996539792388,
167,Tonga,,26.056338028169016,71.47887323943662,0.0,2.464788732394366,88.55633802816901,4.929577464788732,4.049295774647887,2.464788732394366,3.3450704225352115,89.2605633802817,7.394366197183099,3.3450704225352115,0.0,0.0,96.65492957746478,0.0,97.53521126760563,0.0,2.464788732394366,5.28169014084507,0.0,94.71830985915493,0.0,97.53521126760563,0.0,2.464788732394366,0.0,0.0,2.816901408450704,4.225352112676056,92.95774647887323,
168,Trinidad and Tobago,1474.0,2.2491349480968856,11.245674740484429,29.238754325259517,57.266435986159166,2.1015761821366024,11.733800350262698,66.19964973730298,19.964973730297725,2.626970227670753,0.8756567425569177,96.49737302977233,2.626970227670753,0.0,0.0,22.76707530647986,74.6059544658494,17.1280276816609,64.3598615916955,18.5121107266436,49.30795847750865,17.474048442906575,33.21799307958477,0.0,59.515570934256054,2.422145328719723,38.062283737024224,0.0,0.0,12.975778546712803,3.8062283737024223,83.21799307958477,14.15438989519291
169,Tunisia,24842.0,1.9031141868512111,37.37024221453287,38.4083044982699,22.31833910034602,23.18339100346021,42.21453287197232,20.58823529411765,14.013840830449826,20.761245674740483,13.667820069204152,65.57093425605537,23.529411764705884,0.8650519031141869,0.0,1.9031141868512111,73.70242214532873,55.017301038062286,30.44982698961938,14.53287197231834,24.39446366782007,5.017301038062284,70.58823529411765,0.0,35.46712802768166,5.536332179930795,58.996539792387544,0.5190311418685121,1.9031141868512111,40.65743944636678,39.10034602076124,17.82006920415225,16.295049829112244
170,Turkey,63611.0,2.5951557093425603,20.93425605536332,40.83044982698962,35.6401384083045,2.9411764705882355,28.027681660899653,65.39792387543253,3.633217993079585,2.5951557093425603,19.55017301038062,77.85467128027682,42.21453287197232,0.0,6.401384083044983,25.60553633217993,25.77854671280277,16.782006920415224,62.62975778546713,20.58823529411765,9.86159169550173,39.965397923875436,48.44290657439446,1.7301038062283738,13.14878892733564,40.65743944636678,46.193771626297575,0.0,35.121107266435985,10.55363321799308,42.90657439446367,11.418685121107266,18.25866446457544
171,Taiwan,842.0,33.50694444444444,47.74305555555556,6.770833333333333,11.979166666666666,76.38888888888889,0.8680555555555556,22.743055555555557,0.0,45.486111111111114,42.53472222222222,11.979166666666666,76.38888888888889,0.0,2.4305555555555554,7.465277777777778,13.715277777777779,96.35416666666667,3.6458333333333335,0.0,88.02083333333333,0.0,11.979166666666666,0.0,76.38888888888889,15.79861111111111,7.8125,0.0,0.0,4.6875,60.59027777777778,34.72222222222222,16.98750473229175
172,Tanzania,50.0,37.37024221453287,44.63667820069204,5.017301038062284,12.975778546712803,100.0,0.0,0.0,0.0,64.53287197231833,22.14532871972318,13.321799307958477,68.16608996539793,0.0,0.0,31.833910034602077,0.0,100.0,0.0,0.0,100.0,0.0,0.0,0.0,100.0,0.0,0.0,10.899653979238755,54.325259515570934,22.491349480968857,6.055363321799308,6.228373702422146,17.934522334080217
173,Uganda,3152.0,8.695652173913043,0.0,40.34782608695652,50.95652173913044,4.173913043478261,0.0,88.52173913043478,7.304347826086956,15.478260869565217,28.869565217391305,55.65217391304348,10.434782608695652,0.0,36.0,14.608695652173912,38.95652173913044,33.73913043478261,23.130434782608695,43.130434782608695,5.043478260869565,3.652173913043478,91.30434782608695,0.0,36.69565217391305,9.91304347826087,53.391304347826086,0.0,45.91304347826087,13.565217391304348,32.34782608695652,8.173913043478262,17.668283073274427
174,Ukraine,59768.0,1.9031141868512111,0.0,21.972318339100347,76.12456747404845,2.7681660899653977,25.086505190311417,63.667820069204154,8.477508650519031,8.823529411764707,54.67128027681661,36.50519031141869,10.034602076124568,0.0,18.858131487889274,52.24913494809689,18.858131487889274,22.837370242214533,28.719723183391004,48.44290657439446,18.858131487889274,81.14186851211073,0.0,0.0,20.761245674740483,7.958477508650519,71.280276816609,2.5951557093425603,37.71626297577855,33.21799307958477,5.190311418685121,21.280276816608996,17.587508492401962
175,Uruguay,6054.0,2.260869565217391,51.30434782608695,22.08695652173913,24.347826086956523,2.4347826086956523,56.52173913043478,38.26086956521739,2.782608695652174,2.0869565217391304,27.130434782608695,70.78260869565217,34.608695652173914,0.0,19.304347826086957,19.304347826086957,26.782608695652176,33.04347826086956,66.95652173913044,0.0,29.565217391304348,68.52173913043478,1.9130434782608696,0.0,44.869565217391305,50.26086956521739,4.869565217391305,2.0869565217391304,0.0,0.5217391304347826,30.956521739130434,66.43478260869566,15.064022216720613
176,United States,695451.0,0.6932409012131716,2.4263431542461005,38.82149046793761,58.05892547660312,3.119584055459272,22.530329289428078,56.32582322357019,18.02426343154246,0.0,25.476603119584055,74.52339688041594,1.733102253032929,0.1733102253032929,1.559792027729636,16.984402079722702,79.54939341421144,2.7729636048526864,97.22703639514731,0.0,2.4263431542461005,54.592720970537265,42.98093587521664,0.0,2.2530329289428077,14.211438474870018,83.53552859618718,0.0,0.0,1.3864818024263432,98.61351819757365,0.0,19.62339798238523
177,Uzbekistan,1234.0,2.6690391459074734,35.23131672597865,35.05338078291815,27.04626334519573,37.90035587188612,27.75800711743772,25.800711743772244,8.540925266903914,3.202846975088968,56.761565836298935,40.0355871886121,2.6690391459074734,0.0,4.092526690391459,93.23843416370107,0.0,50.355871886120994,36.29893238434164,13.345195729537366,49.644128113879006,25.26690391459075,25.08896797153025,0.0,58.362989323843415,13.523131672597865,28.11387900355872,0.0,0.0,32.562277580071175,41.99288256227758,25.444839857651246,17.339980030963
178,Venezuela,4454.0,2.5951557093425603,0.0,0.0,97.40484429065744,2.5951557093425603,0.0,25.432525951557093,71.97231833910034,1.9031141868512111,0.0,98.09688581314879,1.9031141868512111,0.8650519031141869,0.0,9.86159169550173,87.37024221453287,17.301038062283737,76.29757785467127,6.401384083044983,2.0761245674740483,1.2110726643598615,90.65743944636678,6.055363321799308,2.0761245674740483,13.667820069204152,84.2560553633218,1.9031141868512111,0.0,0.0,31.833910034602077,66.26297577854672,17.17258003521394
179,United States Virgin Islands,,3.225806451612903,9.867172675521822,48.57685009487666,38.33017077798861,24.550898203592816,45.908183632734534,15.968063872255488,13.572854291417165,4.1522491349480966,95.8477508650519,0.0,3.4602076124567476,0.0,17.647058823529413,78.89273356401384,0.0,81.80147058823529,18.198529411764707,0.0,29.388560157790927,57.98816568047337,12.6232741617357,0.0,73.89635316698656,0.0,26.103646833013435,36.660268714011515,23.032629558541267,40.30710172744722,0.0,0.0,
180,Vietnam,19098.0,0.0,37.37024221453287,25.259515570934255,37.37024221453287,4.1522491349480966,6.055363321799308,65.7439446366782,24.048442906574394,2.422145328719723,41.522491349480966,56.055363321799305,4.325259515570934,0.0,1.0380622837370241,56.22837370242215,38.4083044982699,19.20415224913495,33.21799307958477,47.57785467128028,27.85467128027682,8.477508650519031,63.667820069204154,0.0,14.53287197231834,23.529411764705884,61.937716262975776,0.0,0.0,0.0,24.913494809688583,75.08650519031141,18.4021992993099
181,Vanuatu,1.0,86.45833333333333,0.0,0.0,13.541666666666666,73.09027777777777,0.0,26.90972222222222,0.0,81.42361111111111,0.0,18.57638888888889,82.46527777777777,0.0,0.0,0.0,17.53472222222222,81.42361111111111,18.57638888888889,0.0,81.42361111111111,18.57638888888889,0.0,0.0,73.09027777777777,15.79861111111111,11.11111111111111,4.340277777777778,0.0,0.0,0.0,95.65972222222223,12.658624881162153
182,Yemen,1715.0,45.54973821989529,19.022687609075042,4.886561954624782,30.541012216404887,36.12565445026178,50.959860383944154,12.914485165794066,0.0,47.818499127399654,31.413612565445025,20.767888307155324,100.0,0.0,0.0,0.0,0.0,100.0,0.0,0.0,24.956369982547994,10.296684118673648,64.74694589877836,0.0,18.848167539267017,55.49738219895288,25.654450261780106,2.65017667844523,9.187279151943462,9.89399293286219,40.10600706713781,38.16254416961131,17.232930276435873
183,South Africa,87417.0,10.915492957746478,42.07746478873239,26.58450704225352,20.422535211267604,5.7894736842105265,41.40350877192982,46.49122807017544,6.315789473684211,12.456140350877194,41.92982456140351,45.6140350877193,2.6315789473684212,0.0,28.771929824561404,50.175438596491226,18.42105263157895,25.087719298245613,74.91228070175438,0.0,4.385964912280702,7.192982456140351,88.42105263157895,0.0,49.64912280701754,17.36842105263158,32.98245614035088,0.0,53.50877192982456,3.8596491228070176,4.7368421052631575,37.89473684210526,17.91055480868061
184,Zambia,3648.0,34.375,15.79861111111111,29.34027777777778,20.48611111111111,35.416666666666664,0.0,63.541666666666664,1.0416666666666667,16.84027777777778,41.84027777777778,41.31944444444444,5.034722222222222,0.0,0.0,44.96527777777778,50.0,99.30555555555556,0.0,0.6944444444444444,65.27777777777777,30.729166666666668,3.9930555555555554,0.0,76.90972222222223,18.92361111111111,4.166666666666667,0.0,39.40972222222222,54.34027777777778,0.0,6.25,16.755764846143663
185,Zimbabwe,4616.0,18.88111888111888,22.552447552447553,28.146853146853147,30.41958041958042,5.06993006993007,35.48951048951049,37.93706293706294,21.503496503496503,2.797202797202797,1.2237762237762237,95.97902097902097,2.797202797202797,0.0,0.0,83.74125874125875,13.461538461538462,28.321678321678323,64.16083916083916,7.5174825174825175,3.8461538461538463,9.44055944055944,86.7132867132867,0.0,22.027972027972027,4.195804195804196,73.77622377622377,0.0,29.545454545454547,34.61538461538461,0.0,35.83916083916084,16.529686690508377
