,Country,Deaths,C1,C2,C3,C4,C5,C6,C7,C8,Logpop
0,Aruba,,2.0,2.0,2.0,4.0,0.0,2.0,0.0,3.0,
1,Afghanistan,1875.0,3.0,3.0,2.0,0.0,2.0,2.0,0.0,1.0,17.500267225059204
2,Angola,354.0,3.0,2.0,2.0,4.0,1.0,2.0,2.0,4.0,17.33991655609031
3,Albania,922.0,2.0,2.0,2.0,4.0,0.0,1.0,0.0,1.0,14.870844365194944
4,Andorra,78.0,1.0,2.0,1.0,0.0,1.0,0.0,0.0,2.0,11.256147567657031
5,United Arab Emirates,594.0,3.0,1.0,2.0,4.0,1.0,0.0,1.0,2.0,16.117203553157378
6,Argentina,39888.0,3.0,3.0,2.0,4.0,2.0,2.0,2.0,4.0,17.63554596370042
7,Australia,908.0,2.0,2.0,2.0,4.0,1.0,2.0,2.0,4.0,17.065428240143802
8,Austria,3897.0,1.0,2.0,2.0,4.0,0.0,0.0,0.0,3.0,16.017509497650448
9,Azerbaijan,1675.0,3.0,2.0,2.0,4.0,1.0,1.0,2.0,4.0,16.14018429078663
10,Burundi,1.0,0.0,0.0,0.0,0.0,0.0,0.0,0.0,2.0,16.3214795804516
11,Belgium,17386.0,1.0,2.0,2.0,4.0,0.0,2.0,0.0,3.0,16.269299192235913
12,Benin,44.0,2.0,1.0,1.0,3.0,0.0,0.0,0.0,2.0,16.33731398869131
13,Burkina Faso,68.0,0.0,0.0,2.0,3.0,0.0,0.0,0.0,4.0,16.883428460725618
14,Bangladesh,6874.0,3.0,3.0,2.0,4.0,1.0,2.0,2.0,3.0,18.929324954164933
15,Bulgaria,5010.0,2.0,1.0,1.0,1.0,0.0,0.0,0.0,3.0,15.746547069413712
16,Bahrain,341.0,3.0,2.0,2.0,4.0,0.0,1.0,1.0,3.0,14.374151585260584
17,Bahamas,163.0,3.0,2.0,2.0,4.0,2.0,2.0,2.0,2.0,12.891474911517673
18,Bosnia and Herzegovina,3012.0,3.0,1.0,2.0,3.0,0.0,0.0,0.0,3.0,14.998298233779472
19,Belarus,1215.0,0.0,0.0,1.0,4.0,0.0,1.0,0.0,2.0,16.060770199638977
20,Belize,176.0,3.0,2.0,2.0,3.0,0.0,1.0,2.0,4.0,12.911432447518303
21,Bermuda,,3.0,1.0,1.0,3.0,0.0,0.0,0.0,1.0,
22,Bolivia,8997.0,3.0,2.0,2.0,4.0,2.0,2.0,2.0,4.0,16.28639738774901
23,Brazil,177317.0,3.0,2.0,2.0,4.0,2.0,1.0,2.0,1.0,19.18145592298371
24,Barbados,7.0,2.0,1.0,1.0,0.0,1.0,0.0,0.0,2.0,12.569701355896175
25,Brunei,3.0,1.0,0.0,1.0,3.0,0.0,0.0,0.0,4.0,12.99800577658079
26,Bhutan,,3.0,2.0,2.0,4.0,1.0,1.0,2.0,3.0,13.566920985318589
27,Botswana,36.0,1.0,1.0,1.0,3.0,0.0,1.0,2.0,4.0,14.689828633560778
28,Central African Republic,63.0,3.0,1.0,2.0,3.0,0.0,1.0,2.0,2.0,15.408816446188577
29,Canada,12896.0,1.0,2.0,1.0,3.0,1.0,0.0,1.0,4.0,17.45488230678771
30,Switzerland,5683.0,0.0,2.0,2.0,3.0,0.0,1.0,0.0,3.0,15.98061291920816
31,Chile,15663.0,3.0,3.0,2.0,3.0,0.0,3.0,2.0,3.0,16.771064483979508
32,China,4634.0,1.0,1.0,1.0,2.0,1.0,0.0,1.0,4.0,21.09083252134449
33,Cote d'Ivoire,132.0,2.0,0.0,2.0,2.0,0.0,1.0,0.0,3.0,17.113331713223136
34,Cameroon,443.0,2.0,0.0,2.0,3.0,1.0,0.0,1.0,4.0,17.11961911897787
35,Democratic Republic of Congo,344.0,3.0,2.0,2.0,0.0,2.0,2.0,2.0,4.0,18.3413992614734
36,Congo,94.0,2.0,3.0,2.0,3.0,0.0,2.0,0.0,4.0,15.548407279447169
37,Colombia,37995.0,3.0,1.0,2.0,3.0,1.0,2.0,2.0,4.0,17.752535220906417
38,Comoros,7.0,,,,,,,,,13.697240403684876
39,Cape Verde,109.0,3.0,3.0,2.0,4.0,0.0,1.0,2.0,4.0,13.239080956774805
40,Costa Rica,1825.0,3.0,2.0,2.0,3.0,0.0,1.0,2.0,4.0,15.452379379211708
41,Cuba,136.0,3.0,2.0,2.0,4.0,2.0,0.0,2.0,4.0,16.241860581574763
42,Cyprus,61.0,2.0,2.0,2.0,3.0,1.0,1.0,0.0,3.0,13.70570127229864
43,Czech Republic,,1.0,1.0,1.0,4.0,0.0,0.0,1.0,3.0,
44,Germany,19434.0,1.0,2.0,2.0,4.0,0.0,0.0,2.0,3.0,18.24514178524766
45,Djibouti,61.0,2.0,2.0,2.0,4.0,0.0,0.0,0.0,1.0,13.817705148088793
46,Dominica,,3.0,0.0,1.0,2.0,0.0,0.0,0.0,4.0,11.18680743802819
47,Denmark,894.0,2.0,2.0,1.0,4.0,1.0,1.0,0.0,3.0,15.575659297854216
48,Dominican Republic,2346.0,3.0,2.0,2.0,4.0,1.0,2.0,2.0,1.0,16.209189134801093
49,Algeria,2527.0,3.0,2.0,2.0,4.0,2.0,2.0,2.0,4.0,17.61361712779405
50,Ecuador,13780.0,3.0,2.0,2.0,3.0,2.0,2.0,2.0,2.0,16.699667152796984
51,Egypt,6790.0,2.0,2.0,2.0,1.0,1.0,1.0,2.0,1.0,18.462382290753084
52,Eritrea,,3.0,3.0,2.0,4.0,2.0,2.0,2.0,3.0,15.096850432096652
53,Spain,46646.0,2.0,2.0,2.0,4.0,0.0,2.0,2.0,3.0,17.660222369949114
54,Estonia,134.0,1.0,1.0,1.0,1.0,0.0,0.0,0.0,2.0,14.097064894129934
55,Ethiopia,1755.0,3.0,2.0,2.0,4.0,2.0,1.0,2.0,3.0,18.585145699712164
56,Finland,424.0,1.0,1.0,1.0,4.0,0.0,0.0,0.0,3.0,15.529013126793147
57,Fiji,2.0,1.0,2.0,1.0,2.0,0.0,2.0,0.0,4.0,13.713365976752593
58,France,55612.0,1.0,2.0,2.0,4.0,0.0,0.0,2.0,3.0,18.028589569771626
59,Faeroe Islands,,0.0,2.0,2.0,2.0,0.0,0.0,0.0,1.0,
60,Gabon,60.0,2.0,2.0,2.0,4.0,1.0,2.0,2.0,3.0,14.639172272503542
61,United Kingdom,61531.0,3.0,2.0,2.0,4.0,1.0,1.0,2.0,2.0,18.03805942822413
62,Georgia,1540.0,3.0,2.0,2.0,4.0,0.0,1.0,2.0,3.0,15.196735340458174
63,Ghana,325.0,2.0,1.0,2.0,3.0,0.0,0.0,0.0,4.0,17.272840227178826
64,Guinea,79.0,3.0,2.0,2.0,3.0,1.0,2.0,2.0,4.0,16.41799555579491
65,Gambia,123.0,3.0,2.0,2.0,4.0,1.0,1.0,0.0,4.0,14.72656239073972
66,Greece,3092.0,1.0,1.0,2.0,3.0,1.0,1.0,1.0,3.0,16.15449961232686
67,Greenland,,1.0,0.0,1.0,2.0,0.0,0.0,0.0,2.0,
68,Guatemala,4274.0,3.0,3.0,2.0,4.0,1.0,2.0,2.0,4.0,16.719668405089905
69,Guam,,3.0,2.0,2.0,4.0,1.0,1.0,0.0,2.0,
70,Guyana,154.0,3.0,2.0,2.0,4.0,1.0,2.0,2.0,4.0,13.580204593445801
71,Hong Kong,112.0,3.0,2.0,2.0,4.0,0.0,1.0,0.0,4.0,15.837428913400444
72,Honduras,2946.0,3.0,2.0,2.0,4.0,2.0,3.0,2.0,4.0,16.124375292671626
73,Croatia,2233.0,2.0,2.0,1.0,2.0,0.0,1.0,0.0,1.0,15.222013591383893
74,Haiti,233.0,3.0,0.0,2.0,4.0,0.0,2.0,0.0,1.0,16.26147564896512
75,Hungary,5984.0,2.0,1.0,1.0,2.0,1.0,1.0,1.0,4.0,16.080825881476223
76,Indonesia,17867.0,2.0,2.0,2.0,4.0,1.0,2.0,1.0,4.0,19.43722139138591
77,India,140958.0,3.0,3.0,2.0,4.0,2.0,2.0,2.0,4.0,21.055019123243458
78,Ireland,2099.0,2.0,3.0,2.0,4.0,1.0,1.0,2.0,2.0,15.42152341157525
79,Iran,50594.0,3.0,2.0,2.0,1.0,1.0,1.0,2.0,3.0,18.25850011016732
80,Iraq,12460.0,3.0,2.0,2.0,4.0,2.0,2.0,2.0,4.0,17.53344749936202
81,Iceland,27.0,1.0,2.0,2.0,3.0,0.0,0.0,0.0,3.0,12.74653473842447
82,Israel,2924.0,2.0,2.0,2.0,3.0,1.0,2.0,2.0,4.0,15.989099785832668
83,Italy,60606.0,3.0,2.0,2.0,4.0,0.0,2.0,0.0,3.0,17.915960958227082
84,Jamaica,265.0,3.0,2.0,2.0,3.0,1.0,2.0,2.0,2.0,14.90523748849441
85,Jordan,3116.0,3.0,2.0,2.0,3.0,0.0,2.0,2.0,4.0,16.144642348548377
86,Japan,2299.0,1.0,1.0,1.0,0.0,0.0,1.0,1.0,3.0,18.652195526532648
87,Kazakhstan,2542.0,3.0,2.0,2.0,4.0,2.0,2.0,2.0,3.0,16.75968413349323
88,Kenya,1531.0,3.0,2.0,2.0,4.0,1.0,2.0,1.0,4.0,17.82258374576398
89,Kyrgyz Republic,,3.0,2.0,2.0,4.0,2.0,2.0,2.0,4.0,
90,Cambodia,,3.0,2.0,0.0,2.0,0.0,0.0,0.0,2.0,16.645568694289526
91,Kiribati,,0.0,0.0,0.0,0.0,0.0,0.0,0.0,4.0,
92,South Korea,552.0,2.0,2.0,2.0,4.0,0.0,1.0,1.0,3.0,17.753302357667103
93,Kuwait,897.0,3.0,1.0,2.0,4.0,2.0,1.0,2.0,4.0,15.280743863989478
94,Laos,,1.0,2.0,1.0,0.0,0.0,0.0,0.0,3.0,15.814197200922724
95,Lebanon,1115.0,2.0,2.0,2.0,4.0,0.0,2.0,1.0,2.0,15.727886230820602
96,Liberia,83.0,2.0,2.0,2.0,3.0,1.0,2.0,2.0,3.0,15.460355767869652
97,Libya,1243.0,3.0,2.0,2.0,4.0,2.0,2.0,2.0,3.0,15.755479952774177
98,Liechtenstein,19.0,1.0,1.0,2.0,2.0,0.0,1.0,0.0,3.0,10.55200340895048
99,Sri Lanka,142.0,3.0,0.0,2.0,2.0,0.0,1.0,0.0,4.0,16.883438182921317
100,Lesotho,44.0,2.0,1.0,1.0,3.0,1.0,1.0,1.0,4.0,14.58518674190103
101,Lithuania,834.0,2.0,2.0,2.0,4.0,1.0,1.0,0.0,2.0,14.805000449146833
102,Luxembourg,360.0,1.0,1.0,1.0,4.0,0.0,1.0,0.0,0.0,13.361087321581497
103,Latvia,272.0,3.0,2.0,1.0,3.0,0.0,1.0,0.0,2.0,14.439808071068795
104,Macao,,1.0,0.0,0.0,0.0,0.0,0.0,0.0,3.0,
105,Morocco,6320.0,3.0,1.0,2.0,3.0,0.0,2.0,2.0,4.0,17.435703888182264
106,Monaco,3.0,2.0,2.0,1.0,4.0,1.0,1.0,1.0,3.0,10.584562151861805
107,Moldova,2438.0,3.0,2.0,2.0,4.0,0.0,1.0,2.0,4.0,15.207793203466071
108,Madagascar,255.0,3.0,2.0,2.0,3.0,0.0,2.0,2.0,4.0,17.162861669870495
109,Mexico,110074.0,3.0,3.0,2.0,3.0,1.0,2.0,2.0,3.0,18.685060053774706
110,Mali,175.0,2.0,1.0,2.0,3.0,0.0,0.0,0.0,2.0,16.85313900090607
111,Malta,155.0,1.0,0.0,2.0,4.0,0.0,0.0,0.0,3.0,13.15107521913431
112,Myanmar,2132.0,3.0,2.0,2.0,3.0,2.0,2.0,2.0,3.0,17.8193104904223
113,Mongolia,,3.0,2.0,2.0,0.0,0.0,0.0,2.0,4.0,15.018267223092622
114,Mozambique,136.0,3.0,2.0,2.0,3.0,1.0,1.0,0.0,2.0,17.286328680628724
115,Mauritania,194.0,3.0,1.0,0.0,0.0,0.0,0.0,0.0,4.0,15.378927568280842
116,Mauritius,10.0,0.0,0.0,0.0,0.0,0.0,0.0,0.0,4.0,14.057223034700893
117,Malawi,185.0,3.0,1.0,2.0,3.0,0.0,1.0,0.0,4.0,16.793469874048018
118,Malaysia,384.0,3.0,3.0,2.0,2.0,0.0,2.0,2.0,3.0,17.30521304766637
119,Namibia,152.0,3.0,2.0,1.0,3.0,0.0,1.0,2.0,1.0,14.766142424883183
120,Niger,78.0,1.0,0.0,0.0,0.0,0.0,0.0,0.0,4.0,17.039605141391885
121,Nigeria,1181.0,3.0,1.0,2.0,3.0,0.0,2.0,1.0,4.0,19.16926596157462
122,Nicaragua,161.0,0.0,0.0,0.0,0.0,0.0,0.0,0.0,1.0,15.717973095963984
123,Netherlands,9786.0,1.0,2.0,2.0,4.0,0.0,1.0,1.0,3.0,16.658854414659746
124,Norway,359.0,1.0,1.0,0.0,3.0,0.0,0.0,1.0,2.0,15.513989769035605
125,Nepal,1614.0,3.0,2.0,2.0,4.0,2.0,2.0,2.0,4.0,17.205812802584425
126,New Zealand,25.0,0.0,0.0,0.0,0.0,0.0,0.0,0.0,4.0,15.396681085917836
127,Oman,1452.0,3.0,2.0,2.0,4.0,2.0,2.0,2.0,2.0,15.468654494105525
128,Pakistan,8487.0,3.0,2.0,2.0,4.0,0.0,2.0,0.0,2.0,19.23249913895445
129,Panama,3212.0,3.0,2.0,2.0,3.0,2.0,2.0,2.0,4.0,15.292920632582884
130,Peru,90154.0,3.0,2.0,2.0,4.0,2.0,2.0,2.0,4.0,17.32285059932984
131,Philippines,8572.0,3.0,2.0,2.0,4.0,2.0,2.0,1.0,4.0,18.52546328261366
132,Papua New Guinea,7.0,1.0,2.0,2.0,3.0,1.0,0.0,0.0,2.0,16.025871255221386
133,Poland,20181.0,2.0,2.0,2.0,2.0,0.0,0.0,0.0,3.0,17.447740292360876
134,Puerto Rico,,3.0,2.0,2.0,3.0,2.0,2.0,0.0,3.0,
135,Portugal,5041.0,2.0,2.0,2.0,4.0,1.0,0.0,0.0,3.0,16.134748519045413
136,Paraguay,1872.0,3.0,2.0,2.0,4.0,1.0,2.0,2.0,4.0,15.79231578664109
137,Palestine,848.0,3.0,2.0,2.0,3.0,2.0,2.0,2.0,4.0,15.468535789880702
138,Qatar,239.0,3.0,2.0,2.0,3.0,2.0,1.0,1.0,3.0,14.8906918045938
139,Kosovo,1120.0,3.0,2.0,2.0,4.0,1.0,2.0,2.0,1.0,14.38952391596585
140,Romania,12447.0,2.0,2.0,2.0,2.0,0.0,1.0,0.0,2.0,16.766651868350387
141,Russia,43122.0,2.0,2.0,2.0,4.0,1.0,0.0,2.0,3.0,18.79851440900177
142,Rwanda,51.0,3.0,2.0,2.0,3.0,0.0,2.0,2.0,4.0,16.40150739351631
143,Saudi Arabia,5977.0,3.0,1.0,2.0,3.0,0.0,1.0,0.0,4.0,17.380545266323224
144,Sudan,1301.0,3.0,2.0,2.0,3.0,0.0,1.0,2.0,4.0,17.62015659383503
145,Senegal,340.0,2.0,0.0,2.0,2.0,0.0,0.0,0.0,3.0,16.660205267580032
146,Singapore,29.0,1.0,2.0,2.0,2.0,0.0,1.0,0.0,3.0,15.589900716977388
147,Solomon Islands,,0.0,2.0,1.0,0.0,0.0,0.0,1.0,3.0,13.46452653284223
148,Sierra Leone,74.0,3.0,0.0,1.0,2.0,0.0,0.0,0.0,1.0,15.912465712084735
149,El Salvador,1164.0,3.0,1.0,2.0,3.0,2.0,2.0,2.0,4.0,15.69015484608497
150,San Marino,48.0,3.0,0.0,1.0,0.0,0.0,0.0,0.0,2.0,10.434409878001242
151,Somalia,121.0,3.0,0.0,0.0,0.0,0.0,0.0,0.0,4.0,16.61031932632465
152,Serbia,2005.0,2.0,2.0,2.0,4.0,0.0,1.0,1.0,1.0,15.748223143895542
153,South Sudan,62.0,3.0,2.0,2.0,3.0,0.0,1.0,0.0,2.0,16.247488981099806
154,Suriname,117.0,3.0,2.0,2.0,4.0,2.0,2.0,2.0,4.0,13.290920639422428
155,Slovak Republic,,2.0,1.0,2.0,2.0,0.0,0.0,1.0,2.0,
156,Slovenia,1796.0,1.0,2.0,2.0,3.0,0.0,0.0,0.0,3.0,14.547264320830058
157,Sweden,7067.0,2.0,1.0,2.0,3.0,1.0,1.0,0.0,3.0,16.133984649598457
158,Eswatini,123.0,2.0,2.0,2.0,3.0,1.0,2.0,2.0,4.0,13.974537045981744
159,Seychelles,,1.0,0.0,0.0,0.0,0.0,0.0,0.0,3.0,11.501965624733886
160,Syria,452.0,3.0,2.0,2.0,3.0,0.0,0.0,2.0,3.0,16.72108308542996
161,Chad,102.0,2.0,2.0,2.0,3.0,0.0,2.0,2.0,2.0,16.643710473409676
162,Togo,65.0,2.0,2.0,2.0,2.0,0.0,0.0,2.0,4.0,15.953013674955368
163,Thailand,60.0,1.0,1.0,1.0,2.0,1.0,1.0,2.0,3.0,18.06330332476423
164,Tajikistan,87.0,0.0,0.0,2.0,3.0,0.0,0.0,0.0,3.0,16.092739380695903
165,Turkmenistan,,1.0,0.0,2.0,0.0,0.0,0.0,2.0,4.0,
166,Timor-Leste,,2.0,0.0,0.0,0.0,0.0,0.0,0.0,4.0,
167,Tonga,,1.0,0.0,1.0,3.0,0.0,2.0,0.0,4.0,
168,Trinidad and Tobago,122.0,3.0,2.0,2.0,4.0,1.0,0.0,0.0,4.0,14.15438989519291
169,Tunisia,3596.0,2.0,0.0,2.0,4.0,0.0,0.0,0.0,3.0,16.295049829112244
170,Turkey,15103.0,3.0,2.0,2.0,0.0,1.0,2.0,1.0,1.0,18.25866446457544
171,Taiwan,7.0,1.0,0.0,0.0,0.0,0.0,0.0,0.0,3.0,16.98750473229175
172,Tanzania,21.0,1.0,0.0,1.0,3.0,0.0,0.0,0.0,1.0,17.934522334080217
173,Uganda,207.0,3.0,2.0,2.0,4.0,2.0,2.0,2.0,3.0,17.668283073274427
174,Ukraine,14208.0,3.0,2.0,1.0,2.0,2.0,1.0,2.0,4.0,17.587508492401962
175,Uruguay,83.0,1.0,1.0,2.0,0.0,0.0,0.0,0.0,3.0,15.064022216720613
176,United States,287145.0,3.0,2.0,2.0,4.0,1.0,2.0,2.0,3.0,19.62339798238523
177,Uzbekistan,611.0,3.0,2.0,2.0,3.0,0.0,2.0,0.0,2.0,17.339980030963
178,Venezuela,924.0,3.0,3.0,2.0,4.0,1.0,2.0,2.0,4.0,17.17258003521394
179,United States Virgin Islands,,3.0,0.0,1.0,3.0,0.0,1.0,0.0,0.0,
180,Vietnam,35.0,1.0,2.0,2.0,3.0,2.0,0.0,2.0,4.0,18.4021992993099
181,Vanuatu,,0.0,2.0,0.0,0.0,0.0,0.0,0.0,4.0,12.658624881162153
182,Yemen,606.0,3.0,1.0,0.0,0.0,0.0,0.0,2.0,4.0,17.232930276435873
183,South Africa,22249.0,2.0,2.0,2.0,3.0,1.0,2.0,2.0,4.0,17.91055480868061
184,Zambia,364.0,2.0,2.0,1.0,3.0,0.0,0.0,0.0,2.0,16.755764846143663
185,Zimbabwe,294.0,3.0,1.0,2.0,3.0,1.0,2.0,2.0,4.0,16.529686690508377
