,Country,Deaths,Recreation,Mini-shops,Parks,Stations,Workplaces,Home,Logpop
0,Aruba,,,,,,,,11.582404884740031
1,Afghanistan,7204.0,,,9.175182481751825,,-9.054744525547445,1.9762773722627738,17.500267225059204
2,Angola,1537.0,-2.205733558178752,8.446880269814503,,,-11.892074198988196,5.391231028667791,17.33991655609031
3,Albania,2685.0,,,,,,,14.870844365194944
4,Andorra,130.0,,,,,,,11.256147567657031
5,United Arab Emirates,2095.0,-19.804384485666105,2.190556492411467,-35.677908937605395,-36.6964586846543,-19.829679595278247,10.782462057335582,16.117203553157378
6,Argentina,115130.0,-42.30185497470489,-7.517706576728499,-57.29848229342327,-35.025295109612145,-16.074198988195615,11.217537942664418,17.63554596370042
7,Australia,1291.0,-15.615514333895447,0.8263069139966274,-14.775716694772344,-40.78077571669477,-16.4283305227656,8.097807757166947,17.065428240143802
8,Austria,10998.0,-29.662731871838112,-6.148397976391231,32.6070826306914,-27.258010118043845,-26.313659359190556,6.33389544688027,16.017509497650448
9,Azerbaijan,6513.0,,,,,,,16.14018429078663
10,Burundi,38.0,,,,,,,16.3214795804516
11,Belgium,25595.0,-25.11804384485666,-0.5699831365935919,42.772344013490724,-28.829679595278247,-27.099494097807757,10.042158516020237,16.269299192235913
12,Benin,159.0,,42.008431703204046,,,-6.580101180438448,2.096121416526138,16.33731398869131
13,Burkina Faso,183.0,,53.05902192242833,,,1.387858347386172,0.9662731871838112,16.883428460725618
14,Bangladesh,27487.0,-10.794266441821248,15.089376053962901,3.7048903878583475,-2.8347386172006743,-4.3524451939291735,10.003372681281618,18.929324954164933
15,Bulgaria,20812.0,-16.62731871838111,4.664418212478921,33.68465430016863,-4.866779089376054,-22.50758853288364,1.5345699831365935,15.746547069413712
16,Bahrain,1389.0,-21.374367622259697,-5.831365935919056,-28.9106239460371,-15.131534569983137,-17.70320404721754,9.822934232715008,14.374151585260584
17,Bahamas,531.0,,,,,,,12.891474911517673
18,Bosnia and Herzegovina,10574.0,-10.782462057335582,11.397976391231028,15.320404721753794,-11.777403035413153,-15.856661045531197,-2.946037099494098,14.998298233779472
19,Belarus,4114.0,-13.870151770657673,4.050590219224283,18.57335581787521,-7.222596964586846,-18.740303541315345,-1.7925801011804385,16.060770199638977
20,Belize,409.0,,,,,,,12.911432447518303
21,Bermuda,,,,,,,,11.036372435146333
22,Bolivia,18726.0,-34.585160202360875,-18.328836424957842,-31.711635750421586,-33.60370994940978,-23.558178752107924,14.617200674536257,16.28639738774901
23,Brazil,596122.0,-27.291736930860033,13.645868465430016,-27.947723440134908,-21.795952782462056,-7.298482293423271,8.90893760539629,19.18145592298371
24,Barbados,69.0,,,,,-31.17369308600337,,12.569701355896175
25,Brunei,40.0,,,,,,,12.99800577658079
26,Bhutan,3.0,,,,,,,13.566920985318589
27,Botswana,2367.0,,,,,,7.261382799325464,14.689828633560778
28,Central African Republic,100.0,,,,,,,15.408816446188577
29,Canada,27875.0,-20.93929173693086,-1.2276559865092749,68.92580101180438,-47.639123102866776,-31.2141652613828,10.591905564924115,17.45488230678771
30,Switzerland,11079.0,-25.24283305227656,,44.1079258010118,-21.72006745362563,-21.596964586846543,7.345699831365936,15.98061291920816
31,Chile,37455.0,-41.010118043844855,-17.20910623946037,-46.02192242833052,-34.92748735244519,-24.381112984822934,17.45025295109612,16.771064483979508
32,China,4636.0,,,,,,,21.09083252134449
33,Cote d'Ivoire,621.0,,,,,,,17.113331713223136
34,Cameroon,1459.0,-2.067453625632378,14.949409780775717,-11.192242833052276,21.084317032040474,-10.885328836424957,2.3709949409780777,17.11961911897787
35,Democratic Republic of Congo,1084.0,,,,,,,18.3413992614734
36,Congo,193.0,,,,,,,15.548407279447169
37,Colombia,126261.0,-33.75379426644182,-5.337268128161889,-28.45362563237774,-27.178752107925803,-20.78920741989882,13.431703204047217,17.752535220906417
38,Comoros,147.0,,,,,,,13.697240403684876
39,Cape Verde,337.0,,,,,-35.3864406779661,,13.239080956774805
40,Costa Rica,6349.0,-32.413153456998316,-12.686340640809444,-42.70320404721754,-38.79932546374368,-23.111298482293424,10.325463743676222,15.452379379211708
41,Cuba,7378.0,,,,,,,16.241860581574763
42,Cyprus,552.0,,,,,,,13.70570127229864
43,Czech Republic,,,,,,,,
44,Germany,93643.0,-23.254637436762227,2.072512647554806,63.136593591905566,-25.78414839797639,-20.220910623946036,6.913996627318719,18.24514178524766
45,Djibouti,167.0,,,,,,,13.817705148088793
46,Dominica,15.0,-29.768971332209105,-6.912310286677909,-28.794266441821247,-27.0,-29.42664418212479,9.441821247892074,11.18680743802819
47,Denmark,2656.0,-5.229342327150085,-1.760539629005059,120.6627318718381,-26.500843170320405,-23.14839797639123,5.590219224283305,15.575659297854216
48,Dominican Republic,4046.0,-29.768971332209105,-6.912310286677909,-28.794266441821247,-27.0,-29.42664418212479,9.441821247892074,16.209189134801093
49,Algeria,5805.0,,,,,,,17.61361712779405
50,Ecuador,32762.0,-23.81450252951096,-0.8600337268128162,-27.993254637436763,-22.93760539629005,-27.981450252951095,14.809443507588533,16.699667152796984
51,Egypt,17294.0,-17.042158516020237,39.21247892074199,2.9510961214165263,-9.704890387858347,-11.723440134907252,3.247892074198988,18.462382290753084
52,Eritrea,42.0,,,,,,,15.096850432096652
53,Spain,86397.0,-30.871838111298484,-3.9376053962900506,8.396290050590219,-30.21585160202361,-26.558178752107924,7.554806070826307,17.660222369949114
54,Estonia,1352.0,-9.342327150084317,6.146711635750422,,-16.15851602023609,-22.42664418212479,4.236087689713322,14.097064894129934
55,Ethiopia,5534.0,,,,,,,18.585145699712164
56,Finland,1072.0,-13.510961214165262,2.563237774030354,107.40134907251264,-35.08600337268128,-23.99662731871838,5.293423271500843,15.529013126793147
57,Fiji,624.0,,,,,,12.330522765598651,13.713365976752593
58,France,117407.0,-27.84822934232715,0.38785834738617203,39.843170320404724,-25.865092748735243,-27.66947723440135,8.524451939291737,18.028589569771626
59,Faeroe Islands,,,,,,,,10.800656625202697
60,Gabon,183.0,,,,,-15.3929173693086,3.590219224283305,14.639172272503542
61,United Kingdom,136906.0,-35.4822934232715,-8.18212478920742,35.61214165261383,-43.21753794266442,-35.3389544688027,11.871838111298482,18.03805942822413
62,Georgia,8917.0,-16.625912408759124,9.182481751824817,18.458029197080293,-15.187956204379562,-23.136861313868614,2.624087591240876,15.196735340458174
63,Ghana,1150.0,1.7217537942664418,25.286677908937605,-11.833052276559865,4.983136593591905,-9.827993254637438,9.927487352445194,17.272840227178826
64,Guinea,378.0,,,,,-21.264084507042252,,16.41799555579491
65,Gambia,338.0,,,,,,,14.72656239073972
66,Greece,14795.0,-20.4283305227656,17.622259696458684,79.03878583473862,-22.06239460370995,-23.527824620573355,4.804384485666104,16.15449961232686
67,Greenland,,,,,,,,10.94848807175559
68,Guatemala,13525.0,-26.487352445193928,-9.709949409780776,-26.475548060708263,-37.68296795952782,-25.48397976391231,11.954468802698145,16.719668405089905
69,Guam,,,,,,,,
70,Guyana,783.0,,,,,,,13.580204593445801
71,Hong Kong,213.0,-17.831365935919056,20.524451939291737,-19.435075885328835,-18.293423271500842,-12.54637436762226,9.807757166947724,15.837428913400444
72,Honduras,9777.0,-35.838111298482296,-11.295109612141653,-26.807757166947724,-36.52276559865093,-28.863406408094434,7.875210792580101,16.124375292671626
73,Croatia,8628.0,-9.234401349072513,10.833052276559865,124.01180438448567,-15.330522765598651,-19.747048903878582,3.163575042158516,15.222013591383893
74,Haiti,610.0,,,-15.052276559865092,,-24.256323777403036,4.4890387858347385,16.26147564896512
75,Hungary,30185.0,-11.824620573355817,2.57504215851602,45.94772344013491,-18.912310286677908,-20.838111298482293,5.7099494097807755,16.080825881476223
76,Indonesia,141826.0,-17.02866779089376,2.254637436762226,-14.892074198988196,-33.561551433389546,-22.81450252951096,9.583473861720067,19.43722139138591
77,India,448062.0,-38.87858347386172,0.403035413153457,-29.807757166947724,-25.258010118043845,-25.957841483979763,13.549747048903878,21.055019123243458
78,Ireland,5249.0,-33.24789207419899,2.4451939291736933,29.890387858347385,-44.768971332209105,-34.6610455311973,12.15177065767285,15.42152341157525
79,Iran,120160.0,,,,,,,18.25850011016732
80,Iraq,22221.0,6.001686340640809,44.65261382799326,5.558178752107926,6.187183811129848,-12.841483979763913,3.406408094435076,17.53344749936202
81,Iceland,33.0,,,,,,,12.74653473842447
82,Israel,7732.0,-27.61214165261383,-0.5008431703204047,10.780775716694773,-26.29679595278246,-27.774030354131536,9.505902192242832,15.989099785832668
83,Italy,130870.0,-25.94097807757167,-6.369308600337268,26.12141652613828,-32.06070826306914,-26.85160202360877,8.161888701517707,17.915960958227082
84,Jamaica,1860.0,-26.556492411467115,-13.534569983136594,-28.172006745362562,-21.863406408094434,-28.458684654300168,9.258010118043845,14.90523748849441
85,Jordan,10710.0,-14.827993254637438,11.24451939291737,-10.02866779089376,-44.03204047217538,-23.21079258010118,6.940978077571669,16.144642348548377
86,Japan,17622.0,-13.649241146711637,0.9814502529510961,-6.753794266441822,-26.553119730185497,-14.827993254637438,7.160202360876897,18.652195526532648
87,Kazakhstan,15907.0,-19.84317032040472,-1.3676222596964587,-0.6087689713322091,26.02529510961214,-26.657672849915684,1.1045531197301854,16.75968413349323
88,Kenya,5119.0,-2.917369308600337,10.251264755480607,-8.008431703204048,10.310286677908937,-6.305227655986509,10.75548060708263,17.82258374576398
89,Kyrgyz Republic,,,,,,,,
90,Cambodia,2302.0,-23.87858347386172,-17.374367622259697,-20.90556492411467,-46.564924114671165,-23.141652613827993,11.895446880269814,16.645568694289526
91,Kiribati,,,,,,,,11.70674730593439
92,South Korea,2481.0,-7.6256323777403034,13.165261382799326,30.048903878583474,-8.0,-7.143338954468803,4.204047217537942,17.753302357667103
93,Kuwait,2448.0,-33.359190556492415,-19.66947723440135,-32.45868465430017,-26.013490725126477,-30.24283305227656,13.76053962900506,15.280743863989478
94,Laos,17.0,-18.829679595278247,-5.812816188870152,-23.556492411467115,-35.43170320404722,-16.317032040472174,6.178752107925801,15.814197200922724
95,Lebanon,8316.0,-21.529510961214164,15.502529510961214,0.5278246205733558,,-29.966273187183813,1.3119730185497471,15.727886230820602
96,Liberia,285.0,,,,,,,15.460355767869652
97,Libya,4636.0,32.733558178752105,,,,-2.403035413153457,-0.8617200674536256,15.755479952774177
98,Liechtenstein,60.0,,,,,,,10.55200340895048
99,Sri Lanka,12847.0,-33.27993254637437,-15.067453625632378,-21.81450252951096,-31.38785834738617,-31.51602023608769,18.20236087689713,16.883438182921317
100,Lesotho,403.0,,,,,,,14.58518674190103
101,Lithuania,4965.0,-28.354131534569984,19.20236087689713,79.00843170320405,-21.020236087689714,-20.88026981450253,3.8195615514333894,14.805000449146833
102,Luxembourg,835.0,-28.765598650927487,,,-23.568296795952783,,,13.361087321581497
103,Latvia,2706.0,-13.053962900505903,2.9072512647554807,,-20.806070826306915,-22.887015177065766,3.779089376053963,14.439808071068795
104,Macao,,,,,,,,13.397554258749746
105,Morocco,14248.0,-23.561551433389546,21.976391231028668,-15.957841483979763,-21.367622259696457,-20.752107925801013,10.27487352445194,17.435703888182264
106,Monaco,33.0,,,,,,,10.584562151861805
107,Moldova,6753.0,-14.14839797639123,-2.902192242833052,-3.0472175379426645,-21.795952782462056,-24.470489038785836,-1.890387858347386,15.207793203466071
108,Madagascar,958.0,,,,,,,17.162861669870495
109,Mexico,276973.0,-26.36424957841484,0.4451939291736931,-31.73355817875211,-30.35919055649241,-19.90893760539629,10.24283305227656,18.685060053774706
110,Mali,548.0,,16.37268128161889,,,-7.244519392917369,-1.026981450252951,16.85313900090607
111,Malta,457.0,-14.36087689713322,-0.26812816188870153,,-14.475548060708263,-21.809443507588533,8.010118043844857,13.15107521913431
112,Myanmar,17682.0,-42.435075885328835,-25.772344013490724,-28.951096121416526,-40.691399662731875,-34.290050590219224,17.90893760539629,17.8193104904223
113,Mongolia,1277.0,,,,17.677908937605395,-4.772344013490725,4.387858347386172,15.018267223092622
114,Mozambique,1915.0,-10.48566610455312,2.809443507588533,-17.711635750421586,-17.915682967959526,-8.860033726812816,4.6155143338954465,17.286328680628724
115,Mauritania,774.0,,,,,,,15.378927568280842
116,Mauritius,82.0,-20.281618887015178,-13.446880269814503,,-35.74030354131535,-21.021922428330523,5.492411467116358,14.057223034700893
117,Malawi,2281.0,,,,,,,16.793469874048018
118,Malaysia,26143.0,-36.84654300168634,-6.428330522765599,-29.711635750421586,-47.84991568296796,-27.625632377740303,17.293423271500842,17.30521304766637
119,Namibia,3494.0,-11.854974704890388,4.5733558178752105,,,-13.556492411467117,1.9797639123102866,14.766142424883183
120,Niger,201.0,,,,,-14.187183811129849,-2.284991568296796,17.039605141391885
121,Nigeria,2701.0,-8.192242833052276,3.0590219224283306,-12.497470489038786,3.7318718381112985,-11.51433389544688,11.69983136593592,19.16926596157462
122,Nicaragua,204.0,-8.802698145025294,9.961214165261383,-11.762225969645868,-9.00168634064081,-9.433389544688026,3.3709949409780777,15.717973095963984
123,Netherlands,18581.0,-19.93929173693086,-0.5328836424957841,76.77571669477234,-39.64755480607083,-24.752107925801013,8.08768971332209,16.658854414659746
124,Norway,861.0,-9.539629005059021,,70.29510961214166,-30.234401349072513,-25.4822934232715,5.6576728499156825,15.513989769035605
125,Nepal,11123.0,-26.225969645868464,1.9477234401349073,-7.494097807757167,-13.075885328836424,-23.256323777403036,9.76053962900506,17.205812802584425
126,New Zealand,27.0,-10.765598650927487,-3.0101180438448565,-20.340640809443506,-36.46037099494098,-9.730185497470488,7.494097807757167,15.396681085917836
127,Oman,4096.0,-28.689713322091063,-16.246205733558178,-35.22259696458685,-38.68465430016863,-27.411467116357503,5.699831365935919,15.468654494105525
128,Pakistan,27729.0,-3.612141652613828,16.795952782462056,6.055649241146711,3.5261382799325465,-10.155143338954469,3.5868465430016863,19.23249913895445
129,Panama,7223.0,-43.596964586846546,-23.161888701517707,-50.05227655986509,-45.11804384485666,-34.748735244519395,18.462057335581786,15.292920632582884
130,Peru,199367.0,-42.26981450252951,-21.35919055649241,-35.37605396290051,-44.079258010118046,-33.320404721753796,19.448566610455313,17.32285059932984
131,Philippines,38164.0,-41.70826306913997,-10.478920741989882,-24.564924114671165,-51.930860033726816,-33.33558178752108,20.659359190556494,18.52546328261366
132,Papua New Guinea,229.0,,,,,,,16.025871255221386
133,Poland,75623.0,-14.494097807757168,,57.46037099494098,-23.36256323777403,-17.36930860033727,4.674536256323777,17.447740292360876
134,Puerto Rico,,-22.42327150084317,-14.39460370994941,-27.317032040472174,-35.85160202360877,-24.035413153456997,9.02866779089376,
135,Portugal,17968.0,-25.311973018549747,1.2495784148397977,12.02866779089376,-37.29510961214165,-26.522765598650928,11.441821247892074,16.134748519045413
136,Paraguay,16195.0,-25.15008431703204,-6.996627318718381,-30.73355817875211,-37.34907251264755,-11.782462057335582,9.502529510961214,15.79231578664109
137,Palestine,4080.0,,,,,,,15.468535789880702
138,Qatar,605.0,-14.824620573355817,10.763912310286678,-13.163575042158516,-17.06239460370995,-10.72681281618887,6.750421585160202,14.8906918045938
139,Kosovo,2949.0,,,,,,,14.38952391596585
140,Romania,36865.0,-18.39797639123103,1.6779089376053964,2.246205733558179,-23.541315345699832,-22.05902192242833,2.2074198988195617,16.766651868350387
141,Russia,202700.0,-11.138279932546375,1.0944350758853287,21.51939291736931,-7.193929173693086,-20.86846543001686,1.0472175379426645,18.79851440900177
142,Rwanda,1264.0,,,,-23.111298482293424,-19.861720067453625,15.679595278246206,16.40150739351631
143,Saudi Arabia,8709.0,-16.4283305227656,2.8043844856661044,-17.15851602023609,-41.747048903878586,-18.716694772344013,9.451939291736931,17.380545266323224
144,Sudan,2901.0,,,,,,,17.62015659383503
145,Senegal,1858.0,-14.640809443507589,11.025295109612141,-11.888701517706577,-15.409780775716694,-16.578414839797638,4.622259696458685,16.660205267580032
146,Singapore,93.0,-25.021922428330523,-1.1804384485666104,-20.989881956155145,-31.84822934232715,-21.735244519392918,18.27824620573356,15.589900716977388
147,Solomon Islands,,,,,,,,13.46452653284223
148,Sierra Leone,121.0,,,,,,,15.912465712084735
149,El Salvador,3222.0,-23.355817875210793,-4.0472175379426645,-29.419898819561553,-18.883642495784148,-25.96964586846543,9.655986509274873,15.69015484608497
150,San Marino,91.0,,,,,,,10.434409878001242
151,Somalia,1111.0,,,,,,,16.61031932632465
152,Serbia,8187.0,-12.687956204379562,8.087591240875913,16.71897810218978,-13.056569343065693,-22.498175182481752,1.25,15.748223143895542
153,South Sudan,128.0,,,,,,,16.247488981099806
154,Suriname,879.0,,,,,,,13.290920639422428
155,Slovak Republic,,,,,,,,
156,Slovenia,4557.0,-25.234401349072513,-15.833052276559865,,-19.077571669477233,-23.24114671163575,6.259696458684655,14.547264320830058
157,Sweden,14856.0,-9.721753794266442,0.13490725126475547,101.15008431703204,-30.160202360876898,-23.871838111298484,6.118043844856661,16.133984649598457
158,Eswatini,1217.0,,,,,,,13.974537045981744
159,Seychelles,112.0,,,,,,,11.501965624733886
160,Syria,2238.0,,,,,,,16.72108308542996
161,Chad,174.0,,,,,,,16.643710473409676
162,Togo,228.0,-0.2765598650927487,24.470489038785836,,,-3.0741989881956155,6.406408094435076,15.953013674955368
163,Thailand,16620.0,-14.650927487352446,4.716694772344013,-27.684654300168635,-39.14502529510961,-15.36593591905565,5.806070826306914,18.06330332476423
164,Tajikistan,125.0,-10.917369308600337,-4.48566610455312,-18.365935919055648,-23.315345699831365,-12.043844856661046,1.5278246205733559,16.092739380695903
165,Turkmenistan,,,,,,,,
166,Timor-Leste,,,,,,,,
167,Tonga,,,,,,,,
168,Trinidad and Tobago,1474.0,-24.716694772344013,6.195615514333896,-21.473861720067454,-41.35413153456998,-28.979763912310286,7.708263069139966,14.15438989519291
169,Tunisia,24842.0,,,,,,,16.295049829112244
170,Turkey,63611.0,-27.30522765598651,12.231028667790893,12.14839797639123,-18.338954468802697,-21.78752107925801,6.730185497470489,18.25866446457544
171,Taiwan,842.0,-15.269814502529512,1.863406408094435,-12.63406408094435,-20.829679595278247,-5.57672849915683,4.09274873524452,16.98750473229175
172,Tanzania,50.0,0.16863406408094436,12.131534569983137,3.338954468802698,3.5227655986509276,-12.276559865092748,4.871838111298482,17.934522334080217
173,Uganda,3152.0,-28.18212478920742,-11.81450252951096,-13.925801011804385,-37.77403035413153,-15.15345699831366,,17.668283073274427
174,Ukraine,59768.0,-12.237774030354132,3.9865092748735242,19.30522765598651,-10.183811129848229,-22.60202360876897,0.047217537942664416,17.587508492401962
175,Uruguay,6054.0,-30.446880269814503,-11.220910623946038,-46.22259696458685,-28.925801011804385,-10.51939291736931,8.320404721753794,15.064022216720613
176,United States,695451.0,-14.809443507588533,-3.1568296795952784,21.413153456998312,-28.328836424957842,-28.168634064080944,8.118043844856661,19.62339798238523
177,Uzbekistan,1234.0,,,,,,,17.339980030963
178,Venezuela,4454.0,-24.831365935919056,2.284991568296796,-19.93254637436762,-33.84822934232715,-17.502529510961214,11.996627318718382,17.17258003521394
179,United States Virgin Islands,,,,,,,,
180,Vietnam,19098.0,-25.35919055649241,-4.66610455311973,-24.99831365935919,-24.49072512647555,-9.456998313659359,2.290050590219224,18.4021992993099
181,Vanuatu,1.0,,,,,,,12.658624881162153
182,Yemen,1715.0,,46.377740303541316,,,2.3406408094435074,1.3372681281618888,17.232930276435873
183,South Africa,87417.0,-19.126475548060707,0.40472175379426645,-25.0,-34.61720067453626,-22.15008431703204,14.96964586846543,17.91055480868061
184,Zambia,3648.0,9.532883642495785,20.048903878583474,,-3.06070826306914,-7.001686340640809,6.629005059021923,16.755764846143663
185,Zimbabwe,4616.0,-0.5008431703204047,17.23946037099494,,,-4.755480607082631,10.917369308600337,16.529686690508377
