location,date,age_group_min,age_group_max,people_vaccinated_per_hundred,people_fully_vaccinated_per_hundred
Belgium,2021-01-08,18,24,0.04,0.0
Belgium,2021-01-08,25,49,0.12,0.0
Belgium,2021-01-08,50,59,0.16,0.0
Belgium,2021-01-08,60,69,0.17,0.0
Belgium,2021-01-08,70,79,0.37,0.0
Belgium,2021-01-08,80,,2.3,0.0
Belgium,2021-01-15,18,24,0.24,0.0
Belgium,2021-01-15,25,49,0.53,0.0
Belgium,2021-01-15,50,59,0.75,0.0
Belgium,2021-01-15,60,69,0.71,0.0
Belgium,2021-01-15,70,79,1.58,0.0
Belgium,2021-01-15,80,,10.51,0.0
Belgium,2021-01-22,18,24,0.99,0.0
Belgium,2021-01-22,25,49,1.63,0.0
Belgium,2021-01-22,50,59,2.04,0.01
Belgium,2021-01-22,60,69,1.63,0.01
Belgium,2021-01-22,70,79,2.61,0.01
Belgium,2021-01-22,80,,15.16,0.07
Belgium,2021-01-29,18,24,1.53,0.04
Belgium,2021-01-29,25,49,2.38,0.11
Belgium,2021-01-29,50,59,2.89,0.16
Belgium,2021-01-29,60,69,2.17,0.16
Belgium,2021-01-29,70,79,3.04,0.36
Belgium,2021-01-29,80,,16.43,2.15
Belgium,2021-02-05,18,24,1.82,0.23
Belgium,2021-02-05,25,49,2.92,0.51
Belgium,2021-02-05,50,59,3.49,0.73
Belgium,2021-02-05,60,69,2.55,0.69
Belgium,2021-02-05,70,79,3.27,1.51
Belgium,2021-02-05,80,,17.06,9.99
Belgium,2021-02-12,18,24,2.02,0.92
Belgium,2021-02-12,25,49,3.32,1.5
Belgium,2021-02-12,50,59,4.01,1.92
Belgium,2021-02-12,60,69,2.85,1.56
Belgium,2021-02-12,70,79,3.41,2.52
Belgium,2021-02-12,80,,17.37,14.5
Belgium,2021-02-19,18,24,2.47,1.47
Belgium,2021-02-19,25,49,4.02,2.27
Belgium,2021-02-19,50,59,4.74,2.79
Belgium,2021-02-19,60,69,3.19,2.1
Belgium,2021-02-19,70,79,3.56,2.94
Belgium,2021-02-19,80,,17.52,15.76
Belgium,2021-02-26,18,24,3.19,1.72
Belgium,2021-02-26,25,49,5.38,2.7
Belgium,2021-02-26,50,59,6.14,3.27
Belgium,2021-02-26,60,69,3.66,2.42
Belgium,2021-02-26,70,79,3.72,3.17
Belgium,2021-02-26,80,,17.64,16.44
Belgium,2021-03-05,18,24,4.4,1.93
Belgium,2021-03-05,25,49,7.29,3.12
Belgium,2021-03-05,50,59,8.13,3.76
Belgium,2021-03-05,60,69,4.63,2.71
Belgium,2021-03-05,70,79,4.37,3.3
Belgium,2021-03-05,80,,18.76,16.75
Belgium,2021-03-12,18,24,5.5,2.33
Belgium,2021-03-12,25,49,8.85,3.74
Belgium,2021-03-12,50,59,9.83,4.47
Belgium,2021-03-12,60,69,6.31,3.12
Belgium,2021-03-12,70,79,6.05,3.46
Belgium,2021-03-12,80,,20.81,16.92
Belgium,2021-03-19,18,24,6.48,2.83
Belgium,2021-03-19,25,49,9.86,4.48
Belgium,2021-03-19,50,59,11.3,5.38
Belgium,2021-03-19,60,69,8.66,3.6
Belgium,2021-03-19,70,79,11.33,3.63
Belgium,2021-03-19,80,,34.0,17.09
Belgium,2021-03-26,18,24,7.03,3.35
Belgium,2021-03-26,25,49,10.51,5.17
Belgium,2021-03-26,50,59,12.2,6.32
Belgium,2021-03-26,60,69,10.5,4.29
Belgium,2021-03-26,70,79,18.57,4.13
Belgium,2021-03-26,80,,51.65,18.09
Belgium,2021-04-02,18,24,7.41,3.82
Belgium,2021-04-02,25,49,11.02,5.7
Belgium,2021-04-02,50,59,12.91,7.21
Belgium,2021-04-02,60,69,12.47,5.4
Belgium,2021-04-02,70,79,26.51,4.97
Belgium,2021-04-02,80,,73.75,19.1
Belgium,2021-04-09,18,24,7.74,4.08
Belgium,2021-04-09,25,49,11.47,6.03
Belgium,2021-04-09,50,59,13.74,7.66
Belgium,2021-04-09,60,69,17.45,6.03
Belgium,2021-04-09,70,79,52.49,6.34
Belgium,2021-04-09,80,,80.82,21.47
Belgium,2021-04-16,18,24,8.23,4.27
Belgium,2021-04-16,25,49,11.89,6.28
Belgium,2021-04-16,50,59,15.32,7.99
Belgium,2021-04-16,60,69,25.28,6.64
Belgium,2021-04-16,70,79,77.83,8.36
Belgium,2021-04-16,80,,83.24,29.03
Belgium,2021-04-23,18,24,8.78,4.4
Belgium,2021-04-23,25,49,12.5,6.44
Belgium,2021-04-23,50,59,19.01,8.17
Belgium,2021-04-23,60,69,40.64,6.99
Belgium,2021-04-23,70,79,88.28,9.25
Belgium,2021-04-23,80,,84.41,29.72
Belgium,2021-04-30,18,24,9.4,4.62
Belgium,2021-04-30,25,49,13.36,6.72
Belgium,2021-04-30,50,59,23.92,8.6
Belgium,2021-04-30,60,69,57.48,8.1
Belgium,2021-04-30,70,79,90.05,12.93
Belgium,2021-04-30,80,,85.48,32.79
Belgium,2021-05-07,18,24,10.04,4.95
Belgium,2021-05-07,25,49,15.7,7.21
Belgium,2021-05-07,50,59,32.84,9.51
Belgium,2021-05-07,60,69,75.27,10.34
Belgium,2021-05-07,70,79,91.52,20.31
Belgium,2021-05-07,80,,86.74,51.69
Belgium,2021-05-14,18,24,10.71,5.34
Belgium,2021-05-14,25,49,18.71,7.76
Belgium,2021-05-14,50,59,41.16,10.47
Belgium,2021-05-14,60,69,79.36,12.97
Belgium,2021-05-14,70,79,92.38,40.15
Belgium,2021-05-14,80,,87.42,56.81
Belgium,2021-05-21,18,24,11.37,6.39
Belgium,2021-05-21,25,49,22.9,9.32
Belgium,2021-05-21,50,59,56.64,13.06
Belgium,2021-05-21,60,69,82.22,19.22
Belgium,2021-05-21,70,79,93.02,52.47
Belgium,2021-05-21,80,,88.09,58.87
Belgium,2021-05-28,18,24,12.3,7.6
Belgium,2021-05-28,25,49,26.91,11.42
Belgium,2021-05-28,50,59,60.47,17.85
Belgium,2021-05-28,60,69,84.08,31.34
Belgium,2021-05-28,70,79,93.33,60.63
Belgium,2021-05-28,80,,88.44,60.32
Belgium,2021-06-04,18,24,14.4,8.74
Belgium,2021-06-04,25,49,32.97,13.81
Belgium,2021-06-04,50,59,71.68,23.28
Belgium,2021-06-04,60,69,89.14,46.33
Belgium,2021-06-04,70,79,93.76,63.02
Belgium,2021-06-04,80,,88.89,62.63
Belgium,2021-06-11,18,24,17.42,9.98
Belgium,2021-06-11,25,49,41.09,16.89
Belgium,2021-06-11,50,59,83.26,32.53
Belgium,2021-06-11,60,69,90.49,60.7
Belgium,2021-06-11,70,79,94.1,67.43
Belgium,2021-06-11,80,,89.23,73.52
Belgium,2021-06-18,18,24,24.34,11.13
Belgium,2021-06-18,25,49,56.43,20.95
Belgium,2021-06-18,50,59,85.78,39.13
Belgium,2021-06-18,60,69,91.04,64.82
Belgium,2021-06-18,70,79,94.38,70.71
Belgium,2021-06-18,80,,89.5,80.89
Belgium,2021-06-25,18,24,37.89,14.12
Belgium,2021-06-25,25,49,67.9,24.56
Belgium,2021-06-25,50,59,86.56,44.5
Belgium,2021-06-25,60,69,91.38,67.13
Belgium,2021-06-25,70,79,94.58,73.31
Belgium,2021-06-25,80,,89.7,84.54
Belgium,2021-07-02,18,24,51.82,16.34
Belgium,2021-07-02,25,49,74.24,28.2
Belgium,2021-07-02,50,59,87.04,48.45
Belgium,2021-07-02,60,69,91.63,70.8
Belgium,2021-07-02,70,79,94.74,77.53
Belgium,2021-07-02,80,,89.84,86.2
Belgium,2021-07-09,18,24,61.69,19.31
Belgium,2021-07-09,25,49,75.58,34.89
Belgium,2021-07-09,50,59,87.41,59.58
Belgium,2021-07-09,60,69,91.88,79.65
Belgium,2021-07-09,70,79,94.96,90.25
Belgium,2021-07-09,80,,90.02,87.25
Belgium,2021-07-16,18,24,67.76,23.32
Belgium,2021-07-16,25,49,76.63,42.83
Belgium,2021-07-16,50,59,87.86,73.38
Belgium,2021-07-16,60,69,92.21,84.15
Belgium,2021-07-16,70,79,95.24,92.8
Belgium,2021-07-16,80,,90.26,87.77
Belgium,2021-07-23,18,24,69.81,30.97
Belgium,2021-07-23,25,49,77.28,55.73
Belgium,2021-07-23,50,59,88.23,77.8
Belgium,2021-07-23,60,69,92.46,87.36
Belgium,2021-07-23,70,79,95.43,93.55
Belgium,2021-07-23,80,,90.43,88.17
Belgium,2021-07-30,18,24,71.07,42.42
Belgium,2021-07-30,25,49,77.89,66.44
Belgium,2021-07-30,50,59,88.56,80.86
Belgium,2021-07-30,60,69,92.67,90.4
Belgium,2021-07-30,70,79,95.58,94.12
Belgium,2021-07-30,80,,90.56,88.54
Belgium,2021-08-06,18,24,72.25,54.58
Belgium,2021-08-06,25,49,78.54,73.04
Belgium,2021-08-06,50,59,88.88,83.22
Belgium,2021-08-06,60,69,92.89,91.29
Belgium,2021-08-06,70,79,95.72,94.53
Belgium,2021-08-06,80,,90.66,88.79
Belgium,2021-08-13,18,24,73.19,63.22
Belgium,2021-08-13,25,49,79.12,75.61
Belgium,2021-08-13,50,59,89.15,87.48
Belgium,2021-08-13,60,69,93.04,92.03
Belgium,2021-08-13,70,79,95.84,94.84
Belgium,2021-08-13,80,,90.76,89.0
Belgium,2021-08-20,18,24,73.98,68.31
Belgium,2021-08-20,25,49,79.62,76.69
Belgium,2021-08-20,50,59,89.34,87.97
Belgium,2021-08-20,60,69,93.14,92.27
Belgium,2021-08-20,70,79,95.92,95.0
Belgium,2021-08-20,80,,90.82,89.11
Belgium,2021-08-27,18,24,74.75,70.51
Belgium,2021-08-27,25,49,80.1,77.55
Belgium,2021-08-27,50,59,89.49,88.39
Belgium,2021-08-27,60,69,93.23,92.5
Belgium,2021-08-27,70,79,95.98,95.17
Belgium,2021-08-27,80,,90.87,89.25
Belgium,2021-09-03,18,24,75.57,71.81
Belgium,2021-09-03,25,49,80.56,78.25
Belgium,2021-09-03,50,59,89.65,88.71
Belgium,2021-09-03,60,69,93.31,92.67
Belgium,2021-09-03,70,79,96.04,95.29
Belgium,2021-09-03,80,,90.92,89.32
Belgium,2021-09-10,18,24,76.23,72.71
Belgium,2021-09-10,25,49,80.95,78.79
Belgium,2021-09-10,50,59,89.78,88.92
Belgium,2021-09-10,60,69,93.38,92.78
Belgium,2021-09-10,70,79,96.09,95.37
Belgium,2021-09-10,80,,90.96,89.37
Belgium,2021-09-17,18,24,76.86,73.58
Belgium,2021-09-17,25,49,81.29,79.33
Belgium,2021-09-17,50,59,89.91,89.11
Belgium,2021-09-17,60,69,93.46,92.87
Belgium,2021-09-17,70,79,96.14,95.44
Belgium,2021-09-17,80,,91.0,89.42
Belgium,2021-09-24,18,24,77.58,74.46
Belgium,2021-09-24,25,49,81.67,79.85
Belgium,2021-09-24,50,59,90.07,89.3
Belgium,2021-09-24,60,69,93.55,92.98
Belgium,2021-09-24,70,79,96.2,95.51
Belgium,2021-09-24,80,,91.04,89.47
Belgium,2021-10-01,18,24,78.23,75.31
Belgium,2021-10-01,25,49,82.04,80.34
Belgium,2021-10-01,50,59,90.21,89.47
Belgium,2021-10-01,60,69,93.64,93.07
Belgium,2021-10-01,70,79,96.26,95.57
Belgium,2021-10-01,80,,91.09,89.51
Belgium,2021-10-08,18,24,78.74,75.9
Belgium,2021-10-08,25,49,82.3,80.67
Belgium,2021-10-08,50,59,90.32,89.59
Belgium,2021-10-08,60,69,93.71,93.14
Belgium,2021-10-08,70,79,96.31,95.62
Belgium,2021-10-08,80,,91.14,89.59
Belgium,2021-10-15,18,24,79.23,76.59
Belgium,2021-10-15,25,49,82.57,81.03
Belgium,2021-10-15,50,59,90.42,89.73
Belgium,2021-10-15,60,69,93.78,93.22
Belgium,2021-10-15,70,79,96.36,95.68
Belgium,2021-10-15,80,,91.2,89.68
Belgium,2021-10-22,18,24,79.67,77.15
Belgium,2021-10-22,25,49,82.84,81.36
Belgium,2021-10-22,50,59,90.53,89.86
Belgium,2021-10-22,60,69,93.85,93.3
Belgium,2021-10-22,70,79,96.41,95.74
Belgium,2021-10-22,80,,91.26,89.75
Belgium,2021-10-29,18,24,80.14,77.75
Belgium,2021-10-29,25,49,83.14,81.69
Belgium,2021-10-29,50,59,90.65,90.0
Belgium,2021-10-29,60,69,93.92,93.38
Belgium,2021-10-29,70,79,96.47,95.8
Belgium,2021-10-29,80,,91.33,89.81
Belgium,2021-11-05,18,24,80.58,78.2
Belgium,2021-11-05,25,49,83.41,81.95
Belgium,2021-11-05,50,59,90.76,90.1
Belgium,2021-11-05,60,69,94.0,93.44
Belgium,2021-11-05,70,79,96.52,95.85
Belgium,2021-11-05,80,,91.38,89.85
Belgium,2021-11-12,18,24,80.76,78.38
Belgium,2021-11-12,25,49,83.53,82.06
Belgium,2021-11-12,50,59,90.81,90.14
Belgium,2021-11-12,60,69,94.03,93.47
Belgium,2021-11-12,70,79,96.55,95.87
Belgium,2021-11-12,80,,91.4,89.88
