location,date,age_group_min,age_group_max,people_vaccinated_per_hundred,people_fully_vaccinated_per_hundred
Portugal,2021-01-01,18,24,0.02,0.0
Portugal,2021-01-01,25,49,0.1,0.0
Portugal,2021-01-01,50,59,0.07,0.0
Portugal,2021-01-01,60,69,0.04,0.0
Portugal,2021-01-01,70,79,0.0,0.0
Portugal,2021-01-01,80,,0.0,0.0
Portugal,2021-01-08,18,24,0.42,0.0
Portugal,2021-01-08,25,49,1.55,0.0
Portugal,2021-01-08,50,59,1.11,0.0
Portugal,2021-01-08,60,69,0.6,0.0
Portugal,2021-01-08,70,79,0.12,0.0
Portugal,2021-01-08,80,,0.6,0.0
Portugal,2021-01-15,18,24,0.6,0.01
Portugal,2021-01-15,25,49,2.06,0.03
Portugal,2021-01-15,50,59,1.68,0.02
Portugal,2021-01-15,60,69,1.0,0.01
Portugal,2021-01-15,70,79,0.49,0.0
Portugal,2021-01-15,80,,2.75,0.0
Portugal,2021-01-22,18,24,1.1,0.16
Portugal,2021-01-22,25,49,3.19,0.68
Portugal,2021-01-22,50,59,3.03,0.45
Portugal,2021-01-22,60,69,1.9,0.24
Portugal,2021-01-22,70,79,1.5,0.01
Portugal,2021-01-22,80,,8.53,0.04
Portugal,2021-01-29,18,24,1.28,0.38
Portugal,2021-01-29,25,49,3.66,1.46
Portugal,2021-01-29,50,59,3.55,1.07
Portugal,2021-01-29,60,69,2.32,0.58
Portugal,2021-01-29,70,79,1.96,0.11
Portugal,2021-01-29,80,,9.63,0.54
Portugal,2021-02-05,18,24,1.41,0.5
Portugal,2021-02-05,25,49,3.96,1.84
Portugal,2021-02-05,50,59,3.83,1.51
Portugal,2021-02-05,60,69,2.52,0.9
Portugal,2021-02-05,70,79,2.13,0.38
Portugal,2021-02-05,80,,10.3,2.12
Portugal,2021-02-12,18,24,1.61,0.89
Portugal,2021-02-12,25,49,4.38,2.76
Portugal,2021-02-12,50,59,4.17,2.6
Portugal,2021-02-12,60,69,2.73,1.65
Portugal,2021-02-12,70,79,2.43,1.2
Portugal,2021-02-12,80,,12.5,6.8
Portugal,2021-02-19,18,24,1.91,1.12
Portugal,2021-02-19,25,49,5.05,3.33
Portugal,2021-02-19,50,59,5.06,3.23
Portugal,2021-02-19,60,69,3.83,2.12
Portugal,2021-02-19,70,79,2.73,1.69
Portugal,2021-02-19,80,,19.69,8.18
Portugal,2021-02-26,18,24,2.08,1.21
Portugal,2021-02-26,25,49,5.4,3.55
Portugal,2021-02-26,50,59,6.93,3.47
Portugal,2021-02-26,60,69,6.0,2.29
Portugal,2021-02-26,70,79,3.3,1.86
Portugal,2021-02-26,80,,34.87,8.95
Portugal,2021-03-05,18,24,2.2,1.35
Portugal,2021-03-05,25,49,5.63,3.85
Portugal,2021-03-05,50,59,8.14,3.77
Portugal,2021-03-05,60,69,7.37,2.5
Portugal,2021-03-05,70,79,4.11,2.14
Portugal,2021-03-05,80,,47.79,10.85
Portugal,2021-03-12,18,24,2.38,1.43
Portugal,2021-03-12,25,49,6.13,4.04
Portugal,2021-03-12,50,59,9.08,3.98
Portugal,2021-03-12,60,69,8.36,2.66
Portugal,2021-03-12,70,79,5.31,2.42
Portugal,2021-03-12,80,,53.73,16.37
Portugal,2021-03-19,18,24,2.42,1.48
Portugal,2021-03-19,25,49,6.27,4.14
Portugal,2021-03-19,50,59,9.3,4.09
Portugal,2021-03-19,60,69,8.67,2.86
Portugal,2021-03-19,70,79,6.92,2.92
Portugal,2021-03-19,80,,61.79,30.79
Portugal,2021-03-26,18,24,2.85,1.51
Portugal,2021-03-26,25,49,7.54,4.19
Portugal,2021-03-26,50,59,10.96,4.14
Portugal,2021-03-26,60,69,10.16,2.97
Portugal,2021-03-26,70,79,11.38,3.04
Portugal,2021-03-26,80,,80.22,33.3
Portugal,2021-04-02,18,24,2.94,1.52
Portugal,2021-04-02,25,49,7.68,4.23
Portugal,2021-04-02,50,59,11.29,4.18
Portugal,2021-04-02,60,69,11.8,3.11
Portugal,2021-04-02,70,79,18.53,3.64
Portugal,2021-04-02,80,,85.66,44.49
Portugal,2021-04-09,18,24,3.05,1.55
Portugal,2021-04-09,25,49,7.96,4.28
Portugal,2021-04-09,50,59,11.91,4.22
Portugal,2021-04-09,60,69,15.11,3.24
Portugal,2021-04-09,70,79,35.3,4.06
Portugal,2021-04-09,80,,90.15,51.29
Portugal,2021-04-16,18,24,3.61,1.56
Portugal,2021-04-16,25,49,10.63,4.31
Portugal,2021-04-16,50,59,16.12,4.25
Portugal,2021-04-16,60,69,20.8,3.32
Portugal,2021-04-16,70,79,54.21,4.36
Portugal,2021-04-16,80,,91.71,58.63
Portugal,2021-04-23,18,24,3.78,1.58
Portugal,2021-04-23,25,49,10.96,4.34
Portugal,2021-04-23,50,59,16.57,4.34
Portugal,2021-04-23,60,69,25.14,3.51
Portugal,2021-04-23,70,79,67.18,5.54
Portugal,2021-04-23,80,,92.96,76.89
Portugal,2021-04-30,18,24,4.13,1.6
Portugal,2021-04-30,25,49,11.31,4.37
Portugal,2021-04-30,50,59,17.24,4.46
Portugal,2021-04-30,60,69,37.65,4.32
Portugal,2021-04-30,70,79,83.0,9.33
Portugal,2021-04-30,80,,93.87,82.8
Portugal,2021-05-07,18,24,4.37,1.71
Portugal,2021-05-07,25,49,11.63,4.62
Portugal,2021-05-07,50,59,18.26,4.89
Portugal,2021-05-07,60,69,59.12,7.19
Portugal,2021-05-07,70,79,90.36,23.17
Portugal,2021-05-07,80,,94.64,87.52
Portugal,2021-05-14,18,24,4.67,2.41
Portugal,2021-05-14,25,49,12.39,7.61
Portugal,2021-05-14,50,59,21.28,9.74
Portugal,2021-05-14,60,69,74.24,11.8
Portugal,2021-05-14,70,79,93.88,29.13
Portugal,2021-05-14,80,,95.23,89.0
Portugal,2021-05-21,18,24,4.94,2.73
Portugal,2021-05-21,25,49,13.38,8.28
Portugal,2021-05-21,50,59,31.06,12.71
Portugal,2021-05-21,60,69,83.76,16.96
Portugal,2021-05-21,70,79,95.99,36.95
Portugal,2021-05-21,80,,96.0,90.24
Portugal,2021-05-28,18,24,5.24,3.16
Portugal,2021-05-28,25,49,14.19,8.83
Portugal,2021-05-28,50,59,43.18,16.95
Portugal,2021-05-28,60,69,87.88,27.48
Portugal,2021-05-28,70,79,97.45,47.35
Portugal,2021-05-28,80,,96.73,91.19
Portugal,2021-06-04,18,24,5.55,3.51
Portugal,2021-06-04,25,49,15.48,9.55
Portugal,2021-06-04,50,59,55.49,21.5
Portugal,2021-06-04,60,69,91.19,42.15
Portugal,2021-06-04,70,79,98.72,52.31
Portugal,2021-06-04,80,,97.28,92.1
Portugal,2021-06-11,18,24,5.93,3.89
Portugal,2021-06-11,25,49,19.38,10.52
Portugal,2021-06-11,50,59,69.96,25.84
Portugal,2021-06-11,60,69,93.28,50.97
Portugal,2021-06-11,70,79,99.71,55.61
Portugal,2021-06-11,80,,97.74,92.82
Portugal,2021-06-18,18,24,6.37,4.49
Portugal,2021-06-18,25,49,27.06,13.07
Portugal,2021-06-18,50,59,76.15,36.99
Portugal,2021-06-18,60,69,94.56,57.66
Portugal,2021-06-18,70,79,100.38,59.88
Portugal,2021-06-18,80,,98.17,93.53
Portugal,2021-06-25,18,24,6.82,4.89
Portugal,2021-06-25,25,49,35.96,14.77
Portugal,2021-06-25,50,59,82.36,47.27
Portugal,2021-06-25,60,69,95.81,62.19
Portugal,2021-06-25,70,79,101.06,67.03
Portugal,2021-06-25,80,,98.74,94.25
Portugal,2021-07-02,18,24,7.16,5.29
Portugal,2021-07-02,25,49,45.87,16.62
Portugal,2021-07-02,50,59,86.29,57.09
Portugal,2021-07-02,60,69,96.78,68.87
Portugal,2021-07-02,70,79,101.65,80.18
Portugal,2021-07-02,80,,99.29,95.05
Portugal,2021-07-09,18,24,8.92,5.95
Portugal,2021-07-09,25,49,57.69,21.03
Portugal,2021-07-09,50,59,89.11,69.54
Portugal,2021-07-09,60,69,97.62,80.81
Portugal,2021-07-09,70,79,102.17,92.7
Portugal,2021-07-09,80,,99.73,95.84
Portugal,2021-07-16,18,24,11.54,6.97
Portugal,2021-07-16,25,49,66.75,30.47
Portugal,2021-07-16,50,59,90.55,75.56
Portugal,2021-07-16,60,69,98.29,86.48
Portugal,2021-07-16,70,79,102.6,95.73
Portugal,2021-07-16,80,,100.12,96.36
Portugal,2021-07-23,18,24,16.3,9.51
Portugal,2021-07-23,25,49,72.64,40.72
Portugal,2021-07-23,50,59,92.11,81.47
Portugal,2021-07-23,60,69,99.12,90.08
Portugal,2021-07-23,70,79,103.15,98.09
Portugal,2021-07-23,80,,100.53,96.82
Portugal,2021-07-30,18,24,21.52,12.43
Portugal,2021-07-30,25,49,76.37,51.27
Portugal,2021-07-30,50,59,93.46,85.7
Portugal,2021-07-30,60,69,99.99,93.31
Portugal,2021-07-30,70,79,103.76,99.66
Portugal,2021-07-30,80,,100.99,97.25
Portugal,2021-08-06,18,24,34.68,19.72
Portugal,2021-08-06,25,49,79.49,62.69
Portugal,2021-08-06,50,59,94.65,88.64
Portugal,2021-08-06,60,69,100.74,94.55
Portugal,2021-08-06,70,79,104.31,100.26
Portugal,2021-08-06,80,,101.43,97.56
Portugal,2021-08-13,18,24,55.06,30.38
Portugal,2021-08-13,25,49,83.36,69.77
Portugal,2021-08-13,50,59,95.63,89.95
Portugal,2021-08-13,60,69,101.24,95.17
Portugal,2021-08-13,70,79,104.66,100.61
Portugal,2021-08-13,80,,101.73,97.82
Portugal,2021-08-20,18,24,74.47,39.98
Portugal,2021-08-20,25,49,86.99,74.1
Portugal,2021-08-20,50,59,96.45,90.69
Portugal,2021-08-20,60,69,101.63,95.44
Portugal,2021-08-20,70,79,104.95,100.78
Portugal,2021-08-20,80,,101.97,97.98
Portugal,2021-08-27,18,24,83.59,45.64
Portugal,2021-08-27,25,49,90.22,76.48
Portugal,2021-08-27,50,59,97.32,91.14
Portugal,2021-08-27,60,69,102.07,95.64
Portugal,2021-08-27,70,79,105.28,100.93
Portugal,2021-08-27,80,,102.26,98.13
Portugal,2021-09-03,18,24,86.99,58.6
Portugal,2021-09-03,25,49,91.83,78.88
Portugal,2021-09-03,50,59,98.16,91.46
Portugal,2021-09-03,60,69,102.53,95.82
Portugal,2021-09-03,70,79,105.64,101.06
Portugal,2021-09-03,80,,102.55,98.25
Portugal,2021-09-10,18,24,88.78,68.73
Portugal,2021-09-10,25,49,92.64,80.78
Portugal,2021-09-10,50,59,98.48,91.68
Portugal,2021-09-10,60,69,102.73,95.93
Portugal,2021-09-10,70,79,105.79,101.14
Portugal,2021-09-10,80,,102.68,98.33
Portugal,2021-09-17,18,24,90.03,75.52
Portugal,2021-09-17,25,49,93.24,82.77
Portugal,2021-09-17,50,59,98.69,92.04
Portugal,2021-09-17,60,69,102.86,96.19
Portugal,2021-09-17,70,79,105.9,101.33
Portugal,2021-09-17,80,,102.76,98.48
Portugal,2021-09-24,18,24,91.0,77.93
Portugal,2021-09-24,25,49,93.77,83.73
Portugal,2021-09-24,50,59,98.88,92.35
Portugal,2021-09-24,60,69,102.98,96.45
Portugal,2021-09-24,70,79,105.99,101.53
Portugal,2021-09-24,80,,102.85,98.63
Portugal,2021-10-01,18,24,91.69,79.41
Portugal,2021-10-01,25,49,94.13,84.36
Portugal,2021-10-01,50,59,98.99,92.59
Portugal,2021-10-01,60,69,103.05,96.65
Portugal,2021-10-01,70,79,106.05,101.7
Portugal,2021-10-01,80,,102.91,98.75
Portugal,2021-10-08,18,24,92.13,80.62
Portugal,2021-10-08,25,49,94.35,84.88
Portugal,2021-10-08,50,59,99.06,92.76
Portugal,2021-10-08,60,69,103.09,96.82
Portugal,2021-10-08,70,79,106.08,101.83
Portugal,2021-10-08,80,,102.94,98.83
Portugal,2021-10-15,18,24,92.67,81.61
Portugal,2021-10-15,25,49,94.61,85.36
Portugal,2021-10-15,50,59,99.13,92.91
Portugal,2021-10-15,60,69,103.14,96.98
Portugal,2021-10-15,70,79,106.12,101.95
Portugal,2021-10-15,80,,102.98,98.95
Portugal,2021-10-22,18,24,93.06,82.4
Portugal,2021-10-22,25,49,94.81,85.76
Portugal,2021-10-22,50,59,99.19,93.05
Portugal,2021-10-22,60,69,103.18,97.13
Portugal,2021-10-22,70,79,106.15,102.07
Portugal,2021-10-22,80,,103.02,99.06
Portugal,2021-10-29,18,24,93.44,82.85
Portugal,2021-10-29,25,49,95.0,86.0
Portugal,2021-10-29,50,59,99.24,93.13
Portugal,2021-10-29,60,69,103.21,97.25
Portugal,2021-10-29,70,79,106.18,102.16
Portugal,2021-10-29,80,,103.05,99.15
Portugal,2021-11-05,18,24,93.71,83.18
Portugal,2021-11-05,25,49,95.14,86.19
Portugal,2021-11-05,50,59,99.28,93.2
Portugal,2021-11-05,60,69,103.23,97.3
Portugal,2021-11-05,70,79,106.2,102.21
Portugal,2021-11-05,80,,103.09,99.21
Portugal,2021-11-12,18,24,93.88,83.39
Portugal,2021-11-12,25,49,95.23,86.32
Portugal,2021-11-12,50,59,99.3,93.24
Portugal,2021-11-12,60,69,103.25,97.33
Portugal,2021-11-12,70,79,106.22,102.26
Portugal,2021-11-12,80,,103.11,99.29
