iso_code,continent,location,last_updated_date,total_cases,new_cases,new_cases_smoothed,total_deaths,new_deaths,new_deaths_smoothed,total_cases_per_million,new_cases_per_million,new_cases_smoothed_per_million,total_deaths_per_million,new_deaths_per_million,new_deaths_smoothed_per_million,reproduction_rate,icu_patients,icu_patients_per_million,hosp_patients,hosp_patients_per_million,weekly_icu_admissions,weekly_icu_admissions_per_million,weekly_hosp_admissions,weekly_hosp_admissions_per_million,new_tests,total_tests,total_tests_per_thousand,new_tests_per_thousand,new_tests_smoothed,new_tests_smoothed_per_thousand,positive_rate,tests_per_case,tests_units,total_vaccinations,people_vaccinated,people_fully_vaccinated,total_boosters,new_vaccinations,new_vaccinations_smoothed,total_vaccinations_per_hundred,people_vaccinated_per_hundred,people_fully_vaccinated_per_hundred,total_boosters_per_hundred,new_vaccinations_smoothed_per_million,new_people_vaccinated_smoothed,new_people_vaccinated_smoothed_per_hundred,stringency_index,population,population_density,median_age,aged_65_older,aged_70_older,gdp_per_capita,extreme_poverty,cardiovasc_death_rate,diabetes_prevalence,female_smokers,male_smokers,handwashing_facilities,hospital_beds_per_thousand,life_expectancy,human_development_index,excess_mortality_cumulative_absolute,excess_mortality_cumulative,excess_mortality,excess_mortality_cumulative_per_million
AFG,Asia,Afghanistan,2021-11-16,156649.0,39.0,36.0,7295.0,1.0,0.714,3932.404,0.979,0.904,183.128,0.025,0.018,0.72,,,,,,,,,,,,,,,,,,4018197.0,3530173.0,3188609.0,,,36635.0,10.09,8.86,8.0,,920.0,60035.0,0.151,,39835428.0,54.422,18.6,2.581,1.337,1803.987,,597.029,9.59,,,37.746,0.5,64.83,0.511,,,,
OWID_AFR,,Africa,2021-11-16,8566590.0,3375.0,3798.0,220963.0,179.0,160.571,6237.113,2.457,2.765,160.877,0.13,0.117,,,,,,,,,,,,,,,,,,,216704608.0,134734967.0,91353112.0,280269.0,349797.0,1439443.0,15.78,9.81,6.65,0.02,1048.0,882180.0,0.064,,1373486472.0,,,,,,,,,,,,,,,,,,
ALB,Europe,Albania,2021-11-16,193856.0,587.0,533.0,3004.0,7.0,4.857,67476.663,204.321,185.525,1045.621,2.437,1.691,1.15,,,,,,,,,,,,,,,,,,2000104.0,1047822.0,924194.0,28088.0,8258.0,7565.0,69.62,36.47,32.17,0.98,2633.0,2195.0,0.076,45.37,2872934.0,104.871,38.0,13.188,8.643,11803.431,1.1,304.195,10.08,7.1,51.2,,2.89,78.57,0.795,,,,
DZA,Africa,Algeria,2021-11-16,208245.0,141.0,122.857,5997.0,6.0,6.143,4667.43,3.16,2.754,134.412,0.134,0.138,1.16,19.0,0.426,,,,,,,,,,,,,,,,11376816.0,6446373.0,4930443.0,,,10805.0,25.5,14.45,11.05,,242.0,4869.0,0.011,,44616626.0,17.348,29.1,6.211,3.857,13913.839,0.5,278.364,6.73,0.7,30.4,83.741,1.9,76.88,0.748,,,,
AND,Europe,Andorra,2021-11-16,15929.0,22.0,30.286,130.0,0.0,0.0,205923.417,284.407,391.521,1680.585,0.0,0.0,1.58,,,,,,,,,,223865.0,2894.033,,281.0,3.633,0.096,10.4,people tested,,,,,,,,,,,,,,46.3,77354.0,163.755,,,,,,109.135,7.97,29.0,37.8,,,83.73,0.868,,,,
AGO,Africa,Angola,2021-11-16,64940.0,27.0,25.429,1729.0,2.0,0.857,1913.737,0.796,0.749,50.952,0.059,0.025,0.62,,,,,,,,,,,,,,,,,,7806481.0,5802574.0,2003907.0,,,131277.0,23.01,17.1,5.91,,3869.0,112438.0,0.331,63.43,33933611.0,23.89,16.8,2.405,1.362,5819.495,,276.045,3.94,,,26.664,,61.15,0.581,,,,
AIA,North America,Anguilla,2021-11-12,,,,,,,,,,,,,,,,,,,,,,,,,,,,,,,18782.0,9624.0,9158.0,,,11.0,124.18,63.63,60.55,,727.0,11.0,0.073,,15125.0,,,,,,,,,,,,,81.88,,,,,
ATG,North America,Antigua and Barbuda,2021-11-16,4122.0,4.0,4.429,107.0,0.0,0.286,41751.074,40.515,44.856,1083.786,0.0,2.894,0.7,,,,,,,,,,,,,,,,,,111186.0,58497.0,52689.0,,,609.0,112.62,59.25,53.37,,6168.0,281.0,0.285,,98728.0,231.845,32.1,6.933,4.631,21490.943,,191.511,13.17,,,,3.8,77.02,0.778,,,,
ARG,South America,Argentina,2021-11-16,5308781.0,1622.0,1337.571,116294.0,44.0,18.429,116405.771,35.566,29.329,2549.981,0.965,0.404,1.05,,,,,,,,,38098.0,25271072.0,554.119,0.835,35803.0,0.785,0.029,34.5,tests performed,64314456.0,35816140.0,27479827.0,892457.0,1297018.0,356203.0,141.02,78.53,60.26,1.96,7810.0,85287.0,0.187,42.59,45605823.0,16.177,31.9,11.198,7.441,18933.907,0.6,191.032,5.5,16.2,27.7,,5.0,76.67,0.845,,,,
ARM,Asia,Armenia,2021-11-16,329913.0,572.0,1078.429,7107.0,52.0,49.286,111151.878,192.714,363.336,2394.439,17.519,16.605,0.94,,,,,,,,,5966.0,2252569.0,758.919,2.01,9922.0,3.343,0.117,8.6,tests performed,,,,,,,,,,,,,,,2968128.0,102.931,35.7,11.232,7.571,8787.58,1.8,341.01,7.11,1.5,52.1,94.043,4.2,75.09,0.776,,,,
ABW,North America,Aruba,2021-11-16,,,,,,,,,,,,,,,,,,,,,,,,,,,,,,,160750.0,83272.0,77478.0,,91.0,83.0,149.96,77.68,72.28,,774.0,37.0,0.035,,107195.0,584.8,41.2,13.085,7.452,35973.781,,,11.62,,,,,76.29,,,,,
OWID_ASI,,Asia,2021-11-16,80865882.0,87830.0,89250.0,1198654.0,1333.0,1393.571,17284.778,18.773,19.077,256.208,0.285,0.298,,,,,,,,,,,,,,,,,,,5117174211.0,2820122491.0,2137725370.0,78462762.0,11493719.0,20810629.0,109.38,60.28,45.69,1.68,4448.0,17023043.0,0.364,,4678444992.0,,,,,,,,,,,,,,,,,,
AUS,Oceania,Australia,2021-11-16,192845.0,1228.0,1253.429,1907.0,9.0,7.0,7478.028,47.619,48.605,73.949,0.349,0.271,0.89,,,,,,,,,135692.0,45520917.0,1765.183,5.262,151561.0,5.877,0.009,117.6,tests performed,37972232.0,19646353.0,18041042.0,284837.0,136366.0,129169.0,147.25,76.18,69.96,1.1,5009.0,38916.0,0.151,60.65,25788217.0,3.202,37.9,15.504,10.129,44648.71,0.5,107.791,5.07,13.0,16.5,,3.84,83.44,0.944,,,,
AUT,Europe,Austria,2021-11-16,981904.0,10363.0,11732.429,11807.0,61.0,36.143,108580.801,1145.96,1297.394,1305.64,6.745,3.997,1.45,367.0,40.584,1570.0,173.614,,,,,464540.0,104177857.0,11520.184,51.37,441065.0,48.774,0.026,38.7,tests performed,12420849.0,6151026.0,5762229.0,843707.0,85546.0,73111.0,137.35,68.02,63.72,9.33,8085.0,18277.0,0.202,59.26,9043072.0,106.749,44.4,19.202,13.748,45436.686,0.7,145.183,6.35,28.4,30.9,,7.37,81.54,0.922,,,,
AZE,Asia,Azerbaijan,2021-11-16,563940.0,2015.0,1927.714,7502.0,31.0,26.0,55161.99,197.098,188.56,733.811,3.032,2.543,0.97,,,,,,,,,11350.0,5380154.0,526.262,1.11,12558.0,1.228,0.152,6.6,tests performed,10132050.0,5028482.0,4490360.0,613208.0,39287.0,29016.0,99.11,49.19,43.92,6.0,2838.0,4128.0,0.04,51.85,10223344.0,119.309,32.4,6.018,3.871,15847.419,,559.812,7.11,0.3,42.5,83.241,4.7,73.0,0.756,,,,
BHS,North America,Bahamas,2021-11-16,22613.0,12.0,3.0,669.0,4.0,1.143,56972.039,30.233,7.558,1685.504,10.078,2.879,0.81,,,,,,,,,330.0,161654.0,407.277,0.831,374.0,0.942,0.026,39.1,tests performed,263795.0,143726.0,128242.0,,,1244.0,66.46,36.21,32.31,,3134.0,1641.0,0.413,,396914.0,39.497,34.3,8.996,5.2,27717.847,,235.954,13.17,3.1,20.4,,2.9,73.92,0.814,,,,
BHR,Asia,Bahrain,2021-11-16,277262.0,16.0,21.286,1393.0,0.0,0.0,158589.94,9.152,12.175,796.776,0.0,0.0,0.72,,,,,,,,,15810.0,7159330.0,4095.035,9.043,17793.0,10.177,0.001,877.1,units unclear,2835443.0,1184366.0,1149475.0,,3968.0,3904.0,162.18,67.74,65.75,,2233.0,313.0,0.018,29.63,1748295.0,1935.907,32.4,2.372,1.387,43290.705,,151.689,16.52,5.8,37.6,,2.0,77.29,0.852,,,,
BGD,Asia,Bangladesh,2021-11-16,1572948.0,213.0,216.286,27928.0,2.0,3.429,9458.298,1.281,1.301,167.934,0.012,0.021,0.87,,,,,,,,,19517.0,10574320.0,63.584,0.117,17456.0,0.105,0.012,82.1,tests performed,84936742.0,51788929.0,33147813.0,,617252.0,1151253.0,51.07,31.14,19.93,,6923.0,885336.0,0.532,23.15,166303494.0,1265.036,27.5,5.098,3.262,3523.984,14.8,298.003,8.38,1.0,44.7,34.808,0.8,72.59,0.632,,,,
BRB,North America,Barbados,2021-11-16,22639.0,323.0,280.429,199.0,5.0,2.286,78687.419,1122.666,974.699,691.674,17.379,7.945,1.09,,,,,,,,,,,,,,,,,,284659.0,151882.0,132777.0,,250.0,522.0,98.94,52.79,46.15,,1814.0,178.0,0.062,67.59,287708.0,664.463,39.8,14.952,9.473,16978.068,,170.05,13.57,1.9,14.5,88.469,5.8,79.19,0.814,,,,
BLR,Europe,Belarus,2021-11-16,631025.0,1754.0,1900.857,4875.0,14.0,14.571,66825.573,185.749,201.301,516.263,1.483,1.543,0.99,,,,,,,,,,10062789.0,1065.65,,26846.0,2.843,0.069,14.4,tests performed,5409635.0,3111709.0,2297926.0,,,45961.0,57.29,32.95,24.34,,4867.0,25139.0,0.266,,9442867.0,46.858,40.3,14.799,9.788,17167.967,,443.129,5.18,10.5,46.1,,11.0,74.79,0.823,,,,
BEL,Europe,Belgium,2021-11-16,1524862.0,12388.0,12290.286,26444.0,41.0,34.857,131088.224,1064.963,1056.562,2273.318,3.525,2.997,1.51,391.0,33.613,1948.0,167.464,,,1244.76,107.009,42516.0,23021595.0,1979.104,3.655,80839.0,6.95,0.138,7.2,tests performed,16983287.0,8770074.0,8625656.0,849274.0,2582.0,4769.0,146.0,75.39,74.15,7.3,410.0,2598.0,0.022,44.91,11632334.0,375.564,41.8,18.571,12.849,42658.576,0.2,114.898,4.29,25.1,31.4,,5.64,81.63,0.931,,,,
BLZ,North America,Belize,2021-11-16,29269.0,164.0,158.143,548.0,4.0,5.571,72284.307,405.023,390.558,1353.37,9.879,13.76,1.08,,,,,,,,,,321004.0,792.769,,1354.0,3.344,0.107,9.4,tests performed,398131.0,226060.0,187697.0,,,898.0,98.32,55.83,46.35,,2218.0,139.0,0.034,60.19,404915.0,16.426,25.0,3.853,2.279,7824.362,,176.957,17.11,,,90.083,1.3,74.62,0.716,,,,
BEN,Africa,Benin,2021-11-16,24833.0,0.0,4.143,161.0,0.0,0.0,1994.453,0.0,0.333,12.931,0.0,0.0,0.59,,,,,,,,,,,,,,,,,,347270.0,304596.0,265501.0,,,6213.0,2.79,2.45,2.13,,499.0,5887.0,0.047,,12451031.0,99.11,18.8,3.244,1.942,2064.236,49.6,235.848,0.99,0.6,12.3,11.035,0.5,61.77,0.545,,,,
BMU,North America,Bermuda,2021-11-05,,,,,,,,,,,,,,,,,,,,,,,,,,,,,,,101341.0,48464.0,47365.0,5512.0,,1224.0,163.21,78.05,76.28,8.88,19713.0,187.0,0.301,,62092.0,1308.82,,,,50669.315,,139.547,13.0,,,,,82.59,,,,,
BTN,Asia,Bhutan,2021-11-16,2625.0,0.0,0.286,3.0,0.0,0.0,3365.816,0.0,0.366,3.847,0.0,0.0,0.45,,,,,,,,,1110.0,1219379.0,1563.507,1.423,1210.0,1.551,0.0,4230.8,samples tested,,,,,,,,,,,,,,47.22,779900.0,21.188,28.6,4.885,2.977,8708.597,1.5,217.066,9.75,,,79.807,1.7,71.78,0.654,,,,
BOL,South America,Bolivia,2021-11-16,525187.0,926.0,902.429,19030.0,8.0,8.571,44383.49,78.256,76.264,1608.223,0.676,0.724,1.17,,,,,,,,,6028.0,2686340.0,227.022,0.509,5513.0,0.466,0.145,6.9,tests performed,8041447.0,4688731.0,3948592.0,360843.0,,19770.0,67.96,39.62,33.37,3.05,1671.0,13063.0,0.11,30.09,11832936.0,10.202,25.4,6.704,4.393,6885.829,7.1,204.299,6.89,,,25.383,1.1,71.51,0.718,,,,
BIH,Europe,Bosnia and Herzegovina,2021-11-16,265942.0,793.0,729.286,12113.0,38.0,34.857,81490.835,242.994,223.47,3711.706,11.644,10.681,1.24,,,,,,,,,3653.0,1353609.0,414.777,1.119,2986.0,0.915,0.243,4.1,tests performed,1553874.0,833233.0,720641.0,,,13791.0,47.61,25.53,22.08,,4226.0,5949.0,0.182,35.19,3263459.0,68.496,42.5,16.569,10.711,11713.895,0.2,329.635,10.08,30.2,47.7,97.164,3.5,77.4,0.78,,,,
BWA,Africa,Botswana,2021-11-16,194129.0,0.0,97.143,2416.0,0.0,1.0,80980.211,0.0,40.523,1007.826,0.0,0.417,0.73,,,,,,,,,,,,,,,,,,1128095.0,770879.0,357216.0,,,15933.0,47.06,32.16,14.9,,6646.0,7869.0,0.328,13.89,2397240.0,4.044,25.8,3.941,2.242,15807.374,,237.372,4.81,5.7,34.4,,1.8,69.59,0.735,,,,
BRA,South America,Brazil,2021-11-16,21965684.0,4918.0,9808.429,611478.0,132.0,246.0,102646.529,22.982,45.835,2857.461,0.617,1.15,0.96,,,,,,,,,,64755932.0,302.607,,508.0,0.002,,,tests performed,297103960.0,162341985.0,127998040.0,11814702.0,11231782.0,2437209.0,138.84,75.86,59.81,5.52,11389.0,206727.0,0.097,41.2,213993441.0,25.04,33.5,8.552,5.06,14103.452,3.4,177.961,8.11,10.1,17.9,,2.2,75.88,0.765,,,,
VGB,North America,British Virgin Islands,2021-11-12,,,,,,,,,,,,,,,,,,,,,,,,,,,,,,,34608.0,18137.0,16471.0,,,33.0,113.76,59.62,54.14,,1085.0,14.0,0.046,,30423.0,207.973,,,,,,,13.67,,,,,79.07,,,,,
BRN,Asia,Brunei,2021-11-16,14291.0,76.0,61.0,96.0,0.0,0.429,32366.85,172.128,138.155,217.425,0.0,0.971,0.84,,,,,,,,,,,,,,,,,,692315.0,387002.0,305313.0,,7617.0,6164.0,156.8,87.65,69.15,,13960.0,3684.0,0.834,79.63,441532.0,81.347,32.4,4.591,2.382,71809.251,,201.285,12.79,2.0,30.9,,2.7,75.86,0.838,,,,
BGR,Europe,Bulgaria,2021-11-16,662739.0,3869.0,2819.429,26676.0,121.0,160.143,96095.716,560.997,408.811,3867.962,17.545,23.22,0.91,732.0,106.138,8370.0,1213.632,,,,,,6116666.0,886.903,,31355.0,4.546,0.094,10.7,tests performed,3108947.0,,1647300.0,,22133.0,16162.0,45.08,,23.89,,2343.0,,,,6896655.0,65.18,44.7,20.801,13.272,18563.307,1.5,424.688,5.81,30.1,44.4,,7.454,75.05,0.816,,,,
BFA,Africa,Burkina Faso,2021-11-16,15514.0,233.0,58.714,265.0,31.0,6.286,721.679,10.839,2.731,12.327,1.442,0.292,0.34,,,,,,,,,,,,,,,,,,661796.0,364565.0,297231.0,,,5635.0,3.08,1.7,1.38,,262.0,5635.0,0.026,13.89,21497097.0,70.151,17.6,2.409,1.358,1703.102,43.7,269.048,2.42,1.6,23.9,11.877,0.4,61.58,0.452,,,,
BDI,Africa,Burundi,2021-11-16,20282.0,6.0,16.0,38.0,0.0,0.0,1654.94,0.49,1.306,3.101,0.0,0.0,0.64,,,,,,,,,,,,,,,,,,1159.0,921.0,238.0,,50.0,40.0,0.01,0.01,0.0,,3.0,19.0,0.0,11.11,12255429.0,423.062,17.5,2.562,1.504,702.225,71.7,293.068,6.05,,,6.144,0.8,61.58,0.433,,,,
KHM,Asia,Cambodia,2021-11-16,119636.0,48.0,58.429,2876.0,4.0,5.143,7059.651,2.832,3.448,169.711,0.236,0.303,0.7,,,,,,,,,,,,,,,,,,28327177.0,14079049.0,13225431.0,2075848.0,85818.0,30435.0,167.16,83.08,78.04,12.25,1796.0,11330.0,0.067,54.17,16946446.0,90.672,25.6,4.412,2.385,3645.07,,270.892,4.0,2.0,33.7,66.229,0.8,69.82,0.594,,,,
CMR,Africa,Cameroon,2021-11-16,106190.0,0.0,263.143,1770.0,0.0,5.571,3900.565,0.0,9.666,65.016,0.0,0.205,0.84,,,,,,,,,,,,,,,,,,520214.0,432625.0,175829.0,,9890.0,1775.0,1.91,1.59,0.65,,65.0,1536.0,0.006,25.0,27224262.0,50.885,18.8,3.165,1.919,3364.926,23.8,244.661,7.2,,,2.735,1.3,59.29,0.563,,,,
CAN,North America,Canada,2021-11-16,1762638.0,1816.0,2419.429,29458.0,23.0,26.429,46302.46,47.704,63.556,773.828,0.604,0.694,1.02,486.0,12.767,1762.0,46.286,,,,,74146.0,47540334.0,1248.83,1.948,84292.0,2.214,0.03,33.7,tests performed,59700397.0,30082576.0,28731705.0,886116.0,64695.0,62723.0,156.83,79.02,75.47,2.33,1648.0,15180.0,0.04,67.13,38067913.0,4.037,41.4,16.984,10.797,44017.591,0.5,105.599,7.37,12.0,16.6,,2.5,82.43,0.929,,,,
CPV,Africa,Cape Verde,2021-11-16,38302.0,3.0,5.429,350.0,0.0,0.0,68165.033,5.339,9.661,622.886,0.0,0.0,0.74,,,,,,,,,289.0,,,0.514,,,,,tests performed,526891.0,295571.0,231320.0,,,1526.0,93.77,52.6,41.17,,2716.0,194.0,0.035,37.96,561901.0,135.58,25.7,4.46,3.437,6222.554,,182.219,2.42,2.1,16.5,,2.1,72.98,0.665,,,,
CYM,North America,Cayman Islands,2021-11-12,,,,,,,,,,,,,,,,,,,,,,,,,,,,,,,119435.0,57357.0,55157.0,,,418.0,179.61,86.25,82.95,,6286.0,67.0,0.101,,66498.0,256.496,,,,49903.029,,,13.22,,,,,83.92,,,,,
CAF,Africa,Central African Republic,2021-11-16,11666.0,0.0,12.429,101.0,0.0,0.143,2371.144,0.0,2.526,20.529,0.0,0.029,0.31,,,,,,,,,,,,,,,,,,422372.0,362174.0,321858.0,,,503.0,8.58,7.36,6.54,,102.0,447.0,0.009,,4919987.0,7.479,18.3,3.655,2.251,661.24,,435.727,6.1,,,16.603,1.0,53.28,0.397,,,,
TCD,Africa,Chad,2021-11-16,5107.0,0.0,0.0,175.0,0.0,0.0,301.922,0.0,0.0,10.346,0.0,0.0,0.25,,,,,,,,,,,,,,,,,,237695.0,172432.0,65263.0,,,1239.0,1.41,1.02,0.39,,73.0,660.0,0.004,22.22,16914985.0,11.833,16.7,2.486,1.446,1768.153,38.4,280.995,6.1,,,5.818,,54.24,0.398,,,,
CHL,South America,Chile,2021-11-16,1730456.0,1689.0,2466.857,38005.0,5.0,17.429,90069.925,87.912,128.399,1978.153,0.26,0.907,1.22,,,,,,,,,51132.0,24392441.0,1269.622,2.661,73073.0,3.803,0.034,29.5,tests performed,39131808.0,16704272.0,15732382.0,7267682.0,1840.0,148794.0,203.68,86.95,81.89,37.83,7745.0,15004.0,0.078,35.65,19212362.0,24.282,35.4,11.087,6.938,22767.037,1.3,127.993,8.46,34.2,41.5,,2.11,80.18,0.851,,,,
CHN,Asia,China,2021-11-16,98445.0,31.0,61.286,4636.0,0.0,0.0,68.165,0.021,0.042,3.21,0.0,0.0,1.04,,,,,,,,,,,,,,,,,,2396045000.0,1185237000.0,1073845000.0,49440000.0,6477000.0,8221714.0,165.91,82.07,74.35,3.42,5693.0,1534455.0,0.106,76.39,1444216102.0,147.674,38.7,10.641,5.929,15308.712,0.7,261.899,9.74,1.9,48.4,,4.34,76.91,0.761,,,,
COL,South America,Colombia,2021-11-16,5036287.0,2021.0,2447.0,127865.0,32.0,36.429,98238.65,39.422,47.732,2494.156,0.624,0.711,1.23,,,,,,,,,35298.0,27371999.0,533.923,0.689,44294.0,0.864,0.057,17.5,tests performed,51821798.0,33376996.0,22940295.0,,401725.0,354253.0,101.08,65.11,44.75,,6910.0,264303.0,0.516,,51265841.0,44.223,32.2,7.646,4.312,13254.949,4.5,124.24,7.44,4.7,13.5,65.386,1.71,77.29,0.767,,,,
COM,Africa,Comoros,2021-11-16,4400.0,4.0,9.714,149.0,0.0,0.286,4952.412,4.502,10.934,167.707,0.0,0.322,0.97,,,,,,,,,,,,,,,,,,476350.0,278152.0,198198.0,,,2158.0,53.62,31.31,22.31,,2429.0,423.0,0.048,,888456.0,437.352,20.4,2.963,1.726,1413.89,18.1,261.516,11.88,4.4,23.6,15.574,2.2,64.32,0.554,,,,
COG,Africa,Congo,2021-11-16,18539.0,149.0,55.143,331.0,12.0,3.143,3277.169,26.339,9.748,58.511,2.121,0.556,0.93,,,,,,,,,,,,,,,,,,549254.0,423819.0,125435.0,,,6727.0,9.71,7.49,2.22,,1189.0,6579.0,0.116,38.89,5657017.0,15.405,19.0,3.402,2.063,4881.406,37.0,344.094,7.2,1.7,52.3,47.964,,64.57,0.574,,,,
COK,Oceania,Cook Islands,2021-11-08,,,,,,,,,,,,,,,,,,,,,,,,,,,,,,,24326.0,12600.0,11726.0,,,40.0,138.44,71.7,66.73,,2276.0,14.0,0.08,,17572.0,,,,,,,,,,,,,76.25,,,,,
CRI,North America,Costa Rica,2021-11-16,564901.0,239.0,230.143,7231.0,8.0,7.857,109923.171,46.507,44.783,1407.069,1.557,1.529,0.67,,,,,,,,,259.0,2055780.0,400.031,0.05,3148.0,0.613,0.081,12.3,people tested,6878077.0,3821682.0,3030603.0,25792.0,,20157.0,133.84,74.37,58.97,0.5,3922.0,4455.0,0.087,,5139053.0,96.079,33.6,9.468,5.694,15524.995,1.3,137.973,8.78,6.4,17.4,83.841,1.13,80.28,0.81,,,,
CIV,Africa,Cote d'Ivoire,2021-11-16,61523.0,12.0,11.571,702.0,0.0,0.286,2274.113,0.444,0.428,25.948,0.0,0.011,0.79,,,,,,,,,2418.0,1121820.0,41.467,0.089,2195.0,0.081,0.006,170.7,samples tested,3687408.0,2566786.0,1120622.0,,,30255.0,13.63,9.49,4.14,,1118.0,16450.0,0.061,17.59,27053629.0,76.399,18.7,2.933,1.582,3601.006,28.2,303.74,2.42,,,19.351,,57.78,0.538,,,,
HRV,Europe,Croatia,2021-11-16,544330.0,4443.0,5256.429,9986.0,50.0,54.429,133360.055,1088.529,1287.817,2446.555,12.25,13.335,1.35,,,,,,,,,,3288144.0,805.59,,12937.0,3.17,0.412,2.4,people tested,3899376.0,2076934.0,1873073.0,,6610.0,23810.0,95.53,50.88,45.89,,5833.0,14648.0,0.359,35.19,4081657.0,73.726,44.0,19.724,13.053,22669.797,0.7,253.782,5.59,34.3,39.9,,5.54,78.49,0.851,,,,
CUB,North America,Cuba,2021-11-16,959307.0,243.0,341.143,8284.0,1.0,2.0,84763.169,21.471,30.143,731.964,0.088,0.177,0.6,,,,,,,,,,,,,,,,,,27424183.0,10086396.0,8679636.0,,139995.0,142941.0,242.32,89.12,76.69,,12630.0,7327.0,0.065,,11317498.0,110.408,43.1,14.738,9.719,,,190.968,8.27,17.1,53.3,85.198,5.2,78.8,0.783,,,,
CUW,North America,Curacao,2021-11-13,,,,,,,,,,,,,,,,,,,,,,,,,,,,,,,195709.0,101959.0,93750.0,,32.0,181.0,118.76,61.87,56.89,,1098.0,73.0,0.044,,164796.0,362.644,41.7,16.367,10.068,,,,11.62,,,,,78.88,,,,,
CYP,Europe,Cyprus,2021-11-16,128038.0,354.0,258.143,588.0,0.0,1.571,142898.756,395.087,288.104,656.246,0.0,1.754,1.3,9.0,10.045,69.0,77.008,5.045,5.631,35.315,39.414,66696.0,15634019.0,17448.585,74.437,54344.0,60.651,0.005,219.0,tests performed,1241339.0,610308.0,575402.0,55629.0,2480.0,2201.0,138.54,68.11,64.22,6.21,2456.0,441.0,0.049,46.3,896005.0,127.657,37.3,13.416,8.563,32415.132,,141.171,9.24,19.6,52.7,,3.4,80.98,0.887,,,,
CZE,Europe,Czechia,2021-11-16,1907629.0,11554.0,11312.714,31636.0,95.0,66.143,177874.919,1077.341,1054.842,2949.867,8.858,6.167,1.41,411.0,38.323,2905.0,270.874,648.852,60.502,4164.889,388.351,95297.0,,,8.886,98012.0,9.139,0.115,8.7,tests performed,12876362.0,6448666.0,6209542.0,559371.0,47240.0,36650.0,120.06,60.13,57.9,5.22,3417.0,12463.0,0.116,35.19,10724553.0,137.176,43.3,19.027,11.58,32605.906,,227.485,6.82,30.5,38.3,,6.63,79.38,0.9,,,,
COD,Africa,Democratic Republic of Congo,2021-11-16,57803.0,0.0,23.571,1099.0,0.0,0.0,625.723,0.0,0.255,11.897,0.0,0.0,0.83,,,,,,,,,,,,,,,,,,161762.0,118759.0,44789.0,,,1380.0,0.18,0.13,0.05,,15.0,857.0,0.001,39.81,92377986.0,35.879,17.0,3.02,1.745,808.133,77.1,318.949,6.1,,,4.472,,60.68,0.48,,,,
DNK,Europe,Denmark,2021-11-16,434978.0,3981.0,3415.429,2791.0,9.0,6.143,74824.601,684.809,587.52,480.106,1.548,1.057,1.37,40.0,6.881,282.0,48.509,,,313.49,53.926,155295.0,44283729.0,7617.655,26.714,135787.0,23.358,0.019,53.5,tests performed,8908143.0,4523372.0,4431146.0,,6111.0,5611.0,153.24,77.81,76.22,,965.0,4186.0,0.072,24.07,5813302.0,136.52,42.3,19.677,12.325,46682.515,0.2,114.767,6.41,19.3,18.8,,2.5,80.9,0.94,259.4,0.25,11.45,44.622
DJI,Africa,Djibouti,2021-11-16,13497.0,1.0,0.571,186.0,0.0,0.0,13467.412,0.998,0.57,185.592,0.0,0.0,0.24,,,,,,,,,,,,,,,,,,92097.0,66010.0,26087.0,,,592.0,9.19,6.59,2.6,,591.0,592.0,0.059,,1002197.0,41.285,25.4,4.213,2.38,2705.406,22.5,258.037,6.05,1.7,24.5,,1.4,67.11,0.524,,,,
DMA,North America,Dominica,2021-11-16,5441.0,105.0,53.0,35.0,0.0,0.286,75389.348,1454.858,734.357,484.953,0.0,3.959,1.19,,,,,,,,,,,,,,,,,,53955.0,28207.0,25748.0,,,93.0,74.76,39.08,35.68,,1289.0,31.0,0.043,79.63,72172.0,98.567,,,,9673.367,,227.376,11.62,,,,3.8,75.0,0.742,,,,
DOM,North America,Dominican Republic,2021-11-16,398018.0,1002.0,1137.143,4174.0,4.0,2.857,36336.351,91.476,103.813,381.058,0.365,0.261,1.12,,,,,,,,,,,,,,,,,,13594483.0,6826229.0,5481481.0,1286773.0,24617.0,20576.0,124.11,62.32,50.04,11.75,1878.0,5416.0,0.049,52.78,10953714.0,222.873,27.6,6.981,4.419,14600.861,1.6,266.653,8.2,8.5,19.1,55.182,1.6,74.08,0.756,,,,
ECU,South America,Ecuador,2021-11-16,521792.0,0.0,318.857,33088.0,0.0,14.143,29169.173,0.0,17.825,1849.683,0.0,0.791,0.66,,,,,,,,,1403.0,1847393.0,103.273,0.078,2203.0,0.123,0.229,4.4,people tested,23103250.0,12918843.0,10467328.0,70275.0,86542.0,51299.0,129.15,72.22,58.51,0.39,2868.0,28990.0,0.162,57.87,17888474.0,66.939,28.1,7.104,4.458,10581.936,3.6,140.448,5.55,2.0,12.3,80.635,1.5,77.01,0.759,,,,
EGY,Africa,Egypt,2021-11-16,345848.0,941.0,930.429,19636.0,69.0,64.286,3317.222,9.026,8.924,188.34,0.662,0.617,1.01,,,,,,,,,,,,,,,,,,33667594.0,21121564.0,13271289.0,,,583101.0,32.29,20.26,12.73,,5593.0,317273.0,0.304,43.52,104258327.0,97.999,25.3,5.159,2.891,10550.206,1.3,525.432,17.31,0.2,50.1,89.827,1.6,71.99,0.707,,,,
SLV,North America,El Salvador,2021-11-16,118041.0,0.0,254.714,3735.0,4.0,5.714,18108.614,0.0,39.076,572.985,0.614,0.877,0.35,,,,,,,,,,,,,,,,,,8946050.0,4390900.0,3997138.0,558012.0,32332.0,22555.0,137.24,67.36,61.32,8.56,3460.0,4102.0,0.063,,6518500.0,307.811,27.6,8.273,5.417,7292.458,2.2,167.295,8.87,2.5,18.8,90.65,1.3,73.32,0.673,,,,
GNQ,Africa,Equatorial Guinea,2021-11-16,13519.0,34.0,8.571,169.0,1.0,0.143,9324.149,23.45,5.912,116.56,0.69,0.099,0.87,,,,,,,,,1692.0,249714.0,172.229,1.167,586.0,0.404,0.019,52.6,tests performed,440310.0,245628.0,194682.0,,,405.0,30.37,16.94,13.43,,279.0,199.0,0.014,,1449891.0,45.194,22.4,2.846,1.752,22604.873,,202.812,7.78,,,24.64,2.1,58.74,0.592,,,,
ERI,Africa,Eritrea,2021-11-16,7076.0,13.0,13.857,52.0,1.0,0.714,1964.758,3.61,3.848,14.439,0.278,0.198,1.4,,,,,,,,,,,,,,,,,,,,,,,,,,,,,,,62.04,3601462.0,44.304,19.3,3.607,2.171,1510.459,,311.11,6.05,0.2,11.4,,0.7,66.32,0.459,,,,
EST,Europe,Estonia,2021-11-16,213474.0,867.0,928.857,1701.0,11.0,11.143,161089.596,654.247,700.925,1283.591,8.301,8.409,0.88,61.0,46.031,631.0,476.159,,,413.817,312.27,6644.0,2264132.0,1708.536,5.014,6696.0,5.053,0.143,7.0,tests performed,1462620.0,818074.0,776719.0,,1533.0,1406.0,110.37,61.73,58.61,,1061.0,995.0,0.075,32.41,1325188.0,31.033,42.7,19.452,13.491,29481.252,0.5,255.569,4.02,24.5,39.3,,4.69,78.74,0.892,2433.3,8.36,30.92,1836.192
SWZ,Africa,Eswatini,2021-11-16,46481.0,9.0,2.714,1245.0,0.0,0.143,39647.074,7.677,2.315,1061.952,0.0,0.122,0.48,,,,,,,,,,,,,,,,,,293353.0,259022.0,249607.0,,,1548.0,25.02,22.09,21.29,,1320.0,1696.0,0.145,,1172369.0,79.492,21.5,3.163,1.845,7738.975,,333.436,3.94,1.7,16.5,24.097,2.1,60.19,0.611,,,,
ETH,Africa,Ethiopia,2021-11-16,369244.0,265.0,228.143,6638.0,8.0,11.0,3132.472,2.248,1.935,56.313,0.068,0.093,0.68,,,,,,,,,4638.0,3767231.0,31.959,0.039,5510.0,0.047,0.041,24.7,tests performed,5084917.0,3691159.0,1393758.0,,18436.0,4137.0,4.31,3.13,1.18,,35.0,3826.0,0.003,43.52,117876226.0,104.957,19.8,3.526,2.063,1729.927,26.7,182.634,7.47,0.4,8.5,7.96,0.3,66.6,0.485,,,,
OWID_EUR,,Europe,2021-11-16,69262097.0,322860.0,293891.286,1365515.0,4417.0,3766.429,92477.33,431.076,392.398,1823.208,5.897,5.029,,,,,,,,,,,,,,,,,,,900148367.0,458600215.0,423270463.0,38536654.0,2214882.0,2614308.0,120.19,61.23,56.51,5.15,3491.0,803083.0,0.107,,748962983.0,,,,,,,,,,,,,,,,,,
OWID_EUN,,European Union,2021-11-16,42796277.0,215488.0,181851.0,821341.0,1933.0,1523.571,95700.452,481.871,406.653,1836.672,4.323,3.407,,,,,,,,,,,,,,,,,,,610884570.0,311822016.0,296687240.0,21480999.0,1086797.0,1180059.0,136.61,69.73,66.34,4.8,2639.0,181992.0,0.041,,447189915.0,,,,,,,,,,,,,,,,,,
FRO,Europe,Faeroe Islands,2021-11-05,,,,,,,,,,,,,,,,,,,,,,,,,,,,,,,78347.0,40205.0,38142.0,,69.0,140.0,159.72,81.96,77.76,,2854.0,90.0,0.183,38.89,49053.0,35.308,,,,,,,,,,,,80.67,,,,,
FJI,Oceania,Fiji,2021-11-16,52429.0,0.0,18.714,694.0,0.0,2.714,58067.403,0.0,20.727,768.635,0.0,3.006,1.07,,,,,,,,,,,,,,,,,,1208816.0,632505.0,576311.0,,,1704.0,133.88,70.05,63.83,,1887.0,283.0,0.031,90.74,902899.0,49.562,28.6,6.224,3.284,8702.975,1.4,412.82,14.49,10.2,34.8,,2.3,67.44,0.743,,,,
FIN,Europe,Finland,2021-11-16,171222.0,937.0,845.714,1233.0,3.0,3.429,30859.924,168.879,152.426,222.228,0.541,0.618,1.21,31.0,5.587,246.0,44.337,,,,,6296.0,7679835.0,1384.163,1.135,12255.0,2.209,0.054,18.5,tests performed,8226816.0,4258374.0,3968442.0,,307.0,6546.0,148.27,76.75,71.52,,1180.0,1714.0,0.031,27.31,5548361.0,18.136,42.8,21.228,13.264,40585.721,,153.507,5.76,18.3,22.6,,3.28,81.91,0.938,,,,
FRA,Europe,France,2021-11-16,7413180.0,19884.0,11264.0,119225.0,48.0,36.429,109720.45,294.298,166.715,1764.617,0.71,0.539,1.28,1101.0,16.296,6709.0,99.298,476.722,7.056,1826.597,27.035,330870.0,,,4.897,288022.0,4.263,0.036,27.8,people tested,101432006.0,51555017.0,46445716.0,4475259.0,214522.0,162457.0,150.13,76.31,68.74,6.62,2404.0,17170.0,0.025,66.67,67564251.0,122.578,42.0,19.718,13.079,38605.671,,86.06,4.77,30.1,35.6,,5.98,82.66,0.901,,,,
PYF,Oceania,French Polynesia,2021-11-15,,,,,,,,,,,,,,,,,,,,,,,,,,,,,,,312817.0,159343.0,153474.0,,,592.0,110.72,56.4,54.32,,2095.0,143.0,0.051,,282534.0,77.324,32.7,7.775,4.593,,,,22.63,,,,,77.66,,,,,
GAB,Africa,Gabon,2021-11-16,36787.0,0.0,65.286,268.0,0.0,1.286,16142.94,0.0,28.649,117.604,0.0,0.564,1.07,,,,,,,,,6042.0,1360717.0,597.112,2.651,3242.0,1.423,0.021,47.6,samples tested,256974.0,148798.0,108176.0,,,1846.0,11.28,6.53,4.75,,810.0,1417.0,0.062,51.85,2278829.0,7.859,23.1,4.45,2.976,16562.413,3.4,259.967,7.2,,,,6.3,66.47,0.703,,,,
GMB,Africa,Gambia,2021-11-16,9986.0,6.0,1.0,341.0,0.0,0.0,4015.381,2.413,0.402,137.116,0.0,0.0,0.62,,,,,,,,,,120595.0,48.491,,209.0,0.084,0.004,243.9,samples tested,267644.0,236470.0,222526.0,,,48.0,10.76,9.51,8.95,,19.0,50.0,0.002,13.89,2486937.0,207.566,17.5,2.339,1.417,1561.767,10.1,331.43,1.91,0.7,31.2,7.876,1.1,62.05,0.496,,,,
GEO,Asia,Georgia,2021-11-16,791115.0,5204.0,4292.571,11140.0,83.0,79.429,198783.951,1307.612,1078.597,2799.155,20.855,19.958,1.06,,,,,,,,,,,,,,,,,,2066159.0,1094581.0,971578.0,,8943.0,6832.0,51.92,27.5,24.41,,1717.0,4806.0,0.121,47.22,3979773.0,65.032,38.7,14.864,10.244,9745.079,4.2,496.218,7.11,5.3,55.5,,2.6,73.77,0.812,,,,
DEU,Europe,Germany,2021-11-16,5144827.0,53627.0,41052.0,98278.0,292.0,187.143,61320.597,639.174,489.294,1171.364,3.48,2.231,1.4,2533.0,30.191,,,,,,,,80279228.0,956.839,,166673.0,1.987,0.16,6.2,tests performed,115656735.0,58366685.0,56282329.0,4368783.0,435713.0,274322.0,137.85,69.57,67.08,5.21,3270.0,43758.0,0.052,43.98,83900471.0,237.016,46.6,21.453,15.957,45229.245,,156.139,8.31,28.2,33.1,,8.0,81.33,0.947,,,,
GHA,Africa,Ghana,2021-11-16,130727.0,17.0,17.0,1207.0,0.0,0.571,4119.705,0.536,0.536,38.037,0.0,0.018,0.85,,,,,,,,,,,,,,,,,,3188114.0,2352125.0,835989.0,,60270.0,14748.0,10.05,7.41,2.63,,465.0,14321.0,0.045,,31732128.0,126.719,21.1,3.385,1.948,4227.63,12.0,298.245,4.97,0.3,7.7,41.047,0.9,64.07,0.611,,,,
GIB,Europe,Gibraltar,2021-11-16,,,,,,,,,,,,,,,,,,,,,,,,,,,,,,,94469.0,40787.0,39815.0,13867.0,449.0,354.0,280.4,121.06,118.18,41.16,10507.0,30.0,0.089,,33691.0,3457.1,,,,,,,,,,,,79.93,,,,,
GRC,Europe,Greece,2021-11-16,847188.0,8364.0,6568.571,16923.0,85.0,72.714,81690.162,806.499,633.375,1631.801,8.196,7.011,1.3,,,,,217.699,20.992,2437.258,235.013,344468.0,30508702.0,2941.804,33.215,373291.0,35.995,0.018,56.1,samples tested,13341623.0,6832843.0,6481011.0,711013.0,74967.0,50341.0,128.65,65.89,62.49,6.86,4854.0,13261.0,0.128,80.09,10370747.0,83.479,45.3,20.396,14.524,24574.382,1.5,175.695,4.55,35.3,52.0,,4.21,82.24,0.888,,,,
GRL,North America,Greenland,2021-11-04,,,,,,,,,,,,,,,,,,,,,,,,,,,,,,,77383.0,40125.0,37258.0,,,35.0,136.07,70.56,65.52,,615.0,1.0,0.002,29.63,56868.0,0.137,,,,,,199.941,2.16,,,,,71.7,,,,,
GRD,North America,Grenada,2021-11-16,5865.0,0.0,0.286,200.0,0.0,0.0,51895.766,0.0,2.528,1769.677,0.0,0.0,0.29,,,,,,,,,,,,,,,,,,72282.0,39254.0,33028.0,,,203.0,63.96,34.73,29.22,,1796.0,79.0,0.07,,113015.0,317.132,29.4,7.304,5.021,13593.877,,243.964,10.71,,,,3.7,72.4,0.779,,,,
GTM,North America,Guatemala,2021-11-16,610591.0,557.0,549.714,15749.0,19.0,32.714,33457.283,30.521,30.122,862.965,1.041,1.793,0.83,,,,,,,,,9681.0,2989099.0,163.787,0.53,8271.0,0.453,0.085,11.8,people tested,9236146.0,5590955.0,3645191.0,,61839.0,50262.0,50.61,30.64,19.97,,2754.0,20046.0,0.11,46.76,18249868.0,157.834,22.9,4.694,3.016,7423.808,8.7,155.898,10.18,,,76.665,0.6,74.3,0.663,,,,
GGY,Europe,Guernsey,2021-11-15,,,,,,,,,,,,,,,,,,,,,,,,,,,,,,,104070.0,,,,,28.0,164.19,,,,442.0,,,,63385.0,,,,,,,,,,,,,,,,,,
GIN,Africa,Guinea,2021-11-16,30715.0,0.0,0.857,387.0,0.0,0.0,2275.651,0.0,0.064,28.673,0.0,0.0,0.95,,,,,,,,,,,,,,,,,,2364291.0,1588076.0,776215.0,,,12545.0,17.52,11.77,5.75,,929.0,8299.0,0.061,62.04,13497237.0,51.755,19.0,3.135,1.733,1998.926,35.3,336.717,2.42,,,17.45,0.3,61.6,0.477,,,,
GNB,Africa,Guinea-Bissau,2021-11-16,6431.0,29.0,40.143,146.0,2.0,0.429,3190.787,14.389,19.917,72.439,0.992,0.213,0.44,,,,,,,,,,,,,,,,,,330839.0,312906.0,17933.0,,,7783.0,16.41,15.53,0.89,,3862.0,7743.0,0.384,,2015490.0,66.191,19.4,3.002,1.565,1548.675,67.1,382.474,2.42,,,6.403,,58.32,0.48,,,,
GUY,South America,Guyana,2021-11-16,36916.0,44.0,94.143,961.0,2.0,2.286,46709.661,55.673,119.119,1215.949,2.531,2.892,0.98,,,,,,,,,,,,,,,,,,655967.0,392512.0,263455.0,,2635.0,2075.0,83.0,49.66,33.33,,2625.0,715.0,0.09,,790329.0,3.952,26.3,5.305,2.837,7435.047,,373.159,11.62,,,77.159,1.6,69.91,0.682,,,,
HTI,North America,Haiti,2021-11-16,24710.0,75.0,68.143,711.0,3.0,1.286,2140.936,6.498,5.904,61.603,0.26,0.111,1.03,,,,,,,,,,,,,,,,,,153182.0,104920.0,48603.0,,14852.0,2491.0,1.33,0.91,0.42,,216.0,1219.0,0.011,,11541683.0,398.448,24.3,4.8,2.954,1653.173,23.5,430.548,6.65,2.9,23.1,22.863,0.7,64.0,0.51,,,,
OWID_HIC,,High income,2021-11-16,109088443.0,352400.0,317400.571,1792533.0,3197.0,2490.286,89789.883,290.058,261.25,1475.421,2.631,2.05,,,,,,,,,,,,,,,,,,,1749728534.0,885663504.0,808892944.0,84184248.0,2094539.0,3438481.0,144.02,72.9,66.58,6.93,2830.0,761918.0,0.063,,1214930230.0,,,,,,,,,,,,,,,,,,
HND,North America,Honduras,2021-11-16,377102.0,0.0,60.857,10361.0,0.0,3.714,37474.135,0.0,6.048,1029.614,0.0,0.369,0.85,,,,,,,,,,,,,,,,,,7584433.0,3957957.0,3622891.0,3960.0,,40615.0,75.37,39.33,36.0,0.04,4036.0,15810.0,0.157,63.89,10062994.0,82.805,24.9,4.652,2.883,4541.795,16.0,240.208,7.21,2.0,,84.169,0.7,75.27,0.634,,,,
HKG,Asia,Hong Kong,2021-11-16,12388.0,1.0,2.714,213.0,0.0,0.0,1640.186,0.132,0.359,28.201,0.0,0.0,,,,,,,,,,,,,,,,,,,9220609.0,4681865.0,4482598.0,,13832.0,15389.0,122.08,61.99,59.35,,2038.0,4061.0,0.054,52.78,7552800.0,7039.714,44.8,16.303,10.158,56054.92,,,8.33,,,,,84.86,0.949,,,,
HUN,Europe,Hungary,2021-11-16,966167.0,5323.0,7368.714,32336.0,165.0,116.429,100285.526,552.513,764.853,3356.389,17.127,12.085,1.86,,,3629.0,376.68,,,,,102447.0,7404130.0,768.529,10.634,32420.0,3.365,0.224,4.5,tests performed,13230807.0,6008226.0,5780925.0,1668000.0,,38851.0,137.33,62.36,60.0,17.31,4033.0,3759.0,0.039,,9634162.0,108.043,43.4,18.577,11.976,26777.561,0.5,278.296,7.55,26.8,34.8,,7.02,76.88,0.854,,,,
ISL,Europe,Iceland,2021-11-16,15968.0,227.0,173.0,34.0,0.0,0.0,46505.126,661.114,503.844,99.021,0.0,0.0,1.47,,,18.0,52.423,3.772,10.985,14.144,41.194,3182.0,720686.0,2098.922,9.267,2789.0,8.123,,,tests performed,589756.0,284147.0,279780.0,80470.0,,1427.0,171.76,82.75,81.48,23.44,4156.0,83.0,0.024,33.33,343360.0,3.404,37.3,14.431,9.207,46482.958,0.2,117.992,5.31,14.3,15.2,,2.91,82.99,0.949,,,,
IND,Asia,India,2021-11-16,34466598.0,10197.0,11145.571,464153.0,301.0,329.143,24735.449,7.318,7.999,333.106,0.216,0.236,0.9,,,,,,,,,1107617.0,625774159.0,449.096,0.795,1221461.0,0.877,0.009,108.4,samples tested,1133688213.0,756052687.0,377635526.0,,6706723.0,5934296.0,81.36,54.26,27.1,,4259.0,1724044.0,0.124,39.35,1393409033.0,450.419,28.2,5.989,3.414,6426.674,21.2,282.28,10.39,1.9,20.6,59.55,0.53,69.66,0.645,,,,
IDN,Asia,Indonesia,2021-11-16,4251423.0,347.0,368.571,143685.0,15.0,15.286,15383.541,1.256,1.334,519.916,0.054,0.055,0.74,,,,,,,,,,,,,,,,,,216663555.0,131292871.0,85370684.0,,1494595.0,1447678.0,78.4,47.51,30.89,,5238.0,690512.0,0.25,57.87,276361788.0,145.725,29.3,5.319,3.053,11188.744,5.7,342.864,6.32,2.8,76.1,64.204,1.04,71.72,0.718,,,,
OWID_INT,,International,2021-11-16,721.0,0.0,0.0,15.0,0.0,0.0,,,,,,,,,,,,,,,,,,,,,,,,,,,,,,,,,,,,,,,,,,,,,,,,,,,,,,,,,
IRN,Asia,Iran,2021-11-16,6051642.0,6430.0,6740.286,128406.0,134.0,122.143,71171.707,75.621,79.271,1510.148,1.576,1.436,0.84,,,,,,,,,108341.0,37254424.0,438.139,1.274,107478.0,1.264,0.065,15.4,tests performed,98181400.0,55576533.0,42183468.0,421399.0,,672336.0,115.47,65.36,49.61,0.5,7907.0,93170.0,0.11,72.69,85028760.0,49.831,32.4,5.44,3.182,19082.62,0.2,270.308,9.59,0.8,21.1,,1.5,76.68,0.783,252925.6,35.22,33.6,2974.589
IRQ,Asia,Iraq,2021-11-16,2070883.0,807.0,822.286,23562.0,26.0,23.286,50289.355,19.597,19.968,572.18,0.631,0.565,0.85,,,,,,,,,14253.0,16060644.0,390.017,0.346,17522.0,0.426,0.052,19.2,samples tested,10682558.0,6660614.0,4021944.0,,,87477.0,25.94,16.17,9.77,,2124.0,49836.0,0.121,75.93,41179351.0,88.125,20.0,3.186,1.957,15663.986,2.5,218.612,8.83,,,94.576,1.4,70.6,0.674,,,,
IRL,Europe,Ireland,2021-11-16,507413.0,8965.0,4219.286,5566.0,0.0,10.571,101830.78,1799.152,846.752,1117.019,0.0,2.122,1.26,75.0,15.051,478.0,95.928,34.126,6.849,373.384,74.933,25738.0,8549831.0,1715.833,5.165,28036.0,5.626,0.132,7.6,tests performed,7368836.0,3836841.0,3768283.0,,1627.0,2450.0,147.88,77.0,75.62,,492.0,1357.0,0.027,48.15,4982904.0,69.874,38.7,13.928,8.678,67335.293,0.2,126.459,3.28,23.0,25.7,,2.96,82.3,0.955,,,,
IMN,Europe,Isle of Man,2021-11-16,,,,,,,,,,,,,,,,,,,,,,,,,,,,,,,132864.0,68142.0,64722.0,,1.0,1.0,155.56,79.78,75.78,,12.0,0.0,0.0,,85410.0,147.872,,,,,,,,,,,,81.4,,,,,
ISR,Asia,Israel,2021-11-16,1338233.0,452.0,435.571,8148.0,5.0,2.571,144035.411,48.649,46.881,876.978,0.538,0.277,0.68,99.0,11.263,191.0,21.73,47.0,5.347,96.0,10.922,91656.0,31219368.0,3360.173,9.865,74914.0,8.063,0.006,173.9,tests performed,16048102.0,6260513.0,5757789.0,4029800.0,6769.0,6147.0,172.73,67.38,61.97,43.37,662.0,1127.0,0.012,53.7,9291000.0,402.606,30.6,11.733,7.359,33132.32,0.5,93.32,6.74,15.4,35.4,,2.99,82.97,0.919,,,,
ITA,Europe,Italy,2021-11-16,4873075.0,7815.0,7767.143,132893.0,74.0,57.429,80723.524,129.457,128.664,2201.401,1.226,0.951,1.35,398.0,6.593,3613.0,59.85,222.678,3.689,1265.216,20.959,684710.0,111735792.0,1850.927,11.342,500266.0,8.287,0.015,65.8,tests performed,92550532.0,46894047.0,43880404.0,3269468.0,201132.0,179740.0,153.31,77.68,72.69,5.42,2977.0,17859.0,0.03,71.3,60367471.0,205.859,47.9,23.021,16.24,35220.084,2.0,113.151,4.78,19.8,27.8,,3.18,83.51,0.892,,,,
JAM,North America,Jamaica,2021-11-16,90341.0,30.0,79.0,2331.0,2.0,5.429,30382.43,10.089,26.568,783.935,0.673,1.826,0.77,,,,,,,,,645.0,658384.0,221.42,0.217,1037.0,0.349,0.078,12.8,samples tested,1053739.0,633340.0,481365.0,,3025.0,6180.0,35.44,21.3,16.19,,2078.0,3083.0,0.104,74.07,2973462.0,266.879,31.4,9.684,6.39,8193.571,,206.537,11.28,5.3,28.6,66.425,1.7,74.47,0.734,,,,
JPN,Asia,Japan,2021-11-16,1725111.0,144.0,162.143,18328.0,4.0,2.286,13685.84,1.142,1.286,145.402,0.032,0.018,0.74,,,,,,,,,48931.0,26009123.0,206.338,0.388,48552.0,0.385,0.003,286.8,people tested,195111912.0,99355843.0,95756069.0,,282915.0,288092.0,154.79,78.82,75.97,,2286.0,56404.0,0.045,47.22,126050796.0,347.778,48.2,27.049,18.493,39002.223,,79.37,5.72,11.2,33.7,,13.05,84.63,0.919,,,,
JEY,Europe,Jersey,2021-11-10,,,,,,,,,,,,,,,,,,,,,,,,,,,,,,,177513.0,79166.0,74817.0,,,482.0,175.63,78.33,74.02,,4769.0,27.0,0.027,,101073.0,,,,,,,,,,,,,,,,,,
JOR,Asia,Jordan,2021-11-16,895564.0,0.0,2088.714,11255.0,0.0,14.143,87210.252,0.0,203.4,1096.015,0.0,1.377,1.18,,,,,,,,,35769.0,11467991.0,1116.756,3.483,38341.0,3.734,0.052,19.4,tests performed,7696996.0,4057634.0,3639362.0,,15613.0,13545.0,74.95,39.51,35.44,,1319.0,5632.0,0.055,17.59,10269022.0,109.285,23.2,3.81,2.361,8337.49,0.1,208.257,11.75,,,,1.4,74.53,0.729,,,,
KAZ,Asia,Kazakhstan,2021-11-16,1040924.0,1253.0,1240.0,17549.0,18.0,26.429,54800.016,65.965,65.28,923.877,0.948,1.391,0.89,,,,,,,,,,,,,,,,,,16397514.0,8556638.0,7840876.0,,40350.0,37481.0,86.33,45.05,41.28,,1973.0,17747.0,0.093,71.3,18994958.0,6.681,30.6,6.991,4.625,24055.588,0.1,466.792,7.11,7.0,43.1,98.999,6.7,73.6,0.825,,,,
KEN,Africa,Kenya,2021-11-16,254384.0,75.0,72.143,5322.0,3.0,1.143,4626.366,1.364,1.312,96.789,0.055,0.021,0.98,,,,,,,,,,,,,,,,,,6083449.0,3905215.0,2178234.0,,85633.0,56057.0,11.06,7.1,3.96,,1019.0,13833.0,0.025,,54985702.0,87.324,20.0,2.686,1.528,2993.028,36.8,218.637,2.92,1.2,20.4,24.651,1.4,66.7,0.601,,,,
KIR,Oceania,Kiribati,2021-11-16,2.0,0.0,0.0,,,0.0,16.476,0.0,0.0,,,0.0,,,,,,,,,,,,,,,,,,,72912.0,57722.0,15190.0,,,363.0,60.07,47.55,12.51,,2990.0,176.0,0.145,22.22,121388.0,143.701,23.2,3.895,2.21,1981.132,,434.657,22.66,35.9,58.9,,1.9,68.37,0.63,,,,
OWID_KOS,Europe,Kosovo,2021-11-16,160957.0,5.0,9.429,2980.0,0.0,0.286,90317.965,2.806,5.291,1672.17,0.0,0.16,0.8,,,,,,,,,1823.0,1293990.0,726.098,1.023,1543.0,0.866,0.007,133.4,tests performed,1597345.0,846214.0,751131.0,,2563.0,1757.0,89.63,47.48,42.15,,986.0,571.0,0.032,42.59,1782115.0,168.155,,,,9795.834,0.6,,,,,,,,,,,,
KWT,Asia,Kuwait,2021-11-16,413050.0,16.0,22.429,2462.0,0.0,0.0,95424.499,3.696,5.182,568.781,0.0,0.0,1.0,,,,,,,,,20215.0,5062011.0,1169.446,4.67,16786.0,3.878,0.001,716.5,tests performed,,,,,,,,,,,,,,51.85,4328553.0,232.128,33.7,2.345,1.114,65530.537,,132.235,15.84,2.7,37.0,,2.0,75.49,0.806,,,,
KGZ,Asia,Kyrgyzstan,2021-11-16,182528.0,103.0,84.571,2710.0,3.0,2.714,27537.484,15.539,12.759,408.85,0.453,0.409,0.89,,,,,,,,,,,,,,,,,,1888577.0,1053547.0,830996.0,,12599.0,10616.0,28.49,15.89,12.54,,1602.0,4885.0,0.074,49.07,6628347.0,32.333,26.3,4.489,2.882,3393.474,1.4,436.362,7.11,3.6,50.5,89.22,4.5,71.45,0.697,,,,
LAO,Asia,Laos,2021-11-16,56324.0,1306.0,1061.714,110.0,6.0,3.0,7632.642,176.98,143.876,14.906,0.813,0.407,1.2,,,,,,,,,,766320.0,103.846,,2867.0,0.389,0.358,2.8,people tested,,,,,,,,,,,,,,,7379358.0,29.715,24.4,4.029,2.322,6397.36,22.7,368.111,4.0,7.3,51.2,49.839,1.5,67.92,0.613,,,,
LVA,Europe,Latvia,2021-11-16,241839.0,1077.0,1163.0,3796.0,31.0,33.571,129538.055,576.882,622.946,2033.28,16.605,17.982,0.88,,,1452.0,777.746,412.988,221.212,1142.077,611.739,14409.0,5159133.0,2763.425,7.718,13159.0,7.048,0.09,11.1,tests performed,2110876.0,1241728.0,1124421.0,,6806.0,8686.0,113.07,66.51,60.23,,4653.0,4085.0,0.219,70.37,1866934.0,31.212,43.9,19.754,14.136,25063.846,0.7,350.06,4.91,25.6,51.0,,5.57,75.29,0.866,,,,
LBN,Asia,Lebanon,2021-11-16,654068.0,1102.0,898.571,8596.0,8.0,5.714,96624.82,162.797,132.745,1269.879,1.182,0.844,1.13,,,,,,,,,,,,,,,,,,3467987.0,1848928.0,1619059.0,,11982.0,9616.0,51.23,27.31,23.92,,1421.0,4506.0,0.067,40.74,6769151.0,594.561,31.1,8.514,5.43,13367.565,,266.591,12.71,26.9,40.7,,2.9,78.93,0.744,,,,
LSO,Africa,Lesotho,2021-11-16,21697.0,6.0,1.714,661.0,0.0,0.286,10049.248,2.779,0.794,306.151,0.0,0.132,0.28,,,,,,,,,,,,,,,,,,,,,,,,,,,,,,,43.52,2159067.0,73.562,22.2,4.506,2.647,2851.153,59.6,405.126,3.94,0.4,53.9,2.117,,54.33,0.527,,,,
LBR,Africa,Liberia,2021-11-16,5818.0,0.0,0.143,287.0,0.0,0.0,1123.121,0.0,0.028,55.403,0.0,0.0,0.33,,,,,,,,,,,,,,,,,,,,,,,,,,,,,,,44.44,5180208.0,49.127,19.2,3.057,1.756,752.788,38.6,272.509,2.42,1.5,18.1,1.188,0.8,64.1,0.48,,,,
LBY,Africa,Libya,2021-11-16,365830.0,593.0,501.714,5319.0,12.0,13.286,52572.825,85.219,72.101,764.385,1.725,1.909,1.05,,,,,,,,,4139.0,,,0.595,,,,,samples tested,2149880.0,1605435.0,544445.0,,,10398.0,30.9,23.07,7.82,,1494.0,3239.0,0.047,44.44,6958538.0,3.623,29.0,4.424,2.816,17881.509,,341.862,10.43,,,,3.7,72.91,0.724,,,,
LIE,Europe,Liechtenstein,2021-11-16,3945.0,68.0,23.429,61.0,0.0,0.0,103126.47,1777.592,612.448,1594.604,0.0,0.0,1.91,,,,,,,,,153.0,75155.0,1964.631,4.0,162.0,4.235,0.154,6.5,tests performed,49487.0,25524.0,24789.0,,21.0,37.0,129.36,66.72,64.8,,967.0,24.0,0.063,28.7,38254.0,237.012,,,,,,,7.77,,,,2.397,82.49,0.919,,,,
LTU,Europe,Lithuania,2021-11-16,446120.0,1939.0,2180.714,6375.0,31.0,28.571,165852.375,720.855,810.716,2370.01,11.525,10.622,1.01,,,,,,,,,24041.0,6071415.0,2257.147,8.938,19324.0,7.184,0.146,6.8,tests performed,3518273.0,1843263.0,1754381.0,160459.0,10902.0,9027.0,130.8,68.53,65.22,5.97,3356.0,2003.0,0.074,46.3,2689862.0,45.135,43.5,19.002,13.778,29524.265,0.7,342.989,3.67,21.3,38.0,,6.56,75.93,0.882,,,,
OWID_LIC,,Low income,2021-11-16,1369677.0,873.0,825.0,36941.0,54.0,34.143,2059.203,1.312,1.24,55.538,0.081,0.051,,,,,,,,,,,,,,,,,,,43685518.0,31261670.0,17291803.0,,18436.0,817837.0,6.57,4.7,2.6,,1230.0,797604.0,0.12,,665149040.0,,,,,,,,,,,,,,,,,,
OWID_LMC,,Lower middle income,2021-11-16,63019983.0,54541.0,58584.857,1132495.0,1716.0,1623.143,18921.212,16.375,17.59,340.022,0.515,0.487,,,,,,,,,,,,,,,,,,,2170151323.0,1367115259.0,805173348.0,3703110.0,10446823.0,12614231.0,65.16,41.05,24.17,0.11,3787.0,4571875.0,0.137,,3330652550.0,,,,,,,,,,,,,,,,,,
LUX,Europe,Luxembourg,2021-11-16,84866.0,128.0,198.143,859.0,0.0,1.0,133686.403,201.634,312.127,1353.152,0.0,1.575,1.34,12.0,18.903,40.0,63.011,,,26.362,41.526,2535.0,3636674.0,5728.724,3.993,2686.0,4.231,0.077,13.0,tests performed,859517.0,441243.0,418437.0,37109.0,5.0,1805.0,135.4,69.51,65.91,5.85,2843.0,449.0,0.071,46.3,634814.0,231.447,39.7,14.312,9.842,94277.965,0.2,128.275,4.42,20.9,26.0,,4.51,82.25,0.916,,,,
MAC,Asia,Macao,2021-11-04,,,,,,,,,,,,,,,,,,,,,,,,,,,,,,,821561.0,464836.0,361897.0,,,3139.0,124.78,70.6,54.97,,4768.0,1383.0,0.21,37.96,658391.0,20546.766,39.2,9.798,4.991,104861.851,,,,,,,,84.24,,,,,
MDG,Africa,Madagascar,2021-11-16,43672.0,0.0,5.714,964.0,0.0,0.0,1536.268,0.0,0.201,33.911,0.0,0.0,0.12,,,,,,,,,,,,,,,,,,,,,,,,,,,,,,,26.85,28427333.0,43.951,19.6,2.929,1.686,1416.44,77.6,405.994,3.94,,,50.54,0.2,67.04,0.528,,,,
MWI,Africa,Malawi,2021-11-16,61846.0,1.0,3.571,2302.0,0.0,0.0,3147.751,0.051,0.182,117.164,0.0,0.0,1.02,,,,,,,,,,,,,,,,,,1321490.0,1051491.0,581126.0,,17380.0,7533.0,6.73,5.35,2.96,,383.0,6612.0,0.034,,19647681.0,197.519,18.1,2.979,1.783,1095.042,71.4,227.349,3.94,4.4,24.7,8.704,1.3,64.26,0.483,,,,
MYS,Asia,Malaysia,2021-11-16,2556865.0,5413.0,5670.286,29769.0,40.0,48.857,78009.818,165.15,173.0,908.251,1.22,1.491,0.94,545.0,16.628,4703.0,143.488,,,,,100418.0,36123077.0,1102.113,3.064,136432.0,4.163,0.042,23.9,people tested,51235546.0,25591574.0,24862174.0,967371.0,119489.0,101415.0,156.32,78.08,75.85,2.95,3094.0,6395.0,0.02,,32776195.0,96.254,29.9,6.293,3.407,26808.164,0.1,260.942,16.74,1.0,42.4,,1.9,76.16,0.81,,,,
MDV,Asia,Maldives,2021-11-16,90117.0,118.0,141.571,247.0,0.0,0.143,165772.047,217.063,260.424,454.362,0.0,0.263,1.08,,,,,,,,,4183.0,1685364.0,3100.261,7.695,3683.0,6.775,0.04,25.2,samples tested,756322.0,395125.0,361197.0,,277.0,242.0,139.13,72.68,66.44,,445.0,36.0,0.007,,543620.0,1454.433,30.6,4.12,2.875,15183.616,,164.905,9.19,2.1,55.0,95.803,,78.92,0.74,,,,
MLI,Africa,Mali,2021-11-16,16716.0,37.0,35.429,589.0,1.0,1.429,801.507,1.774,1.699,28.242,0.048,0.068,1.22,,,,,,,,,,,,,,,,,,,,,,,,,,,,,,,44.44,20855724.0,15.196,16.4,2.519,1.486,2014.306,,268.024,2.42,1.6,23.0,52.232,0.1,59.31,0.434,,,,
MLT,Europe,Malta,2021-11-16,38319.0,64.0,50.429,462.0,0.0,0.0,74247.239,124.007,97.711,895.175,0.0,0.0,1.32,3.0,5.813,11.0,21.314,,,3.009,5.83,2144.0,1372664.0,2659.686,4.154,1952.0,3.782,0.024,41.4,tests performed,911620.0,433527.0,430830.0,79203.0,2933.0,2768.0,176.64,84.0,83.48,15.35,5363.0,186.0,0.036,43.52,516100.0,1454.037,42.4,19.426,11.324,36513.323,0.2,168.711,8.83,20.9,30.2,,4.485,82.53,0.895,,,,
MHL,Oceania,Marshall Islands,2021-11-16,4.0,0.0,0.0,,,0.0,67.094,0.0,0.0,,,0.0,,,,,,,,,,,,,,,,,,,,,,,,,,,,,,,,,59618.0,295.15,,,,3819.202,,557.793,30.53,,,82.502,2.7,73.7,0.704,,,,
MRT,Africa,Mauritania,2021-11-16,38278.0,90.0,74.714,808.0,1.0,0.857,8016.15,18.848,15.647,169.211,0.209,0.18,1.18,,,,,,,,,,,,,,,,,,1705013.0,1030659.0,663351.0,,10385.0,3581.0,35.71,21.58,13.89,,750.0,1468.0,0.031,52.78,4775110.0,4.289,20.3,3.138,1.792,3597.633,6.0,232.347,2.42,,,15.95,,64.92,0.546,,,,
MUS,Africa,Mauritius,2021-11-16,18979.0,0.0,0.0,240.0,0.0,0.0,14903.866,0.0,0.0,188.468,0.0,0.0,1.29,,,,,,,,,,,,,,,,,,1764345.0,906214.0,858131.0,,,817.0,138.55,71.16,67.39,,642.0,239.0,0.019,28.7,1273428.0,622.962,37.4,10.945,5.884,20292.745,0.5,224.644,22.02,3.2,40.7,,3.4,74.99,0.804,,,,
MEX,North America,Mexico,2021-11-16,3846508.0,775.0,2178.429,291204.0,57.0,156.286,29528.961,5.95,16.723,2235.522,0.438,1.2,0.86,,,,,,,,,9045.0,10996576.0,84.419,0.069,12977.0,0.1,0.157,6.4,people tested,129874396.0,75459027.0,63407243.0,,14938.0,175156.0,99.7,57.93,48.68,,1345.0,56707.0,0.044,35.19,130262220.0,66.444,29.3,6.857,4.321,17336.469,2.5,152.783,13.06,6.9,21.4,87.847,1.38,75.05,0.779,,,,
FSM,Oceania,Micronesia (country),2021-11-16,1.0,0.0,0.0,,,0.0,8.602,0.0,0.0,,,0.0,,,,,,,,,,,,,,,,,,,,,,,,,,,,,,,,,116255.0,150.777,23.0,4.81,2.392,3299.464,16.0,454.343,12.02,,,,,67.88,0.62,,,,
MDA,Europe,Moldova,2021-11-16,354755.0,977.0,881.0,8602.0,53.0,58.429,88159.244,242.792,218.935,2137.661,13.171,14.52,0.86,,,,,,,,,6130.0,2101912.0,522.341,1.523,7367.0,1.831,0.143,7.0,tests performed,1575729.0,,906967.0,,4147.0,3256.0,39.16,,22.54,,809.0,,,29.63,4024025.0,123.655,37.6,10.864,6.955,5189.972,0.2,408.502,5.72,5.9,44.6,86.979,5.8,71.9,0.75,,,,
MCO,Europe,Monaco,2021-11-16,3498.0,12.0,6.714,36.0,0.0,0.0,88512.146,303.644,169.896,910.931,0.0,0.0,1.16,,,,,,,,,,,,,,,,,,,,,,,,,,,,,,,35.19,39520.0,19347.5,,,,,,,5.46,,,,13.8,86.75,,,,,
MNG,Asia,Mongolia,2021-11-16,374970.0,1626.0,945.286,1909.0,21.0,11.429,112627.888,488.394,283.931,573.397,6.308,3.433,0.81,,,,,,,,,6762.0,4343998.0,1304.785,2.031,6377.0,1.915,0.138,7.3,samples tested,4403763.0,2258055.0,2145708.0,,780.0,668.0,132.27,67.82,64.45,,201.0,218.0,0.007,37.04,3329282.0,1.98,28.6,4.031,2.421,11840.846,0.5,460.043,4.82,5.5,46.5,71.18,7.0,69.87,0.737,,,,
MNE,Europe,Montenegro,2021-11-16,152931.0,520.0,457.429,2217.0,1.0,6.857,243500.926,827.958,728.33,3529.968,1.592,10.918,1.09,,,,,,,,,,,,,,,,,,516295.0,266635.0,249660.0,,1340.0,1118.0,82.21,42.45,39.75,,1780.0,719.0,0.114,,628051.0,46.28,39.1,14.762,9.395,16409.288,1.0,387.305,10.08,44.0,47.9,,3.861,76.88,0.829,,,,
MSR,North America,Montserrat,2021-11-12,,,,,,,,,,,,,,,,,,,,,,,,,,,,,,,2949.0,1531.0,1417.0,,,1.0,59.2,30.74,28.45,,201.0,1.0,0.02,,4981.0,,,,,,,,,,,,,74.16,,,,,
MAR,Africa,Morocco,2021-11-16,948391.0,120.0,111.571,14747.0,1.0,3.0,25395.539,3.213,2.988,394.888,0.027,0.08,0.65,,,,,,,,,9701.0,9313954.0,249.404,0.26,11154.0,0.299,0.011,94.1,people tested,48422828.0,24458506.0,22490963.0,,,42363.0,129.66,65.49,60.23,,1134.0,18368.0,0.049,30.56,37344787.0,80.08,29.6,6.769,4.209,7485.013,1.0,419.146,7.14,0.8,47.1,,1.1,76.68,0.686,,,,
MOZ,Africa,Mozambique,2021-11-16,151457.0,25.0,10.714,1936.0,0.0,0.286,4709.038,0.777,0.333,60.193,0.0,0.009,0.76,,,,,,,,,1399.0,949806.0,29.531,0.043,1194.0,0.037,0.012,86.2,units unclear,7459438.0,4858830.0,2600608.0,,,150337.0,23.19,15.11,8.09,,4674.0,117490.0,0.365,48.15,32163045.0,37.728,17.7,3.158,1.87,1136.103,62.9,329.942,3.3,5.1,29.1,12.227,0.7,60.85,0.456,,,,
MMR,Asia,Myanmar,2021-11-16,514716.0,754.0,875.0,18963.0,17.0,15.429,9391.597,13.758,15.965,346.002,0.31,0.282,0.98,,,,,,,,,,,,,,,,,,22152983.0,13905795.0,8247188.0,,,304316.0,40.42,25.37,15.05,,5553.0,109711.0,0.2,85.19,54806014.0,81.721,29.1,5.732,3.12,5591.597,6.4,202.104,4.61,6.3,35.2,79.287,0.9,67.13,0.583,,,,
NAM,Africa,Namibia,2021-11-16,129067.0,7.0,6.286,3565.0,1.0,0.143,49883.974,2.705,2.429,1377.861,0.386,0.055,0.47,,,,,,,,,1679.0,765406.0,295.827,0.649,1200.0,0.464,0.007,140.0,samples tested,614161.0,339695.0,274466.0,,,2523.0,23.74,13.13,10.61,,975.0,1140.0,0.044,21.3,2587344.0,3.078,22.0,3.552,2.085,9541.808,13.4,243.811,3.94,9.7,34.2,44.6,,63.71,0.646,,,,
NPL,Asia,Nepal,2021-11-16,817672.0,339.0,328.571,11482.0,4.0,4.0,27554.312,11.424,11.072,386.926,0.135,0.135,0.83,,,,,,,,,7554.0,4514075.0,152.118,0.255,8551.0,0.288,0.04,24.9,tests performed,16173246.0,8736532.0,7436714.0,,,49643.0,54.5,29.44,25.06,,1673.0,10492.0,0.035,57.87,29674920.0,204.43,25.0,5.809,3.212,2442.804,15.0,260.797,7.26,9.5,37.8,47.782,0.3,70.78,0.602,,,,
NLD,Europe,Netherlands,2021-11-16,2375012.0,20210.0,15814.857,19228.0,35.0,24.857,138298.434,1176.841,920.909,1119.658,2.038,1.447,1.33,305.0,17.76,1185.0,69.003,201.252,11.719,1121.684,65.316,,14621757.0,851.434,,43159.0,2.513,0.147,6.8,people tested,24350365.0,13104286.0,12571545.0,,,17555.0,141.79,76.31,73.2,,1022.0,10123.0,0.059,41.67,17173094.0,508.544,43.2,18.779,11.881,48472.545,,109.361,5.29,24.4,27.3,,3.32,82.28,0.944,21845.7,7.61,21.67,1272.089
NCL,Oceania,New Caledonia,2021-11-15,,,,,,,,,,,,,,,,,,,,,,,,,,,,,,,342806.0,178199.0,164607.0,,,401.0,118.94,61.83,57.11,,1391.0,107.0,0.037,,288217.0,15.342,33.4,9.954,6.489,,,,23.36,,,,,77.55,,,,,
NZL,Oceania,New Zealand,2021-11-16,9286.0,197.0,194.714,35.0,0.0,0.429,1812.751,38.457,38.011,6.832,0.0,0.084,1.25,,,,,,,,,21674.0,4505129.0,879.461,4.231,27072.0,5.285,0.007,141.1,tests performed,7255235.0,3812895.0,3442340.0,,21031.0,21844.0,141.63,74.43,67.2,,4264.0,6489.0,0.127,81.02,5122600.0,18.206,37.9,15.322,9.72,36085.843,,128.797,8.08,14.8,17.2,,2.61,82.29,0.931,,,,
NIC,North America,Nicaragua,2021-11-16,17023.0,146.0,46.286,210.0,0.0,0.143,2539.844,21.783,6.906,31.332,0.0,0.021,0.91,,,,,,,,,,,,,,,,,,1674896.0,1249238.0,563164.0,,,26300.0,24.99,18.64,8.4,,3924.0,21769.0,0.325,8.33,6702379.0,51.667,27.3,5.445,3.519,5321.444,3.2,137.016,11.47,,,,0.9,74.48,0.66,,,,
NER,Africa,Niger,2021-11-16,6726.0,23.0,22.429,235.0,3.0,1.143,267.64,0.915,0.892,9.351,0.119,0.045,1.34,,,,,,,,,,,,,,,,,,963041.0,506083.0,456958.0,,,3719.0,3.83,2.01,1.82,,148.0,399.0,0.002,16.67,25130810.0,16.955,15.1,2.553,1.378,926.0,44.5,238.339,2.42,0.1,15.4,8.978,0.3,62.42,0.394,,,,
NGA,Africa,Nigeria,2021-11-16,213177.0,0.0,49.714,2968.0,0.0,7.714,1008.403,0.0,0.235,14.04,0.0,0.036,0.71,,,,,,,,,,3440172.0,16.273,,5964.0,0.028,0.01,101.3,samples tested,9017951.0,5823013.0,3194938.0,,88624.0,22244.0,4.27,2.75,1.51,,105.0,11678.0,0.006,38.89,211400704.0,209.588,18.1,2.751,1.447,5338.454,,181.013,2.42,0.6,10.8,41.949,,54.69,0.539,,,,
OWID_NAM,,North America,2021-11-16,56727072.0,93704.0,93173.0,1150619.0,1602.0,1436.143,95086.912,157.068,156.178,1928.688,2.685,2.407,,,,,,,,,,,,,,,,,,,718518924.0,374711089.0,319738493.0,33552453.0,145231.0,1365925.0,120.44,62.81,53.6,5.62,2290.0,427519.0,0.072,,596581283.0,,,,,,,,,,,,,,,,,,
MKD,Europe,North Macedonia,2021-11-16,209971.0,522.0,437.286,7354.0,17.0,14.143,100818.616,250.641,209.965,3531.06,8.163,6.791,1.17,,,,,,,,,,1428329.0,685.819,,,,,,tests performed,1657833.0,871917.0,785916.0,56349.0,3869.0,2968.0,79.6,41.87,37.74,2.71,1425.0,2313.0,0.111,,2082661.0,82.6,39.1,13.26,8.16,13111.214,5.0,322.688,10.08,,,,4.28,75.8,0.774,,,,
OWID_CYN,Asia,Northern Cyprus,2021-11-12,,,,,,,,,,,,,,,,,,,,,,,,,,,,,,,563953.0,277641.0,265245.0,56061.0,,1011.0,147.54,72.64,69.39,14.67,2645.0,165.0,0.043,,,,,,,,,,,,,,,,,,,,
NOR,Europe,Norway,2021-11-16,232839.0,3530.0,1760.857,952.0,1.0,4.0,42600.586,645.854,322.169,174.179,0.183,0.732,1.3,,,173.0,31.652,28.511,5.217,137.466,25.151,6446.0,8261569.0,1511.55,1.179,13097.0,2.396,0.119,8.4,people tested,7998314.0,4221419.0,3776895.0,,2946.0,3430.0,146.34,77.24,69.1,,628.0,1043.0,0.019,20.37,5465629.0,14.462,39.7,16.821,10.813,64800.057,0.2,114.316,5.31,19.6,20.7,,3.6,82.4,0.957,,,,
OWID_OCE,,Oceania,2021-11-16,287659.0,1494.0,1632.714,3073.0,9.0,13.429,6655.699,34.567,37.777,71.101,0.208,0.311,,,,,,,,,,,,,,,,,,,48143375.0,25128008.0,22730530.0,284837.0,157397.0,158918.0,111.39,58.14,52.59,0.66,3677.0,49176.0,0.114,,43219954.0,,,,,,,,,,,,,,,,,,
OMN,Asia,Oman,2021-11-16,304441.0,4.0,7.429,4113.0,0.0,0.0,58284.336,0.766,1.422,787.422,0.0,0.0,0.96,,,,,,,,,,,,,,,,,,5822656.0,3089635.0,2733021.0,,,8392.0,111.47,59.15,52.32,,1607.0,1441.0,0.028,39.81,5223376.0,14.98,30.7,2.355,1.53,37960.709,,266.342,12.61,0.5,15.6,97.4,1.6,77.86,0.813,,,,
PAK,Asia,Pakistan,2021-11-16,1280362.0,270.0,321.143,28628.0,10.0,8.857,5685.446,1.199,1.426,127.123,0.044,0.039,0.9,,,,,,,,,33435.0,21452460.0,95.26,0.148,38152.0,0.169,0.009,109.0,tests performed,119738546.0,78534263.0,48600660.0,,301832.0,692482.0,53.17,34.87,21.58,,3075.0,342130.0,0.152,31.94,225199929.0,255.573,23.5,4.495,2.78,5034.708,4.0,423.031,8.35,2.8,36.7,59.607,0.6,67.27,0.557,,,,
PLW,Oceania,Palau,2021-11-16,8.0,0.0,0.0,,,0.0,440.189,0.0,0.0,,,0.0,,,,,,,,,,,,,,,,,,,,,,,,,,,,,,,,,18174.0,47.237,,,,13240.405,,,15.89,7.7,22.7,,4.8,73.7,0.826,,,,
PSE,Asia,Palestine,2021-11-16,457390.0,236.0,205.857,4761.0,7.0,4.286,87576.368,45.187,39.415,911.588,1.34,0.821,0.69,,,,,,,,,3280.0,,,0.628,3133.0,0.6,0.07,14.3,tests performed,2944638.0,1876152.0,1321529.0,,,10873.0,56.38,35.92,25.3,,2082.0,26879.0,0.515,25.0,5222756.0,778.202,20.4,3.043,1.726,4449.898,1.0,265.91,10.59,,,,,74.05,0.708,,,,
PAN,North America,Panama,2021-11-16,474928.0,307.0,200.857,7348.0,5.0,1.857,108391.876,70.066,45.841,1677.019,1.141,0.424,1.02,,,,,,,,,4560.0,4136932.0,944.164,1.041,5284.0,1.206,0.033,30.7,tests performed,5525475.0,2991060.0,2399887.0,134528.0,1945.0,7419.0,126.11,68.26,54.77,3.07,1693.0,1458.0,0.033,58.33,4381583.0,55.133,29.7,7.918,5.03,22267.037,2.2,128.346,8.33,2.4,9.9,,2.3,78.51,0.815,,,,
PNG,Oceania,Papua New Guinea,2021-11-16,33054.0,69.0,165.857,436.0,0.0,3.286,3624.738,7.567,18.188,47.812,0.0,0.36,1.0,,,,,,,,,,,,,,,,,,,,,,,,,,,,,,,65.74,9119005.0,18.22,22.6,3.808,2.142,3823.194,,561.494,17.65,23.5,48.8,,,64.5,0.555,,,,
PRY,South America,Paraguay,2021-11-16,462059.0,56.0,92.286,16342.0,2.0,10.857,64000.274,7.757,12.783,2263.547,0.277,1.504,0.98,,,,,,,,,1934.0,1920648.0,266.031,0.268,1881.0,0.261,0.024,42.3,tests performed,5746121.0,3180418.0,2508250.0,57453.0,,61335.0,79.59,44.05,34.74,0.8,8496.0,36154.0,0.501,35.19,7219641.0,17.144,26.5,6.378,3.833,8827.01,1.7,199.128,8.27,5.0,21.6,79.602,1.3,74.25,0.728,,,,
PER,South America,Peru,2021-11-16,2216832.0,1459.0,1277.429,200695.0,23.0,32.286,66452.964,43.736,38.293,6016.143,0.689,0.968,1.05,,,,,,,,,8180.0,5960987.0,178.69,0.245,10412.0,0.312,0.039,25.6,tests performed,37772743.0,20929917.0,16481538.0,361288.0,125781.0,184464.0,113.23,62.74,49.41,1.08,5530.0,100830.0,0.302,61.11,33359415.0,25.129,29.1,7.151,4.455,12236.706,3.5,85.755,5.95,4.8,,,1.6,76.74,0.777,205839.8,88.69,12.91,6170.366
PHL,Asia,Philippines,2021-11-16,2819341.0,830.0,1806.714,45808.0,99.0,177.286,25388.739,7.474,16.27,412.51,0.892,1.596,0.53,,,,,,,,,33271.0,22255160.0,200.412,0.3,39738.0,0.358,0.048,21.0,people tested,71680132.0,,39467788.0,,1002361.0,845108.0,64.55,,35.54,,7610.0,,,74.54,111046910.0,351.873,25.2,4.803,2.661,7599.188,,370.437,7.07,7.8,40.8,78.463,1.0,71.23,0.718,,,,
POL,Europe,Poland,2021-11-16,3230634.0,16611.0,15065.0,79161.0,282.0,168.714,85473.292,439.479,398.577,2094.373,7.461,4.464,1.52,,,9788.0,258.962,,,,,40933.0,23113362.0,611.513,1.083,127761.0,3.38,0.115,8.7,people tested,39971172.0,20488159.0,20159697.0,1608040.0,65878.0,63169.0,105.75,54.21,53.34,4.25,1671.0,16385.0,0.043,38.89,37797000.0,124.027,41.8,16.763,10.202,27216.445,,227.331,5.91,23.3,33.1,,6.62,78.73,0.88,,,,
PRT,Europe,Portugal,2021-11-16,1110155.0,1693.0,1549.714,18274.0,9.0,8.143,109182.082,166.504,152.412,1797.221,0.885,0.801,1.29,64.0,6.294,341.0,33.537,,,42.465,4.176,23381.0,20385083.0,2004.842,2.299,37489.0,3.687,0.038,26.4,tests performed,16272251.0,9037865.0,8902861.0,,,3239.0,160.04,88.89,87.56,,319.0,1357.0,0.013,40.74,10167923.0,112.371,46.2,21.502,14.924,27936.896,0.5,127.842,9.85,16.3,30.0,,3.39,82.05,0.864,,,,
QAT,Asia,Qatar,2021-11-16,241378.0,146.0,141.857,611.0,0.0,0.0,82366.84,49.82,48.407,208.495,0.0,0.0,1.2,,,,,,,,,,,,,,,,,,4889583.0,,,,5475.0,3736.0,166.85,,,,1275.0,,,51.85,2930524.0,227.322,31.9,1.307,0.617,116935.6,,176.69,16.52,0.8,26.9,,1.2,80.23,0.848,,,,
ROU,Europe,Romania,2021-11-16,1748568.0,4128.0,4263.143,53661.0,397.0,311.143,91415.142,215.812,222.877,2805.397,20.755,16.267,0.69,1868.0,97.659,,,,,,,,15434521.0,806.917,,44535.0,2.328,0.114,8.8,tests performed,13875819.0,7331734.0,6898051.0,,90780.0,83347.0,72.54,38.33,36.06,,4357.0,45199.0,0.236,,19127772.0,85.129,43.0,17.85,11.69,23313.199,5.7,370.946,9.74,22.9,37.1,,6.892,76.05,0.828,,,,
RUS,Europe,Russia,2021-11-16,8991748.0,35612.0,37704.429,253009.0,1213.0,1203.0,61624.449,244.065,258.405,1733.983,8.313,8.245,1.02,,,,,,,,,370272.0,217855359.0,1493.06,2.538,507575.0,3.479,0.072,13.8,tests performed,115373976.0,61952000.0,51719392.0,2513629.0,811400.0,765722.0,79.07,42.46,35.45,1.72,5248.0,461574.0,0.316,,145912022.0,8.823,39.6,14.178,9.393,24765.954,0.1,431.297,6.18,23.4,58.3,,8.05,72.58,0.824,,,,
RWA,Africa,Rwanda,2021-11-16,100164.0,16.0,23.429,1338.0,0.0,0.429,7544.449,1.205,1.765,100.779,0.0,0.032,0.69,,,,,,,,,8603.0,3300411.0,248.59,0.648,10102.0,0.761,0.002,410.2,samples tested,6976687.0,4774596.0,2519852.0,,211071.0,139418.0,52.55,35.96,18.98,,10501.0,119571.0,0.901,51.85,13276517.0,494.869,20.3,2.974,1.642,1854.211,56.0,191.375,4.28,4.7,21.0,4.617,,69.02,0.543,,,,
KNA,North America,Saint Kitts and Nevis,2021-11-16,2753.0,4.0,5.143,27.0,0.0,0.286,51413.738,74.702,96.046,504.239,0.0,5.336,0.69,,,,,,,,,179.0,54965.0,1026.501,3.343,164.0,3.063,0.028,35.7,people tested,50872.0,26215.0,24657.0,,,38.0,95.01,48.96,46.05,,710.0,17.0,0.032,,53546.0,212.865,,,,24654.385,,,12.84,,,,2.3,76.23,0.779,,,,
LCA,North America,Saint Lucia,2021-11-16,12844.0,7.0,13.714,270.0,0.0,0.857,69652.551,37.961,74.372,1464.2,0.0,4.648,0.88,,,,,,,,,,,,,,,,,,97176.0,52937.0,44239.0,,376.0,222.0,52.7,28.71,23.99,,1204.0,87.0,0.047,,184401.0,293.187,34.9,9.721,6.405,12951.839,,204.62,11.62,,,87.202,1.3,76.2,0.759,,,,
VCT,North America,Saint Vincent and the Grenadines,2021-11-16,5326.0,0.0,29.0,72.0,0.0,0.429,47865.982,0.0,260.63,647.08,0.0,3.852,0.84,,,,,,,,,318.0,88213.0,792.79,2.858,131.0,1.177,0.18,5.6,tests performed,49816.0,28947.0,20869.0,,23.0,411.0,44.77,26.02,18.76,,3694.0,209.0,0.188,,111269.0,281.787,31.8,7.724,4.832,10727.146,,252.675,11.62,,,,2.6,72.53,0.738,,,,
WSM,Oceania,Samoa,2021-11-16,3.0,0.0,0.0,,,0.0,14.989,0.0,0.0,,,0.0,,,,,,,,,,,,,,,,,,,223504.0,137258.0,86246.0,,,827.0,111.67,68.58,43.09,,4132.0,542.0,0.271,,200144.0,69.413,22.0,5.606,3.564,6021.557,,348.977,9.21,16.7,38.1,,,73.32,0.715,,,,
SMR,Europe,San Marino,2021-11-16,5683.0,29.0,10.429,92.0,0.0,0.0,167097.912,852.69,306.633,2705.087,0.0,0.0,0.99,,,,,,,,,,,,,,,,,,,,,,,,,,,,,,,37.96,34010.0,556.667,,,,56861.47,,,5.64,,,,3.8,84.97,,,,,
STP,Africa,Sao Tome and Principe,2021-11-16,3731.0,0.0,0.143,56.0,0.0,0.0,16703.677,0.0,0.64,250.712,0.0,0.0,0.7,,,,,,,,,,,,,,,,,,109686.0,81125.0,28561.0,,,71.0,49.11,36.32,12.79,,318.0,65.0,0.029,,223364.0,212.841,18.7,2.886,2.162,3052.714,32.3,270.113,2.42,,,41.34,2.9,70.39,0.625,,,,
SAU,Asia,Saudi Arabia,2021-11-16,549297.0,37.0,39.286,8818.0,2.0,1.714,15542.91,1.047,1.112,249.514,0.057,0.049,0.93,,,,,,,,,36678.0,30863762.0,873.321,1.038,41960.0,1.187,0.001,972.6,tests performed,46829090.0,24438282.0,22075529.0,,22944.0,48641.0,132.51,69.15,62.46,,1376.0,14395.0,0.041,,35340680.0,15.322,31.9,3.295,1.845,49045.411,,259.538,17.72,1.8,25.4,,2.7,75.13,0.854,,,,
SEN,Africa,Senegal,2021-11-16,73959.0,1.0,2.429,1883.0,2.0,0.286,4300.865,0.058,0.141,109.5,0.116,0.017,0.91,,,,,,,,,814.0,873579.0,50.8,0.047,1097.0,0.064,0.002,401.3,tests performed,,,,,,,,,,,,,,21.3,17196308.0,82.328,18.7,3.008,1.796,2470.58,38.0,241.219,2.42,0.4,16.6,20.859,,67.94,0.512,,,,
SRB,Europe,Serbia,2021-11-16,1218423.0,3773.0,3706.714,10951.0,55.0,59.571,177314.221,549.076,539.429,1593.673,8.004,8.669,0.82,267.0,38.65,6289.0,910.364,,,,,18256.0,6603023.0,960.922,2.657,15771.0,2.295,0.242,4.1,people tested,7481252.0,3212804.0,3052529.0,1215919.0,36033.0,27301.0,108.87,46.76,44.42,17.69,3973.0,4387.0,0.064,40.74,6871547.0,80.291,41.2,17.366,,14048.881,,439.415,10.08,37.7,40.2,97.719,5.609,76.0,0.806,,,,
SYC,Africa,Seychelles,2021-11-16,22722.0,0.0,37.857,122.0,0.0,0.429,229723.992,0.0,382.743,1233.445,0.0,4.333,1.11,,,,,,,,,,,,,,,,,,173635.0,81597.0,77389.0,,,444.0,175.55,82.5,78.24,,4489.0,32.0,0.032,65.74,98910.0,208.354,36.2,8.606,5.586,26382.287,1.1,242.648,10.55,7.1,35.7,,3.6,73.4,0.796,,,,
SLE,Africa,Sierra Leone,2021-11-16,6400.0,0.0,0.286,121.0,0.0,0.0,786.111,0.0,0.035,14.862,0.0,0.0,0.02,,,,,,,,,,,,,,,,,,744826.0,603654.0,302686.0,,,20002.0,9.15,7.41,3.72,,2457.0,15610.0,0.192,29.63,8141343.0,104.7,19.1,2.538,1.285,1390.3,52.2,325.721,2.42,8.8,41.3,19.275,,54.7,0.452,,,,
SGP,Asia,Singapore,2021-11-16,241341.0,2069.0,2448.714,612.0,18.0,12.714,44253.521,379.382,449.009,112.219,3.301,2.331,0.94,,,,,,,,,,21098774.0,3868.779,,16628.0,3.049,0.171,5.8,samples tested,10083329.0,5071148.0,5012181.0,,,1041.0,184.89,92.99,91.91,,191.0,31366.0,0.575,44.44,5453600.0,7915.731,42.4,12.922,7.049,85535.383,,92.243,10.99,5.2,28.3,,2.4,83.62,0.938,,,,
SXM,North America,Sint Maarten (Dutch part),2021-11-12,,,,,,,,,,,,,,,,,,,,,,,,,,,,,,,51155.0,26640.0,24515.0,,,30.0,117.81,61.35,56.46,,691.0,17.0,0.039,,43421.0,1209.088,,,,36327.232,,,,,,,,78.95,,,,,
SVK,Europe,Slovakia,2021-11-16,569866.0,6421.0,6179.714,13644.0,46.0,47.143,104357.186,1175.851,1131.665,2498.569,8.424,8.633,1.32,,,2108.0,386.029,8.004,1.466,140.073,25.651,27531.0,43797391.0,8020.434,5.042,52802.0,9.669,0.157,6.4,tests performed,4877587.0,2550248.0,2327339.0,,0.0,3827.0,89.32,46.7,42.62,,701.0,2840.0,0.052,29.17,5460726.0,113.128,41.2,15.07,9.167,30155.152,0.7,287.959,7.29,23.1,37.7,,5.82,77.54,0.86,,,,
SVN,Europe,Slovenia,2021-11-16,383734.0,3770.0,3302.857,4959.0,6.0,14.857,184600.834,1813.613,1588.888,2385.599,2.886,7.147,1.27,178.0,85.629,797.0,383.408,125.962,60.596,646.669,311.089,7643.0,1845347.0,887.731,3.677,7769.0,3.737,0.425,2.4,tests performed,2345785.0,1212523.0,1133262.0,,3171.0,2792.0,112.85,58.33,54.52,,1343.0,1819.0,0.088,53.7,2078723.0,102.619,44.5,19.062,12.93,31400.84,,153.493,7.25,20.1,25.0,,4.5,81.32,0.917,,,,
SLB,Oceania,Solomon Islands,2021-11-16,20.0,0.0,0.0,,,0.0,28.409,0.0,0.0,,,0.0,,,,,,,,,,,,,,,,,,,171562.0,135995.0,35567.0,,,1338.0,24.37,19.32,5.05,,1901.0,1016.0,0.144,27.78,703995.0,21.841,20.8,3.507,2.043,2205.923,25.1,459.78,18.68,,,35.89,1.4,73.0,0.567,,,,
SOM,Africa,Somalia,2021-11-16,22837.0,0.0,20.571,1313.0,0.0,2.714,1395.947,0.0,1.257,80.259,0.0,0.166,0.21,,,,,,,,,,,,,,,,,,964433.0,589128.0,564612.0,,,34098.0,5.9,3.6,3.45,,2084.0,27245.0,0.167,,16359500.0,23.5,16.8,2.731,1.496,,,365.769,6.05,,,9.831,0.9,57.4,,,,,
ZAF,Africa,South Africa,2021-11-16,2926348.0,273.0,290.143,89504.0,15.0,16.714,48738.353,4.547,4.832,1490.69,0.25,0.278,0.82,,,,,,,,,24034.0,18917933.0,315.078,0.4,27660.0,0.461,0.009,112.5,people tested,24216602.0,16404841.0,13583910.0,,133927.0,116331.0,40.33,27.32,22.62,,1937.0,69573.0,0.116,45.37,60041996.0,46.754,27.3,5.344,3.053,12294.876,18.9,200.38,5.52,8.1,33.2,43.993,2.32,64.13,0.709,227830.5,23.36,7.09,3794.519
OWID_SAM,,South America,2021-11-16,38671552.0,13038.0,19875.857,1176035.0,250.0,398.714,89051.582,30.023,45.769,2708.135,0.576,0.918,,,,,,,,,,,,,,,,,,,558018970.0,307237840.0,239941210.0,22115591.0,244181.0,3527348.0,128.5,70.75,55.25,5.09,8123.0,667010.0,0.154,,434260137.0,,,,,,,,,,,,,,,,,,
KOR,Asia,South Korea,2021-11-16,402775.0,3184.0,2420.571,3158.0,21.0,20.857,7850.571,62.06,47.18,61.553,0.409,0.407,1.07,,,,,,,,,,,,,,,,,,82153797.0,42062748.0,40243219.0,1342176.0,216075.0,238374.0,160.13,81.99,78.44,2.62,4646.0,52186.0,0.102,39.35,51305184.0,527.967,43.4,13.914,8.622,35938.374,0.2,85.998,6.8,6.2,40.9,,12.27,83.03,0.916,,,,
SSD,Africa,South Sudan,2021-11-16,12590.0,0.0,10.429,133.0,0.0,0.0,1106.193,0.0,0.916,11.686,0.0,0.0,1.16,,,,,,,,,,,,,,,,,,151245.0,84839.0,66406.0,,4158.0,1917.0,1.33,0.75,0.58,,168.0,0.0,0.0,35.19,11381377.0,,19.2,3.441,2.032,1569.888,,280.775,10.43,,,,,57.85,0.433,,,,
ESP,Europe,Spain,2021-11-16,5061045.0,4091.0,4141.286,87745.0,29.0,26.714,108268.738,87.517,88.593,1877.091,0.62,0.571,1.37,386.0,8.258,1793.0,38.357,40.491,0.866,558.976,11.958,,62267790.0,1332.068,,72376.0,1.548,0.027,37.1,tests performed,74034325.0,38171026.0,37480526.0,2782583.0,147541.0,150981.0,158.38,81.66,80.18,5.95,3230.0,8865.0,0.019,41.2,46745211.0,93.105,45.5,19.436,13.799,34272.36,1.0,99.403,7.17,27.4,31.4,,2.97,83.56,0.904,,,,
LKA,Asia,Sri Lanka,2021-11-16,552994.0,720.0,905.857,14034.0,18.0,20.286,25723.874,33.493,42.138,652.826,0.837,0.944,0.98,,,,,,,,,5307.0,5567326.0,258.978,0.247,6157.0,0.286,0.148,6.8,tests performed,29558587.0,15883630.0,13674957.0,,16125.0,21553.0,137.5,73.89,63.61,,1003.0,9618.0,0.045,52.78,21497306.0,341.955,34.1,10.069,5.331,11669.077,0.7,197.093,10.68,0.3,27.0,,3.6,76.98,0.782,,,,
SDN,Africa,Sudan,2021-11-16,41309.0,0.0,41.429,3099.0,0.0,0.0,919.831,0.0,0.922,69.006,0.0,0.0,0.46,,,,,,,,,,,,,,,,,,,,,,,,,,,,,,,13.89,44909351.0,23.258,19.7,3.548,2.034,4466.507,,431.388,15.67,,,23.437,0.8,65.31,0.51,,,,
SUR,South America,Suriname,2021-11-16,50170.0,92.0,51.143,1139.0,0.0,2.429,84775.548,155.458,86.419,1924.643,0.0,4.104,0.81,,,,,,,,,,,,,,,,,,466021.0,254357.0,211664.0,,88.0,1047.0,78.75,42.98,35.77,,1769.0,305.0,0.052,63.89,591798.0,3.612,29.6,6.933,4.229,13767.119,,258.314,12.54,7.4,42.9,67.779,3.1,71.68,0.738,,,,
SWE,Europe,Sweden,2021-11-16,1185093.0,2622.0,843.0,15094.0,12.0,4.143,116641.186,258.067,82.971,1485.607,1.181,0.408,1.14,36.0,3.543,238.0,23.425,14.757,1.452,,,12820.0,,,1.262,12820.0,1.262,0.062,16.1,tests performed,15048702.0,7283016.0,6977713.0,,59012.0,41093.0,148.11,71.68,68.68,,4045.0,1911.0,0.019,19.44,10160159.0,24.718,41.0,19.985,13.433,46949.283,0.5,133.982,4.79,18.8,18.9,,2.22,82.8,0.945,,,,
CHE,Europe,Switzerland,2021-11-16,923047.0,4297.0,3709.857,11353.0,6.0,8.286,105908.741,493.03,425.662,1302.623,0.688,0.951,1.48,141.0,16.178,719.0,82.497,,,289.0,33.159,29641.0,11755785.0,1348.837,3.401,33675.0,3.864,0.119,8.4,tests performed,11349251.0,5791943.0,5632232.0,,25098.0,16591.0,130.22,66.46,64.62,,1904.0,4525.0,0.052,46.3,8715494.0,214.243,43.1,18.436,12.644,57410.166,,99.739,5.59,22.6,28.9,,4.53,83.78,0.955,,,,
SYR,Asia,Syria,2021-11-16,46564.0,143.0,156.571,2677.0,5.0,5.714,2547.864,7.825,8.567,146.479,0.274,0.313,1.19,,,,,,,,,,,,,,,,,,1341208.0,823210.0,721726.0,,,14404.0,7.34,4.5,3.95,,788.0,1064.0,0.006,60.65,18275704.0,,21.7,,2.577,,,376.264,,,,70.598,1.5,72.7,0.567,,,,
TWN,Asia,Taiwan,2021-11-16,16498.0,2.0,6.714,848.0,0.0,0.0,691.595,0.084,0.281,35.548,0.0,0.0,0.93,,,,,,,,,11915.0,4253041.0,178.287,0.499,14972.0,0.628,0.0,2151.1,people tested,28161546.0,17931470.0,10230076.0,,233925.0,198962.0,118.05,75.17,42.88,,8340.0,44078.0,0.185,41.67,23855008.0,,42.2,,8.353,,,103.957,,,,,,80.46,,,,,
TJK,Asia,Tajikistan,2021-11-16,17489.0,1.0,0.429,125.0,0.0,0.0,1793.813,0.103,0.044,12.821,0.0,0.0,-0.01,,,,,,,,,,,,,,,,,,4852034.0,2714911.0,2137123.0,,,2980.0,49.77,27.85,21.92,,306.0,3304.0,0.034,29.63,9749625.0,64.281,23.3,3.466,2.155,2896.913,4.8,427.698,7.11,,,72.704,4.8,71.1,0.668,,,,
TZA,Africa,Tanzania,2021-11-16,26208.0,0.0,1.714,725.0,0.0,0.0,426.157,0.0,0.028,11.789,0.0,0.0,0.13,,,,,,,,,,,,,,,,,,,,,,,,,,,,,,,8.33,61498438.0,64.699,17.7,3.108,1.874,2683.304,49.1,217.288,5.75,3.3,26.7,47.953,0.7,65.46,0.529,,,,
THA,Asia,Thailand,2021-11-16,2030700.0,5947.0,6886.429,20143.0,62.0,54.143,29030.386,85.017,98.447,287.959,0.886,0.774,0.91,,,,,,,,,32725.0,15541378.0,222.176,0.468,47157.0,0.674,0.172,5.8,tests performed,85412126.0,45488767.0,37114546.0,2808813.0,399221.0,634760.0,122.1,65.03,53.06,4.02,9074.0,196037.0,0.28,55.09,69950844.0,135.132,40.1,11.373,6.89,16277.671,0.1,109.861,7.04,1.9,38.8,90.67,2.1,77.15,0.777,,,,
TLS,Asia,Timor,2021-11-16,19812.0,2.0,1.143,122.0,0.0,0.0,14742.443,1.488,0.85,90.782,0.0,0.0,0.77,,,,,,,,,,,,,,,,,,969619.0,587392.0,382227.0,,,5189.0,72.15,43.71,28.44,,3861.0,3167.0,0.236,44.91,1343875.0,87.176,18.0,3.556,1.897,6570.102,30.3,335.346,6.86,6.3,78.1,28.178,5.9,69.5,0.606,,,,
TGO,Africa,Togo,2021-11-16,26167.0,0.0,6.0,243.0,0.0,0.0,3086.371,0.0,0.708,28.662,0.0,0.0,0.65,,,,,,,,,1150.0,563857.0,66.506,0.136,1103.0,0.13,0.006,175.5,tests performed,1453570.0,971322.0,482248.0,,,5809.0,17.14,11.46,5.69,,685.0,2933.0,0.035,38.89,8478242.0,143.366,19.4,2.839,1.525,1429.813,49.2,280.033,6.15,0.9,14.2,10.475,0.7,61.04,0.515,,,,
TON,Oceania,Tonga,2021-11-16,1.0,0.0,0.0,,,0.0,9.367,0.0,0.0,,,0.0,,,,,,,,,,,,,,,,,,,102568.0,63259.0,39309.0,,,776.0,96.07,59.25,36.82,,7269.0,624.0,0.584,43.52,106759.0,150.028,22.3,5.82,4.032,5425.621,,227.49,15.42,11.8,44.4,,2.6,70.91,0.725,,,,
TTO,North America,Trinidad and Tobago,2021-11-16,63084.0,414.0,445.857,1885.0,15.0,13.0,44951.666,295.003,317.704,1343.191,10.689,9.263,1.27,,,,,,,,,,,,,,,,,,1263096.0,633715.0,629381.0,,2929.0,2262.0,90.0,45.16,44.85,,1612.0,750.0,0.053,,1403374.0,266.886,36.2,10.014,5.819,28763.071,,228.467,10.97,,,89.443,3.0,73.51,0.796,,,,
TUN,Africa,Tunisia,2021-11-16,715818.0,102.0,352.286,25320.0,5.0,5.571,59972.533,8.546,29.515,2121.356,0.419,0.467,0.69,,,,,,,,,2809.0,3123642.0,261.704,0.235,4079.0,0.342,0.083,12.0,people tested,9926889.0,5858720.0,4809585.0,280269.0,30213.0,33858.0,83.17,49.09,40.3,2.35,2837.0,13791.0,0.116,16.67,11935764.0,74.228,32.7,8.001,5.075,10849.297,2.0,318.991,8.52,1.1,65.8,78.687,2.3,76.7,0.74,,,,
TUR,Asia,Turkey,2021-11-16,8459089.0,25101.0,24136.286,73973.0,227.0,209.0,99468.684,295.157,283.814,869.833,2.669,2.458,0.97,,,,,,,,,356514.0,102955135.0,1210.628,4.192,352865.0,4.149,0.07,14.3,tests performed,118727805.0,55904542.0,49777801.0,13045462.0,168125.0,143426.0,139.61,65.74,58.53,15.34,1687.0,29634.0,0.035,28.7,85042736.0,104.914,31.6,8.153,5.061,25129.341,0.2,171.285,12.13,14.1,41.1,,2.81,77.69,0.82,,,,
TCA,North America,Turks and Caicos Islands,2021-11-05,,,,,,,,,,,,,,,,,,,,,,,,,,,,,,,56343.0,29210.0,27133.0,,,69.0,143.64,74.47,69.17,,1759.0,32.0,0.082,,39226.0,37.312,,,,,,,,,,,,80.22,,,,,
UGA,Africa,Uganda,2021-11-16,127002.0,37.0,51.143,3241.0,2.0,1.571,2695.087,0.785,1.085,68.777,0.042,0.033,0.93,,,,,,,,,5113.0,1882780.0,39.954,0.109,5125.0,0.109,0.011,90.4,samples tested,4751422.0,3838439.0,912983.0,,,135820.0,10.08,8.15,1.94,,2882.0,64749.0,0.137,,47123533.0,213.759,16.4,2.168,1.308,1697.707,41.6,213.333,2.5,3.4,16.7,21.222,0.5,63.37,0.544,,,,
UKR,Europe,Ukraine,2021-11-16,3398913.0,17514.0,20798.0,82813.0,865.0,685.143,78195.572,402.928,478.48,1905.2,19.9,15.762,1.03,,,,,,,,,45674.0,15292648.0,351.823,1.051,51787.0,1.191,0.4,2.5,tests performed,21513820.0,12445579.0,9088921.0,,294855.0,237378.0,49.49,28.63,20.91,,5461.0,106885.0,0.246,58.33,43466822.0,77.39,41.4,16.462,11.133,7894.393,0.1,539.849,7.11,13.5,47.4,,8.8,72.06,0.779,,,,
ARE,Asia,United Arab Emirates,2021-11-16,741074.0,68.0,71.714,2144.0,0.0,0.286,74173.541,6.806,7.178,214.591,0.0,0.029,0.86,,,,,,,,,230869.0,97208646.0,9729.54,23.108,268259.0,26.85,0.0,3711.1,tests performed,21548528.0,9801529.0,8832256.0,2914743.0,42818.0,28618.0,215.68,98.1,88.4,29.17,2864.0,7100.0,0.071,46.3,9991083.0,112.442,34.0,1.144,0.526,67293.483,,317.84,17.26,1.2,37.4,,1.2,77.97,0.89,,,,
GBR,Europe,United Kingdom,2021-11-16,9686363.0,37130.0,39168.286,143598.0,214.0,148.857,142013.969,544.371,574.255,2105.323,3.138,2.182,0.94,968.0,14.192,8696.0,127.494,,,6544.0,95.943,906116.0,314903089.0,4616.866,13.285,874085.0,12.815,0.044,22.7,tests performed,109807847.0,50614550.0,46045964.0,13147333.0,336683.0,436913.0,160.99,74.21,67.51,19.28,6406.0,45465.0,0.067,41.2,68207114.0,272.898,40.8,18.517,12.527,39753.244,0.2,122.137,4.28,20.0,24.7,,2.54,81.32,0.932,,,,
USA,North America,United States,2021-11-16,47309008.0,87481.0,84614.143,765811.0,1448.0,1165.714,142105.335,262.773,254.161,2300.319,4.349,3.502,1.06,11175.0,33.567,42081.0,126.402,,,38378.0,115.279,733070.0,642687108.0,1930.484,2.202,1009403.0,3.032,0.078,12.7,tests performed,443374199.0,227691941.0,193963821.0,30651760.0,0.0,800758.0,131.83,67.7,57.67,9.11,2381.0,281953.0,0.084,56.02,332915074.0,35.608,38.3,15.413,9.732,54225.446,1.2,151.089,10.79,19.1,24.6,,2.77,78.86,0.926,,,,
OWID_UMC,,Upper middle income,2021-11-16,80902722.0,114487.0,124810.429,2152890.0,2823.0,3021.286,32185.065,45.546,49.653,856.472,1.123,1.202,,,,,,,,,,,,,,,,,,,3595078527.0,1836460251.0,1603370456.0,85345208.0,2045409.0,13046023.0,143.02,73.06,63.79,3.4,5190.0,13720614.0,0.546,,2513672790.0,,,,,,,,,,,,,,,,,,
URY,South America,Uruguay,2021-11-16,396888.0,211.0,182.571,6104.0,2.0,1.571,113879.682,60.543,52.385,1751.43,0.574,0.451,0.98,,,,,,,,,,,,,,,,,,6700078.0,2772980.0,2636207.0,1290891.0,2844.0,4426.0,192.25,79.57,75.64,37.04,1270.0,813.0,0.023,37.04,3485152.0,19.751,35.6,14.655,10.361,20551.409,0.1,160.708,6.93,14.0,19.9,,2.8,77.91,0.817,,,,
UZB,Asia,Uzbekistan,2021-11-16,190104.0,189.0,243.714,1360.0,2.0,2.429,5601.878,5.569,7.182,40.076,0.059,0.072,0.87,,,,,,,,,,,,,,,,,,30011822.0,15700898.0,,,281170.0,262991.0,88.44,46.27,,,7750.0,150226.0,0.443,33.33,33935765.0,76.134,28.2,4.469,2.873,6253.104,,724.417,7.57,1.3,24.7,,4.0,71.72,0.72,,,,
VUT,Oceania,Vanuatu,2021-11-16,6.0,0.0,0.0,1.0,0.0,0.0,19.08,0.0,0.0,3.18,0.0,0.0,,,,,,,,,,,,,,,,,,,122867.0,85976.0,36891.0,,,1136.0,39.07,27.34,11.73,,3612.0,775.0,0.246,19.44,314464.0,22.662,23.1,4.394,2.62,2921.909,13.2,546.3,12.02,2.8,34.5,25.209,,70.47,0.609,,,,
VAT,Europe,Vatican,2021-11-16,27.0,0.0,0.0,,,0.0,33251.232,0.0,0.0,,,0.0,,,,,,,,,,,,,,,,,,,,,,,,,,,,,,,,,812.0,,,,,,,,,,,,,75.12,,,,,
VEN,South America,Venezuela,2021-11-16,420500.0,0.0,897.143,5034.0,0.0,8.286,14649.043,0.0,31.254,175.37,0.0,0.289,0.98,,,,,,,,,,,,,,,,,,23156914.0,13858057.0,9271857.0,,,251060.0,80.67,48.28,32.3,,8746.0,140409.0,0.489,75.0,28704947.0,36.253,29.0,6.614,3.915,16745.022,,204.85,6.47,,,,0.8,72.06,0.711,,,,
VNM,Asia,Vietnam,2021-11-16,1045397.0,10259.0,8656.0,23270.0,87.0,83.429,10648.971,104.504,88.175,237.041,0.886,0.85,1.24,,,,,,,,,122187.0,29304535.0,298.512,1.245,141426.0,1.441,0.055,18.0,samples tested,100862898.0,64767521.0,36095377.0,,1111674.0,1235938.0,102.74,65.98,36.77,,12590.0,408565.0,0.416,,98168829.0,308.127,32.6,7.15,4.718,6171.884,2.0,245.465,6.0,1.0,45.9,85.847,2.6,75.4,0.704,,,,
WLF,Oceania,Wallis and Futuna,2021-11-15,,,,,,,,,,,,,,,,,,,,,,,,,,,,,,,11858.0,5988.0,5870.0,,,12.0,106.89,53.98,52.91,,1082.0,3.0,0.027,,11094.0,,,,,,,,,,,,,79.94,,,,,
OWID_WRL,,World,2021-11-16,254382438.0,522301.0,501620.857,5114874.0,7790.0,7168.857,32302.672,66.324,63.698,649.511,0.989,0.91,1.07,,,,,,,,,,,,,,,,,,7558708455.0,4120534610.0,3234759178.0,173232566.0,14605207.0,29916572.0,95.98,52.32,41.08,2.2,3799.0,19852010.0,0.252,,7874965730.0,58.045,30.9,8.696,5.355,15469.207,10.0,233.07,8.51,6.434,34.635,60.13,2.705,72.58,0.737,,,,
YEM,Asia,Yemen,2021-11-16,9936.0,0.0,6.429,1926.0,0.0,1.571,325.871,0.0,0.211,63.167,0.0,0.052,0.83,,,,,,,,,,,,,,,,,,746557.0,527869.0,344333.0,,,15349.0,2.45,1.73,1.13,,503.0,15084.0,0.049,23.15,30490639.0,53.508,20.3,2.922,1.583,1479.147,18.8,495.003,5.35,7.6,29.2,49.542,0.7,66.12,0.47,,,,
ZMB,Africa,Zambia,2021-11-16,210008.0,12.0,12.857,3666.0,0.0,0.286,11099.403,0.634,0.68,193.756,0.0,0.015,1.0,,,,,,,,,4680.0,2646803.0,139.89,0.247,4468.0,0.236,0.004,226.6,tests performed,1001286.0,,616836.0,,,5176.0,5.29,,3.26,,274.0,,,44.44,18920657.0,22.995,17.7,2.48,1.542,3689.251,57.5,234.499,3.94,3.1,24.7,13.938,2.0,63.89,0.584,,,,
ZWE,Africa,Zimbabwe,2021-11-16,133505.0,67.0,37.571,4698.0,1.0,1.0,8845.977,4.439,2.489,311.287,0.066,0.066,0.84,,,,,,,,,2660.0,1411736.0,93.541,0.176,2667.0,0.177,0.013,77.5,tests performed,6228119.0,3515140.0,2712979.0,,37816.0,24487.0,41.27,23.29,17.98,,1622.0,17188.0,0.114,,15092171.0,42.729,19.6,2.822,1.882,1899.775,21.4,307.846,1.82,1.6,30.7,36.791,1.7,61.49,0.571,,,,
