location,date,vaccine,total_vaccinations
Cyprus,2021-01-01,Pfizer/BioNTech,369
Cyprus,2021-01-08,Pfizer/BioNTech,6086
Cyprus,2021-01-15,Moderna,0
Cyprus,2021-01-15,Pfizer/BioNTech,10833
Cyprus,2021-01-22,Moderna,210
Cyprus,2021-01-22,Pfizer/BioNTech,17881
Cyprus,2021-01-29,Moderna,420
Cyprus,2021-01-29,Pfizer/BioNTech,24952
Cyprus,2021-02-05,Pfizer/BioNTech,32720
Cyprus,2021-02-12,Moderna,421
Cyprus,2021-02-12,Oxford/AstraZeneca,584
Cyprus,2021-02-12,Pfizer/BioNTech,43384
Cyprus,2021-02-19,Moderna,741
Cyprus,2021-02-19,Oxford/AstraZeneca,6126
Cyprus,2021-02-19,Pfizer/BioNTech,51652
Cyprus,2021-02-26,Moderna,951
Cyprus,2021-02-26,Oxford/AstraZeneca,18136
Cyprus,2021-02-26,Pfizer/BioNTech,59380
Cyprus,2021-03-05,Moderna,1301
Cyprus,2021-03-05,Oxford/AstraZeneca,28650
Cyprus,2021-03-05,Pfizer/BioNTech,69327
Cyprus,2021-03-12,Moderna,4195
Cyprus,2021-03-12,Oxford/AstraZeneca,40827
Cyprus,2021-03-12,Pfizer/BioNTech,78860
Cyprus,2021-03-19,Moderna,4304
Cyprus,2021-03-19,Oxford/AstraZeneca,41719
Cyprus,2021-03-19,Pfizer/BioNTech,85728
Cyprus,2021-03-26,Moderna,4304
Cyprus,2021-03-26,Oxford/AstraZeneca,48256
Cyprus,2021-03-26,Pfizer/BioNTech,95339
Cyprus,2021-04-02,Moderna,6547
Cyprus,2021-04-02,Oxford/AstraZeneca,52195
Cyprus,2021-04-02,Pfizer/BioNTech,103028
Cyprus,2021-04-09,Moderna,12456
Cyprus,2021-04-09,Oxford/AstraZeneca,60123
Cyprus,2021-04-09,Pfizer/BioNTech,113013
Cyprus,2021-04-16,Johnson&Johnson,0
Cyprus,2021-04-16,Moderna,13236
Cyprus,2021-04-16,Oxford/AstraZeneca,66995
Cyprus,2021-04-16,Pfizer/BioNTech,130595
Cyprus,2021-04-23,Oxford/AstraZeneca,77988
Cyprus,2021-04-23,Pfizer/BioNTech,150831
Cyprus,2021-04-30,Johnson&Johnson,1188
Cyprus,2021-04-30,Moderna,15635
Cyprus,2021-04-30,Oxford/AstraZeneca,84554
Cyprus,2021-04-30,Pfizer/BioNTech,193053
Cyprus,2021-05-07,Johnson&Johnson,2249
Cyprus,2021-05-07,Moderna,21442
Cyprus,2021-05-07,Oxford/AstraZeneca,95843
Cyprus,2021-05-07,Pfizer/BioNTech,238781
Cyprus,2021-05-14,Johnson&Johnson,5662
Cyprus,2021-05-14,Moderna,28322
Cyprus,2021-05-14,Oxford/AstraZeneca,121922
Cyprus,2021-05-14,Pfizer/BioNTech,280960
Cyprus,2021-05-21,Moderna,37412
Cyprus,2021-05-21,Oxford/AstraZeneca,146980
Cyprus,2021-05-21,Pfizer/BioNTech,329189
Cyprus,2021-05-28,Johnson&Johnson,5662
Cyprus,2021-05-28,Moderna,44461
Cyprus,2021-05-28,Oxford/AstraZeneca,164905
Cyprus,2021-05-28,Pfizer/BioNTech,375387
Cyprus,2021-06-04,Moderna,48348
Cyprus,2021-06-04,Oxford/AstraZeneca,175900
Cyprus,2021-06-04,Pfizer/BioNTech,413040
Cyprus,2021-06-11,Johnson&Johnson,6062
Cyprus,2021-06-11,Moderna,54602
Cyprus,2021-06-11,Oxford/AstraZeneca,187096
Cyprus,2021-06-11,Pfizer/BioNTech,448451
Cyprus,2021-06-18,Johnson&Johnson,12893
Cyprus,2021-06-18,Moderna,63102
Cyprus,2021-06-18,Oxford/AstraZeneca,197068
Cyprus,2021-06-18,Pfizer/BioNTech,481629
Cyprus,2021-06-25,Johnson&Johnson,14120
Cyprus,2021-06-25,Moderna,70093
Cyprus,2021-06-25,Oxford/AstraZeneca,204489
Cyprus,2021-06-25,Pfizer/BioNTech,502801
Cyprus,2021-07-02,Johnson&Johnson,14538
Cyprus,2021-07-02,Moderna,72330
Cyprus,2021-07-02,Oxford/AstraZeneca,218282
Cyprus,2021-07-02,Pfizer/BioNTech,532405
Cyprus,2021-07-09,Johnson&Johnson,14983
Cyprus,2021-07-09,Moderna,73098
Cyprus,2021-07-09,Oxford/AstraZeneca,237295
Cyprus,2021-07-09,Pfizer/BioNTech,562196
Cyprus,2021-07-16,Johnson&Johnson,16069
Cyprus,2021-07-16,Moderna,74634
Cyprus,2021-07-16,Oxford/AstraZeneca,245037
Cyprus,2021-07-16,Pfizer/BioNTech,587728
Cyprus,2021-07-23,Johnson&Johnson,17238
Cyprus,2021-07-23,Moderna,75705
Cyprus,2021-07-23,Oxford/AstraZeneca,248027
Cyprus,2021-07-23,Pfizer/BioNTech,610888
Cyprus,2021-07-30,Johnson&Johnson,17847
Cyprus,2021-07-30,Moderna,77108
Cyprus,2021-07-30,Oxford/AstraZeneca,250656
Cyprus,2021-07-30,Pfizer/BioNTech,631778
Cyprus,2021-08-06,Johnson&Johnson,18319
Cyprus,2021-08-06,Moderna,77977
Cyprus,2021-08-06,Oxford/AstraZeneca,251491
Cyprus,2021-08-06,Pfizer/BioNTech,660192
Cyprus,2021-08-13,Johnson&Johnson,18613
Cyprus,2021-08-13,Moderna,79747
Cyprus,2021-08-13,Oxford/AstraZeneca,251776
Cyprus,2021-08-13,Pfizer/BioNTech,680681
Cyprus,2021-08-20,Johnson&Johnson,19195
Cyprus,2021-08-20,Moderna,80930
Cyprus,2021-08-20,Oxford/AstraZeneca,251996
Cyprus,2021-08-20,Pfizer/BioNTech,697790
Cyprus,2021-08-27,Johnson&Johnson,19515
Cyprus,2021-08-27,Moderna,81764
Cyprus,2021-08-27,Oxford/AstraZeneca,252190
Cyprus,2021-08-27,Pfizer/BioNTech,713596
Cyprus,2021-09-03,Johnson&Johnson,19805
Cyprus,2021-09-03,Moderna,82721
Cyprus,2021-09-03,Oxford/AstraZeneca,252412
Cyprus,2021-09-03,Pfizer/BioNTech,724458
Cyprus,2021-09-10,Johnson&Johnson,20031
Cyprus,2021-09-10,Moderna,83957
Cyprus,2021-09-10,Oxford/AstraZeneca,252639
Cyprus,2021-09-10,Pfizer/BioNTech,736142
Cyprus,2021-09-17,Johnson&Johnson,20302
Cyprus,2021-09-17,Moderna,84677
Cyprus,2021-09-17,Oxford/AstraZeneca,252796
Cyprus,2021-09-17,Pfizer/BioNTech,746035
Cyprus,2021-09-24,Johnson&Johnson,20403
Cyprus,2021-09-24,Moderna,85350
Cyprus,2021-09-24,Oxford/AstraZeneca,253940
Cyprus,2021-09-24,Pfizer/BioNTech,756343
Cyprus,2021-10-01,Johnson&Johnson,20730
Cyprus,2021-10-01,Moderna,85988
Cyprus,2021-10-01,Oxford/AstraZeneca,254041
Cyprus,2021-10-01,Pfizer/BioNTech,767883
Cyprus,2021-10-08,Johnson&Johnson,20760
Cyprus,2021-10-08,Moderna,86772
Cyprus,2021-10-08,Oxford/AstraZeneca,254117
Cyprus,2021-10-08,Pfizer/BioNTech,782584
Cyprus,2021-10-15,Johnson&Johnson,20790
Cyprus,2021-10-15,Moderna,88109
Cyprus,2021-10-15,Oxford/AstraZeneca,254198
Cyprus,2021-10-15,Pfizer/BioNTech,795113
Cyprus,2021-10-22,Johnson&Johnson,20898
Cyprus,2021-10-22,Moderna,88935
Cyprus,2021-10-22,Oxford/AstraZeneca,254272
Cyprus,2021-10-22,Pfizer/BioNTech,804347
Cyprus,2021-10-29,Johnson&Johnson,20988
Cyprus,2021-10-29,Moderna,89426
Cyprus,2021-10-29,Oxford/AstraZeneca,254303
Cyprus,2021-10-29,Pfizer/BioNTech,810636
Cyprus,2021-11-05,Johnson&Johnson,21077
Cyprus,2021-11-05,Moderna,90203
Cyprus,2021-11-05,Oxford/AstraZeneca,254331
Cyprus,2021-11-05,Pfizer/BioNTech,819300
Cyprus,2021-11-12,Johnson&Johnson,21140
Cyprus,2021-11-12,Moderna,90871
Cyprus,2021-11-12,Oxford/AstraZeneca,254353
Cyprus,2021-11-12,Pfizer/BioNTech,825933
