location,date,vaccine,total_vaccinations
Ukraine,2021-02-24,Oxford/AstraZeneca,159
Ukraine,2021-02-25,Oxford/AstraZeneca,1338
Ukraine,2021-02-26,Oxford/AstraZeneca,3051
Ukraine,2021-02-27,Oxford/AstraZeneca,3141
Ukraine,2021-02-28,Oxford/AstraZeneca,3141
Ukraine,2021-03-01,Oxford/AstraZeneca,4905
Ukraine,2021-03-02,Oxford/AstraZeneca,6888
Ukraine,2021-03-03,Oxford/AstraZeneca,9568
Ukraine,2021-03-04,Oxford/AstraZeneca,12481
Ukraine,2021-03-05,Oxford/AstraZeneca,15758
Ukraine,2021-03-06,Oxford/AstraZeneca,17037
Ukraine,2021-03-07,Oxford/AstraZeneca,17947
Ukraine,2021-03-08,Oxford/AstraZeneca,19118
Ukraine,2021-03-09,Oxford/AstraZeneca,23480
Ukraine,2021-03-10,Oxford/AstraZeneca,29378
Ukraine,2021-03-11,Oxford/AstraZeneca,38237
Ukraine,2021-03-12,Oxford/AstraZeneca,47541
Ukraine,2021-03-13,Oxford/AstraZeneca,51137
Ukraine,2021-03-14,Oxford/AstraZeneca,53155
Ukraine,2021-03-15,Oxford/AstraZeneca,62083
Ukraine,2021-03-16,Oxford/AstraZeneca,71923
Ukraine,2021-03-17,Oxford/AstraZeneca,81755
Ukraine,2021-03-18,Oxford/AstraZeneca,92714
Ukraine,2021-03-19,Oxford/AstraZeneca,104342
Ukraine,2021-03-20,Oxford/AstraZeneca,108310
Ukraine,2021-03-21,Oxford/AstraZeneca,111025
Ukraine,2021-03-22,Oxford/AstraZeneca,121929
Ukraine,2021-03-23,Oxford/AstraZeneca,137026
Ukraine,2021-03-24,Oxford/AstraZeneca,155587
Ukraine,2021-03-25,Oxford/AstraZeneca,174325
Ukraine,2021-03-26,Oxford/AstraZeneca,192264
Ukraine,2021-03-27,Oxford/AstraZeneca,196880
Ukraine,2021-03-28,Oxford/AstraZeneca,198465
Ukraine,2021-03-29,Oxford/AstraZeneca,212898
Ukraine,2021-03-30,Oxford/AstraZeneca,231566
Ukraine,2021-03-31,Oxford/AstraZeneca,248736
Ukraine,2021-04-01,Oxford/AstraZeneca,267833
Ukraine,2021-04-02,Oxford/AstraZeneca,286647
Ukraine,2021-04-03,Oxford/AstraZeneca,290566
Ukraine,2021-04-04,Oxford/AstraZeneca,291824
Ukraine,2021-04-05,Oxford/AstraZeneca,304680
Ukraine,2021-04-06,Oxford/AstraZeneca,320265
Ukraine,2021-04-07,Oxford/AstraZeneca,334578
Ukraine,2021-04-08,Oxford/AstraZeneca,353147
Ukraine,2021-04-09,Oxford/AstraZeneca,373005
Ukraine,2021-04-10,Oxford/AstraZeneca,377053
Ukraine,2021-04-11,Oxford/AstraZeneca,378269
Ukraine,2021-04-12,Oxford/AstraZeneca,388404
Ukraine,2021-04-13,Oxford/AstraZeneca,403551
Ukraine,2021-04-13,Sinovac,5
Ukraine,2021-04-14,Oxford/AstraZeneca,419087
Ukraine,2021-04-14,Sinovac,213
Ukraine,2021-04-15,Oxford/AstraZeneca,431812
Ukraine,2021-04-15,Sinovac,1008
Ukraine,2021-04-16,Oxford/AstraZeneca,443429
Ukraine,2021-04-16,Sinovac,2435
Ukraine,2021-04-17,Oxford/AstraZeneca,445700
Ukraine,2021-04-17,Sinovac,3497
Ukraine,2021-04-18,Oxford/AstraZeneca,446389
Ukraine,2021-04-18,Pfizer/BioNTech,366
Ukraine,2021-04-18,Sinovac,3895
Ukraine,2021-04-19,Oxford/AstraZeneca,451809
Ukraine,2021-04-19,Pfizer/BioNTech,3870
Ukraine,2021-04-19,Sinovac,7115
Ukraine,2021-04-20,Oxford/AstraZeneca,457040
Ukraine,2021-04-20,Pfizer/BioNTech,8718
Ukraine,2021-04-20,Sinovac,12078
Ukraine,2021-04-21,Oxford/AstraZeneca,460895
Ukraine,2021-04-21,Pfizer/BioNTech,13296
Ukraine,2021-04-21,Sinovac,17689
Ukraine,2021-04-22,Oxford/AstraZeneca,464985
Ukraine,2021-04-22,Pfizer/BioNTech,18324
Ukraine,2021-04-22,Sinovac,24740
Ukraine,2021-04-23,Oxford/AstraZeneca,469403
Ukraine,2021-04-23,Pfizer/BioNTech,21780
Ukraine,2021-04-23,Sinovac,31205
Ukraine,2021-04-24,Oxford/AstraZeneca,470473
Ukraine,2021-04-24,Pfizer/BioNTech,23490
Ukraine,2021-04-24,Sinovac,32956
Ukraine,2021-04-25,Oxford/AstraZeneca,470683
Ukraine,2021-04-25,Pfizer/BioNTech,24012
Ukraine,2021-04-25,Sinovac,33338
Ukraine,2021-04-26,Oxford/AstraZeneca,472593
Ukraine,2021-04-26,Pfizer/BioNTech,27600
Ukraine,2021-04-26,Sinovac,38940
Ukraine,2021-04-27,Oxford/AstraZeneca,480033
Ukraine,2021-04-27,Pfizer/BioNTech,32518
Ukraine,2021-04-27,Sinovac,46172
Ukraine,2021-04-28,Oxford/AstraZeneca,540051
Ukraine,2021-04-28,Pfizer/BioNTech,37176
Ukraine,2021-04-28,Sinovac,51965
Ukraine,2021-04-29,Oxford/AstraZeneca,604249
Ukraine,2021-04-29,Pfizer/BioNTech,41032
Ukraine,2021-04-29,Sinovac,57287
Ukraine,2021-04-30,Oxford/AstraZeneca,647816
Ukraine,2021-04-30,Pfizer/BioNTech,44088
Ukraine,2021-04-30,Sinovac,60649
Ukraine,2021-05-01,Oxford/AstraZeneca,649686
Ukraine,2021-05-01,Pfizer/BioNTech,44322
Ukraine,2021-05-01,Sinovac,61206
Ukraine,2021-05-02,Oxford/AstraZeneca,649816
Ukraine,2021-05-02,Pfizer/BioNTech,44334
Ukraine,2021-05-02,Sinovac,61241
Ukraine,2021-05-03,Oxford/AstraZeneca,650276
Ukraine,2021-05-03,Pfizer/BioNTech,44436
Ukraine,2021-05-03,Sinovac,61598
Ukraine,2021-05-04,Oxford/AstraZeneca,652876
Ukraine,2021-05-04,Pfizer/BioNTech,44904
Ukraine,2021-05-04,Sinovac,61955
Ukraine,2021-05-05,Oxford/AstraZeneca,672960
Ukraine,2021-05-05,Pfizer/BioNTech,46632
Ukraine,2021-05-05,Sinovac,64637
Ukraine,2021-05-06,Oxford/AstraZeneca,705897
Ukraine,2021-05-06,Pfizer/BioNTech,48774
Ukraine,2021-05-06,Sinovac,67525
Ukraine,2021-05-07,Oxford/AstraZeneca,737291
Ukraine,2021-05-07,Pfizer/BioNTech,51078
Ukraine,2021-05-07,Sinovac,69873
Ukraine,2021-05-08,Oxford/AstraZeneca,740925
Ukraine,2021-05-08,Pfizer/BioNTech,51858
Ukraine,2021-05-08,Sinovac,70302
Ukraine,2021-05-09,Oxford/AstraZeneca,741805
Ukraine,2021-05-09,Pfizer/BioNTech,51858
Ukraine,2021-05-09,Sinovac,70426
Ukraine,2021-05-10,Oxford/AstraZeneca,743295
Ukraine,2021-05-10,Pfizer/BioNTech,52326
Ukraine,2021-05-10,Sinovac,70662
Ukraine,2021-05-11,Oxford/AstraZeneca,757095
Ukraine,2021-05-11,Pfizer/BioNTech,54642
Ukraine,2021-05-11,Sinovac,72810
Ukraine,2021-05-12,Oxford/AstraZeneca,772458
Ukraine,2021-05-12,Pfizer/BioNTech,57054
Ukraine,2021-05-12,Sinovac,75421
Ukraine,2021-05-13,Oxford/AstraZeneca,785918
Ukraine,2021-05-13,Pfizer/BioNTech,60756
Ukraine,2021-05-13,Sinovac,79846
Ukraine,2021-05-14,Oxford/AstraZeneca,801056
Ukraine,2021-05-14,Pfizer/BioNTech,65100
Ukraine,2021-05-14,Sinovac,84002
Ukraine,2021-05-15,Oxford/AstraZeneca,803276
Ukraine,2021-05-15,Pfizer/BioNTech,67854
Ukraine,2021-05-15,Sinovac,85192
Ukraine,2021-05-16,Oxford/AstraZeneca,804026
Ukraine,2021-05-16,Pfizer/BioNTech,69006
Ukraine,2021-05-16,Sinovac,85520
Ukraine,2021-05-17,Oxford/AstraZeneca,810750
Ukraine,2021-05-17,Pfizer/BioNTech,74190
Ukraine,2021-05-17,Sinovac,90844
Ukraine,2021-05-18,Oxford/AstraZeneca,818356
Ukraine,2021-05-18,Pfizer/BioNTech,79602
Ukraine,2021-05-18,Sinovac,96914
Ukraine,2021-05-19,Oxford/AstraZeneca,825196
Ukraine,2021-05-19,Pfizer/BioNTech,83706
Ukraine,2021-05-19,Sinovac,103913
Ukraine,2021-05-20,Oxford/AstraZeneca,831816
Ukraine,2021-05-20,Pfizer/BioNTech,88746
Ukraine,2021-05-20,Sinovac,111166
Ukraine,2021-05-21,Oxford/AstraZeneca,838426
Ukraine,2021-05-21,Pfizer/BioNTech,93072
Ukraine,2021-05-21,Sinovac,117813
Ukraine,2021-05-22,Johnson&Johnson,219
Ukraine,2021-05-22,Oxford/AstraZeneca,839366
Ukraine,2021-05-22,Pfizer/BioNTech,94298
Ukraine,2021-05-22,Sinovac,118931
Ukraine,2021-05-23,Johnson&Johnson,219
Ukraine,2021-05-23,Oxford/AstraZeneca,839766
Ukraine,2021-05-23,Pfizer/BioNTech,94818
Ukraine,2021-05-23,Sinovac,119336
Ukraine,2021-05-24,Johnson&Johnson,219
Ukraine,2021-05-24,Oxford/AstraZeneca,843688
Ukraine,2021-05-24,Pfizer/BioNTech,97956
Ukraine,2021-05-24,Sinovac,126332
Ukraine,2021-05-25,Johnson&Johnson,224
Ukraine,2021-05-25,Oxford/AstraZeneca,848268
Ukraine,2021-05-25,Pfizer/BioNTech,100848
Ukraine,2021-05-25,Sinovac,135242
Ukraine,2021-05-26,Johnson&Johnson,224
Ukraine,2021-05-26,Oxford/AstraZeneca,851668
Ukraine,2021-05-26,Pfizer/BioNTech,103998
Ukraine,2021-05-26,Sinovac,143823
Ukraine,2021-05-27,Johnson&Johnson,224
Ukraine,2021-05-27,Oxford/AstraZeneca,854719
Ukraine,2021-05-27,Pfizer/BioNTech,107148
Ukraine,2021-05-27,Sinovac,153915
Ukraine,2021-05-28,Johnson&Johnson,224
Ukraine,2021-05-28,Oxford/AstraZeneca,857699
Ukraine,2021-05-28,Pfizer/BioNTech,109791
Ukraine,2021-05-28,Sinovac,165107
Ukraine,2021-05-29,Johnson&Johnson,224
Ukraine,2021-05-29,Oxford/AstraZeneca,858539
Ukraine,2021-05-29,Pfizer/BioNTech,110234
Ukraine,2021-05-29,Sinovac,172416
Ukraine,2021-05-30,Johnson&Johnson,224
Ukraine,2021-05-30,Oxford/AstraZeneca,858829
Ukraine,2021-05-30,Pfizer/BioNTech,110276
Ukraine,2021-05-30,Sinovac,178252
Ukraine,2021-05-31,Johnson&Johnson,224
Ukraine,2021-05-31,Oxford/AstraZeneca,859989
Ukraine,2021-05-31,Pfizer/BioNTech,112089
Ukraine,2021-05-31,Sinovac,189216
Ukraine,2021-06-01,Johnson&Johnson,224
Ukraine,2021-06-01,Oxford/AstraZeneca,860659
Ukraine,2021-06-01,Pfizer/BioNTech,116031
Ukraine,2021-06-01,Sinovac,203488
Ukraine,2021-06-02,Johnson&Johnson,224
Ukraine,2021-06-02,Oxford/AstraZeneca,862199
Ukraine,2021-06-02,Pfizer/BioNTech,133047
Ukraine,2021-06-02,Sinovac,219413
Ukraine,2021-06-03,Johnson&Johnson,224
Ukraine,2021-06-03,Oxford/AstraZeneca,862969
Ukraine,2021-06-03,Pfizer/BioNTech,165536
Ukraine,2021-06-03,Sinovac,236994
Ukraine,2021-06-04,Johnson&Johnson,390
Ukraine,2021-06-04,Oxford/AstraZeneca,863629
Ukraine,2021-06-04,Pfizer/BioNTech,200463
Ukraine,2021-06-04,Sinovac,258681
Ukraine,2021-06-05,Johnson&Johnson,390
Ukraine,2021-06-05,Oxford/AstraZeneca,863849
Ukraine,2021-06-05,Pfizer/BioNTech,224606
Ukraine,2021-06-05,Sinovac,274419
Ukraine,2021-06-06,Johnson&Johnson,390
Ukraine,2021-06-06,Oxford/AstraZeneca,863919
Ukraine,2021-06-06,Pfizer/BioNTech,236169
Ukraine,2021-06-06,Sinovac,287646
Ukraine,2021-06-07,Johnson&Johnson,390
Ukraine,2021-06-07,Oxford/AstraZeneca,865399
Ukraine,2021-06-07,Pfizer/BioNTech,261198
Ukraine,2021-06-07,Sinovac,309298
Ukraine,2021-06-08,Johnson&Johnson,390
Ukraine,2021-06-08,Oxford/AstraZeneca,872509
Ukraine,2021-06-08,Pfizer/BioNTech,283853
Ukraine,2021-06-08,Sinovac,332694
Ukraine,2021-06-09,Johnson&Johnson,390
Ukraine,2021-06-09,Oxford/AstraZeneca,889371
Ukraine,2021-06-09,Pfizer/BioNTech,299946
Ukraine,2021-06-09,Sinovac,355312
Ukraine,2021-06-10,Johnson&Johnson,390
Ukraine,2021-06-10,Oxford/AstraZeneca,910909
Ukraine,2021-06-10,Pfizer/BioNTech,313624
Ukraine,2021-06-10,Sinovac,374425
Ukraine,2021-06-11,Johnson&Johnson,390
Ukraine,2021-06-11,Oxford/AstraZeneca,935501
Ukraine,2021-06-11,Pfizer/BioNTech,332036
Ukraine,2021-06-11,Sinovac,393483
Ukraine,2021-06-12,Johnson&Johnson,390
Ukraine,2021-06-12,Oxford/AstraZeneca,941608
Ukraine,2021-06-12,Pfizer/BioNTech,339578
Ukraine,2021-06-12,Sinovac,414704
Ukraine,2021-06-13,Johnson&Johnson,390
Ukraine,2021-06-13,Oxford/AstraZeneca,943358
Ukraine,2021-06-13,Pfizer/BioNTech,341688
Ukraine,2021-06-13,Sinovac,433063
Ukraine,2021-06-14,Johnson&Johnson,390
Ukraine,2021-06-14,Oxford/AstraZeneca,963186
Ukraine,2021-06-14,Pfizer/BioNTech,357746
Ukraine,2021-06-14,Sinovac,447234
Ukraine,2021-06-15,Johnson&Johnson,390
Ukraine,2021-06-15,Oxford/AstraZeneca,988209
Ukraine,2021-06-15,Pfizer/BioNTech,378252
Ukraine,2021-06-15,Sinovac,464296
Ukraine,2021-06-16,Johnson&Johnson,390
Ukraine,2021-06-16,Oxford/AstraZeneca,1011627
Ukraine,2021-06-16,Pfizer/BioNTech,411508
Ukraine,2021-06-16,Sinovac,484160
Ukraine,2021-06-17,Johnson&Johnson,390
Ukraine,2021-06-17,Oxford/AstraZeneca,1031402
Ukraine,2021-06-17,Pfizer/BioNTech,446096
Ukraine,2021-06-17,Sinovac,511510
Ukraine,2021-06-18,Johnson&Johnson,390
Ukraine,2021-06-18,Oxford/AstraZeneca,1047004
Ukraine,2021-06-18,Pfizer/BioNTech,475790
Ukraine,2021-06-18,Sinovac,533315
Ukraine,2021-06-19,Johnson&Johnson,390
Ukraine,2021-06-19,Oxford/AstraZeneca,1050444
Ukraine,2021-06-19,Pfizer/BioNTech,483200
Ukraine,2021-06-19,Sinovac,548068
Ukraine,2021-06-20,Johnson&Johnson,390
Ukraine,2021-06-20,Oxford/AstraZeneca,1051084
Ukraine,2021-06-20,Pfizer/BioNTech,484352
Ukraine,2021-06-20,Sinovac,550666
Ukraine,2021-06-21,Johnson&Johnson,390
Ukraine,2021-06-21,Oxford/AstraZeneca,1052423
Ukraine,2021-06-21,Pfizer/BioNTech,487452
Ukraine,2021-06-21,Sinovac,555193
Ukraine,2021-06-22,Johnson&Johnson,390
Ukraine,2021-06-22,Oxford/AstraZeneca,1075700
Ukraine,2021-06-22,Pfizer/BioNTech,502416
Ukraine,2021-06-22,Sinovac,570738
Ukraine,2021-06-23,Johnson&Johnson,390
Ukraine,2021-06-23,Oxford/AstraZeneca,1099804
Ukraine,2021-06-23,Pfizer/BioNTech,537529
Ukraine,2021-06-23,Sinovac,591446
Ukraine,2021-06-24,Johnson&Johnson,390
Ukraine,2021-06-24,Oxford/AstraZeneca,1121518
Ukraine,2021-06-24,Pfizer/BioNTech,584630
Ukraine,2021-06-24,Sinovac,618807
Ukraine,2021-06-25,Johnson&Johnson,390
Ukraine,2021-06-25,Oxford/AstraZeneca,1141297
Ukraine,2021-06-25,Pfizer/BioNTech,631236
Ukraine,2021-06-25,Sinovac,649552
Ukraine,2021-06-26,Johnson&Johnson,390
Ukraine,2021-06-26,Oxford/AstraZeneca,1143768
Ukraine,2021-06-26,Pfizer/BioNTech,652893
Ukraine,2021-06-26,Sinovac,669084
Ukraine,2021-06-27,Johnson&Johnson,390
Ukraine,2021-06-27,Oxford/AstraZeneca,1144288
Ukraine,2021-06-27,Pfizer/BioNTech,659260
Ukraine,2021-06-27,Sinovac,680828
Ukraine,2021-06-28,Johnson&Johnson,390
Ukraine,2021-06-28,Oxford/AstraZeneca,1145238
Ukraine,2021-06-28,Pfizer/BioNTech,669461
Ukraine,2021-06-28,Sinovac,686742
Ukraine,2021-06-29,Johnson&Johnson,390
Ukraine,2021-06-29,Oxford/AstraZeneca,1164645
Ukraine,2021-06-29,Pfizer/BioNTech,703793
Ukraine,2021-06-29,Sinovac,714640
Ukraine,2021-06-30,Johnson&Johnson,390
Ukraine,2021-06-30,Oxford/AstraZeneca,1183769
Ukraine,2021-06-30,Pfizer/BioNTech,746442
Ukraine,2021-06-30,Sinovac,746053
Ukraine,2021-07-01,Johnson&Johnson,390
Ukraine,2021-07-01,Oxford/AstraZeneca,1203333
Ukraine,2021-07-01,Pfizer/BioNTech,783221
Ukraine,2021-07-01,Sinovac,780669
Ukraine,2021-07-02,Johnson&Johnson,390
Ukraine,2021-07-02,Oxford/AstraZeneca,1219371
Ukraine,2021-07-02,Pfizer/BioNTech,825836
Ukraine,2021-07-02,Sinovac,816563
Ukraine,2021-07-03,Johnson&Johnson,390
Ukraine,2021-07-03,Oxford/AstraZeneca,1221468
Ukraine,2021-07-03,Pfizer/BioNTech,838120
Ukraine,2021-07-03,Sinovac,841039
Ukraine,2021-07-04,Johnson&Johnson,390
Ukraine,2021-07-04,Oxford/AstraZeneca,1222068
Ukraine,2021-07-04,Pfizer/BioNTech,840418
Ukraine,2021-07-04,Sinovac,862504
Ukraine,2021-07-05,Johnson&Johnson,390
Ukraine,2021-07-05,Oxford/AstraZeneca,1235890
Ukraine,2021-07-05,Pfizer/BioNTech,870438
Ukraine,2021-07-05,Sinovac,891896
Ukraine,2021-07-06,Johnson&Johnson,390
Ukraine,2021-07-06,Oxford/AstraZeneca,1252717
Ukraine,2021-07-06,Pfizer/BioNTech,914188
Ukraine,2021-07-06,Sinovac,924873
Ukraine,2021-07-07,Johnson&Johnson,390
Ukraine,2021-07-07,Oxford/AstraZeneca,1266833
Ukraine,2021-07-07,Pfizer/BioNTech,969236
Ukraine,2021-07-07,Sinovac,960389
Ukraine,2021-07-08,Johnson&Johnson,390
Ukraine,2021-07-08,Oxford/AstraZeneca,1280822
Ukraine,2021-07-08,Pfizer/BioNTech,1029164
Ukraine,2021-07-08,Sinovac,995632
Ukraine,2021-07-09,Johnson&Johnson,390
Ukraine,2021-07-09,Oxford/AstraZeneca,1293130
Ukraine,2021-07-09,Pfizer/BioNTech,1095678
Ukraine,2021-07-09,Sinovac,1031470
Ukraine,2021-07-10,Johnson&Johnson,390
Ukraine,2021-07-10,Oxford/AstraZeneca,1294140
Ukraine,2021-07-10,Pfizer/BioNTech,1111448
Ukraine,2021-07-10,Sinovac,1056998
Ukraine,2021-07-11,Johnson&Johnson,390
Ukraine,2021-07-11,Oxford/AstraZeneca,1294390
Ukraine,2021-07-11,Pfizer/BioNTech,1117924
Ukraine,2021-07-11,Sinovac,1076628
Ukraine,2021-07-12,Johnson&Johnson,390
Ukraine,2021-07-12,Oxford/AstraZeneca,1305288
Ukraine,2021-07-12,Pfizer/BioNTech,1164639
Ukraine,2021-07-12,Sinovac,1102192
Ukraine,2021-07-13,Johnson&Johnson,478
Ukraine,2021-07-13,Oxford/AstraZeneca,1316814
Ukraine,2021-07-13,Pfizer/BioNTech,1222539
Ukraine,2021-07-13,Sinovac,1133924
Ukraine,2021-07-14,Johnson&Johnson,478
Ukraine,2021-07-14,Oxford/AstraZeneca,1327651
Ukraine,2021-07-14,Pfizer/BioNTech,1286834
Ukraine,2021-07-14,Sinovac,1167551
Ukraine,2021-07-15,Johnson&Johnson,478
Ukraine,2021-07-15,Oxford/AstraZeneca,1339669
Ukraine,2021-07-15,Pfizer/BioNTech,1351864
Ukraine,2021-07-15,Sinovac,1207879
Ukraine,2021-07-16,Johnson&Johnson,478
Ukraine,2021-07-16,Oxford/AstraZeneca,1350575
Ukraine,2021-07-16,Pfizer/BioNTech,1415915
Ukraine,2021-07-16,Sinovac,1244072
Ukraine,2021-07-17,Johnson&Johnson,478
Ukraine,2021-07-17,Oxford/AstraZeneca,1352135
Ukraine,2021-07-17,Pfizer/BioNTech,1443791
Ukraine,2021-07-17,Sinovac,1265071
Ukraine,2021-07-18,Johnson&Johnson,478
Ukraine,2021-07-18,Oxford/AstraZeneca,1352425
Ukraine,2021-07-18,Pfizer/BioNTech,1467410
Ukraine,2021-07-18,Sinovac,1278335
Ukraine,2021-07-19,Johnson&Johnson,478
Ukraine,2021-07-19,Oxford/AstraZeneca,1362511
Ukraine,2021-07-19,Pfizer/BioNTech,1509177
Ukraine,2021-07-19,Sinovac,1307497
Ukraine,2021-07-20,Johnson&Johnson,478
Ukraine,2021-07-20,Moderna,1620
Ukraine,2021-07-20,Oxford/AstraZeneca,1377495
Ukraine,2021-07-20,Pfizer/BioNTech,1554447
Ukraine,2021-07-20,Sinovac,1345626
Ukraine,2021-07-21,Johnson&Johnson,478
Ukraine,2021-07-21,Moderna,13062
Ukraine,2021-07-21,Oxford/AstraZeneca,1401969
Ukraine,2021-07-21,Pfizer/BioNTech,1599785
Ukraine,2021-07-21,Sinovac,1384462
Ukraine,2021-07-22,Johnson&Johnson,478
Ukraine,2021-07-22,Moderna,39960
Ukraine,2021-07-22,Oxford/AstraZeneca,1432043
Ukraine,2021-07-22,Pfizer/BioNTech,1641800
Ukraine,2021-07-22,Sinovac,1424916
Ukraine,2021-07-23,Johnson&Johnson,478
Ukraine,2021-07-23,Moderna,77752
Ukraine,2021-07-23,Oxford/AstraZeneca,1459287
Ukraine,2021-07-23,Pfizer/BioNTech,1689210
Ukraine,2021-07-23,Sinovac,1465145
Ukraine,2021-07-24,Johnson&Johnson,478
Ukraine,2021-07-24,Moderna,99462
Ukraine,2021-07-24,Oxford/AstraZeneca,1463592
Ukraine,2021-07-24,Pfizer/BioNTech,1715752
Ukraine,2021-07-24,Sinovac,1484159
Ukraine,2021-07-25,Johnson&Johnson,478
Ukraine,2021-07-25,Moderna,116720
Ukraine,2021-07-25,Oxford/AstraZeneca,1464572
Ukraine,2021-07-25,Pfizer/BioNTech,1731433
Ukraine,2021-07-25,Sinovac,1499297
Ukraine,2021-07-26,Johnson&Johnson,478
Ukraine,2021-07-26,Moderna,156971
Ukraine,2021-07-26,Oxford/AstraZeneca,1483311
Ukraine,2021-07-26,Pfizer/BioNTech,1770234
Ukraine,2021-07-26,Sinovac,1527602
Ukraine,2021-07-27,Johnson&Johnson,478
Ukraine,2021-07-27,Moderna,205264
Ukraine,2021-07-27,Oxford/AstraZeneca,1505280
Ukraine,2021-07-27,Pfizer/BioNTech,1810880
Ukraine,2021-07-27,Sinovac,1560022
Ukraine,2021-07-28,Johnson&Johnson,497
Ukraine,2021-07-28,Moderna,255290
Ukraine,2021-07-28,Oxford/AstraZeneca,1528400
Ukraine,2021-07-28,Pfizer/BioNTech,1848966
Ukraine,2021-07-28,Sinovac,1592718
Ukraine,2021-07-29,Johnson&Johnson,497
Ukraine,2021-07-29,Moderna,306758
Ukraine,2021-07-29,Oxford/AstraZeneca,1552611
Ukraine,2021-07-29,Pfizer/BioNTech,1888177
Ukraine,2021-07-29,Sinovac,1628081
Ukraine,2021-07-30,Johnson&Johnson,497
Ukraine,2021-07-30,Moderna,358445
Ukraine,2021-07-30,Oxford/AstraZeneca,1570729
Ukraine,2021-07-30,Pfizer/BioNTech,1935512
Ukraine,2021-07-30,Sinovac,1661021
Ukraine,2021-07-31,Johnson&Johnson,497
Ukraine,2021-07-31,Moderna,384397
Ukraine,2021-07-31,Oxford/AstraZeneca,1576178
Ukraine,2021-07-31,Pfizer/BioNTech,1955134
Ukraine,2021-07-31,Sinovac,1678497
Ukraine,2021-08-01,Johnson&Johnson,497
Ukraine,2021-08-01,Moderna,401037
Ukraine,2021-08-01,Oxford/AstraZeneca,1576830
Ukraine,2021-08-01,Pfizer/BioNTech,1965250
Ukraine,2021-08-01,Sinovac,1689169
Ukraine,2021-08-02,Johnson&Johnson,497
Ukraine,2021-08-02,Moderna,441688
Ukraine,2021-08-02,Oxford/AstraZeneca,1584341
Ukraine,2021-08-02,Pfizer/BioNTech,2014405
Ukraine,2021-08-02,Sinovac,1717013
Ukraine,2021-08-03,Johnson&Johnson,497
Ukraine,2021-08-03,Moderna,494610
Ukraine,2021-08-03,Oxford/AstraZeneca,1593446
Ukraine,2021-08-03,Pfizer/BioNTech,2071495
Ukraine,2021-08-03,Sinovac,1751154
Ukraine,2021-08-04,Johnson&Johnson,497
Ukraine,2021-08-04,Moderna,550215
Ukraine,2021-08-04,Oxford/AstraZeneca,1603004
Ukraine,2021-08-04,Pfizer/BioNTech,2130956
Ukraine,2021-08-04,Sinovac,1785651
Ukraine,2021-08-05,Johnson&Johnson,497
Ukraine,2021-08-05,Moderna,609594
Ukraine,2021-08-05,Oxford/AstraZeneca,1613255
Ukraine,2021-08-05,Pfizer/BioNTech,2192546
Ukraine,2021-08-05,Sinovac,1821814
Ukraine,2021-08-06,Johnson&Johnson,1997
Ukraine,2021-08-06,Moderna,668690
Ukraine,2021-08-06,Oxford/AstraZeneca,1623104
Ukraine,2021-08-06,Pfizer/BioNTech,2257420
Ukraine,2021-08-06,Sinovac,1857097
Ukraine,2021-08-07,Johnson&Johnson,3497
Ukraine,2021-08-07,Moderna,697483
Ukraine,2021-08-07,Oxford/AstraZeneca,1625391
Ukraine,2021-08-07,Pfizer/BioNTech,2286224
Ukraine,2021-08-07,Sinovac,1874678
Ukraine,2021-08-08,Johnson&Johnson,5497
Ukraine,2021-08-08,Moderna,714930
Ukraine,2021-08-08,Oxford/AstraZeneca,1626160
Ukraine,2021-08-08,Pfizer/BioNTech,2305795
Ukraine,2021-08-08,Sinovac,1886336
Ukraine,2021-08-09,Johnson&Johnson,5497
Ukraine,2021-08-09,Moderna,763868
Ukraine,2021-08-09,Oxford/AstraZeneca,1632996
Ukraine,2021-08-09,Pfizer/BioNTech,2358898
Ukraine,2021-08-09,Sinovac,1917467
Ukraine,2021-08-10,Johnson&Johnson,5497
Ukraine,2021-08-10,Moderna,823606
Ukraine,2021-08-10,Oxford/AstraZeneca,1641608
Ukraine,2021-08-10,Pfizer/BioNTech,2418395
Ukraine,2021-08-10,Sinovac,1957293
Ukraine,2021-08-11,Johnson&Johnson,7497
Ukraine,2021-08-11,Moderna,878149
Ukraine,2021-08-11,Oxford/AstraZeneca,1650551
Ukraine,2021-08-11,Pfizer/BioNTech,2475466
Ukraine,2021-08-11,Sinovac,1996785
Ukraine,2021-08-12,Johnson&Johnson,8497
Ukraine,2021-08-12,Moderna,937741
Ukraine,2021-08-12,Oxford/AstraZeneca,1658937
Ukraine,2021-08-12,Pfizer/BioNTech,2527848
Ukraine,2021-08-12,Sinovac,2038735
Ukraine,2021-08-13,Johnson&Johnson,10497
Ukraine,2021-08-13,Moderna,993492
Ukraine,2021-08-13,Oxford/AstraZeneca,1667224
Ukraine,2021-08-13,Pfizer/BioNTech,2581594
Ukraine,2021-08-13,Sinovac,2080743
Ukraine,2021-08-14,Johnson&Johnson,11497
Ukraine,2021-08-14,Moderna,1018316
Ukraine,2021-08-14,Oxford/AstraZeneca,1669542
Ukraine,2021-08-14,Pfizer/BioNTech,2611707
Ukraine,2021-08-14,Sinovac,2098636
Ukraine,2021-08-15,Johnson&Johnson,12997
Ukraine,2021-08-15,Moderna,1037116
Ukraine,2021-08-15,Oxford/AstraZeneca,1670630
Ukraine,2021-08-15,Pfizer/BioNTech,2631231
Ukraine,2021-08-15,Sinovac,2108792
Ukraine,2021-08-16,Johnson&Johnson,13997
Ukraine,2021-08-16,Moderna,1066876
Ukraine,2021-08-16,Oxford/AstraZeneca,1676934
Ukraine,2021-08-16,Pfizer/BioNTech,2676931
Ukraine,2021-08-16,Sinovac,2149665
Ukraine,2021-08-17,Johnson&Johnson,13997
Ukraine,2021-08-17,Moderna,1067220
Ukraine,2021-08-17,Oxford/AstraZeneca,1685060
Ukraine,2021-08-17,Pfizer/BioNTech,2735923
Ukraine,2021-08-17,Sinovac,2200797
Ukraine,2021-08-18,Johnson&Johnson,16297
Ukraine,2021-08-18,Moderna,1069856
Ukraine,2021-08-18,Oxford/AstraZeneca,1694282
Ukraine,2021-08-18,Pfizer/BioNTech,2791843
Ukraine,2021-08-18,Sinovac,2250723
Ukraine,2021-08-19,Johnson&Johnson,16297
Ukraine,2021-08-19,Moderna,1094262
Ukraine,2021-08-19,Oxford/AstraZeneca,1703799
Ukraine,2021-08-19,Pfizer/BioNTech,2842571
Ukraine,2021-08-19,Sinovac,2295099
Ukraine,2021-08-20,Johnson&Johnson,16297
Ukraine,2021-08-20,Moderna,1132477
Ukraine,2021-08-20,Oxford/AstraZeneca,1715615
Ukraine,2021-08-20,Pfizer/BioNTech,2893746
Ukraine,2021-08-20,Sinovac,2341011
Ukraine,2021-08-21,Johnson&Johnson,16297
Ukraine,2021-08-21,Moderna,1152511
Ukraine,2021-08-21,Oxford/AstraZeneca,1719249
Ukraine,2021-08-21,Pfizer/BioNTech,2918803
Ukraine,2021-08-21,Sinovac,2358459
Ukraine,2021-08-22,Johnson&Johnson,16297
Ukraine,2021-08-22,Moderna,1166838
Ukraine,2021-08-22,Oxford/AstraZeneca,1721628
Ukraine,2021-08-22,Pfizer/BioNTech,2936854
Ukraine,2021-08-22,Sinovac,2366417
Ukraine,2021-08-23,Johnson&Johnson,16297
Ukraine,2021-08-23,Moderna,1187626
Ukraine,2021-08-23,Oxford/AstraZeneca,1727893
Ukraine,2021-08-23,Pfizer/BioNTech,2960984
Ukraine,2021-08-23,Sinovac,2386661
Ukraine,2021-08-24,Johnson&Johnson,16961
Ukraine,2021-08-24,Moderna,1194377
Ukraine,2021-08-24,Oxford/AstraZeneca,1729161
Ukraine,2021-08-24,Pfizer/BioNTech,2968744
Ukraine,2021-08-24,Sinovac,2390957
Ukraine,2021-08-25,Johnson&Johnson,16961
Ukraine,2021-08-25,Moderna,1260097
Ukraine,2021-08-25,Oxford/AstraZeneca,1739344
Ukraine,2021-08-25,Pfizer/BioNTech,3015518
Ukraine,2021-08-25,Sinovac,2430690
Ukraine,2021-08-26,Johnson&Johnson,18252
Ukraine,2021-08-26,Moderna,1323980
Ukraine,2021-08-26,Oxford/AstraZeneca,1752037
Ukraine,2021-08-26,Pfizer/BioNTech,3068887
Ukraine,2021-08-26,Sinovac,2472889
Ukraine,2021-08-27,Johnson&Johnson,18252
Ukraine,2021-08-27,Moderna,1380767
Ukraine,2021-08-27,Oxford/AstraZeneca,1766557
Ukraine,2021-08-27,Pfizer/BioNTech,3122175
Ukraine,2021-08-27,Sinovac,2514845
Ukraine,2021-08-28,Johnson&Johnson,18252
Ukraine,2021-08-28,Moderna,1412802
Ukraine,2021-08-28,Oxford/AstraZeneca,1774056
Ukraine,2021-08-28,Pfizer/BioNTech,3150101
Ukraine,2021-08-28,Sinovac,2534952
Ukraine,2021-08-29,Johnson&Johnson,18252
Ukraine,2021-08-29,Moderna,1428491
Ukraine,2021-08-29,Oxford/AstraZeneca,1777291
Ukraine,2021-08-29,Pfizer/BioNTech,3164602
Ukraine,2021-08-29,Sinovac,2543004
Ukraine,2021-08-30,Johnson&Johnson,18252
Ukraine,2021-08-30,Moderna,1480775
Ukraine,2021-08-30,Oxford/AstraZeneca,1791327
Ukraine,2021-08-30,Pfizer/BioNTech,3211322
Ukraine,2021-08-30,Sinovac,2580446
Ukraine,2021-08-31,Johnson&Johnson,18252
Ukraine,2021-08-31,Moderna,1533693
Ukraine,2021-08-31,Oxford/AstraZeneca,1804114
Ukraine,2021-08-31,Pfizer/BioNTech,3261101
Ukraine,2021-08-31,Sinovac,2622011
Ukraine,2021-09-01,Johnson&Johnson,18252
Ukraine,2021-09-01,Moderna,1576727
Ukraine,2021-09-01,Oxford/AstraZeneca,1808614
Ukraine,2021-09-01,Pfizer/BioNTech,3301023
Ukraine,2021-09-01,Sinovac,2653577
Ukraine,2021-09-02,Johnson&Johnson,18252
Ukraine,2021-09-02,Moderna,1633642
Ukraine,2021-09-02,Oxford/AstraZeneca,1814767
Ukraine,2021-09-02,Pfizer/BioNTech,3354853
Ukraine,2021-09-02,Sinovac,2689451
Ukraine,2021-09-03,Johnson&Johnson,18252
Ukraine,2021-09-03,Moderna,1697081
Ukraine,2021-09-03,Oxford/AstraZeneca,1821678
Ukraine,2021-09-03,Pfizer/BioNTech,3412919
Ukraine,2021-09-03,Sinovac,2728524
Ukraine,2021-09-04,Johnson&Johnson,18252
Ukraine,2021-09-04,Moderna,1723846
Ukraine,2021-09-04,Oxford/AstraZeneca,1824694
Ukraine,2021-09-04,Pfizer/BioNTech,3437622
Ukraine,2021-09-04,Sinovac,2743300
Ukraine,2021-09-05,Johnson&Johnson,19252
Ukraine,2021-09-05,Moderna,1740754
Ukraine,2021-09-05,Oxford/AstraZeneca,1826201
Ukraine,2021-09-05,Pfizer/BioNTech,3451907
Ukraine,2021-09-05,Sinovac,2751387
Ukraine,2021-09-06,Johnson&Johnson,19252
Ukraine,2021-09-06,Moderna,1793578
Ukraine,2021-09-06,Oxford/AstraZeneca,1832006
Ukraine,2021-09-06,Pfizer/BioNTech,3496081
Ukraine,2021-09-06,Sinovac,2782506
Ukraine,2021-09-07,Johnson&Johnson,19252
Ukraine,2021-09-07,Moderna,1848353
Ukraine,2021-09-07,Oxford/AstraZeneca,1840055
Ukraine,2021-09-07,Pfizer/BioNTech,3550093
Ukraine,2021-09-07,Sinovac,2815288
Ukraine,2021-09-08,Johnson&Johnson,19252
Ukraine,2021-09-08,Moderna,1902028
Ukraine,2021-09-08,Oxford/AstraZeneca,1850422
Ukraine,2021-09-08,Pfizer/BioNTech,3610042
Ukraine,2021-09-08,Sinovac,2852466
Ukraine,2021-09-09,Johnson&Johnson,19252
Ukraine,2021-09-09,Moderna,1955333
Ukraine,2021-09-09,Oxford/AstraZeneca,1864044
Ukraine,2021-09-09,Pfizer/BioNTech,3674563
Ukraine,2021-09-09,Sinovac,2894633
Ukraine,2021-09-10,Johnson&Johnson,19252
Ukraine,2021-09-10,Moderna,2011351
Ukraine,2021-09-10,Oxford/AstraZeneca,1880650
Ukraine,2021-09-10,Pfizer/BioNTech,3743248
Ukraine,2021-09-10,Sinovac,2936851
Ukraine,2021-09-11,Johnson&Johnson,19252
Ukraine,2021-09-11,Moderna,2034510
Ukraine,2021-09-11,Oxford/AstraZeneca,1886133
Ukraine,2021-09-11,Pfizer/BioNTech,3773133
Ukraine,2021-09-11,Sinovac,2952768
Ukraine,2021-09-12,Johnson&Johnson,20052
Ukraine,2021-09-12,Moderna,2049898
Ukraine,2021-09-12,Oxford/AstraZeneca,1889112
Ukraine,2021-09-12,Pfizer/BioNTech,3791301
Ukraine,2021-09-12,Sinovac,2960581
Ukraine,2021-09-13,Johnson&Johnson,20052
Ukraine,2021-09-13,Moderna,2091726
Ukraine,2021-09-13,Oxford/AstraZeneca,1904030
Ukraine,2021-09-13,Pfizer/BioNTech,3838853
Ukraine,2021-09-13,Sinovac,2991506
Ukraine,2021-09-14,Johnson&Johnson,20052
Ukraine,2021-09-14,Moderna,2130300
Ukraine,2021-09-14,Oxford/AstraZeneca,1921335
Ukraine,2021-09-14,Pfizer/BioNTech,3889652
Ukraine,2021-09-14,Sinovac,3026624
Ukraine,2021-09-15,Johnson&Johnson,20052
Ukraine,2021-09-15,Moderna,2133812
Ukraine,2021-09-15,Oxford/AstraZeneca,1939987
Ukraine,2021-09-15,Pfizer/BioNTech,3949595
Ukraine,2021-09-15,Sinovac,3063303
Ukraine,2021-09-16,Johnson&Johnson,20052
Ukraine,2021-09-16,Moderna,2133932
Ukraine,2021-09-16,Oxford/AstraZeneca,1961254
Ukraine,2021-09-16,Pfizer/BioNTech,4014106
Ukraine,2021-09-16,Sinovac,3100311
Ukraine,2021-09-17,Johnson&Johnson,20052
Ukraine,2021-09-17,Moderna,2133932
Ukraine,2021-09-17,Oxford/AstraZeneca,1985011
Ukraine,2021-09-17,Pfizer/BioNTech,4084547
Ukraine,2021-09-17,Sinovac,3138672
Ukraine,2021-09-18,Johnson&Johnson,20052
Ukraine,2021-09-18,Moderna,2133932
Ukraine,2021-09-18,Oxford/AstraZeneca,1993321
Ukraine,2021-09-18,Pfizer/BioNTech,4119721
Ukraine,2021-09-18,Sinovac,3153793
Ukraine,2021-09-19,Johnson&Johnson,20680
Ukraine,2021-09-19,Moderna,2133932
Ukraine,2021-09-19,Oxford/AstraZeneca,1997827
Ukraine,2021-09-19,Pfizer/BioNTech,4142386
Ukraine,2021-09-19,Sinovac,3162023
Ukraine,2021-09-20,Johnson&Johnson,20680
Ukraine,2021-09-20,Moderna,2133932
Ukraine,2021-09-20,Oxford/AstraZeneca,2018715
Ukraine,2021-09-20,Pfizer/BioNTech,4199140
Ukraine,2021-09-20,Sinovac,3193117
Ukraine,2021-09-21,Johnson&Johnson,20680
Ukraine,2021-09-21,Moderna,2133932
Ukraine,2021-09-21,Oxford/AstraZeneca,2039053
Ukraine,2021-09-21,Pfizer/BioNTech,4262497
Ukraine,2021-09-21,Sinovac,3225427
Ukraine,2021-09-22,Johnson&Johnson,20680
Ukraine,2021-09-22,Moderna,2133932
Ukraine,2021-09-22,Oxford/AstraZeneca,2063094
Ukraine,2021-09-22,Pfizer/BioNTech,4337607
Ukraine,2021-09-22,Sinovac,3271044
Ukraine,2021-09-23,Johnson&Johnson,20680
Ukraine,2021-09-23,Moderna,2133932
Ukraine,2021-09-23,Oxford/AstraZeneca,2090547
Ukraine,2021-09-23,Pfizer/BioNTech,4414731
Ukraine,2021-09-23,Sinovac,3320095
Ukraine,2021-09-24,Johnson&Johnson,20680
Ukraine,2021-09-24,Moderna,2133932
Ukraine,2021-09-24,Oxford/AstraZeneca,2117460
Ukraine,2021-09-24,Pfizer/BioNTech,4499498
Ukraine,2021-09-24,Sinovac,3367419
Ukraine,2021-09-25,Johnson&Johnson,20680
Ukraine,2021-09-25,Moderna,2133932
Ukraine,2021-09-25,Oxford/AstraZeneca,2128467
Ukraine,2021-09-25,Pfizer/BioNTech,4536312
Ukraine,2021-09-25,Sinovac,3383819
Ukraine,2021-09-26,Johnson&Johnson,20680
Ukraine,2021-09-26,Moderna,2133932
Ukraine,2021-09-26,Oxford/AstraZeneca,2134561
Ukraine,2021-09-26,Pfizer/BioNTech,4558226
Ukraine,2021-09-26,Sinovac,3392964
Ukraine,2021-09-27,Johnson&Johnson,20680
Ukraine,2021-09-27,Moderna,2133932
Ukraine,2021-09-27,Oxford/AstraZeneca,2158055
Ukraine,2021-09-27,Pfizer/BioNTech,4618710
Ukraine,2021-09-27,Sinovac,3428364
Ukraine,2021-09-28,Johnson&Johnson,20680
Ukraine,2021-09-28,Moderna,2133932
Ukraine,2021-09-28,Oxford/AstraZeneca,2182428
Ukraine,2021-09-28,Pfizer/BioNTech,4687168
Ukraine,2021-09-28,Sinovac,3467779
Ukraine,2021-09-29,Johnson&Johnson,20680
Ukraine,2021-09-29,Moderna,2133932
Ukraine,2021-09-29,Oxford/AstraZeneca,2203270
Ukraine,2021-09-29,Pfizer/BioNTech,4756597
Ukraine,2021-09-29,Sinovac,3503511
Ukraine,2021-09-30,Johnson&Johnson,20680
Ukraine,2021-09-30,Moderna,2133932
Ukraine,2021-09-30,Oxford/AstraZeneca,2224726
Ukraine,2021-09-30,Pfizer/BioNTech,4828144
Ukraine,2021-09-30,Sinovac,3540041
Ukraine,2021-10-01,Johnson&Johnson,20680
Ukraine,2021-10-01,Moderna,2133932
Ukraine,2021-10-01,Oxford/AstraZeneca,2243794
Ukraine,2021-10-01,Pfizer/BioNTech,4902151
Ukraine,2021-10-01,Sinovac,3575036
Ukraine,2021-10-02,Johnson&Johnson,20680
Ukraine,2021-10-02,Moderna,2133932
Ukraine,2021-10-02,Oxford/AstraZeneca,2252214
Ukraine,2021-10-02,Pfizer/BioNTech,4934011
Ukraine,2021-10-02,Sinovac,3587746
Ukraine,2021-10-03,Johnson&Johnson,20680
Ukraine,2021-10-03,Moderna,2133932
Ukraine,2021-10-03,Oxford/AstraZeneca,2258225
Ukraine,2021-10-03,Pfizer/BioNTech,4954764
Ukraine,2021-10-03,Sinovac,3594906
Ukraine,2021-10-04,Johnson&Johnson,20680
Ukraine,2021-10-04,Moderna,2133932
Ukraine,2021-10-04,Oxford/AstraZeneca,2273681
Ukraine,2021-10-04,Pfizer/BioNTech,5010159
Ukraine,2021-10-04,Sinovac,3624386
Ukraine,2021-10-05,Johnson&Johnson,20680
Ukraine,2021-10-05,Moderna,2133932
Ukraine,2021-10-05,Oxford/AstraZeneca,2293426
Ukraine,2021-10-05,Pfizer/BioNTech,5072902
Ukraine,2021-10-05,Sinovac,3659132
Ukraine,2021-10-06,Johnson&Johnson,20680
Ukraine,2021-10-06,Moderna,2133932
Ukraine,2021-10-06,Oxford/AstraZeneca,2311554
Ukraine,2021-10-06,Pfizer/BioNTech,5140334
Ukraine,2021-10-06,Sinovac,3695870
Ukraine,2021-10-07,Johnson&Johnson,20680
Ukraine,2021-10-07,Moderna,2133932
Ukraine,2021-10-07,Oxford/AstraZeneca,2331364
Ukraine,2021-10-07,Pfizer/BioNTech,5210669
Ukraine,2021-10-07,Sinovac,3733410
Ukraine,2021-10-08,Johnson&Johnson,20680
Ukraine,2021-10-08,Moderna,2133932
Ukraine,2021-10-08,Oxford/AstraZeneca,2354373
Ukraine,2021-10-08,Pfizer/BioNTech,5292775
Ukraine,2021-10-08,Sinovac,3777030
Ukraine,2021-10-09,Johnson&Johnson,20680
Ukraine,2021-10-09,Moderna,2133932
Ukraine,2021-10-09,Oxford/AstraZeneca,2363992
Ukraine,2021-10-09,Pfizer/BioNTech,5331995
Ukraine,2021-10-09,Sinovac,3794244
Ukraine,2021-10-10,Johnson&Johnson,20680
Ukraine,2021-10-10,Moderna,2133932
Ukraine,2021-10-10,Oxford/AstraZeneca,2370759
Ukraine,2021-10-10,Pfizer/BioNTech,5355185
Ukraine,2021-10-10,Sinovac,3803347
Ukraine,2021-10-11,Johnson&Johnson,20680
Ukraine,2021-10-11,Moderna,2133932
Ukraine,2021-10-11,Oxford/AstraZeneca,2393558
Ukraine,2021-10-11,Pfizer/BioNTech,5418438
Ukraine,2021-10-11,Sinovac,3840525
Ukraine,2021-10-12,Johnson&Johnson,20680
Ukraine,2021-10-12,Moderna,2133932
Ukraine,2021-10-12,Oxford/AstraZeneca,2419877
Ukraine,2021-10-12,Pfizer/BioNTech,5499670
Ukraine,2021-10-12,Sinovac,3885677
Ukraine,2021-10-13,Johnson&Johnson,20680
Ukraine,2021-10-13,Moderna,2133932
Ukraine,2021-10-13,Oxford/AstraZeneca,2447663
Ukraine,2021-10-13,Pfizer/BioNTech,5589331
Ukraine,2021-10-13,Sinovac,3932617
Ukraine,2021-10-14,Johnson&Johnson,20680
Ukraine,2021-10-14,Moderna,2133932
Ukraine,2021-10-14,Oxford/AstraZeneca,2453703
Ukraine,2021-10-14,Pfizer/BioNTech,5610328
Ukraine,2021-10-14,Sinovac,3940477
Ukraine,2021-10-15,Johnson&Johnson,20680
Ukraine,2021-10-15,Moderna,2133932
Ukraine,2021-10-15,Oxford/AstraZeneca,2480483
Ukraine,2021-10-15,Pfizer/BioNTech,5693018
Ukraine,2021-10-15,Sinovac,3979445
Ukraine,2021-10-16,Johnson&Johnson,20680
Ukraine,2021-10-16,Moderna,2133932
Ukraine,2021-10-16,Oxford/AstraZeneca,2494003
Ukraine,2021-10-16,Pfizer/BioNTech,5741260
Ukraine,2021-10-16,Sinovac,4000483
Ukraine,2021-10-17,Johnson&Johnson,20680
Ukraine,2021-10-17,Moderna,2133932
Ukraine,2021-10-17,Oxford/AstraZeneca,2502686
Ukraine,2021-10-17,Pfizer/BioNTech,5773863
Ukraine,2021-10-17,Sinovac,4015094
Ukraine,2021-10-18,Johnson&Johnson,20680
Ukraine,2021-10-18,Moderna,2133932
Ukraine,2021-10-18,Oxford/AstraZeneca,2539195
Ukraine,2021-10-18,Pfizer/BioNTech,5870992
Ukraine,2021-10-18,Sinovac,4074525
Ukraine,2021-10-19,Johnson&Johnson,20680
Ukraine,2021-10-19,Moderna,2133932
Ukraine,2021-10-19,Oxford/AstraZeneca,2581885
Ukraine,2021-10-19,Pfizer/BioNTech,5983778
Ukraine,2021-10-19,Sinovac,4145636
Ukraine,2021-10-20,Johnson&Johnson,20680
Ukraine,2021-10-20,Moderna,2133932
Ukraine,2021-10-20,Oxford/AstraZeneca,2628045
Ukraine,2021-10-20,Pfizer/BioNTech,6109797
Ukraine,2021-10-20,Sinovac,4224711
Ukraine,2021-10-21,Johnson&Johnson,20680
Ukraine,2021-10-21,Moderna,2133932
Ukraine,2021-10-21,Oxford/AstraZeneca,2676896
Ukraine,2021-10-21,Pfizer/BioNTech,6243029
Ukraine,2021-10-21,Sinovac,4312294
Ukraine,2021-10-22,Johnson&Johnson,20680
Ukraine,2021-10-22,Moderna,2133932
Ukraine,2021-10-22,Oxford/AstraZeneca,2729100
Ukraine,2021-10-22,Pfizer/BioNTech,6386215
Ukraine,2021-10-22,Sinovac,4406372
Ukraine,2021-10-23,Johnson&Johnson,20680
Ukraine,2021-10-23,Moderna,2133932
Ukraine,2021-10-23,Oxford/AstraZeneca,2758864
Ukraine,2021-10-23,Pfizer/BioNTech,6477996
Ukraine,2021-10-23,Sinovac,4462557
Ukraine,2021-10-24,Johnson&Johnson,20680
Ukraine,2021-10-24,Moderna,2133932
Ukraine,2021-10-24,Oxford/AstraZeneca,2778559
Ukraine,2021-10-24,Pfizer/BioNTech,6531175
Ukraine,2021-10-24,Sinovac,4491014
Ukraine,2021-10-25,Johnson&Johnson,20680
Ukraine,2021-10-25,Moderna,2133932
Ukraine,2021-10-25,Oxford/AstraZeneca,2824088
Ukraine,2021-10-25,Pfizer/BioNTech,6654095
Ukraine,2021-10-25,Sinovac,4577485
Ukraine,2021-10-26,Johnson&Johnson,20680
Ukraine,2021-10-26,Moderna,2133932
Ukraine,2021-10-26,Oxford/AstraZeneca,2878362
Ukraine,2021-10-26,Pfizer/BioNTech,6791062
Ukraine,2021-10-26,Sinovac,4677537
Ukraine,2021-10-27,Johnson&Johnson,20680
Ukraine,2021-10-27,Moderna,2133932
Ukraine,2021-10-27,Oxford/AstraZeneca,2934606
Ukraine,2021-10-27,Pfizer/BioNTech,6925824
Ukraine,2021-10-27,Sinovac,4778516
Ukraine,2021-10-28,Johnson&Johnson,20680
Ukraine,2021-10-28,Moderna,2133932
Ukraine,2021-10-28,Oxford/AstraZeneca,2995512
Ukraine,2021-10-28,Pfizer/BioNTech,7053163
Ukraine,2021-10-28,Sinovac,4879512
Ukraine,2021-10-29,Johnson&Johnson,20680
Ukraine,2021-10-29,Moderna,2133932
Ukraine,2021-10-29,Oxford/AstraZeneca,3053525
Ukraine,2021-10-29,Pfizer/BioNTech,7193288
Ukraine,2021-10-29,Sinovac,4998583
Ukraine,2021-10-30,Johnson&Johnson,20680
Ukraine,2021-10-30,Moderna,2133932
Ukraine,2021-10-30,Oxford/AstraZeneca,3085949
Ukraine,2021-10-30,Pfizer/BioNTech,7272665
Ukraine,2021-10-30,Sinovac,5064547
Ukraine,2021-10-31,Johnson&Johnson,20680
Ukraine,2021-10-31,Moderna,2133932
Ukraine,2021-10-31,Oxford/AstraZeneca,3104675
Ukraine,2021-10-31,Pfizer/BioNTech,7331268
Ukraine,2021-10-31,Sinovac,5105036
Ukraine,2021-11-01,Johnson&Johnson,20680
Ukraine,2021-11-01,Moderna,2133932
Ukraine,2021-11-01,Oxford/AstraZeneca,3126198
Ukraine,2021-11-01,Pfizer/BioNTech,7462160
Ukraine,2021-11-01,Sinovac,5225928
Ukraine,2021-11-02,Johnson&Johnson,20680
Ukraine,2021-11-02,Moderna,2133932
Ukraine,2021-11-02,Oxford/AstraZeneca,3156456
Ukraine,2021-11-02,Pfizer/BioNTech,7609370
Ukraine,2021-11-02,Sinovac,5358899
Ukraine,2021-11-03,Johnson&Johnson,20680
Ukraine,2021-11-03,Moderna,2133932
Ukraine,2021-11-03,Oxford/AstraZeneca,3189471
Ukraine,2021-11-03,Pfizer/BioNTech,7744138
Ukraine,2021-11-03,Sinovac,5490388
Ukraine,2021-11-04,Johnson&Johnson,20680
Ukraine,2021-11-04,Moderna,2133932
Ukraine,2021-11-04,Oxford/AstraZeneca,3222314
Ukraine,2021-11-04,Pfizer/BioNTech,7852048
Ukraine,2021-11-04,Sinovac,5619955
Ukraine,2021-11-05,Johnson&Johnson,20680
Ukraine,2021-11-05,Moderna,2133932
Ukraine,2021-11-05,Oxford/AstraZeneca,3254614
Ukraine,2021-11-05,Pfizer/BioNTech,7960373
Ukraine,2021-11-05,Sinovac,5758247
Ukraine,2021-11-06,Johnson&Johnson,20680
Ukraine,2021-11-06,Moderna,2133932
Ukraine,2021-11-06,Oxford/AstraZeneca,3270389
Ukraine,2021-11-06,Pfizer/BioNTech,8014949
Ukraine,2021-11-06,Sinovac,5819302
Ukraine,2021-11-07,Johnson&Johnson,20680
Ukraine,2021-11-07,Moderna,2133932
Ukraine,2021-11-07,Oxford/AstraZeneca,3278967
Ukraine,2021-11-07,Pfizer/BioNTech,8055432
Ukraine,2021-11-07,Sinovac,5855324
Ukraine,2021-11-08,Johnson&Johnson,20680
Ukraine,2021-11-08,Moderna,2133932
Ukraine,2021-11-08,Oxford/AstraZeneca,3303822
Ukraine,2021-11-08,Pfizer/BioNTech,8158461
Ukraine,2021-11-08,Sinovac,5967880
Ukraine,2021-11-09,Johnson&Johnson,20680
Ukraine,2021-11-09,Moderna,2133932
Ukraine,2021-11-09,Oxford/AstraZeneca,3328050
Ukraine,2021-11-09,Pfizer/BioNTech,8284598
Ukraine,2021-11-09,Sinovac,6084916
Ukraine,2021-11-10,Johnson&Johnson,20680
Ukraine,2021-11-10,Moderna,2133942
Ukraine,2021-11-10,Oxford/AstraZeneca,3351490
Ukraine,2021-11-10,Pfizer/BioNTech,8418022
Ukraine,2021-11-10,Sinovac,6205139
Ukraine,2021-11-11,Johnson&Johnson,20680
Ukraine,2021-11-11,Moderna,2135266
Ukraine,2021-11-11,Oxford/AstraZeneca,3370767
Ukraine,2021-11-11,Pfizer/BioNTech,8559388
Ukraine,2021-11-11,Sinovac,6322308
Ukraine,2021-11-12,Johnson&Johnson,20680
Ukraine,2021-11-12,Moderna,2139570
Ukraine,2021-11-12,Oxford/AstraZeneca,3392565
Ukraine,2021-11-12,Pfizer/BioNTech,8711072
Ukraine,2021-11-12,Sinovac,6444376
Ukraine,2021-11-13,Johnson&Johnson,20680
Ukraine,2021-11-13,Moderna,2143052
Ukraine,2021-11-13,Oxford/AstraZeneca,3402279
Ukraine,2021-11-13,Pfizer/BioNTech,8787638
Ukraine,2021-11-13,Sinovac,6499855
Ukraine,2021-11-14,Johnson&Johnson,20680
Ukraine,2021-11-14,Moderna,2145818
Ukraine,2021-11-14,Oxford/AstraZeneca,3410177
Ukraine,2021-11-14,Pfizer/BioNTech,8838711
Ukraine,2021-11-14,Sinovac,6535491
Ukraine,2021-11-15,Johnson&Johnson,20680
Ukraine,2021-11-15,Moderna,2153410
Ukraine,2021-11-15,Oxford/AstraZeneca,3433061
Ukraine,2021-11-15,Pfizer/BioNTech,8965341
Ukraine,2021-11-15,Sinovac,6646473
Ukraine,2021-11-16,Johnson&Johnson,20680
Ukraine,2021-11-16,Moderna,2163748
Ukraine,2021-11-16,Oxford/AstraZeneca,3459243
Ukraine,2021-11-16,Pfizer/BioNTech,9101042
Ukraine,2021-11-16,Sinovac,6769107
