date,location,vaccine,source_url,total_vaccinations,people_vaccinated,people_fully_vaccinated,total_boosters
2020-12-27,Germany,"Moderna, Pfizer/BioNTech",https://impfdashboard.de/,24355,24344,11,0
2020-12-28,Germany,"Moderna, Pfizer/BioNTech",https://impfdashboard.de/,42459,42384,75,0
2020-12-29,Germany,"Moderna, Oxford/AstraZeneca, Pfizer/BioNTech",https://impfdashboard.de/,93182,92454,727,1
2020-12-30,Germany,"Moderna, Oxford/AstraZeneca, Pfizer/BioNTech",https://impfdashboard.de/,157311,156551,759,1
2020-12-31,Germany,"Moderna, Oxford/AstraZeneca, Pfizer/BioNTech",https://impfdashboard.de/,207320,206473,846,1
2021-01-01,Germany,"Johnson&Johnson, Moderna, Oxford/AstraZeneca, Pfizer/BioNTech",https://impfdashboard.de/,232831,231973,857,2
2021-01-02,Germany,"Johnson&Johnson, Moderna, Oxford/AstraZeneca, Pfizer/BioNTech",https://impfdashboard.de/,280918,279982,935,2
2021-01-03,Germany,"Johnson&Johnson, Moderna, Oxford/AstraZeneca, Pfizer/BioNTech",https://impfdashboard.de/,303480,302539,940,2
2021-01-04,Germany,"Johnson&Johnson, Moderna, Oxford/AstraZeneca, Pfizer/BioNTech",https://impfdashboard.de/,349652,348612,1056,2
2021-01-05,Germany,"Johnson&Johnson, Moderna, Oxford/AstraZeneca, Pfizer/BioNTech",https://impfdashboard.de/,402347,401220,1143,2
2021-01-06,Germany,"Johnson&Johnson, Moderna, Oxford/AstraZeneca, Pfizer/BioNTech",https://impfdashboard.de/,465508,464295,1229,2
2021-01-07,Germany,"Johnson&Johnson, Moderna, Oxford/AstraZeneca, Pfizer/BioNTech",https://impfdashboard.de/,520288,519055,1250,2
2021-01-08,Germany,"Johnson&Johnson, Moderna, Oxford/AstraZeneca, Pfizer/BioNTech",https://impfdashboard.de/,583113,581777,1353,2
2021-01-09,Germany,"Johnson&Johnson, Moderna, Oxford/AstraZeneca, Pfizer/BioNTech",https://impfdashboard.de/,643851,642370,1498,2
2021-01-10,Germany,"Johnson&Johnson, Moderna, Oxford/AstraZeneca, Pfizer/BioNTech",https://impfdashboard.de/,679842,678248,1611,2
2021-01-11,Germany,"Johnson&Johnson, Moderna, Oxford/AstraZeneca, Pfizer/BioNTech",https://impfdashboard.de/,748092,746444,1665,2
2021-01-12,Germany,"Johnson&Johnson, Moderna, Oxford/AstraZeneca, Pfizer/BioNTech",https://impfdashboard.de/,827224,825514,1728,2
2021-01-13,Germany,"Johnson&Johnson, Moderna, Oxford/AstraZeneca, Pfizer/BioNTech",https://impfdashboard.de/,939411,937500,1929,2
2021-01-14,Germany,"Johnson&Johnson, Moderna, Oxford/AstraZeneca, Pfizer/BioNTech",https://impfdashboard.de/,1023510,1021386,2142,2
2021-01-15,Germany,"Johnson&Johnson, Moderna, Oxford/AstraZeneca, Pfizer/BioNTech",https://impfdashboard.de/,1115305,1112263,3062,2
2021-01-16,Germany,"Johnson&Johnson, Moderna, Oxford/AstraZeneca, Pfizer/BioNTech",https://impfdashboard.de/,1173381,1169118,4284,2
2021-01-17,Germany,"Johnson&Johnson, Moderna, Oxford/AstraZeneca, Pfizer/BioNTech",https://impfdashboard.de/,1221187,1199913,21296,2
2021-01-18,Germany,"Johnson&Johnson, Moderna, Oxford/AstraZeneca, Pfizer/BioNTech",https://impfdashboard.de/,1304166,1267279,36909,2
2021-01-19,Germany,"Johnson&Johnson, Moderna, Oxford/AstraZeneca, Pfizer/BioNTech",https://impfdashboard.de/,1423853,1350916,72959,2
2021-01-20,Germany,"Johnson&Johnson, Moderna, Oxford/AstraZeneca, Pfizer/BioNTech",https://impfdashboard.de/,1556635,1429926,126731,2
2021-01-21,Germany,"Johnson&Johnson, Moderna, Oxford/AstraZeneca, Pfizer/BioNTech",https://impfdashboard.de/,1662177,1494540,167658,3
2021-01-22,Germany,"Johnson&Johnson, Moderna, Oxford/AstraZeneca, Pfizer/BioNTech",https://impfdashboard.de/,1764508,1563285,201244,3
2021-01-23,Germany,"Johnson&Johnson, Moderna, Oxford/AstraZeneca, Pfizer/BioNTech",https://impfdashboard.de/,1851557,1603788,247790,3
2021-01-24,Germany,"Johnson&Johnson, Moderna, Oxford/AstraZeneca, Pfizer/BioNTech",https://impfdashboard.de/,1899379,1629474,269926,3
2021-01-25,Germany,"Johnson&Johnson, Moderna, Oxford/AstraZeneca, Pfizer/BioNTech",https://impfdashboard.de/,1990392,1681749,308664,3
2021-01-26,Germany,"Johnson&Johnson, Moderna, Oxford/AstraZeneca, Pfizer/BioNTech",https://impfdashboard.de/,2088802,1732419,356400,7
2021-01-27,Germany,"Johnson&Johnson, Moderna, Oxford/AstraZeneca, Pfizer/BioNTech",https://impfdashboard.de/,2198225,1783360,414883,7
2021-01-28,Germany,"Johnson&Johnson, Moderna, Oxford/AstraZeneca, Pfizer/BioNTech",https://impfdashboard.de/,2290758,1830174,460602,7
2021-01-29,Germany,"Johnson&Johnson, Moderna, Oxford/AstraZeneca, Pfizer/BioNTech",https://impfdashboard.de/,2398474,1880001,518491,7
2021-01-30,Germany,"Johnson&Johnson, Moderna, Oxford/AstraZeneca, Pfizer/BioNTech",https://impfdashboard.de/,2486583,1914613,571990,7
2021-01-31,Germany,"Johnson&Johnson, Moderna, Oxford/AstraZeneca, Pfizer/BioNTech",https://impfdashboard.de/,2543809,1940372,603457,7
2021-02-01,Germany,"Johnson&Johnson, Moderna, Oxford/AstraZeneca, Pfizer/BioNTech",https://impfdashboard.de/,2663976,1998653,665342,8
2021-02-02,Germany,"Johnson&Johnson, Moderna, Oxford/AstraZeneca, Pfizer/BioNTech",https://impfdashboard.de/,2796784,2064182,732621,8
2021-02-03,Germany,"Johnson&Johnson, Moderna, Oxford/AstraZeneca, Pfizer/BioNTech",https://impfdashboard.de/,2959768,2128769,831018,8
2021-02-04,Germany,"Johnson&Johnson, Moderna, Oxford/AstraZeneca, Pfizer/BioNTech",https://impfdashboard.de/,3094346,2190843,903521,9
2021-02-05,Germany,"Johnson&Johnson, Moderna, Oxford/AstraZeneca, Pfizer/BioNTech",https://impfdashboard.de/,3241894,2260207,981705,9
2021-02-06,Germany,"Johnson&Johnson, Moderna, Oxford/AstraZeneca, Pfizer/BioNTech",https://impfdashboard.de/,3336047,2305809,1030256,9
2021-02-07,Germany,"Johnson&Johnson, Moderna, Oxford/AstraZeneca, Pfizer/BioNTech",https://impfdashboard.de/,3389617,2334101,1055535,9
2021-02-08,Germany,"Johnson&Johnson, Moderna, Oxford/AstraZeneca, Pfizer/BioNTech",https://impfdashboard.de/,3499095,2387140,1111975,9
2021-02-09,Germany,"Johnson&Johnson, Moderna, Oxford/AstraZeneca, Pfizer/BioNTech",https://impfdashboard.de/,3633675,2447377,1186317,10
2021-02-10,Germany,"Johnson&Johnson, Moderna, Oxford/AstraZeneca, Pfizer/BioNTech",https://impfdashboard.de/,3789190,2525161,1264049,10
2021-02-11,Germany,"Johnson&Johnson, Moderna, Oxford/AstraZeneca, Pfizer/BioNTech",https://impfdashboard.de/,3933728,2600715,1333035,10
2021-02-12,Germany,"Johnson&Johnson, Moderna, Oxford/AstraZeneca, Pfizer/BioNTech",https://impfdashboard.de/,4089948,2680976,1408997,10
2021-02-13,Germany,"Johnson&Johnson, Moderna, Oxford/AstraZeneca, Pfizer/BioNTech",https://impfdashboard.de/,4197801,2743029,1454798,10
2021-02-14,Germany,"Johnson&Johnson, Moderna, Oxford/AstraZeneca, Pfizer/BioNTech",https://impfdashboard.de/,4263264,2782659,1480632,10
2021-02-15,Germany,"Johnson&Johnson, Moderna, Oxford/AstraZeneca, Pfizer/BioNTech",https://impfdashboard.de/,4389108,2852834,1536312,10
2021-02-16,Germany,"Johnson&Johnson, Moderna, Oxford/AstraZeneca, Pfizer/BioNTech",https://impfdashboard.de/,4523910,2931195,1592754,10
2021-02-17,Germany,"Johnson&Johnson, Moderna, Oxford/AstraZeneca, Pfizer/BioNTech",https://impfdashboard.de/,4675773,3026617,1649196,10
2021-02-18,Germany,"Johnson&Johnson, Moderna, Oxford/AstraZeneca, Pfizer/BioNTech",https://impfdashboard.de/,4820627,3118153,1702518,11
2021-02-19,Germany,"Johnson&Johnson, Moderna, Oxford/AstraZeneca, Pfizer/BioNTech",https://impfdashboard.de/,4979702,3221305,1758442,11
2021-02-20,Germany,"Johnson&Johnson, Moderna, Oxford/AstraZeneca, Pfizer/BioNTech",https://impfdashboard.de/,5092200,3297478,1794769,11
2021-02-21,Germany,"Johnson&Johnson, Moderna, Oxford/AstraZeneca, Pfizer/BioNTech",https://impfdashboard.de/,5178215,3355190,1823073,11
2021-02-22,Germany,"Johnson&Johnson, Moderna, Oxford/AstraZeneca, Pfizer/BioNTech",https://impfdashboard.de/,5334887,3453485,1881451,11
2021-02-23,Germany,"Johnson&Johnson, Moderna, Oxford/AstraZeneca, Pfizer/BioNTech",https://impfdashboard.de/,5505463,3563482,1942031,11
2021-02-24,Germany,"Johnson&Johnson, Moderna, Oxford/AstraZeneca, Pfizer/BioNTech",https://impfdashboard.de/,5682505,3681079,2001476,12
2021-02-25,Germany,"Johnson&Johnson, Moderna, Oxford/AstraZeneca, Pfizer/BioNTech",https://impfdashboard.de/,5872795,3812022,2060822,13
2021-02-26,Germany,"Johnson&Johnson, Moderna, Oxford/AstraZeneca, Pfizer/BioNTech",https://impfdashboard.de/,6086846,3958431,2128463,14
2021-02-27,Germany,"Johnson&Johnson, Moderna, Oxford/AstraZeneca, Pfizer/BioNTech",https://impfdashboard.de/,6234949,4066722,2168276,14
2021-02-28,Germany,"Johnson&Johnson, Moderna, Oxford/AstraZeneca, Pfizer/BioNTech",https://impfdashboard.de/,6338438,4146005,2192471,27
2021-03-01,Germany,"Johnson&Johnson, Moderna, Oxford/AstraZeneca, Pfizer/BioNTech",https://impfdashboard.de/,6537826,4295370,2242494,27
2021-03-02,Germany,"Johnson&Johnson, Moderna, Oxford/AstraZeneca, Pfizer/BioNTech",https://impfdashboard.de/,6757989,4463279,2294748,27
2021-03-03,Germany,"Johnson&Johnson, Moderna, Oxford/AstraZeneca, Pfizer/BioNTech",https://impfdashboard.de/,7006530,4641028,2365540,27
2021-03-04,Germany,"Johnson&Johnson, Moderna, Oxford/AstraZeneca, Pfizer/BioNTech",https://impfdashboard.de/,7252431,4823584,2428884,28
2021-03-05,Germany,"Johnson&Johnson, Moderna, Oxford/AstraZeneca, Pfizer/BioNTech",https://impfdashboard.de/,7528059,5031761,2496335,29
2021-03-06,Germany,"Johnson&Johnson, Moderna, Oxford/AstraZeneca, Pfizer/BioNTech",https://impfdashboard.de/,7730905,5185866,2545076,29
2021-03-07,Germany,"Johnson&Johnson, Moderna, Oxford/AstraZeneca, Pfizer/BioNTech",https://impfdashboard.de/,7878791,5300224,2578604,29
2021-03-08,Germany,"Johnson&Johnson, Moderna, Oxford/AstraZeneca, Pfizer/BioNTech",https://impfdashboard.de/,8117076,5486640,2630473,29
2021-03-09,Germany,"Johnson&Johnson, Moderna, Oxford/AstraZeneca, Pfizer/BioNTech",https://impfdashboard.de/,8370090,5684688,2685438,30
2021-03-10,Germany,"Johnson&Johnson, Moderna, Oxford/AstraZeneca, Pfizer/BioNTech",https://impfdashboard.de/,8660030,5907163,2752902,32
2021-03-11,Germany,"Johnson&Johnson, Moderna, Oxford/AstraZeneca, Pfizer/BioNTech",https://impfdashboard.de/,8945185,6131354,2813865,33
2021-03-12,Germany,"Johnson&Johnson, Moderna, Oxford/AstraZeneca, Pfizer/BioNTech",https://impfdashboard.de/,9272862,6387912,2884984,33
2021-03-13,Germany,"Johnson&Johnson, Moderna, Oxford/AstraZeneca, Pfizer/BioNTech",https://impfdashboard.de/,9514134,6578790,2935378,33
2021-03-14,Germany,"Johnson&Johnson, Moderna, Oxford/AstraZeneca, Pfizer/BioNTech",https://impfdashboard.de/,9684585,6713540,2971077,35
2021-03-15,Germany,"Johnson&Johnson, Moderna, Oxford/AstraZeneca, Pfizer/BioNTech",https://impfdashboard.de/,9933519,6903165,3030386,35
2021-03-16,Germany,"Johnson&Johnson, Moderna, Oxford/AstraZeneca, Pfizer/BioNTech",https://impfdashboard.de/,10113042,7014365,3098709,35
2021-03-17,Germany,"Johnson&Johnson, Moderna, Oxford/AstraZeneca, Pfizer/BioNTech",https://impfdashboard.de/,10318905,7139048,3179889,35
2021-03-18,Germany,"Johnson&Johnson, Moderna, Oxford/AstraZeneca, Pfizer/BioNTech",https://impfdashboard.de/,10512955,7257291,3255696,35
2021-03-19,Germany,"Johnson&Johnson, Moderna, Oxford/AstraZeneca, Pfizer/BioNTech",https://impfdashboard.de/,10758858,7418526,3340363,36
2021-03-20,Germany,"Johnson&Johnson, Moderna, Oxford/AstraZeneca, Pfizer/BioNTech",https://impfdashboard.de/,10979713,7585979,3393764,37
2021-03-21,Germany,"Johnson&Johnson, Moderna, Oxford/AstraZeneca, Pfizer/BioNTech",https://impfdashboard.de/,11144629,7712572,3432088,37
2021-03-22,Germany,"Johnson&Johnson, Moderna, Oxford/AstraZeneca, Pfizer/BioNTech",https://impfdashboard.de/,11414599,7905815,3508812,40
2021-03-23,Germany,"Johnson&Johnson, Moderna, Oxford/AstraZeneca, Pfizer/BioNTech",https://impfdashboard.de/,11716296,8123119,3593206,40
2021-03-24,Germany,"Johnson&Johnson, Moderna, Oxford/AstraZeneca, Pfizer/BioNTech",https://impfdashboard.de/,12056704,8373830,3682905,40
2021-03-25,Germany,"Johnson&Johnson, Moderna, Oxford/AstraZeneca, Pfizer/BioNTech",https://impfdashboard.de/,12390632,8626387,3764276,41
2021-03-26,Germany,"Johnson&Johnson, Moderna, Oxford/AstraZeneca, Pfizer/BioNTech",https://impfdashboard.de/,12766093,8912788,3853337,42
2021-03-27,Germany,"Johnson&Johnson, Moderna, Oxford/AstraZeneca, Pfizer/BioNTech",https://impfdashboard.de/,13048018,9132229,3915823,42
2021-03-28,Germany,"Johnson&Johnson, Moderna, Oxford/AstraZeneca, Pfizer/BioNTech",https://impfdashboard.de/,13244782,9275655,3969162,42
2021-03-29,Germany,"Johnson&Johnson, Moderna, Oxford/AstraZeneca, Pfizer/BioNTech",https://impfdashboard.de/,13551290,9493182,4058143,42
2021-03-30,Germany,"Johnson&Johnson, Moderna, Oxford/AstraZeneca, Pfizer/BioNTech",https://impfdashboard.de/,13881227,9730173,4151087,44
2021-03-31,Germany,"Johnson&Johnson, Moderna, Oxford/AstraZeneca, Pfizer/BioNTech",https://impfdashboard.de/,14219016,9966023,4253025,45
2021-04-01,Germany,"Johnson&Johnson, Moderna, Oxford/AstraZeneca, Pfizer/BioNTech",https://impfdashboard.de/,14547476,10203202,4344307,45
2021-04-02,Germany,"Johnson&Johnson, Moderna, Oxford/AstraZeneca, Pfizer/BioNTech",https://impfdashboard.de/,14773697,10361304,4412425,46
2021-04-03,Germany,"Johnson&Johnson, Moderna, Oxford/AstraZeneca, Pfizer/BioNTech",https://impfdashboard.de/,15006197,10529123,4477106,46
2021-04-04,Germany,"Johnson&Johnson, Moderna, Oxford/AstraZeneca, Pfizer/BioNTech",https://impfdashboard.de/,15199636,10671974,4527696,46
2021-04-05,Germany,"Johnson&Johnson, Moderna, Oxford/AstraZeneca, Pfizer/BioNTech",https://impfdashboard.de/,15448104,10850018,4598116,50
2021-04-06,Germany,"Johnson&Johnson, Moderna, Oxford/AstraZeneca, Pfizer/BioNTech",https://impfdashboard.de/,15822441,11129451,4693017,55
2021-04-07,Germany,"Johnson&Johnson, Moderna, Oxford/AstraZeneca, Pfizer/BioNTech",https://impfdashboard.de/,16491557,11702025,4789558,56
2021-04-08,Germany,"Johnson&Johnson, Moderna, Oxford/AstraZeneca, Pfizer/BioNTech",https://impfdashboard.de/,17191746,12314307,4877463,59
2021-04-09,Germany,"Johnson&Johnson, Moderna, Oxford/AstraZeneca, Pfizer/BioNTech",https://impfdashboard.de/,17825147,12858562,4966611,59
2021-04-10,Germany,"Johnson&Johnson, Moderna, Oxford/AstraZeneca, Pfizer/BioNTech",https://impfdashboard.de/,18198244,13166505,5031765,59
2021-04-11,Germany,"Johnson&Johnson, Moderna, Oxford/AstraZeneca, Pfizer/BioNTech",https://impfdashboard.de/,18462562,13380383,5082205,59
2021-04-12,Germany,"Johnson&Johnson, Moderna, Oxford/AstraZeneca, Pfizer/BioNTech",https://impfdashboard.de/,18882001,13723322,5158704,61
2021-04-13,Germany,"Johnson&Johnson, Moderna, Oxford/AstraZeneca, Pfizer/BioNTech",https://impfdashboard.de/,19459774,14227282,5232515,63
2021-04-14,Germany,"Johnson&Johnson, Moderna, Oxford/AstraZeneca, Pfizer/BioNTech",https://impfdashboard.de/,20236462,14920592,5315891,65
2021-04-15,Germany,"Johnson&Johnson, Moderna, Oxford/AstraZeneca, Pfizer/BioNTech",https://impfdashboard.de/,20918667,15532457,5386232,65
2021-04-16,Germany,"Johnson&Johnson, Moderna, Oxford/AstraZeneca, Pfizer/BioNTech",https://impfdashboard.de/,21517043,16056447,5460616,67
2021-04-17,Germany,"Johnson&Johnson, Moderna, Oxford/AstraZeneca, Pfizer/BioNTech",https://impfdashboard.de/,21883627,16366324,5517322,68
2021-04-18,Germany,"Johnson&Johnson, Moderna, Oxford/AstraZeneca, Pfizer/BioNTech",https://impfdashboard.de/,22153575,16597185,5556407,70
2021-04-19,Germany,"Johnson&Johnson, Moderna, Oxford/AstraZeneca, Pfizer/BioNTech",https://impfdashboard.de/,22557095,16939141,5617968,74
2021-04-20,Germany,"Johnson&Johnson, Moderna, Oxford/AstraZeneca, Pfizer/BioNTech",https://impfdashboard.de/,23119308,17438420,5680902,76
2021-04-21,Germany,"Johnson&Johnson, Moderna, Oxford/AstraZeneca, Pfizer/BioNTech",https://impfdashboard.de/,23841875,18087558,5754330,77
2021-04-22,Germany,"Johnson&Johnson, Moderna, Oxford/AstraZeneca, Pfizer/BioNTech",https://impfdashboard.de/,24481823,18660097,5821736,80
2021-04-23,Germany,"Johnson&Johnson, Moderna, Oxford/AstraZeneca, Pfizer/BioNTech",https://impfdashboard.de/,25039359,19148390,5890979,81
2021-04-24,Germany,"Johnson&Johnson, Moderna, Oxford/AstraZeneca, Pfizer/BioNTech",https://impfdashboard.de/,25405684,19455553,5950141,81
2021-04-25,Germany,"Johnson&Johnson, Moderna, Oxford/AstraZeneca, Pfizer/BioNTech",https://impfdashboard.de/,25689132,19689808,5999334,81
2021-04-26,Germany,"Johnson&Johnson, Moderna, Oxford/AstraZeneca, Pfizer/BioNTech",https://impfdashboard.de/,26123235,20049784,6073532,81
2021-04-27,Germany,"Johnson&Johnson, Moderna, Oxford/AstraZeneca, Pfizer/BioNTech",https://impfdashboard.de/,26910015,20744929,6165714,87
2021-04-28,Germany,"Johnson&Johnson, Moderna, Oxford/AstraZeneca, Pfizer/BioNTech",https://impfdashboard.de/,28034782,21743140,6293104,88
2021-04-29,Germany,"Johnson&Johnson, Moderna, Oxford/AstraZeneca, Pfizer/BioNTech",https://impfdashboard.de/,28982804,22558072,6427105,90
2021-04-30,Germany,"Johnson&Johnson, Moderna, Oxford/AstraZeneca, Pfizer/BioNTech",https://impfdashboard.de/,29788478,23227026,6564726,90
2021-05-01,Germany,"Johnson&Johnson, Moderna, Oxford/AstraZeneca, Pfizer/BioNTech",https://impfdashboard.de/,30125297,23490052,6641137,95
2021-05-02,Germany,"Johnson&Johnson, Moderna, Oxford/AstraZeneca, Pfizer/BioNTech",https://impfdashboard.de/,30390643,23689727,6708615,97
2021-05-03,Germany,"Johnson&Johnson, Moderna, Oxford/AstraZeneca, Pfizer/BioNTech",https://impfdashboard.de/,30843611,24027645,6825342,100
2021-05-04,Germany,"Johnson&Johnson, Moderna, Oxford/AstraZeneca, Pfizer/BioNTech",https://impfdashboard.de/,31687757,24712792,6987396,102
2021-05-05,Germany,"Johnson&Johnson, Moderna, Oxford/AstraZeneca, Pfizer/BioNTech",https://impfdashboard.de/,32836799,25633221,7220605,103
2021-05-06,Germany,"Johnson&Johnson, Moderna, Oxford/AstraZeneca, Pfizer/BioNTech",https://impfdashboard.de/,33829754,26406134,7445273,107
2021-05-07,Germany,"Johnson&Johnson, Moderna, Oxford/AstraZeneca, Pfizer/BioNTech",https://impfdashboard.de/,34722801,27064577,7684371,111
2021-05-08,Germany,"Johnson&Johnson, Moderna, Oxford/AstraZeneca, Pfizer/BioNTech",https://impfdashboard.de/,35149275,27338417,7838731,113
2021-05-09,Germany,"Johnson&Johnson, Moderna, Oxford/AstraZeneca, Pfizer/BioNTech",https://impfdashboard.de/,35435866,27523400,7941408,113
2021-05-10,Germany,"Johnson&Johnson, Moderna, Oxford/AstraZeneca, Pfizer/BioNTech",https://impfdashboard.de/,36026427,27923850,8135409,117
2021-05-11,Germany,"Johnson&Johnson, Moderna, Oxford/AstraZeneca, Pfizer/BioNTech",https://impfdashboard.de/,37114083,28726517,8424174,118
2021-05-12,Germany,"Johnson&Johnson, Moderna, Oxford/AstraZeneca, Pfizer/BioNTech",https://impfdashboard.de/,38532321,29782885,8791876,120
2021-05-13,Germany,"Johnson&Johnson, Moderna, Oxford/AstraZeneca, Pfizer/BioNTech",https://impfdashboard.de/,38962082,30054252,8952937,122
2021-05-14,Germany,"Johnson&Johnson, Moderna, Oxford/AstraZeneca, Pfizer/BioNTech",https://impfdashboard.de/,39719766,30589041,9183678,123
2021-05-15,Germany,"Johnson&Johnson, Moderna, Oxford/AstraZeneca, Pfizer/BioNTech",https://impfdashboard.de/,40120653,30828449,9349438,125
2021-05-16,Germany,"Johnson&Johnson, Moderna, Oxford/AstraZeneca, Pfizer/BioNTech",https://impfdashboard.de/,40403202,30993999,9471168,125
2021-05-17,Germany,"Johnson&Johnson, Moderna, Oxford/AstraZeneca, Pfizer/BioNTech",https://impfdashboard.de/,40959614,31354012,9677461,129
2021-05-18,Germany,"Johnson&Johnson, Moderna, Oxford/AstraZeneca, Pfizer/BioNTech",https://impfdashboard.de/,41832840,31880083,10032475,132
2021-05-19,Germany,"Johnson&Johnson, Moderna, Oxford/AstraZeneca, Pfizer/BioNTech",https://impfdashboard.de/,42932054,32456677,10567386,135
2021-05-20,Germany,"Johnson&Johnson, Moderna, Oxford/AstraZeneca, Pfizer/BioNTech",https://impfdashboard.de/,43881835,32923787,11061153,137
2021-05-21,Germany,"Johnson&Johnson, Moderna, Oxford/AstraZeneca, Pfizer/BioNTech",https://impfdashboard.de/,44734284,33342246,11507166,139
2021-05-22,Germany,"Johnson&Johnson, Moderna, Oxford/AstraZeneca, Pfizer/BioNTech",https://impfdashboard.de/,45208700,33571753,11766363,142
2021-05-23,Germany,"Johnson&Johnson, Moderna, Oxford/AstraZeneca, Pfizer/BioNTech",https://impfdashboard.de/,45494165,33705603,11926844,144
2021-05-24,Germany,"Johnson&Johnson, Moderna, Oxford/AstraZeneca, Pfizer/BioNTech",https://impfdashboard.de/,45820430,33854911,12111848,150
2021-05-25,Germany,"Johnson&Johnson, Moderna, Oxford/AstraZeneca, Pfizer/BioNTech",https://impfdashboard.de/,46476880,34152538,12495930,153
2021-05-26,Germany,"Johnson&Johnson, Moderna, Oxford/AstraZeneca, Pfizer/BioNTech",https://impfdashboard.de/,47657414,34700865,13206500,157
2021-05-27,Germany,"Johnson&Johnson, Moderna, Oxford/AstraZeneca, Pfizer/BioNTech",https://impfdashboard.de/,48699641,35186658,13844190,162
2021-05-28,Germany,"Johnson&Johnson, Moderna, Oxford/AstraZeneca, Pfizer/BioNTech",https://impfdashboard.de/,49604996,35627482,14392682,164
2021-05-29,Germany,"Johnson&Johnson, Moderna, Oxford/AstraZeneca, Pfizer/BioNTech",https://impfdashboard.de/,50016033,35807505,14651511,169
2021-05-30,Germany,"Johnson&Johnson, Moderna, Oxford/AstraZeneca, Pfizer/BioNTech",https://impfdashboard.de/,50300064,35916530,14837602,170
2021-05-31,Germany,"Johnson&Johnson, Moderna, Oxford/AstraZeneca, Pfizer/BioNTech",https://impfdashboard.de/,50847944,36137951,15206600,170
2021-06-01,Germany,"Johnson&Johnson, Moderna, Oxford/AstraZeneca, Pfizer/BioNTech",https://impfdashboard.de/,51837542,36623032,15795748,228
2021-06-02,Germany,"Johnson&Johnson, Moderna, Oxford/AstraZeneca, Pfizer/BioNTech",https://impfdashboard.de/,53087456,37245358,16528337,229
2021-06-03,Germany,"Johnson&Johnson, Moderna, Oxford/AstraZeneca, Pfizer/BioNTech",https://impfdashboard.de/,53731288,37529622,16941224,230
2021-06-04,Germany,"Johnson&Johnson, Moderna, Oxford/AstraZeneca, Pfizer/BioNTech",https://impfdashboard.de/,54543529,37898947,17461425,231
2021-06-05,Germany,"Johnson&Johnson, Moderna, Oxford/AstraZeneca, Pfizer/BioNTech",https://impfdashboard.de/,54956871,38026117,17778259,231
2021-06-06,Germany,"Johnson&Johnson, Moderna, Oxford/AstraZeneca, Pfizer/BioNTech",https://impfdashboard.de/,55249467,38104022,18011219,231
2021-06-07,Germany,"Johnson&Johnson, Moderna, Oxford/AstraZeneca, Pfizer/BioNTech",https://impfdashboard.de/,55864583,38352238,18432630,231
2021-06-08,Germany,"Johnson&Johnson, Moderna, Oxford/AstraZeneca, Pfizer/BioNTech",https://impfdashboard.de/,56922720,38765988,19145493,238
2021-06-09,Germany,"Johnson&Johnson, Moderna, Oxford/AstraZeneca, Pfizer/BioNTech",https://impfdashboard.de/,58351325,39315095,20121006,243
2021-06-10,Germany,"Johnson&Johnson, Moderna, Oxford/AstraZeneca, Pfizer/BioNTech",https://impfdashboard.de/,59546953,39812381,20907906,248
2021-06-11,Germany,"Johnson&Johnson, Moderna, Oxford/AstraZeneca, Pfizer/BioNTech",https://impfdashboard.de/,60613735,40277562,21606345,251
2021-06-12,Germany,"Johnson&Johnson, Moderna, Oxford/AstraZeneca, Pfizer/BioNTech",https://impfdashboard.de/,61050558,40437702,21918274,252
2021-06-13,Germany,"Johnson&Johnson, Moderna, Oxford/AstraZeneca, Pfizer/BioNTech",https://impfdashboard.de/,61333665,40516472,22136408,252
2021-06-14,Germany,"Johnson&Johnson, Moderna, Oxford/AstraZeneca, Pfizer/BioNTech",https://impfdashboard.de/,61990354,40787578,22577234,253
2021-06-15,Germany,"Johnson&Johnson, Moderna, Oxford/AstraZeneca, Pfizer/BioNTech",https://impfdashboard.de/,63041412,41197742,23277254,253
2021-06-16,Germany,"Johnson&Johnson, Moderna, Oxford/AstraZeneca, Pfizer/BioNTech",https://impfdashboard.de/,64428310,41744470,24193734,263
2021-06-17,Germany,"Johnson&Johnson, Moderna, Oxford/AstraZeneca, Pfizer/BioNTech",https://impfdashboard.de/,65579750,42216222,24941721,263
2021-06-18,Germany,"Johnson&Johnson, Moderna, Oxford/AstraZeneca, Pfizer/BioNTech",https://impfdashboard.de/,66575162,42633229,25589016,271
2021-06-19,Germany,"Johnson&Johnson, Moderna, Oxford/AstraZeneca, Pfizer/BioNTech",https://impfdashboard.de/,67003335,42774769,25896808,272
2021-06-20,Germany,"Johnson&Johnson, Moderna, Oxford/AstraZeneca, Pfizer/BioNTech",https://impfdashboard.de/,67298520,42855657,26123920,272
2021-06-21,Germany,"Johnson&Johnson, Moderna, Oxford/AstraZeneca, Pfizer/BioNTech",https://impfdashboard.de/,67931653,43103413,26545695,273
2021-06-22,Germany,"Johnson&Johnson, Moderna, Oxford/AstraZeneca, Pfizer/BioNTech",https://impfdashboard.de/,69012363,43516964,27247277,276
2021-06-23,Germany,"Johnson&Johnson, Moderna, Oxford/AstraZeneca, Pfizer/BioNTech",https://impfdashboard.de/,70351633,44044203,28094173,280
2021-06-24,Germany,"Johnson&Johnson, Moderna, Oxford/AstraZeneca, Pfizer/BioNTech",https://impfdashboard.de/,71391185,44577654,28640852,282
2021-06-25,Germany,"Johnson&Johnson, Moderna, Oxford/AstraZeneca, Pfizer/BioNTech",https://impfdashboard.de/,72314859,45001468,29181162,289
2021-06-26,Germany,"Johnson&Johnson, Moderna, Oxford/AstraZeneca, Pfizer/BioNTech",https://impfdashboard.de/,72725705,45152472,29454269,293
2021-06-27,Germany,"Johnson&Johnson, Moderna, Oxford/AstraZeneca, Pfizer/BioNTech",https://impfdashboard.de/,73017972,45246835,29656322,297
2021-06-28,Germany,"Johnson&Johnson, Moderna, Oxford/AstraZeneca, Pfizer/BioNTech",https://impfdashboard.de/,73648822,45516652,30041920,298
2021-06-29,Germany,"Johnson&Johnson, Moderna, Oxford/AstraZeneca, Pfizer/BioNTech",https://impfdashboard.de/,74584895,45931339,30585984,298
2021-06-30,Germany,"Johnson&Johnson, Moderna, Oxford/AstraZeneca, Pfizer/BioNTech",https://impfdashboard.de/,75611202,46408948,31157696,304
2021-07-01,Germany,"Johnson&Johnson, Moderna, Oxford/AstraZeneca, Pfizer/BioNTech",https://impfdashboard.de/,76597472,46888114,31687699,311
2021-07-02,Germany,"Johnson&Johnson, Moderna, Oxford/AstraZeneca, Pfizer/BioNTech",https://impfdashboard.de/,77447430,47293221,32154821,314
2021-07-03,Germany,"Johnson&Johnson, Moderna, Oxford/AstraZeneca, Pfizer/BioNTech",https://impfdashboard.de/,77825650,47458537,32382975,320
2021-07-04,Germany,"Johnson&Johnson, Moderna, Oxford/AstraZeneca, Pfizer/BioNTech",https://impfdashboard.de/,78099282,47560897,32563160,325
2021-07-05,Germany,"Johnson&Johnson, Moderna, Oxford/AstraZeneca, Pfizer/BioNTech",https://impfdashboard.de/,78637403,47773881,32903247,333
2021-07-06,Germany,"Johnson&Johnson, Moderna, Oxford/AstraZeneca, Pfizer/BioNTech",https://impfdashboard.de/,79419040,48062796,33411926,338
2021-07-07,Germany,"Johnson&Johnson, Moderna, Oxford/AstraZeneca, Pfizer/BioNTech",https://impfdashboard.de/,80418727,48408483,34085085,345
2021-07-08,Germany,"Johnson&Johnson, Moderna, Oxford/AstraZeneca, Pfizer/BioNTech",https://impfdashboard.de/,81270504,48693766,34671095,356
2021-07-09,Germany,"Johnson&Johnson, Moderna, Oxford/AstraZeneca, Pfizer/BioNTech",https://impfdashboard.de/,82030987,48936029,35210003,368
2021-07-10,Germany,"Johnson&Johnson, Moderna, Oxford/AstraZeneca, Pfizer/BioNTech",https://impfdashboard.de/,82375214,49042436,35457605,373
2021-07-11,Germany,"Johnson&Johnson, Moderna, Oxford/AstraZeneca, Pfizer/BioNTech",https://impfdashboard.de/,82603521,49112349,35624292,378
2021-07-12,Germany,"Johnson&Johnson, Moderna, Oxford/AstraZeneca, Pfizer/BioNTech",https://impfdashboard.de/,83073773,49279176,35941829,390
2021-07-13,Germany,"Johnson&Johnson, Moderna, Oxford/AstraZeneca, Pfizer/BioNTech",https://impfdashboard.de/,83838734,49480832,36525150,404
2021-07-14,Germany,"Johnson&Johnson, Moderna, Oxford/AstraZeneca, Pfizer/BioNTech",https://impfdashboard.de/,84817628,49709360,37298575,413
2021-07-15,Germany,"Johnson&Johnson, Moderna, Oxford/AstraZeneca, Pfizer/BioNTech",https://impfdashboard.de/,85588718,49904812,37896855,420
2021-07-16,Germany,"Johnson&Johnson, Moderna, Oxford/AstraZeneca, Pfizer/BioNTech",https://impfdashboard.de/,86251689,50079908,38406963,433
2021-07-17,Germany,"Johnson&Johnson, Moderna, Oxford/AstraZeneca, Pfizer/BioNTech",https://impfdashboard.de/,86524633,50170258,38608131,441
2021-07-18,Germany,"Johnson&Johnson, Moderna, Oxford/AstraZeneca, Pfizer/BioNTech",https://impfdashboard.de/,86725268,50242086,38748252,446
2021-07-19,Germany,"Johnson&Johnson, Moderna, Oxford/AstraZeneca, Pfizer/BioNTech",https://impfdashboard.de/,87108588,50349076,39038866,457
2021-07-20,Germany,"Johnson&Johnson, Moderna, Oxford/AstraZeneca, Pfizer/BioNTech",https://impfdashboard.de/,87719279,50491091,39521880,484
2021-07-21,Germany,"Johnson&Johnson, Moderna, Oxford/AstraZeneca, Pfizer/BioNTech",https://impfdashboard.de/,88478372,50661400,40124548,490
2021-07-22,Germany,"Johnson&Johnson, Moderna, Oxford/AstraZeneca, Pfizer/BioNTech",https://impfdashboard.de/,89103677,50797771,40627114,508
2021-07-23,Germany,"Johnson&Johnson, Moderna, Oxford/AstraZeneca, Pfizer/BioNTech",https://impfdashboard.de/,89677313,50930990,41085874,530
2021-07-24,Germany,"Johnson&Johnson, Moderna, Oxford/AstraZeneca, Pfizer/BioNTech",https://impfdashboard.de/,89889608,50996444,41244677,552
2021-07-25,Germany,"Johnson&Johnson, Moderna, Oxford/AstraZeneca, Pfizer/BioNTech",https://impfdashboard.de/,90014294,51034833,41336875,558
2021-07-26,Germany,"Johnson&Johnson, Moderna, Oxford/AstraZeneca, Pfizer/BioNTech",https://impfdashboard.de/,90354303,51118637,41604209,575
2021-07-27,Germany,"Johnson&Johnson, Moderna, Oxford/AstraZeneca, Pfizer/BioNTech",https://impfdashboard.de/,90910252,51230998,42060767,627
2021-07-28,Germany,"Johnson&Johnson, Moderna, Oxford/AstraZeneca, Pfizer/BioNTech",https://impfdashboard.de/,91603872,51368307,42630773,759
2021-07-29,Germany,"Johnson&Johnson, Moderna, Oxford/AstraZeneca, Pfizer/BioNTech",https://impfdashboard.de/,92184530,51489498,43104897,886
2021-07-30,Germany,"Johnson&Johnson, Moderna, Oxford/AstraZeneca, Pfizer/BioNTech",https://impfdashboard.de/,92684184,51601179,43508802,1072
2021-07-31,Germany,"Johnson&Johnson, Moderna, Oxford/AstraZeneca, Pfizer/BioNTech",https://impfdashboard.de/,92879815,51661682,43656242,1257
2021-08-01,Germany,"Johnson&Johnson, Moderna, Oxford/AstraZeneca, Pfizer/BioNTech",https://impfdashboard.de/,92997333,51698772,43742407,1428
2021-08-02,Germany,"Johnson&Johnson, Moderna, Oxford/AstraZeneca, Pfizer/BioNTech",https://impfdashboard.de/,93292394,51769720,43977660,1582
2021-08-03,Germany,"Johnson&Johnson, Moderna, Oxford/AstraZeneca, Pfizer/BioNTech",https://impfdashboard.de/,93756654,51860807,44363931,1812
2021-08-04,Germany,"Johnson&Johnson, Moderna, Oxford/AstraZeneca, Pfizer/BioNTech",https://impfdashboard.de/,94332201,51972549,44840317,2077
2021-08-05,Germany,"Johnson&Johnson, Moderna, Oxford/AstraZeneca, Pfizer/BioNTech",https://impfdashboard.de/,94852376,52073484,45273807,2302
2021-08-06,Germany,"Johnson&Johnson, Moderna, Oxford/AstraZeneca, Pfizer/BioNTech",https://impfdashboard.de/,95294818,52170602,45634153,2557
2021-08-07,Germany,"Johnson&Johnson, Moderna, Oxford/AstraZeneca, Pfizer/BioNTech",https://impfdashboard.de/,95480422,52225163,45778028,2734
2021-08-08,Germany,"Johnson&Johnson, Moderna, Oxford/AstraZeneca, Pfizer/BioNTech",https://impfdashboard.de/,95596728,52252969,45870389,2876
2021-08-09,Germany,"Johnson&Johnson, Moderna, Oxford/AstraZeneca, Pfizer/BioNTech",https://impfdashboard.de/,95892297,52313995,46113662,3166
2021-08-10,Germany,"Johnson&Johnson, Moderna, Oxford/AstraZeneca, Pfizer/BioNTech",https://impfdashboard.de/,96324034,52400318,46470222,3369
2021-08-11,Germany,"Johnson&Johnson, Moderna, Oxford/AstraZeneca, Pfizer/BioNTech",https://impfdashboard.de/,96868275,52521227,46908986,3691
2021-08-12,Germany,"Johnson&Johnson, Moderna, Oxford/AstraZeneca, Pfizer/BioNTech",https://impfdashboard.de/,97343069,52641178,47282228,4049
2021-08-13,Germany,"Johnson&Johnson, Moderna, Oxford/AstraZeneca, Pfizer/BioNTech",https://impfdashboard.de/,97768444,52757018,47611045,4448
2021-08-14,Germany,"Johnson&Johnson, Moderna, Oxford/AstraZeneca, Pfizer/BioNTech",https://impfdashboard.de/,97964325,52824235,47755054,4720
2021-08-15,Germany,"Johnson&Johnson, Moderna, Oxford/AstraZeneca, Pfizer/BioNTech",https://impfdashboard.de/,98082776,52862874,47842193,4906
2021-08-16,Germany,"Johnson&Johnson, Moderna, Oxford/AstraZeneca, Pfizer/BioNTech",https://impfdashboard.de/,98349100,52945798,48039017,5144
2021-08-17,Germany,"Johnson&Johnson, Moderna, Oxford/AstraZeneca, Pfizer/BioNTech",https://impfdashboard.de/,98711602,53059676,48302779,5391
2021-08-18,Germany,"Johnson&Johnson, Moderna, Oxford/AstraZeneca, Pfizer/BioNTech",https://impfdashboard.de/,99135447,53196901,48607297,5706
2021-08-19,Germany,"Johnson&Johnson, Moderna, Oxford/AstraZeneca, Pfizer/BioNTech",https://impfdashboard.de/,99470613,53317916,48839223,6079
2021-08-20,Germany,"Johnson&Johnson, Moderna, Oxford/AstraZeneca, Pfizer/BioNTech",https://impfdashboard.de/,99813544,53450421,49070747,6533
2021-08-21,Germany,"Johnson&Johnson, Moderna, Oxford/AstraZeneca, Pfizer/BioNTech",https://impfdashboard.de/,99970160,53523958,49167597,6892
2021-08-22,Germany,"Johnson&Johnson, Moderna, Oxford/AstraZeneca, Pfizer/BioNTech",https://impfdashboard.de/,100064411,53564115,49227280,7245
2021-08-23,Germany,"Johnson&Johnson, Moderna, Oxford/AstraZeneca, Pfizer/BioNTech",https://impfdashboard.de/,100297668,53656071,49381882,7584
2021-08-24,Germany,"Johnson&Johnson, Moderna, Oxford/AstraZeneca, Pfizer/BioNTech",https://impfdashboard.de/,100595949,53777887,49574179,8069
2021-08-25,Germany,"Johnson&Johnson, Moderna, Oxford/AstraZeneca, Pfizer/BioNTech",https://impfdashboard.de/,100938669,53919320,49793071,8611
2021-08-26,Germany,"Johnson&Johnson, Moderna, Oxford/AstraZeneca, Pfizer/BioNTech",https://impfdashboard.de/,101239616,54052911,49977983,9219
2021-08-27,Germany,"Johnson&Johnson, Moderna, Oxford/AstraZeneca, Pfizer/BioNTech",https://impfdashboard.de/,101493063,54167142,50134608,10446
2021-08-28,Germany,"Johnson&Johnson, Moderna, Oxford/AstraZeneca, Pfizer/BioNTech",https://impfdashboard.de/,101630633,54237955,50215406,11262
2021-08-29,Germany,"Johnson&Johnson, Moderna, Oxford/AstraZeneca, Pfizer/BioNTech",https://impfdashboard.de/,101716086,54275538,50268958,12036
2021-08-30,Germany,"Johnson&Johnson, Moderna, Oxford/AstraZeneca, Pfizer/BioNTech",https://impfdashboard.de/,101908483,54360415,50387240,14190
2021-08-31,Germany,"Johnson&Johnson, Moderna, Oxford/AstraZeneca, Pfizer/BioNTech",https://impfdashboard.de/,102152120,54471941,50529765,17854
2021-09-01,Germany,"Johnson&Johnson, Moderna, Oxford/AstraZeneca, Pfizer/BioNTech",https://impfdashboard.de/,102448239,54597733,50699297,33554
2021-09-02,Germany,"Johnson&Johnson, Moderna, Oxford/AstraZeneca, Pfizer/BioNTech",https://impfdashboard.de/,102706249,54710643,50841373,50821
2021-09-03,Germany,"Johnson&Johnson, Moderna, Oxford/AstraZeneca, Pfizer/BioNTech",https://impfdashboard.de/,102953784,54817664,50980472,67186
2021-09-04,Germany,"Johnson&Johnson, Moderna, Oxford/AstraZeneca, Pfizer/BioNTech",https://impfdashboard.de/,103061989,54866400,51045149,71843
2021-09-05,Germany,"Johnson&Johnson, Moderna, Oxford/AstraZeneca, Pfizer/BioNTech",https://impfdashboard.de/,103126718,54894899,51083236,75184
2021-09-06,Germany,"Johnson&Johnson, Moderna, Oxford/AstraZeneca, Pfizer/BioNTech",https://impfdashboard.de/,103282042,54959283,51167767,90337
2021-09-07,Germany,"Johnson&Johnson, Moderna, Oxford/AstraZeneca, Pfizer/BioNTech",https://impfdashboard.de/,103505536,55051997,51286569,113244
2021-09-08,Germany,"Johnson&Johnson, Moderna, Oxford/AstraZeneca, Pfizer/BioNTech",https://impfdashboard.de/,103766399,55156899,51427729,140287
2021-09-09,Germany,"Johnson&Johnson, Moderna, Oxford/AstraZeneca, Pfizer/BioNTech",https://impfdashboard.de/,104022384,55260714,51564378,169036
2021-09-10,Germany,"Johnson&Johnson, Moderna, Oxford/AstraZeneca, Pfizer/BioNTech",https://impfdashboard.de/,104250168,55350330,51696231,190873
2021-09-11,Germany,"Johnson&Johnson, Moderna, Oxford/AstraZeneca, Pfizer/BioNTech",https://impfdashboard.de/,104360738,55394367,51767511,197070
2021-09-12,Germany,"Johnson&Johnson, Moderna, Oxford/AstraZeneca, Pfizer/BioNTech",https://impfdashboard.de/,104425528,55418318,51809066,201644
2021-09-13,Germany,"Johnson&Johnson, Moderna, Oxford/AstraZeneca, Pfizer/BioNTech",https://impfdashboard.de/,104592691,55482106,51903055,222710
2021-09-14,Germany,"Johnson&Johnson, Moderna, Oxford/AstraZeneca, Pfizer/BioNTech",https://impfdashboard.de/,104830181,55575353,52026827,255910
2021-09-15,Germany,"Johnson&Johnson, Moderna, Oxford/AstraZeneca, Pfizer/BioNTech",https://impfdashboard.de/,105114648,55680182,52179761,297052
2021-09-16,Germany,"Johnson&Johnson, Moderna, Oxford/AstraZeneca, Pfizer/BioNTech",https://impfdashboard.de/,105391126,55786425,52322888,339284
2021-09-17,Germany,"Johnson&Johnson, Moderna, Oxford/AstraZeneca, Pfizer/BioNTech",https://impfdashboard.de/,105640415,55880664,52462508,370907
2021-09-18,Germany,"Johnson&Johnson, Moderna, Oxford/AstraZeneca, Pfizer/BioNTech",https://impfdashboard.de/,105753121,55922493,52535349,378821
2021-09-19,Germany,"Johnson&Johnson, Moderna, Oxford/AstraZeneca, Pfizer/BioNTech",https://impfdashboard.de/,105822714,55947272,52579348,384324
2021-09-20,Germany,"Johnson&Johnson, Moderna, Oxford/AstraZeneca, Pfizer/BioNTech",https://impfdashboard.de/,105981246,56000099,52669351,409405
2021-09-21,Germany,"Johnson&Johnson, Moderna, Oxford/AstraZeneca, Pfizer/BioNTech",https://impfdashboard.de/,106215734,56079847,52791895,451949
2021-09-22,Germany,"Johnson&Johnson, Moderna, Oxford/AstraZeneca, Pfizer/BioNTech",https://impfdashboard.de/,106491332,56170344,52935698,504775
2021-09-23,Germany,"Johnson&Johnson, Moderna, Oxford/AstraZeneca, Pfizer/BioNTech",https://impfdashboard.de/,106760054,56261328,53072829,557738
2021-09-24,Germany,"Johnson&Johnson, Moderna, Oxford/AstraZeneca, Pfizer/BioNTech",https://impfdashboard.de/,107001314,56342769,53207787,596038
2021-09-25,Germany,"Johnson&Johnson, Moderna, Oxford/AstraZeneca, Pfizer/BioNTech",https://impfdashboard.de/,107101737,56375961,53274386,605095
2021-09-26,Germany,"Johnson&Johnson, Moderna, Oxford/AstraZeneca, Pfizer/BioNTech",https://impfdashboard.de/,107158430,56393926,53311354,611023
2021-09-27,Germany,"Johnson&Johnson, Moderna, Oxford/AstraZeneca, Pfizer/BioNTech",https://impfdashboard.de/,107310403,56443417,53393968,639094
2021-09-28,Germany,"Johnson&Johnson, Moderna, Oxford/AstraZeneca, Pfizer/BioNTech",https://impfdashboard.de/,107534319,56516979,53506999,686024
2021-09-29,Germany,"Johnson&Johnson, Moderna, Oxford/AstraZeneca, Pfizer/BioNTech",https://impfdashboard.de/,107786093,56595256,53635181,741183
2021-09-30,Germany,"Johnson&Johnson, Moderna, Oxford/AstraZeneca, Pfizer/BioNTech",https://impfdashboard.de/,108030558,56673674,53761312,790994
2021-10-01,Germany,"Johnson&Johnson, Moderna, Oxford/AstraZeneca, Pfizer/BioNTech",https://impfdashboard.de/,108157743,56717638,53826580,814913
2021-10-02,Germany,"Johnson&Johnson, Moderna, Oxford/AstraZeneca, Pfizer/BioNTech",https://impfdashboard.de/,108189682,56731266,53844673,818314
2021-10-03,Germany,"Johnson&Johnson, Moderna, Oxford/AstraZeneca, Pfizer/BioNTech",https://impfdashboard.de/,108203565,56736681,53852473,820037
2021-10-04,Germany,"Johnson&Johnson, Moderna, Oxford/AstraZeneca, Pfizer/BioNTech",https://impfdashboard.de/,108298975,56768841,53900787,839878
2021-10-05,Germany,"Johnson&Johnson, Moderna, Oxford/AstraZeneca, Pfizer/BioNTech",https://impfdashboard.de/,108481296,56823942,53990967,882387
2021-10-06,Germany,"Johnson&Johnson, Moderna, Oxford/AstraZeneca, Pfizer/BioNTech",https://impfdashboard.de/,108685536,56882223,54089921,935396
2021-10-07,Germany,"Johnson&Johnson, Moderna, Oxford/AstraZeneca, Pfizer/BioNTech",https://impfdashboard.de/,108896825,56944599,54193464,987636
2021-10-08,Germany,"Johnson&Johnson, Moderna, Oxford/AstraZeneca, Pfizer/BioNTech",https://impfdashboard.de/,109079191,57002401,54282102,1030298
2021-10-09,Germany,"Johnson&Johnson, Moderna, Oxford/AstraZeneca, Pfizer/BioNTech",https://impfdashboard.de/,109119881,57018595,54304577,1035570
2021-10-10,Germany,"Johnson&Johnson, Moderna, Oxford/AstraZeneca, Pfizer/BioNTech",https://impfdashboard.de/,109137072,57025359,54313953,1038005
2021-10-11,Germany,"Johnson&Johnson, Moderna, Oxford/AstraZeneca, Pfizer/BioNTech",https://impfdashboard.de/,109232588,57054988,54359391,1062279
2021-10-12,Germany,"Johnson&Johnson, Moderna, Oxford/AstraZeneca, Pfizer/BioNTech",https://impfdashboard.de/,109411383,57104981,54441555,1113680
2021-10-13,Germany,"Johnson&Johnson, Moderna, Oxford/AstraZeneca, Pfizer/BioNTech",https://impfdashboard.de/,109616638,57160151,54533639,1176468
2021-10-14,Germany,"Johnson&Johnson, Moderna, Oxford/AstraZeneca, Pfizer/BioNTech",https://impfdashboard.de/,109824251,57215675,54628580,1238771
2021-10-15,Germany,"Johnson&Johnson, Moderna, Oxford/AstraZeneca, Pfizer/BioNTech",https://impfdashboard.de/,109994448,57263940,54707865,1286662
2021-10-16,Germany,"Johnson&Johnson, Moderna, Oxford/AstraZeneca, Pfizer/BioNTech",https://impfdashboard.de/,110035823,57279354,54729913,1293232
2021-10-17,Germany,"Johnson&Johnson, Moderna, Oxford/AstraZeneca, Pfizer/BioNTech",https://impfdashboard.de/,110052571,57285160,54738524,1296592
2021-10-18,Germany,"Johnson&Johnson, Moderna, Oxford/AstraZeneca, Pfizer/BioNTech",https://impfdashboard.de/,110144310,57310698,54778209,1326077
2021-10-19,Germany,"Johnson&Johnson, Moderna, Oxford/AstraZeneca, Pfizer/BioNTech",https://impfdashboard.de/,110321479,57355806,54855219,1385125
2021-10-20,Germany,"Johnson&Johnson, Moderna, Oxford/AstraZeneca, Pfizer/BioNTech",https://impfdashboard.de/,110524893,57404555,54939825,1459315
2021-10-21,Germany,"Johnson&Johnson, Moderna, Oxford/AstraZeneca, Pfizer/BioNTech",https://impfdashboard.de/,110730294,57454213,55024414,1534612
2021-10-22,Germany,"Johnson&Johnson, Moderna, Oxford/AstraZeneca, Pfizer/BioNTech",https://impfdashboard.de/,110889408,57494985,55091255,1590281
2021-10-23,Germany,"Johnson&Johnson, Moderna, Oxford/AstraZeneca, Pfizer/BioNTech",https://impfdashboard.de/,110933007,57509895,55110873,1601578
2021-10-24,Germany,"Johnson&Johnson, Moderna, Oxford/AstraZeneca, Pfizer/BioNTech",https://impfdashboard.de/,110947390,57514583,55117423,1605536
2021-10-25,Germany,"Johnson&Johnson, Moderna, Oxford/AstraZeneca, Pfizer/BioNTech",https://impfdashboard.de/,111054224,57542234,55159574,1645473
2021-10-26,Germany,"Johnson&Johnson, Moderna, Oxford/AstraZeneca, Pfizer/BioNTech",https://impfdashboard.de/,111262133,57586625,55238246,1734015
2021-10-27,Germany,"Johnson&Johnson, Moderna, Oxford/AstraZeneca, Pfizer/BioNTech",https://impfdashboard.de/,111502039,57634862,55323443,1843805
2021-10-28,Germany,"Johnson&Johnson, Moderna, Oxford/AstraZeneca, Pfizer/BioNTech",https://impfdashboard.de/,111748518,57685361,55408959,1957930
2021-10-29,Germany,"Johnson&Johnson, Moderna, Oxford/AstraZeneca, Pfizer/BioNTech",https://impfdashboard.de/,111953264,57729341,55478942,2052519
2021-10-30,Germany,"Johnson&Johnson, Moderna, Oxford/AstraZeneca, Pfizer/BioNTech",https://impfdashboard.de/,112004843,57744739,55497699,2072012
2021-10-31,Germany,"Johnson&Johnson, Moderna, Oxford/AstraZeneca, Pfizer/BioNTech",https://impfdashboard.de/,112020662,57749281,55503412,2078191
2021-11-01,Germany,"Johnson&Johnson, Moderna, Oxford/AstraZeneca, Pfizer/BioNTech",https://impfdashboard.de/,112083604,57762498,55523397,2109448
2021-11-02,Germany,"Johnson&Johnson, Moderna, Oxford/AstraZeneca, Pfizer/BioNTech",https://impfdashboard.de/,112295352,57800077,55586247,2223134
2021-11-03,Germany,"Johnson&Johnson, Moderna, Oxford/AstraZeneca, Pfizer/BioNTech",https://impfdashboard.de/,112583965,57852031,55664524,2385579
2021-11-04,Germany,"Johnson&Johnson, Moderna, Oxford/AstraZeneca, Pfizer/BioNTech",https://impfdashboard.de/,112880904,57903442,55742790,2556376
2021-11-05,Germany,"Johnson&Johnson, Moderna, Oxford/AstraZeneca, Pfizer/BioNTech",https://impfdashboard.de/,113132071,57948152,55804926,2704669
2021-11-06,Germany,"Johnson&Johnson, Moderna, Oxford/AstraZeneca, Pfizer/BioNTech",https://impfdashboard.de/,113200507,57966052,55822973,2739907
2021-11-07,Germany,"Johnson&Johnson, Moderna, Oxford/AstraZeneca, Pfizer/BioNTech",https://impfdashboard.de/,113232326,57974052,55831755,2756147
2021-11-08,Germany,"Johnson&Johnson, Moderna, Oxford/AstraZeneca, Pfizer/BioNTech",https://impfdashboard.de/,113402326,58004914,55869890,2860250
2021-11-09,Germany,"Johnson&Johnson, Moderna, Oxford/AstraZeneca, Pfizer/BioNTech",https://impfdashboard.de/,113736484,58060378,55942610,3070711
2021-11-10,Germany,"Johnson&Johnson, Moderna, Oxford/AstraZeneca, Pfizer/BioNTech",https://impfdashboard.de/,114128268,58119363,56017710,3332766
2021-11-11,Germany,"Johnson&Johnson, Moderna, Oxford/AstraZeneca, Pfizer/BioNTech",https://impfdashboard.de/,114532916,58182237,56095514,3601113
2021-11-12,Germany,"Johnson&Johnson, Moderna, Oxford/AstraZeneca, Pfizer/BioNTech",https://impfdashboard.de/,114851361,58234662,56151310,3815964
2021-11-13,Germany,"Johnson&Johnson, Moderna, Oxford/AstraZeneca, Pfizer/BioNTech",https://impfdashboard.de/,114946494,58258593,56170099,3871246
2021-11-14,Germany,"Johnson&Johnson, Moderna, Oxford/AstraZeneca, Pfizer/BioNTech",https://impfdashboard.de/,114993441,58269316,56179209,3899264
2021-11-15,Germany,"Johnson&Johnson, Moderna, Oxford/AstraZeneca, Pfizer/BioNTech",https://impfdashboard.de/,115221022,58309235,56218064,4051264
2021-11-16,Germany,"Johnson&Johnson, Moderna, Oxford/AstraZeneca, Pfizer/BioNTech",https://impfdashboard.de/,115656735,58366685,56282329,4368783
