date,people_vaccinated,people_fully_vaccinated,total_vaccinations,vaccine,location,source_url,total_boosters
2021-02-18,1,0,1,Pfizer/BioNTech,New Zealand,https://www.health.govt.nz/our-work/diseases-and-conditions/covid-19-novel-coronavirus/covid-19-data-and-statistics/covid-19-vaccine-data,
2021-02-19,30,0,30,Pfizer/BioNTech,New Zealand,https://www.health.govt.nz/our-work/diseases-and-conditions/covid-19-novel-coronavirus/covid-19-data-and-statistics/covid-19-vaccine-data,
2021-02-20,95,0,95,Pfizer/BioNTech,New Zealand,https://www.health.govt.nz/our-work/diseases-and-conditions/covid-19-novel-coronavirus/covid-19-data-and-statistics/covid-19-vaccine-data,
2021-02-21,163,1,164,Pfizer/BioNTech,New Zealand,https://www.health.govt.nz/our-work/diseases-and-conditions/covid-19-novel-coronavirus/covid-19-data-and-statistics/covid-19-vaccine-data,
2021-02-22,610,1,611,Pfizer/BioNTech,New Zealand,https://www.health.govt.nz/our-work/diseases-and-conditions/covid-19-novel-coronavirus/covid-19-data-and-statistics/covid-19-vaccine-data,
2021-02-23,968,1,969,Pfizer/BioNTech,New Zealand,https://www.health.govt.nz/our-work/diseases-and-conditions/covid-19-novel-coronavirus/covid-19-data-and-statistics/covid-19-vaccine-data,
2021-02-24,1780,1,1781,Pfizer/BioNTech,New Zealand,https://www.health.govt.nz/our-work/diseases-and-conditions/covid-19-novel-coronavirus/covid-19-data-and-statistics/covid-19-vaccine-data,
2021-02-25,2880,1,2881,Pfizer/BioNTech,New Zealand,https://www.health.govt.nz/our-work/diseases-and-conditions/covid-19-novel-coronavirus/covid-19-data-and-statistics/covid-19-vaccine-data,
2021-02-26,4485,1,4486,Pfizer/BioNTech,New Zealand,https://www.health.govt.nz/our-work/diseases-and-conditions/covid-19-novel-coronavirus/covid-19-data-and-statistics/covid-19-vaccine-data,
2021-02-27,5825,1,5826,Pfizer/BioNTech,New Zealand,https://www.health.govt.nz/our-work/diseases-and-conditions/covid-19-novel-coronavirus/covid-19-data-and-statistics/covid-19-vaccine-data,
2021-02-28,6707,1,6708,Pfizer/BioNTech,New Zealand,https://www.health.govt.nz/our-work/diseases-and-conditions/covid-19-novel-coronavirus/covid-19-data-and-statistics/covid-19-vaccine-data,
2021-03-01,8117,1,8118,Pfizer/BioNTech,New Zealand,https://www.health.govt.nz/our-work/diseases-and-conditions/covid-19-novel-coronavirus/covid-19-data-and-statistics/covid-19-vaccine-data,
2021-03-02,9608,1,9609,Pfizer/BioNTech,New Zealand,https://www.health.govt.nz/our-work/diseases-and-conditions/covid-19-novel-coronavirus/covid-19-data-and-statistics/covid-19-vaccine-data,
2021-03-03,11589,1,11590,Pfizer/BioNTech,New Zealand,https://www.health.govt.nz/our-work/diseases-and-conditions/covid-19-novel-coronavirus/covid-19-data-and-statistics/covid-19-vaccine-data,
2021-03-04,13223,1,13224,Pfizer/BioNTech,New Zealand,https://www.health.govt.nz/our-work/diseases-and-conditions/covid-19-novel-coronavirus/covid-19-data-and-statistics/covid-19-vaccine-data,
2021-03-05,14502,2,14504,Pfizer/BioNTech,New Zealand,https://www.health.govt.nz/our-work/diseases-and-conditions/covid-19-novel-coronavirus/covid-19-data-and-statistics/covid-19-vaccine-data,
2021-03-06,15104,3,15107,Pfizer/BioNTech,New Zealand,https://www.health.govt.nz/our-work/diseases-and-conditions/covid-19-novel-coronavirus/covid-19-data-and-statistics/covid-19-vaccine-data,
2021-03-07,15615,3,15618,Pfizer/BioNTech,New Zealand,https://www.health.govt.nz/our-work/diseases-and-conditions/covid-19-novel-coronavirus/covid-19-data-and-statistics/covid-19-vaccine-data,
2021-03-08,16688,3,16691,Pfizer/BioNTech,New Zealand,https://www.health.govt.nz/our-work/diseases-and-conditions/covid-19-novel-coronavirus/covid-19-data-and-statistics/covid-19-vaccine-data,
2021-03-09,18113,3,18116,Pfizer/BioNTech,New Zealand,https://www.health.govt.nz/our-work/diseases-and-conditions/covid-19-novel-coronavirus/covid-19-data-and-statistics/covid-19-vaccine-data,
2021-03-10,19430,3,19433,Pfizer/BioNTech,New Zealand,https://www.health.govt.nz/our-work/diseases-and-conditions/covid-19-novel-coronavirus/covid-19-data-and-statistics/covid-19-vaccine-data,
2021-03-11,20764,3,20767,Pfizer/BioNTech,New Zealand,https://www.health.govt.nz/our-work/diseases-and-conditions/covid-19-novel-coronavirus/covid-19-data-and-statistics/covid-19-vaccine-data,
2021-03-12,21807,8,21815,Pfizer/BioNTech,New Zealand,https://www.health.govt.nz/our-work/diseases-and-conditions/covid-19-novel-coronavirus/covid-19-data-and-statistics/covid-19-vaccine-data,
2021-03-13,22557,13,22570,Pfizer/BioNTech,New Zealand,https://www.health.govt.nz/our-work/diseases-and-conditions/covid-19-novel-coronavirus/covid-19-data-and-statistics/covid-19-vaccine-data,
2021-03-14,23133,26,23159,Pfizer/BioNTech,New Zealand,https://www.health.govt.nz/our-work/diseases-and-conditions/covid-19-novel-coronavirus/covid-19-data-and-statistics/covid-19-vaccine-data,
2021-03-15,24747,293,25040,Pfizer/BioNTech,New Zealand,https://www.health.govt.nz/our-work/diseases-and-conditions/covid-19-novel-coronavirus/covid-19-data-and-statistics/covid-19-vaccine-data,
2021-03-16,26675,526,27201,Pfizer/BioNTech,New Zealand,https://www.health.govt.nz/our-work/diseases-and-conditions/covid-19-novel-coronavirus/covid-19-data-and-statistics/covid-19-vaccine-data,
2021-03-17,28317,892,29209,Pfizer/BioNTech,New Zealand,https://www.health.govt.nz/our-work/diseases-and-conditions/covid-19-novel-coronavirus/covid-19-data-and-statistics/covid-19-vaccine-data,
2021-03-18,29912,1366,31278,Pfizer/BioNTech,New Zealand,https://www.health.govt.nz/our-work/diseases-and-conditions/covid-19-novel-coronavirus/covid-19-data-and-statistics/covid-19-vaccine-data,
2021-03-19,31604,2138,33742,Pfizer/BioNTech,New Zealand,https://www.health.govt.nz/our-work/diseases-and-conditions/covid-19-novel-coronavirus/covid-19-data-and-statistics/covid-19-vaccine-data,
2021-03-20,32162,2853,35015,Pfizer/BioNTech,New Zealand,https://www.health.govt.nz/our-work/diseases-and-conditions/covid-19-novel-coronavirus/covid-19-data-and-statistics/covid-19-vaccine-data,
2021-03-21,33103,3498,36601,Pfizer/BioNTech,New Zealand,https://www.health.govt.nz/our-work/diseases-and-conditions/covid-19-novel-coronavirus/covid-19-data-and-statistics/covid-19-vaccine-data,
2021-03-22,34137,4715,38852,Pfizer/BioNTech,New Zealand,https://www.health.govt.nz/our-work/diseases-and-conditions/covid-19-novel-coronavirus/covid-19-data-and-statistics/covid-19-vaccine-data,
2021-03-23,35724,5822,41546,Pfizer/BioNTech,New Zealand,https://www.health.govt.nz/our-work/diseases-and-conditions/covid-19-novel-coronavirus/covid-19-data-and-statistics/covid-19-vaccine-data,
2021-03-24,37695,7406,45101,Pfizer/BioNTech,New Zealand,https://www.health.govt.nz/our-work/diseases-and-conditions/covid-19-novel-coronavirus/covid-19-data-and-statistics/covid-19-vaccine-data,
2021-03-25,39517,8939,48456,Pfizer/BioNTech,New Zealand,https://www.health.govt.nz/our-work/diseases-and-conditions/covid-19-novel-coronavirus/covid-19-data-and-statistics/covid-19-vaccine-data,
2021-03-26,42890,10229,53119,Pfizer/BioNTech,New Zealand,https://www.health.govt.nz/our-work/diseases-and-conditions/covid-19-novel-coronavirus/covid-19-data-and-statistics/covid-19-vaccine-data,
2021-03-27,44045,11102,55147,Pfizer/BioNTech,New Zealand,https://www.health.govt.nz/our-work/diseases-and-conditions/covid-19-novel-coronavirus/covid-19-data-and-statistics/covid-19-vaccine-data,
2021-03-28,44730,11593,56323,Pfizer/BioNTech,New Zealand,https://www.health.govt.nz/our-work/diseases-and-conditions/covid-19-novel-coronavirus/covid-19-data-and-statistics/covid-19-vaccine-data,
2021-03-29,48537,12717,61254,Pfizer/BioNTech,New Zealand,https://www.health.govt.nz/our-work/diseases-and-conditions/covid-19-novel-coronavirus/covid-19-data-and-statistics/covid-19-vaccine-data,
2021-03-30,52706,14217,66923,Pfizer/BioNTech,New Zealand,https://www.health.govt.nz/our-work/diseases-and-conditions/covid-19-novel-coronavirus/covid-19-data-and-statistics/covid-19-vaccine-data,
2021-03-31,58156,15562,73718,Pfizer/BioNTech,New Zealand,https://www.health.govt.nz/our-work/diseases-and-conditions/covid-19-novel-coronavirus/covid-19-data-and-statistics/covid-19-vaccine-data,
2021-04-01,63358,16813,80171,Pfizer/BioNTech,New Zealand,https://www.health.govt.nz/our-work/diseases-and-conditions/covid-19-novel-coronavirus/covid-19-data-and-statistics/covid-19-vaccine-data,
2021-04-02,65083,17108,82191,Pfizer/BioNTech,New Zealand,https://www.health.govt.nz/our-work/diseases-and-conditions/covid-19-novel-coronavirus/covid-19-data-and-statistics/covid-19-vaccine-data,
2021-04-03,66498,17443,83941,Pfizer/BioNTech,New Zealand,https://www.health.govt.nz/our-work/diseases-and-conditions/covid-19-novel-coronavirus/covid-19-data-and-statistics/covid-19-vaccine-data,
2021-04-04,67258,17639,84897,Pfizer/BioNTech,New Zealand,https://www.health.govt.nz/our-work/diseases-and-conditions/covid-19-novel-coronavirus/covid-19-data-and-statistics/covid-19-vaccine-data,
2021-04-05,68180,17930,86110,Pfizer/BioNTech,New Zealand,https://www.health.govt.nz/our-work/diseases-and-conditions/covid-19-novel-coronavirus/covid-19-data-and-statistics/covid-19-vaccine-data,
2021-04-06,71702,19368,91070,Pfizer/BioNTech,New Zealand,https://www.health.govt.nz/our-work/diseases-and-conditions/covid-19-novel-coronavirus/covid-19-data-and-statistics/covid-19-vaccine-data,
2021-04-07,76823,21514,98337,Pfizer/BioNTech,New Zealand,https://www.health.govt.nz/our-work/diseases-and-conditions/covid-19-novel-coronavirus/covid-19-data-and-statistics/covid-19-vaccine-data,
2021-04-08,83289,23281,106570,Pfizer/BioNTech,New Zealand,https://www.health.govt.nz/our-work/diseases-and-conditions/covid-19-novel-coronavirus/covid-19-data-and-statistics/covid-19-vaccine-data,
2021-04-09,88711,25210,113921,Pfizer/BioNTech,New Zealand,https://www.health.govt.nz/our-work/diseases-and-conditions/covid-19-novel-coronavirus/covid-19-data-and-statistics/covid-19-vaccine-data,
2021-04-10,91978,25902,117880,Pfizer/BioNTech,New Zealand,https://www.health.govt.nz/our-work/diseases-and-conditions/covid-19-novel-coronavirus/covid-19-data-and-statistics/covid-19-vaccine-data,
2021-04-11,94456,26983,121439,Pfizer/BioNTech,New Zealand,https://www.health.govt.nz/our-work/diseases-and-conditions/covid-19-novel-coronavirus/covid-19-data-and-statistics/covid-19-vaccine-data,
2021-04-12,100503,28705,129208,Pfizer/BioNTech,New Zealand,https://www.health.govt.nz/our-work/diseases-and-conditions/covid-19-novel-coronavirus/covid-19-data-and-statistics/covid-19-vaccine-data,
2021-04-13,107318,30330,137648,Pfizer/BioNTech,New Zealand,https://www.health.govt.nz/our-work/diseases-and-conditions/covid-19-novel-coronavirus/covid-19-data-and-statistics/covid-19-vaccine-data,
2021-04-14,113945,31852,145797,Pfizer/BioNTech,New Zealand,https://www.health.govt.nz/our-work/diseases-and-conditions/covid-19-novel-coronavirus/covid-19-data-and-statistics/covid-19-vaccine-data,
2021-04-15,120836,33695,154531,Pfizer/BioNTech,New Zealand,https://www.health.govt.nz/our-work/diseases-and-conditions/covid-19-novel-coronavirus/covid-19-data-and-statistics/covid-19-vaccine-data,
2021-04-16,127699,36319,164018,Pfizer/BioNTech,New Zealand,https://www.health.govt.nz/our-work/diseases-and-conditions/covid-19-novel-coronavirus/covid-19-data-and-statistics/covid-19-vaccine-data,
2021-04-17,131601,37463,169064,Pfizer/BioNTech,New Zealand,https://www.health.govt.nz/our-work/diseases-and-conditions/covid-19-novel-coronavirus/covid-19-data-and-statistics/covid-19-vaccine-data,
2021-04-18,133081,38050,171131,Pfizer/BioNTech,New Zealand,https://www.health.govt.nz/our-work/diseases-and-conditions/covid-19-novel-coronavirus/covid-19-data-and-statistics/covid-19-vaccine-data,
2021-04-19,138175,40088,178263,Pfizer/BioNTech,New Zealand,https://www.health.govt.nz/our-work/diseases-and-conditions/covid-19-novel-coronavirus/covid-19-data-and-statistics/covid-19-vaccine-data,
2021-04-20,144273,43076,187349,Pfizer/BioNTech,New Zealand,https://www.health.govt.nz/our-work/diseases-and-conditions/covid-19-novel-coronavirus/covid-19-data-and-statistics/covid-19-vaccine-data,
2021-04-21,151031,46503,197534,Pfizer/BioNTech,New Zealand,https://www.health.govt.nz/our-work/diseases-and-conditions/covid-19-novel-coronavirus/covid-19-data-and-statistics/covid-19-vaccine-data,
2021-04-22,157567,50377,207944,Pfizer/BioNTech,New Zealand,https://www.health.govt.nz/our-work/diseases-and-conditions/covid-19-novel-coronavirus/covid-19-data-and-statistics/covid-19-vaccine-data,
2021-04-23,165709,53922,219631,Pfizer/BioNTech,New Zealand,https://www.health.govt.nz/our-work/diseases-and-conditions/covid-19-novel-coronavirus/covid-19-data-and-statistics/covid-19-vaccine-data,
2021-04-24,168983,55304,224287,Pfizer/BioNTech,New Zealand,https://www.health.govt.nz/our-work/diseases-and-conditions/covid-19-novel-coronavirus/covid-19-data-and-statistics/covid-19-vaccine-data,
2021-04-25,170455,56212,226667,Pfizer/BioNTech,New Zealand,https://www.health.govt.nz/our-work/diseases-and-conditions/covid-19-novel-coronavirus/covid-19-data-and-statistics/covid-19-vaccine-data,
2021-04-26,171845,57074,228919,Pfizer/BioNTech,New Zealand,https://www.health.govt.nz/our-work/diseases-and-conditions/covid-19-novel-coronavirus/covid-19-data-and-statistics/covid-19-vaccine-data,
2021-04-27,178647,60283,238930,Pfizer/BioNTech,New Zealand,https://www.health.govt.nz/our-work/diseases-and-conditions/covid-19-novel-coronavirus/covid-19-data-and-statistics/covid-19-vaccine-data,
2021-04-28,185948,63948,249896,Pfizer/BioNTech,New Zealand,https://www.health.govt.nz/our-work/diseases-and-conditions/covid-19-novel-coronavirus/covid-19-data-and-statistics/covid-19-vaccine-data,
2021-04-29,193476,68903,262379,Pfizer/BioNTech,New Zealand,https://www.health.govt.nz/our-work/diseases-and-conditions/covid-19-novel-coronavirus/covid-19-data-and-statistics/covid-19-vaccine-data,
2021-04-30,201854,73931,275785,Pfizer/BioNTech,New Zealand,https://www.health.govt.nz/our-work/diseases-and-conditions/covid-19-novel-coronavirus/covid-19-data-and-statistics/covid-19-vaccine-data,
2021-05-01,205345,75923,281268,Pfizer/BioNTech,New Zealand,https://www.health.govt.nz/our-work/diseases-and-conditions/covid-19-novel-coronavirus/covid-19-data-and-statistics/covid-19-vaccine-data,
2021-05-02,206966,77842,284808,Pfizer/BioNTech,New Zealand,https://www.health.govt.nz/our-work/diseases-and-conditions/covid-19-novel-coronavirus/covid-19-data-and-statistics/covid-19-vaccine-data,
2021-05-03,213217,82328,295545,Pfizer/BioNTech,New Zealand,https://www.health.govt.nz/our-work/diseases-and-conditions/covid-19-novel-coronavirus/covid-19-data-and-statistics/covid-19-vaccine-data,
2021-05-04,221551,87630,309181,Pfizer/BioNTech,New Zealand,https://www.health.govt.nz/our-work/diseases-and-conditions/covid-19-novel-coronavirus/covid-19-data-and-statistics/covid-19-vaccine-data,
2021-05-05,230755,93188,323943,Pfizer/BioNTech,New Zealand,https://www.health.govt.nz/our-work/diseases-and-conditions/covid-19-novel-coronavirus/covid-19-data-and-statistics/covid-19-vaccine-data,
2021-05-06,239955,99018,338973,Pfizer/BioNTech,New Zealand,https://www.health.govt.nz/our-work/diseases-and-conditions/covid-19-novel-coronavirus/covid-19-data-and-statistics/covid-19-vaccine-data,
2021-05-07,250098,105757,355855,Pfizer/BioNTech,New Zealand,https://www.health.govt.nz/our-work/diseases-and-conditions/covid-19-novel-coronavirus/covid-19-data-and-statistics/covid-19-vaccine-data,
2021-05-08,254489,108608,363097,Pfizer/BioNTech,New Zealand,https://www.health.govt.nz/our-work/diseases-and-conditions/covid-19-novel-coronavirus/covid-19-data-and-statistics/covid-19-vaccine-data,
2021-05-09,256218,110223,366441,Pfizer/BioNTech,New Zealand,https://www.health.govt.nz/our-work/diseases-and-conditions/covid-19-novel-coronavirus/covid-19-data-and-statistics/covid-19-vaccine-data,
2021-05-10,263096,115340,378436,Pfizer/BioNTech,New Zealand,https://www.health.govt.nz/our-work/diseases-and-conditions/covid-19-novel-coronavirus/covid-19-data-and-statistics/covid-19-vaccine-data,
2021-05-11,272323,121235,393558,Pfizer/BioNTech,New Zealand,https://www.health.govt.nz/our-work/diseases-and-conditions/covid-19-novel-coronavirus/covid-19-data-and-statistics/covid-19-vaccine-data,
2021-05-12,281845,127004,408849,Pfizer/BioNTech,New Zealand,https://www.health.govt.nz/our-work/diseases-and-conditions/covid-19-novel-coronavirus/covid-19-data-and-statistics/covid-19-vaccine-data,
2021-05-13,291624,133009,424633,Pfizer/BioNTech,New Zealand,https://www.health.govt.nz/our-work/diseases-and-conditions/covid-19-novel-coronavirus/covid-19-data-and-statistics/covid-19-vaccine-data,
2021-05-14,300582,140123,440705,Pfizer/BioNTech,New Zealand,https://www.health.govt.nz/our-work/diseases-and-conditions/covid-19-novel-coronavirus/covid-19-data-and-statistics/covid-19-vaccine-data,
2021-05-15,304002,142937,446939,Pfizer/BioNTech,New Zealand,https://www.health.govt.nz/our-work/diseases-and-conditions/covid-19-novel-coronavirus/covid-19-data-and-statistics/covid-19-vaccine-data,
2021-05-16,306408,144742,451150,Pfizer/BioNTech,New Zealand,https://www.health.govt.nz/our-work/diseases-and-conditions/covid-19-novel-coronavirus/covid-19-data-and-statistics/covid-19-vaccine-data,
2021-05-17,313711,148495,462206,Pfizer/BioNTech,New Zealand,https://www.health.govt.nz/our-work/diseases-and-conditions/covid-19-novel-coronavirus/covid-19-data-and-statistics/covid-19-vaccine-data,
2021-05-18,322992,154003,476995,Pfizer/BioNTech,New Zealand,https://www.health.govt.nz/our-work/diseases-and-conditions/covid-19-novel-coronavirus/covid-19-data-and-statistics/covid-19-vaccine-data,
2021-05-19,332049,160397,492446,Pfizer/BioNTech,New Zealand,https://www.health.govt.nz/our-work/diseases-and-conditions/covid-19-novel-coronavirus/covid-19-data-and-statistics/covid-19-vaccine-data,
2021-05-20,340785,167138,507923,Pfizer/BioNTech,New Zealand,https://www.health.govt.nz/our-work/diseases-and-conditions/covid-19-novel-coronavirus/covid-19-data-and-statistics/covid-19-vaccine-data,
2021-05-21,349059,174435,523494,Pfizer/BioNTech,New Zealand,https://www.health.govt.nz/our-work/diseases-and-conditions/covid-19-novel-coronavirus/covid-19-data-and-statistics/covid-19-vaccine-data,
2021-05-22,353460,178001,531461,Pfizer/BioNTech,New Zealand,https://www.health.govt.nz/our-work/diseases-and-conditions/covid-19-novel-coronavirus/covid-19-data-and-statistics/covid-19-vaccine-data,
2021-05-23,355725,179542,535267,Pfizer/BioNTech,New Zealand,https://www.health.govt.nz/our-work/diseases-and-conditions/covid-19-novel-coronavirus/covid-19-data-and-statistics/covid-19-vaccine-data,
2021-05-24,362960,185297,548257,Pfizer/BioNTech,New Zealand,https://www.health.govt.nz/our-work/diseases-and-conditions/covid-19-novel-coronavirus/covid-19-data-and-statistics/covid-19-vaccine-data,
2021-05-25,372798,192762,565560,Pfizer/BioNTech,New Zealand,https://www.health.govt.nz/our-work/diseases-and-conditions/covid-19-novel-coronavirus/covid-19-data-and-statistics/covid-19-vaccine-data,
2021-05-26,383754,200520,584274,Pfizer/BioNTech,New Zealand,https://www.health.govt.nz/our-work/diseases-and-conditions/covid-19-novel-coronavirus/covid-19-data-and-statistics/covid-19-vaccine-data,
2021-05-27,393621,207529,601150,Pfizer/BioNTech,New Zealand,https://www.health.govt.nz/our-work/diseases-and-conditions/covid-19-novel-coronavirus/covid-19-data-and-statistics/covid-19-vaccine-data,
2021-05-28,404451,217396,621847,Pfizer/BioNTech,New Zealand,https://www.health.govt.nz/our-work/diseases-and-conditions/covid-19-novel-coronavirus/covid-19-data-and-statistics/covid-19-vaccine-data,
2021-05-29,410392,221690,632082,Pfizer/BioNTech,New Zealand,https://www.health.govt.nz/our-work/diseases-and-conditions/covid-19-novel-coronavirus/covid-19-data-and-statistics/covid-19-vaccine-data,
2021-05-30,413716,223570,637286,Pfizer/BioNTech,New Zealand,https://www.health.govt.nz/our-work/diseases-and-conditions/covid-19-novel-coronavirus/covid-19-data-and-statistics/covid-19-vaccine-data,
2021-05-31,422624,229133,651757,Pfizer/BioNTech,New Zealand,https://www.health.govt.nz/our-work/diseases-and-conditions/covid-19-novel-coronavirus/covid-19-data-and-statistics/covid-19-vaccine-data,
2021-06-01,434647,237036,671683,Pfizer/BioNTech,New Zealand,https://www.health.govt.nz/our-work/diseases-and-conditions/covid-19-novel-coronavirus/covid-19-data-and-statistics/covid-19-vaccine-data,
2021-06-02,447201,245448,692649,Pfizer/BioNTech,New Zealand,https://www.health.govt.nz/our-work/diseases-and-conditions/covid-19-novel-coronavirus/covid-19-data-and-statistics/covid-19-vaccine-data,
2021-06-03,461355,254465,715820,Pfizer/BioNTech,New Zealand,https://www.health.govt.nz/our-work/diseases-and-conditions/covid-19-novel-coronavirus/covid-19-data-and-statistics/covid-19-vaccine-data,
2021-06-04,473458,262816,736274,Pfizer/BioNTech,New Zealand,https://www.health.govt.nz/our-work/diseases-and-conditions/covid-19-novel-coronavirus/covid-19-data-and-statistics/covid-19-vaccine-data,
2021-06-05,479663,266164,745827,Pfizer/BioNTech,New Zealand,https://www.health.govt.nz/our-work/diseases-and-conditions/covid-19-novel-coronavirus/covid-19-data-and-statistics/covid-19-vaccine-data,
2021-06-06,483198,267844,751042,Pfizer/BioNTech,New Zealand,https://www.health.govt.nz/our-work/diseases-and-conditions/covid-19-novel-coronavirus/covid-19-data-and-statistics/covid-19-vaccine-data,
2021-06-07,487137,269214,756351,Pfizer/BioNTech,New Zealand,https://www.health.govt.nz/our-work/diseases-and-conditions/covid-19-novel-coronavirus/covid-19-data-and-statistics/covid-19-vaccine-data,
2021-06-08,500232,277970,778202,Pfizer/BioNTech,New Zealand,https://www.health.govt.nz/our-work/diseases-and-conditions/covid-19-novel-coronavirus/covid-19-data-and-statistics/covid-19-vaccine-data,
2021-06-09,507344,282285,789629,Pfizer/BioNTech,New Zealand,https://www.health.govt.nz/our-work/diseases-and-conditions/covid-19-novel-coronavirus/covid-19-data-and-statistics/covid-19-vaccine-data,
2021-06-10,521291,291747,813038,Pfizer/BioNTech,New Zealand,https://www.health.govt.nz/our-work/diseases-and-conditions/covid-19-novel-coronavirus/covid-19-data-and-statistics/covid-19-vaccine-data,
2021-06-11,533274,301326,834600,Pfizer/BioNTech,New Zealand,https://www.health.govt.nz/our-work/diseases-and-conditions/covid-19-novel-coronavirus/covid-19-data-and-statistics/covid-19-vaccine-data,
2021-06-12,540727,305815,846542,Pfizer/BioNTech,New Zealand,https://www.health.govt.nz/our-work/diseases-and-conditions/covid-19-novel-coronavirus/covid-19-data-and-statistics/covid-19-vaccine-data,
2021-06-13,545134,308712,853846,Pfizer/BioNTech,New Zealand,https://www.health.govt.nz/our-work/diseases-and-conditions/covid-19-novel-coronavirus/covid-19-data-and-statistics/covid-19-vaccine-data,
2021-06-14,555498,316268,871766,Pfizer/BioNTech,New Zealand,https://www.health.govt.nz/our-work/diseases-and-conditions/covid-19-novel-coronavirus/covid-19-data-and-statistics/covid-19-vaccine-data,
2021-06-15,568580,325419,893999,Pfizer/BioNTech,New Zealand,https://www.health.govt.nz/our-work/diseases-and-conditions/covid-19-novel-coronavirus/covid-19-data-and-statistics/covid-19-vaccine-data,
2021-06-16,582981,335439,918420,Pfizer/BioNTech,New Zealand,https://www.health.govt.nz/our-work/diseases-and-conditions/covid-19-novel-coronavirus/covid-19-data-and-statistics/covid-19-vaccine-data,
2021-06-17,595975,345737,941712,Pfizer/BioNTech,New Zealand,https://www.health.govt.nz/our-work/diseases-and-conditions/covid-19-novel-coronavirus/covid-19-data-and-statistics/covid-19-vaccine-data,
2021-06-18,607329,355199,962528,Pfizer/BioNTech,New Zealand,https://www.health.govt.nz/our-work/diseases-and-conditions/covid-19-novel-coronavirus/covid-19-data-and-statistics/covid-19-vaccine-data,
2021-06-19,614712,360095,974807,Pfizer/BioNTech,New Zealand,https://www.health.govt.nz/our-work/diseases-and-conditions/covid-19-novel-coronavirus/covid-19-data-and-statistics/covid-19-vaccine-data,
2021-06-20,618679,363439,982118,Pfizer/BioNTech,New Zealand,https://www.health.govt.nz/our-work/diseases-and-conditions/covid-19-novel-coronavirus/covid-19-data-and-statistics/covid-19-vaccine-data,
2021-06-21,627748,371879,999627,Pfizer/BioNTech,New Zealand,https://www.health.govt.nz/our-work/diseases-and-conditions/covid-19-novel-coronavirus/covid-19-data-and-statistics/covid-19-vaccine-data,
2021-06-22,639199,383162,1022361,Pfizer/BioNTech,New Zealand,https://www.health.govt.nz/our-work/diseases-and-conditions/covid-19-novel-coronavirus/covid-19-data-and-statistics/covid-19-vaccine-data,
2021-06-23,652322,395041,1047363,Pfizer/BioNTech,New Zealand,https://www.health.govt.nz/our-work/diseases-and-conditions/covid-19-novel-coronavirus/covid-19-data-and-statistics/covid-19-vaccine-data,
2021-06-24,663768,408029,1071797,Pfizer/BioNTech,New Zealand,https://www.health.govt.nz/our-work/diseases-and-conditions/covid-19-novel-coronavirus/covid-19-data-and-statistics/covid-19-vaccine-data,
2021-06-25,673799,419734,1093533,Pfizer/BioNTech,New Zealand,https://www.health.govt.nz/our-work/diseases-and-conditions/covid-19-novel-coronavirus/covid-19-data-and-statistics/covid-19-vaccine-data,
2021-06-26,682154,426010,1108164,Pfizer/BioNTech,New Zealand,https://www.health.govt.nz/our-work/diseases-and-conditions/covid-19-novel-coronavirus/covid-19-data-and-statistics/covid-19-vaccine-data,
2021-06-27,685744,429452,1115196,Pfizer/BioNTech,New Zealand,https://www.health.govt.nz/our-work/diseases-and-conditions/covid-19-novel-coronavirus/covid-19-data-and-statistics/covid-19-vaccine-data,
2021-06-28,695673,435907,1131580,Pfizer/BioNTech,New Zealand,https://www.health.govt.nz/our-work/diseases-and-conditions/covid-19-novel-coronavirus/covid-19-data-and-statistics/covid-19-vaccine-data,
2021-06-29,706614,445935,1152549,Pfizer/BioNTech,New Zealand,https://www.health.govt.nz/our-work/diseases-and-conditions/covid-19-novel-coronavirus/covid-19-data-and-statistics/covid-19-vaccine-data,
2021-06-30,719562,455873,1175435,Pfizer/BioNTech,New Zealand,https://www.health.govt.nz/our-work/diseases-and-conditions/covid-19-novel-coronavirus/covid-19-data-and-statistics/covid-19-vaccine-data,
2021-07-01,732672,465717,1198389,Pfizer/BioNTech,New Zealand,https://www.health.govt.nz/our-work/diseases-and-conditions/covid-19-novel-coronavirus/covid-19-data-and-statistics/covid-19-vaccine-data,
2021-07-02,742442,476027,1218469,Pfizer/BioNTech,New Zealand,https://www.health.govt.nz/our-work/diseases-and-conditions/covid-19-novel-coronavirus/covid-19-data-and-statistics/covid-19-vaccine-data,
2021-07-03,749830,481349,1231179,Pfizer/BioNTech,New Zealand,https://www.health.govt.nz/our-work/diseases-and-conditions/covid-19-novel-coronavirus/covid-19-data-and-statistics/covid-19-vaccine-data,
2021-07-04,753323,484267,1237590,Pfizer/BioNTech,New Zealand,https://www.health.govt.nz/our-work/diseases-and-conditions/covid-19-novel-coronavirus/covid-19-data-and-statistics/covid-19-vaccine-data,
2021-07-05,761109,492232,1253341,Pfizer/BioNTech,New Zealand,https://www.health.govt.nz/our-work/diseases-and-conditions/covid-19-novel-coronavirus/covid-19-data-and-statistics/covid-19-vaccine-data,
2021-07-06,770705,503560,1274265,Pfizer/BioNTech,New Zealand,https://www.health.govt.nz/our-work/diseases-and-conditions/covid-19-novel-coronavirus/covid-19-data-and-statistics/covid-19-vaccine-data,
2021-07-07,781991,515421,1297412,Pfizer/BioNTech,New Zealand,https://www.health.govt.nz/our-work/diseases-and-conditions/covid-19-novel-coronavirus/covid-19-data-and-statistics/covid-19-vaccine-data,
2021-07-08,794707,527316,1322023,Pfizer/BioNTech,New Zealand,https://www.health.govt.nz/our-work/diseases-and-conditions/covid-19-novel-coronavirus/covid-19-data-and-statistics/covid-19-vaccine-data,
2021-07-09,805795,537831,1343626,Pfizer/BioNTech,New Zealand,https://www.health.govt.nz/our-work/diseases-and-conditions/covid-19-novel-coronavirus/covid-19-data-and-statistics/covid-19-vaccine-data,
2021-07-10,815126,544307,1359433,Pfizer/BioNTech,New Zealand,https://www.health.govt.nz/our-work/diseases-and-conditions/covid-19-novel-coronavirus/covid-19-data-and-statistics/covid-19-vaccine-data,
2021-07-11,819521,547546,1367067,Pfizer/BioNTech,New Zealand,https://www.health.govt.nz/our-work/diseases-and-conditions/covid-19-novel-coronavirus/covid-19-data-and-statistics/covid-19-vaccine-data,
2021-07-12,829106,555705,1384811,Pfizer/BioNTech,New Zealand,https://www.health.govt.nz/our-work/diseases-and-conditions/covid-19-novel-coronavirus/covid-19-data-and-statistics/covid-19-vaccine-data,
2021-07-13,841177,566183,1407360,Pfizer/BioNTech,New Zealand,https://www.health.govt.nz/our-work/diseases-and-conditions/covid-19-novel-coronavirus/covid-19-data-and-statistics/covid-19-vaccine-data,
2021-07-14,854601,577625,1432226,Pfizer/BioNTech,New Zealand,https://www.health.govt.nz/our-work/diseases-and-conditions/covid-19-novel-coronavirus/covid-19-data-and-statistics/covid-19-vaccine-data,
2021-07-15,867470,588524,1455994,Pfizer/BioNTech,New Zealand,https://www.health.govt.nz/our-work/diseases-and-conditions/covid-19-novel-coronavirus/covid-19-data-and-statistics/covid-19-vaccine-data,
2021-07-16,879411,598435,1477846,Pfizer/BioNTech,New Zealand,https://www.health.govt.nz/our-work/diseases-and-conditions/covid-19-novel-coronavirus/covid-19-data-and-statistics/covid-19-vaccine-data,
2021-07-17,888869,605506,1494375,Pfizer/BioNTech,New Zealand,https://www.health.govt.nz/our-work/diseases-and-conditions/covid-19-novel-coronavirus/covid-19-data-and-statistics/covid-19-vaccine-data,
2021-07-18,894509,608576,1503085,Pfizer/BioNTech,New Zealand,https://www.health.govt.nz/our-work/diseases-and-conditions/covid-19-novel-coronavirus/covid-19-data-and-statistics/covid-19-vaccine-data,
2021-07-19,907668,617759,1525427,Pfizer/BioNTech,New Zealand,https://www.health.govt.nz/our-work/diseases-and-conditions/covid-19-novel-coronavirus/covid-19-data-and-statistics/covid-19-vaccine-data,
2021-07-20,926436,629677,1556113,Pfizer/BioNTech,New Zealand,https://www.health.govt.nz/our-work/diseases-and-conditions/covid-19-novel-coronavirus/covid-19-data-and-statistics/covid-19-vaccine-data,
2021-07-21,947249,642852,1590101,Pfizer/BioNTech,New Zealand,https://www.health.govt.nz/our-work/diseases-and-conditions/covid-19-novel-coronavirus/covid-19-data-and-statistics/covid-19-vaccine-data,
2021-07-22,967093,655361,1622454,Pfizer/BioNTech,New Zealand,https://www.health.govt.nz/our-work/diseases-and-conditions/covid-19-novel-coronavirus/covid-19-data-and-statistics/covid-19-vaccine-data,
2021-07-23,986866,666648,1653514,Pfizer/BioNTech,New Zealand,https://www.health.govt.nz/our-work/diseases-and-conditions/covid-19-novel-coronavirus/covid-19-data-and-statistics/covid-19-vaccine-data,
2021-07-24,1003977,674372,1678349,Pfizer/BioNTech,New Zealand,https://www.health.govt.nz/our-work/diseases-and-conditions/covid-19-novel-coronavirus/covid-19-data-and-statistics/covid-19-vaccine-data,
2021-07-25,1013032,679296,1692328,Pfizer/BioNTech,New Zealand,https://www.health.govt.nz/our-work/diseases-and-conditions/covid-19-novel-coronavirus/covid-19-data-and-statistics/covid-19-vaccine-data,
2021-07-26,1033591,689265,1722856,Pfizer/BioNTech,New Zealand,https://www.health.govt.nz/our-work/diseases-and-conditions/covid-19-novel-coronavirus/covid-19-data-and-statistics/covid-19-vaccine-data,
2021-07-27,1061204,700631,1761835,Pfizer/BioNTech,New Zealand,https://www.health.govt.nz/our-work/diseases-and-conditions/covid-19-novel-coronavirus/covid-19-data-and-statistics/covid-19-vaccine-data,
2021-07-28,1090628,712778,1803406,Pfizer/BioNTech,New Zealand,https://www.health.govt.nz/our-work/diseases-and-conditions/covid-19-novel-coronavirus/covid-19-data-and-statistics/covid-19-vaccine-data,
2021-07-29,1118866,724752,1843618,Pfizer/BioNTech,New Zealand,https://www.health.govt.nz/our-work/diseases-and-conditions/covid-19-novel-coronavirus/covid-19-data-and-statistics/covid-19-vaccine-data,
2021-07-30,1150372,735376,1885748,Pfizer/BioNTech,New Zealand,https://www.health.govt.nz/our-work/diseases-and-conditions/covid-19-novel-coronavirus/covid-19-data-and-statistics/covid-19-vaccine-data,
2021-07-31,1179908,744426,1924334,Pfizer/BioNTech,New Zealand,https://www.health.govt.nz/our-work/diseases-and-conditions/covid-19-novel-coronavirus/covid-19-data-and-statistics/covid-19-vaccine-data,
2021-08-01,1197890,749094,1946984,Pfizer/BioNTech,New Zealand,https://www.health.govt.nz/our-work/diseases-and-conditions/covid-19-novel-coronavirus/covid-19-data-and-statistics/covid-19-vaccine-data,
2021-08-02,1223593,758528,1982121,Pfizer/BioNTech,New Zealand,https://www.health.govt.nz/our-work/diseases-and-conditions/covid-19-novel-coronavirus/covid-19-data-and-statistics/covid-19-vaccine-data,
2021-08-03,1253907,771051,2024958,Pfizer/BioNTech,New Zealand,https://www.health.govt.nz/our-work/diseases-and-conditions/covid-19-novel-coronavirus/covid-19-data-and-statistics/covid-19-vaccine-data,
2021-08-04,1286472,783965,2070437,Pfizer/BioNTech,New Zealand,https://www.health.govt.nz/our-work/diseases-and-conditions/covid-19-novel-coronavirus/covid-19-data-and-statistics/covid-19-vaccine-data,
2021-08-05,1315769,796959,2112728,Pfizer/BioNTech,New Zealand,https://www.health.govt.nz/our-work/diseases-and-conditions/covid-19-novel-coronavirus/covid-19-data-and-statistics/covid-19-vaccine-data,
2021-08-06,1346178,808660,2154838,Pfizer/BioNTech,New Zealand,https://www.health.govt.nz/our-work/diseases-and-conditions/covid-19-novel-coronavirus/covid-19-data-and-statistics/covid-19-vaccine-data,
2021-08-07,1374103,817538,2191641,Pfizer/BioNTech,New Zealand,https://www.health.govt.nz/our-work/diseases-and-conditions/covid-19-novel-coronavirus/covid-19-data-and-statistics/covid-19-vaccine-data,
2021-08-08,1389990,822162,2212152,Pfizer/BioNTech,New Zealand,https://www.health.govt.nz/our-work/diseases-and-conditions/covid-19-novel-coronavirus/covid-19-data-and-statistics/covid-19-vaccine-data,
2021-08-09,1416905,833806,2250711,Pfizer/BioNTech,New Zealand,https://www.health.govt.nz/our-work/diseases-and-conditions/covid-19-novel-coronavirus/covid-19-data-and-statistics/covid-19-vaccine-data,
2021-08-10,1448032,849749,2297781,Pfizer/BioNTech,New Zealand,https://www.health.govt.nz/our-work/diseases-and-conditions/covid-19-novel-coronavirus/covid-19-data-and-statistics/covid-19-vaccine-data,
2021-08-11,1480076,866667,2346743,Pfizer/BioNTech,New Zealand,https://www.health.govt.nz/our-work/diseases-and-conditions/covid-19-novel-coronavirus/covid-19-data-and-statistics/covid-19-vaccine-data,
2021-08-12,1512607,883198,2395805,Pfizer/BioNTech,New Zealand,https://www.health.govt.nz/our-work/diseases-and-conditions/covid-19-novel-coronavirus/covid-19-data-and-statistics/covid-19-vaccine-data,
2021-08-13,1544021,898839,2442860,Pfizer/BioNTech,New Zealand,https://www.health.govt.nz/our-work/diseases-and-conditions/covid-19-novel-coronavirus/covid-19-data-and-statistics/covid-19-vaccine-data,
2021-08-14,1574479,912136,2486615,Pfizer/BioNTech,New Zealand,https://www.health.govt.nz/our-work/diseases-and-conditions/covid-19-novel-coronavirus/covid-19-data-and-statistics/covid-19-vaccine-data,
2021-08-15,1592773,919517,2512290,Pfizer/BioNTech,New Zealand,https://www.health.govt.nz/our-work/diseases-and-conditions/covid-19-novel-coronavirus/covid-19-data-and-statistics/covid-19-vaccine-data,
2021-08-16,1623158,935554,2558712,Pfizer/BioNTech,New Zealand,https://www.health.govt.nz/our-work/diseases-and-conditions/covid-19-novel-coronavirus/covid-19-data-and-statistics/covid-19-vaccine-data,
2021-08-17,1659027,955958,2614985,Pfizer/BioNTech,New Zealand,https://www.health.govt.nz/our-work/diseases-and-conditions/covid-19-novel-coronavirus/covid-19-data-and-statistics/covid-19-vaccine-data,
2021-08-18,1659442,956058,2615500,Pfizer/BioNTech,New Zealand,https://www.health.govt.nz/our-work/diseases-and-conditions/covid-19-novel-coronavirus/covid-19-data-and-statistics/covid-19-vaccine-data,
2021-08-19,1681045,964808,2645853,Pfizer/BioNTech,New Zealand,https://www.health.govt.nz/our-work/diseases-and-conditions/covid-19-novel-coronavirus/covid-19-data-and-statistics/covid-19-vaccine-data,
2021-08-20,1719891,984985,2704876,Pfizer/BioNTech,New Zealand,https://www.health.govt.nz/our-work/diseases-and-conditions/covid-19-novel-coronavirus/covid-19-data-and-statistics/covid-19-vaccine-data,
2021-08-21,1758303,1000849,2759152,Pfizer/BioNTech,New Zealand,https://www.health.govt.nz/our-work/diseases-and-conditions/covid-19-novel-coronavirus/covid-19-data-and-statistics/covid-19-vaccine-data,
2021-08-22,1786836,1009912,2796748,Pfizer/BioNTech,New Zealand,https://www.health.govt.nz/our-work/diseases-and-conditions/covid-19-novel-coronavirus/covid-19-data-and-statistics/covid-19-vaccine-data,
2021-08-23,1833692,1029444,2863136,Pfizer/BioNTech,New Zealand,https://www.health.govt.nz/our-work/diseases-and-conditions/covid-19-novel-coronavirus/covid-19-data-and-statistics/covid-19-vaccine-data,
2021-08-24,1893199,1053068,2946267,Pfizer/BioNTech,New Zealand,https://www.health.govt.nz/our-work/diseases-and-conditions/covid-19-novel-coronavirus/covid-19-data-and-statistics/covid-19-vaccine-data,
2021-08-25,1956700,1079501,3036201,Pfizer/BioNTech,New Zealand,https://www.health.govt.nz/our-work/diseases-and-conditions/covid-19-novel-coronavirus/covid-19-data-and-statistics/covid-19-vaccine-data,
2021-08-26,2024658,1104976,3129634,Pfizer/BioNTech,New Zealand,https://www.health.govt.nz/our-work/diseases-and-conditions/covid-19-novel-coronavirus/covid-19-data-and-statistics/covid-19-vaccine-data,
2021-08-27,2092172,1129678,3221850,Pfizer/BioNTech,New Zealand,https://www.health.govt.nz/our-work/diseases-and-conditions/covid-19-novel-coronavirus/covid-19-data-and-statistics/covid-19-vaccine-data,
2021-08-28,2149084,1152048,3301132,Pfizer/BioNTech,New Zealand,https://www.health.govt.nz/our-work/diseases-and-conditions/covid-19-novel-coronavirus/covid-19-data-and-statistics/covid-19-vaccine-data,
2021-08-29,2186216,1163510,3349726,Pfizer/BioNTech,New Zealand,https://www.health.govt.nz/our-work/diseases-and-conditions/covid-19-novel-coronavirus/covid-19-data-and-statistics/covid-19-vaccine-data,
2021-08-30,2241203,1187258,3428461,Pfizer/BioNTech,New Zealand,https://www.health.govt.nz/our-work/diseases-and-conditions/covid-19-novel-coronavirus/covid-19-data-and-statistics/covid-19-vaccine-data,
2021-08-31,2300625,1214717,3515342,Pfizer/BioNTech,New Zealand,https://www.health.govt.nz/our-work/diseases-and-conditions/covid-19-novel-coronavirus/covid-19-data-and-statistics/covid-19-vaccine-data,
2021-09-01,2364286,1242374,3606660,Pfizer/BioNTech,New Zealand,https://www.health.govt.nz/our-work/diseases-and-conditions/covid-19-novel-coronavirus/covid-19-data-and-statistics/covid-19-vaccine-data,
2021-09-02,2429567,1267660,3697227,Pfizer/BioNTech,New Zealand,https://www.health.govt.nz/our-work/diseases-and-conditions/covid-19-novel-coronavirus/covid-19-data-and-statistics/covid-19-vaccine-data,
2021-09-03,2491540,1293550,3785090,Pfizer/BioNTech,New Zealand,https://www.health.govt.nz/our-work/diseases-and-conditions/covid-19-novel-coronavirus/covid-19-data-and-statistics/covid-19-vaccine-data,
2021-09-04,2547696,1316103,3863799,Pfizer/BioNTech,New Zealand,https://www.health.govt.nz/our-work/diseases-and-conditions/covid-19-novel-coronavirus/covid-19-data-and-statistics/covid-19-vaccine-data,
2021-09-05,2574753,1328108,3902861,Pfizer/BioNTech,New Zealand,https://www.health.govt.nz/our-work/diseases-and-conditions/covid-19-novel-coronavirus/covid-19-data-and-statistics/covid-19-vaccine-data,
2021-09-06,2620122,1349907,3970029,Pfizer/BioNTech,New Zealand,https://www.health.govt.nz/our-work/diseases-and-conditions/covid-19-novel-coronavirus/covid-19-data-and-statistics/covid-19-vaccine-data,
2021-09-07,2670175,1373348,4043523,Pfizer/BioNTech,New Zealand,https://www.health.govt.nz/our-work/diseases-and-conditions/covid-19-novel-coronavirus/covid-19-data-and-statistics/covid-19-vaccine-data,
2021-09-08,2719070,1391894,4110964,Pfizer/BioNTech,New Zealand,https://www.health.govt.nz/our-work/diseases-and-conditions/covid-19-novel-coronavirus/covid-19-data-and-statistics/covid-19-vaccine-data,
2021-09-09,2765643,1407502,4173145,Pfizer/BioNTech,New Zealand,https://www.health.govt.nz/our-work/diseases-and-conditions/covid-19-novel-coronavirus/covid-19-data-and-statistics/covid-19-vaccine-data,
2021-09-10,2809868,1428664,4238532,Pfizer/BioNTech,New Zealand,https://www.health.govt.nz/our-work/diseases-and-conditions/covid-19-novel-coronavirus/covid-19-data-and-statistics/covid-19-vaccine-data,
2021-09-11,2848957,1451956,4300913,Pfizer/BioNTech,New Zealand,https://www.health.govt.nz/our-work/diseases-and-conditions/covid-19-novel-coronavirus/covid-19-data-and-statistics/covid-19-vaccine-data,
2021-09-12,2869654,1465401,4335055,Pfizer/BioNTech,New Zealand,https://www.health.govt.nz/our-work/diseases-and-conditions/covid-19-novel-coronavirus/covid-19-data-and-statistics/covid-19-vaccine-data,
2021-09-13,2904236,1486361,4390597,Pfizer/BioNTech,New Zealand,https://www.health.govt.nz/our-work/diseases-and-conditions/covid-19-novel-coronavirus/covid-19-data-and-statistics/covid-19-vaccine-data,
2021-09-14,2944027,1509224,4453251,Pfizer/BioNTech,New Zealand,https://www.health.govt.nz/our-work/diseases-and-conditions/covid-19-novel-coronavirus/covid-19-data-and-statistics/covid-19-vaccine-data,
2021-09-15,2984114,1532427,4516541,Pfizer/BioNTech,New Zealand,https://www.health.govt.nz/our-work/diseases-and-conditions/covid-19-novel-coronavirus/covid-19-data-and-statistics/covid-19-vaccine-data,
2021-09-16,3021461,1556564,4578025,Pfizer/BioNTech,New Zealand,https://www.health.govt.nz/our-work/diseases-and-conditions/covid-19-novel-coronavirus/covid-19-data-and-statistics/covid-19-vaccine-data,
2021-09-17,3054884,1584235,4639119,Pfizer/BioNTech,New Zealand,https://www.health.govt.nz/our-work/diseases-and-conditions/covid-19-novel-coronavirus/covid-19-data-and-statistics/covid-19-vaccine-data,
2021-09-18,3084257,1608838,4693095,Pfizer/BioNTech,New Zealand,https://www.health.govt.nz/our-work/diseases-and-conditions/covid-19-novel-coronavirus/covid-19-data-and-statistics/covid-19-vaccine-data,
2021-09-19,3098584,1621414,4719998,Pfizer/BioNTech,New Zealand,https://www.health.govt.nz/our-work/diseases-and-conditions/covid-19-novel-coronavirus/covid-19-data-and-statistics/covid-19-vaccine-data,
2021-09-20,3123439,1647333,4770772,Pfizer/BioNTech,New Zealand,https://www.health.govt.nz/our-work/diseases-and-conditions/covid-19-novel-coronavirus/covid-19-data-and-statistics/covid-19-vaccine-data,
2021-09-21,3151298,1673890,4825188,Pfizer/BioNTech,New Zealand,https://www.health.govt.nz/our-work/diseases-and-conditions/covid-19-novel-coronavirus/covid-19-data-and-statistics/covid-19-vaccine-data,
2021-09-22,3175901,1699430,4875331,Pfizer/BioNTech,New Zealand,https://www.health.govt.nz/our-work/diseases-and-conditions/covid-19-novel-coronavirus/covid-19-data-and-statistics/covid-19-vaccine-data,
2021-09-23,3197196,1727960,4925156,Pfizer/BioNTech,New Zealand,https://www.health.govt.nz/our-work/diseases-and-conditions/covid-19-novel-coronavirus/covid-19-data-and-statistics/covid-19-vaccine-data,
2021-09-24,3216391,1759756,4976147,Pfizer/BioNTech,New Zealand,https://www.health.govt.nz/our-work/diseases-and-conditions/covid-19-novel-coronavirus/covid-19-data-and-statistics/covid-19-vaccine-data,
2021-09-25,3235993,1792039,5028032,Pfizer/BioNTech,New Zealand,https://www.health.govt.nz/our-work/diseases-and-conditions/covid-19-novel-coronavirus/covid-19-data-and-statistics/covid-19-vaccine-data,
2021-09-26,3244301,1808635,5052936,Pfizer/BioNTech,New Zealand,https://www.health.govt.nz/our-work/diseases-and-conditions/covid-19-novel-coronavirus/covid-19-data-and-statistics/covid-19-vaccine-data,
2021-09-27,3257097,1836898,5093995,Pfizer/BioNTech,New Zealand,https://www.health.govt.nz/our-work/diseases-and-conditions/covid-19-novel-coronavirus/covid-19-data-and-statistics/covid-19-vaccine-data,
2021-09-28,3270775,1868136,5138911,Pfizer/BioNTech,New Zealand,https://www.health.govt.nz/our-work/diseases-and-conditions/covid-19-novel-coronavirus/covid-19-data-and-statistics/covid-19-vaccine-data,
2021-09-29,3284873,1895249,5180122,Pfizer/BioNTech,New Zealand,https://www.health.govt.nz/our-work/diseases-and-conditions/covid-19-novel-coronavirus/covid-19-data-and-statistics/covid-19-vaccine-data,
2021-09-30,3299104,1927633,5226737,Pfizer/BioNTech,New Zealand,https://www.health.govt.nz/our-work/diseases-and-conditions/covid-19-novel-coronavirus/covid-19-data-and-statistics/covid-19-vaccine-data,
2021-10-01,3311541,1963122,5274663,Pfizer/BioNTech,New Zealand,https://www.health.govt.nz/our-work/diseases-and-conditions/covid-19-novel-coronavirus/covid-19-data-and-statistics/covid-19-vaccine-data,
2021-10-02,3324519,2000550,5325069,Pfizer/BioNTech,New Zealand,https://www.health.govt.nz/our-work/diseases-and-conditions/covid-19-novel-coronavirus/covid-19-data-and-statistics/covid-19-vaccine-data,
2021-10-03,3331666,2020587,5352253,Pfizer/BioNTech,New Zealand,https://www.health.govt.nz/our-work/diseases-and-conditions/covid-19-novel-coronavirus/covid-19-data-and-statistics/covid-19-vaccine-data,
2021-10-04,3346705,2061771,5408476,Pfizer/BioNTech,New Zealand,https://www.health.govt.nz/our-work/diseases-and-conditions/covid-19-novel-coronavirus/covid-19-data-and-statistics/covid-19-vaccine-data,
2021-10-05,3364513,2108132,5472645,Pfizer/BioNTech,New Zealand,https://www.health.govt.nz/our-work/diseases-and-conditions/covid-19-novel-coronavirus/covid-19-data-and-statistics/covid-19-vaccine-data,
2021-10-06,3383637,2159796,5543433,Pfizer/BioNTech,New Zealand,https://www.health.govt.nz/our-work/diseases-and-conditions/covid-19-novel-coronavirus/covid-19-data-and-statistics/covid-19-vaccine-data,
2021-10-07,3403605,2222754,5626359,Pfizer/BioNTech,New Zealand,https://www.health.govt.nz/our-work/diseases-and-conditions/covid-19-novel-coronavirus/covid-19-data-and-statistics/covid-19-vaccine-data,
2021-10-08,3422435,2290222,5712657,Pfizer/BioNTech,New Zealand,https://www.health.govt.nz/our-work/diseases-and-conditions/covid-19-novel-coronavirus/covid-19-data-and-statistics/covid-19-vaccine-data,
2021-10-09,3440921,2353956,5794877,Pfizer/BioNTech,New Zealand,https://www.health.govt.nz/our-work/diseases-and-conditions/covid-19-novel-coronavirus/covid-19-data-and-statistics/covid-19-vaccine-data,
2021-10-10,3450043,2387189,5837232,Pfizer/BioNTech,New Zealand,https://www.health.govt.nz/our-work/diseases-and-conditions/covid-19-novel-coronavirus/covid-19-data-and-statistics/covid-19-vaccine-data,
2021-10-11,3465401,2441510,5906911,Pfizer/BioNTech,New Zealand,https://www.health.govt.nz/our-work/diseases-and-conditions/covid-19-novel-coronavirus/covid-19-data-and-statistics/covid-19-vaccine-data,
2021-10-12,3483115,2497249,5980364,Pfizer/BioNTech,New Zealand,https://www.health.govt.nz/our-work/diseases-and-conditions/covid-19-novel-coronavirus/covid-19-data-and-statistics/covid-19-vaccine-data,
2021-10-13,3499039,2550698,6049737,Pfizer/BioNTech,New Zealand,https://www.health.govt.nz/our-work/diseases-and-conditions/covid-19-novel-coronavirus/covid-19-data-and-statistics/covid-19-vaccine-data,
2021-10-14,3514308,2603748,6118056,Pfizer/BioNTech,New Zealand,https://www.health.govt.nz/our-work/diseases-and-conditions/covid-19-novel-coronavirus/covid-19-data-and-statistics/covid-19-vaccine-data,
2021-10-15,3528449,2659501,6187950,Pfizer/BioNTech,New Zealand,https://www.health.govt.nz/our-work/diseases-and-conditions/covid-19-novel-coronavirus/covid-19-data-and-statistics/covid-19-vaccine-data,
2021-10-16,3568179,2751032,6319211,Pfizer/BioNTech,New Zealand,https://www.health.govt.nz/our-work/diseases-and-conditions/covid-19-novel-coronavirus/covid-19-data-and-statistics/covid-19-vaccine-data,
2021-10-17,3574483,2774496,6348979,Pfizer/BioNTech,New Zealand,https://www.health.govt.nz/our-work/diseases-and-conditions/covid-19-novel-coronavirus/covid-19-data-and-statistics/covid-19-vaccine-data,
2021-10-18,3584572,2807348,6391920,Pfizer/BioNTech,New Zealand,https://www.health.govt.nz/our-work/diseases-and-conditions/covid-19-novel-coronavirus/covid-19-data-and-statistics/covid-19-vaccine-data,
2021-10-19,3595106,2839855,6434961,Pfizer/BioNTech,New Zealand,https://www.health.govt.nz/our-work/diseases-and-conditions/covid-19-novel-coronavirus/covid-19-data-and-statistics/covid-19-vaccine-data,
2021-10-20,3605642,2872682,6478324,Pfizer/BioNTech,New Zealand,https://www.health.govt.nz/our-work/diseases-and-conditions/covid-19-novel-coronavirus/covid-19-data-and-statistics/covid-19-vaccine-data,
2021-10-21,3615845,2904128,6519973,Pfizer/BioNTech,New Zealand,https://www.health.govt.nz/our-work/diseases-and-conditions/covid-19-novel-coronavirus/covid-19-data-and-statistics/covid-19-vaccine-data,
2021-10-22,3627415,2937643,6565058,Pfizer/BioNTech,New Zealand,https://www.health.govt.nz/our-work/diseases-and-conditions/covid-19-novel-coronavirus/covid-19-data-and-statistics/covid-19-vaccine-data,
2021-10-23,3639346,2968446,6607792,Pfizer/BioNTech,New Zealand,https://www.health.govt.nz/our-work/diseases-and-conditions/covid-19-novel-coronavirus/covid-19-data-and-statistics/covid-19-vaccine-data,
2021-10-24,3644730,2982158,6626888,Pfizer/BioNTech,New Zealand,https://www.health.govt.nz/our-work/diseases-and-conditions/covid-19-novel-coronavirus/covid-19-data-and-statistics/covid-19-vaccine-data,
2021-10-25,3648270,2989356,6637626,Pfizer/BioNTech,New Zealand,https://www.health.govt.nz/our-work/diseases-and-conditions/covid-19-novel-coronavirus/covid-19-data-and-statistics/covid-19-vaccine-data,
2021-10-26,3659283,3020733,6680016,Pfizer/BioNTech,New Zealand,https://www.health.govt.nz/our-work/diseases-and-conditions/covid-19-novel-coronavirus/covid-19-data-and-statistics/covid-19-vaccine-data,
2021-10-27,3670334,3049181,6719515,Pfizer/BioNTech,New Zealand,https://www.health.govt.nz/our-work/diseases-and-conditions/covid-19-novel-coronavirus/covid-19-data-and-statistics/covid-19-vaccine-data,
2021-10-28,3683362,3081570,6764932,Pfizer/BioNTech,New Zealand,https://www.health.govt.nz/our-work/diseases-and-conditions/covid-19-novel-coronavirus/covid-19-data-and-statistics/covid-19-vaccine-data,
2021-10-29,3694608,3113596,6808204,Pfizer/BioNTech,New Zealand,https://www.health.govt.nz/our-work/diseases-and-conditions/covid-19-novel-coronavirus/covid-19-data-and-statistics/covid-19-vaccine-data,
2021-10-30,3705477,3145636,6851113,Pfizer/BioNTech,New Zealand,https://www.health.govt.nz/our-work/diseases-and-conditions/covid-19-novel-coronavirus/covid-19-data-and-statistics/covid-19-vaccine-data,
2021-10-31,3710392,3160976,6871368,Pfizer/BioNTech,New Zealand,https://www.health.govt.nz/our-work/diseases-and-conditions/covid-19-novel-coronavirus/covid-19-data-and-statistics/covid-19-vaccine-data,
2021-11-01,3717699,3181343,6899042,Pfizer/BioNTech,New Zealand,https://www.health.govt.nz/our-work/diseases-and-conditions/covid-19-novel-coronavirus/covid-19-data-and-statistics/covid-19-vaccine-data,
2021-11-02,3725362,3202817,6928179,Pfizer/BioNTech,New Zealand,https://www.health.govt.nz/our-work/diseases-and-conditions/covid-19-novel-coronavirus/covid-19-data-and-statistics/covid-19-vaccine-data,
2021-11-03,3732209,3223356,6955565,Pfizer/BioNTech,New Zealand,https://www.health.govt.nz/our-work/diseases-and-conditions/covid-19-novel-coronavirus/covid-19-data-and-statistics/covid-19-vaccine-data,
2021-11-04,3738941,3242952,6981893,Pfizer/BioNTech,New Zealand,https://www.health.govt.nz/our-work/diseases-and-conditions/covid-19-novel-coronavirus/covid-19-data-and-statistics/covid-19-vaccine-data,
2021-11-05,3745508,3264557,7010065,Pfizer/BioNTech,New Zealand,https://www.health.govt.nz/our-work/diseases-and-conditions/covid-19-novel-coronavirus/covid-19-data-and-statistics/covid-19-vaccine-data,
2021-11-06,3752982,3291122,7044104,Pfizer/BioNTech,New Zealand,https://www.health.govt.nz/our-work/diseases-and-conditions/covid-19-novel-coronavirus/covid-19-data-and-statistics/covid-19-vaccine-data,
2021-11-07,3756270,3302141,7058411,Pfizer/BioNTech,New Zealand,https://www.health.govt.nz/our-work/diseases-and-conditions/covid-19-novel-coronavirus/covid-19-data-and-statistics/covid-19-vaccine-data,
2021-11-08,3761512,3318390,7079902,Pfizer/BioNTech,New Zealand,https://www.health.govt.nz/our-work/diseases-and-conditions/covid-19-novel-coronavirus/covid-19-data-and-statistics/covid-19-vaccine-data,
2021-11-09,3767472,3334858,7102330,Pfizer/BioNTech,New Zealand,https://www.health.govt.nz/our-work/diseases-and-conditions/covid-19-novel-coronavirus/covid-19-data-and-statistics/covid-19-vaccine-data,
2021-11-10,3773634,3350900,7124534,Pfizer/BioNTech,New Zealand,https://www.health.govt.nz/our-work/diseases-and-conditions/covid-19-novel-coronavirus/covid-19-data-and-statistics/covid-19-vaccine-data,
2021-11-11,3780056,3367496,7147552,Pfizer/BioNTech,New Zealand,https://www.health.govt.nz/our-work/diseases-and-conditions/covid-19-novel-coronavirus/covid-19-data-and-statistics/covid-19-vaccine-data,
2021-11-12,3786517,3384295,7170812,Pfizer/BioNTech,New Zealand,https://www.health.govt.nz/our-work/diseases-and-conditions/covid-19-novel-coronavirus/covid-19-data-and-statistics/covid-19-vaccine-data,
2021-11-13,3793760,3404259,7198019,Pfizer/BioNTech,New Zealand,https://www.health.govt.nz/our-work/diseases-and-conditions/covid-19-novel-coronavirus/covid-19-data-and-statistics/covid-19-vaccine-data,
2021-11-14,3798417,3414262,7212679,Pfizer/BioNTech,New Zealand,https://www.health.govt.nz/our-work/diseases-and-conditions/covid-19-novel-coronavirus/covid-19-data-and-statistics/covid-19-vaccine-data,
2021-11-15,3806231,3427973,7234204,Pfizer/BioNTech,New Zealand,https://www.health.govt.nz/our-work/diseases-and-conditions/covid-19-novel-coronavirus/covid-19-data-and-statistics/covid-19-vaccine-data,
2021-11-16,3812895,3442340,7255235,Pfizer/BioNTech,New Zealand,https://www.health.govt.nz/our-work/diseases-and-conditions/covid-19-novel-coronavirus/covid-19-data-and-statistics/covid-19-vaccine-data,
