location,date,vaccine,source_url,total_vaccinations,people_vaccinated,people_fully_vaccinated,total_boosters
Switzerland,2020-12-21,Pfizer/BioNTech,https://opendata.swiss/en/dataset/covid-19-schweiz?detGeo=CH,1,1,1,
Switzerland,2020-12-22,Pfizer/BioNTech,https://opendata.swiss/en/dataset/covid-19-schweiz?detGeo=CH,3,3,1,
Switzerland,2020-12-23,Pfizer/BioNTech,https://opendata.swiss/en/dataset/covid-19-schweiz?detGeo=CH,429,405,1,
Switzerland,2020-12-24,Pfizer/BioNTech,https://opendata.swiss/en/dataset/covid-19-schweiz?detGeo=CH,693,668,1,
Switzerland,2020-12-25,Pfizer/BioNTech,https://opendata.swiss/en/dataset/covid-19-schweiz?detGeo=CH,694,669,1,
Switzerland,2020-12-26,Pfizer/BioNTech,https://opendata.swiss/en/dataset/covid-19-schweiz?detGeo=CH,1130,1105,1,
Switzerland,2020-12-27,Pfizer/BioNTech,https://opendata.swiss/en/dataset/covid-19-schweiz?detGeo=CH,1130,1105,1,
Switzerland,2020-12-28,Pfizer/BioNTech,https://opendata.swiss/en/dataset/covid-19-schweiz?detGeo=CH,2757,2701,3,
Switzerland,2020-12-29,Pfizer/BioNTech,https://opendata.swiss/en/dataset/covid-19-schweiz?detGeo=CH,4452,4364,6,
Switzerland,2020-12-30,Pfizer/BioNTech,https://opendata.swiss/en/dataset/covid-19-schweiz?detGeo=CH,6123,6023,7,
Switzerland,2020-12-31,Pfizer/BioNTech,https://opendata.swiss/en/dataset/covid-19-schweiz?detGeo=CH,6376,6275,8,
Switzerland,2021-01-01,Pfizer/BioNTech,https://opendata.swiss/en/dataset/covid-19-schweiz?detGeo=CH,6383,6281,9,
Switzerland,2021-01-02,Pfizer/BioNTech,https://opendata.swiss/en/dataset/covid-19-schweiz?detGeo=CH,6386,6284,9,
Switzerland,2021-01-03,Pfizer/BioNTech,https://opendata.swiss/en/dataset/covid-19-schweiz?detGeo=CH,6387,6285,9,
Switzerland,2021-01-04,Pfizer/BioNTech,https://opendata.swiss/en/dataset/covid-19-schweiz?detGeo=CH,10055,9905,10,
Switzerland,2021-01-05,Pfizer/BioNTech,https://opendata.swiss/en/dataset/covid-19-schweiz?detGeo=CH,17191,17002,11,
Switzerland,2021-01-06,Pfizer/BioNTech,https://opendata.swiss/en/dataset/covid-19-schweiz?detGeo=CH,23041,22675,15,
Switzerland,2021-01-07,Pfizer/BioNTech,https://opendata.swiss/en/dataset/covid-19-schweiz?detGeo=CH,30263,29758,21,
Switzerland,2021-01-08,Pfizer/BioNTech,https://opendata.swiss/en/dataset/covid-19-schweiz?detGeo=CH,38304,37643,32,
Switzerland,2021-01-09,Pfizer/BioNTech,https://opendata.swiss/en/dataset/covid-19-schweiz?detGeo=CH,40427,39762,35,
Switzerland,2021-01-10,Pfizer/BioNTech,https://opendata.swiss/en/dataset/covid-19-schweiz?detGeo=CH,40460,39794,36,
Switzerland,2021-01-11,Pfizer/BioNTech,https://opendata.swiss/en/dataset/covid-19-schweiz?detGeo=CH,47875,47096,45,
Switzerland,2021-01-12,Pfizer/BioNTech,https://opendata.swiss/en/dataset/covid-19-schweiz?detGeo=CH,58302,57393,51,
Switzerland,2021-01-13,Pfizer/BioNTech,https://opendata.swiss/en/dataset/covid-19-schweiz?detGeo=CH,69396,68227,177,
Switzerland,2021-01-14,Pfizer/BioNTech,https://opendata.swiss/en/dataset/covid-19-schweiz?detGeo=CH,80020,78654,244,
Switzerland,2021-01-15,Pfizer/BioNTech,https://opendata.swiss/en/dataset/covid-19-schweiz?detGeo=CH,90813,89199,298,
Switzerland,2021-01-16,Pfizer/BioNTech,https://opendata.swiss/en/dataset/covid-19-schweiz?detGeo=CH,95176,93538,303,
Switzerland,2021-01-17,Pfizer/BioNTech,https://opendata.swiss/en/dataset/covid-19-schweiz?detGeo=CH,95840,94199,307,
Switzerland,2021-01-18,Pfizer/BioNTech,https://opendata.swiss/en/dataset/covid-19-schweiz?detGeo=CH,108184,105572,1060,
Switzerland,2021-01-19,Pfizer/BioNTech,https://opendata.swiss/en/dataset/covid-19-schweiz?detGeo=CH,125576,121999,1763,
Switzerland,2021-01-20,Pfizer/BioNTech,https://opendata.swiss/en/dataset/covid-19-schweiz?detGeo=CH,146146,141435,2674,
Switzerland,2021-01-21,Pfizer/BioNTech,https://opendata.swiss/en/dataset/covid-19-schweiz?detGeo=CH,169493,163900,3244,
Switzerland,2021-01-22,Pfizer/BioNTech,https://opendata.swiss/en/dataset/covid-19-schweiz?detGeo=CH,189390,183010,3732,
Switzerland,2021-01-23,Pfizer/BioNTech,https://opendata.swiss/en/dataset/covid-19-schweiz?detGeo=CH,195239,188734,3828,
Switzerland,2021-01-24,Pfizer/BioNTech,https://opendata.swiss/en/dataset/covid-19-schweiz?detGeo=CH,196422,189903,3840,
Switzerland,2021-01-25,Pfizer/BioNTech,https://opendata.swiss/en/dataset/covid-19-schweiz?detGeo=CH,213831,205627,5290,
Switzerland,2021-01-26,Pfizer/BioNTech,https://opendata.swiss/en/dataset/covid-19-schweiz?detGeo=CH,238986,227875,7853,
Switzerland,2021-01-27,Pfizer/BioNTech,https://opendata.swiss/en/dataset/covid-19-schweiz?detGeo=CH,263380,250074,9836,
Switzerland,2021-01-28,Pfizer/BioNTech,https://opendata.swiss/en/dataset/covid-19-schweiz?detGeo=CH,290508,274024,12544,
Switzerland,2021-01-29,"Moderna, Pfizer/BioNTech",https://opendata.swiss/en/dataset/covid-19-schweiz?detGeo=CH,308350,288866,15182,
Switzerland,2021-01-30,"Moderna, Pfizer/BioNTech",https://opendata.swiss/en/dataset/covid-19-schweiz?detGeo=CH,308350,288866,15182,
Switzerland,2021-01-31,"Moderna, Pfizer/BioNTech",https://opendata.swiss/en/dataset/covid-19-schweiz?detGeo=CH,308350,288866,15182,
Switzerland,2021-02-01,"Moderna, Pfizer/BioNTech",https://opendata.swiss/en/dataset/covid-19-schweiz?detGeo=CH,324516,300694,19397,
Switzerland,2021-02-02,"Moderna, Pfizer/BioNTech",https://opendata.swiss/en/dataset/covid-19-schweiz?detGeo=CH,344144,314361,25110,
Switzerland,2021-02-03,"Moderna, Pfizer/BioNTech",https://opendata.swiss/en/dataset/covid-19-schweiz?detGeo=CH,363499,328117,30444,
Switzerland,2021-02-04,"Moderna, Pfizer/BioNTech",https://opendata.swiss/en/dataset/covid-19-schweiz?detGeo=CH,384178,341525,37507,
Switzerland,2021-02-05,"Moderna, Pfizer/BioNTech",https://opendata.swiss/en/dataset/covid-19-schweiz?detGeo=CH,403776,353911,44554,
Switzerland,2021-02-06,"Moderna, Pfizer/BioNTech",https://opendata.swiss/en/dataset/covid-19-schweiz?detGeo=CH,407126,355726,46083,
Switzerland,2021-02-07,"Moderna, Pfizer/BioNTech",https://opendata.swiss/en/dataset/covid-19-schweiz?detGeo=CH,408320,356648,46356,
Switzerland,2021-02-08,"Moderna, Pfizer/BioNTech",https://opendata.swiss/en/dataset/covid-19-schweiz?detGeo=CH,426974,366479,54875,
Switzerland,2021-02-09,"Moderna, Pfizer/BioNTech",https://opendata.swiss/en/dataset/covid-19-schweiz?detGeo=CH,452580,380764,65914,
Switzerland,2021-02-10,"Moderna, Pfizer/BioNTech",https://opendata.swiss/en/dataset/covid-19-schweiz?detGeo=CH,479663,397281,76087,
Switzerland,2021-02-11,"Moderna, Pfizer/BioNTech",https://opendata.swiss/en/dataset/covid-19-schweiz?detGeo=CH,507409,413380,87314,
Switzerland,2021-02-12,"Moderna, Pfizer/BioNTech",https://opendata.swiss/en/dataset/covid-19-schweiz?detGeo=CH,533989,429389,97456,
Switzerland,2021-02-13,"Moderna, Pfizer/BioNTech",https://opendata.swiss/en/dataset/covid-19-schweiz?detGeo=CH,540934,432775,101002,
Switzerland,2021-02-14,"Moderna, Pfizer/BioNTech",https://opendata.swiss/en/dataset/covid-19-schweiz?detGeo=CH,542276,433611,101506,
Switzerland,2021-02-15,"Moderna, Pfizer/BioNTech",https://opendata.swiss/en/dataset/covid-19-schweiz?detGeo=CH,561272,443380,110472,
Switzerland,2021-02-16,"Moderna, Pfizer/BioNTech",https://opendata.swiss/en/dataset/covid-19-schweiz?detGeo=CH,586545,455872,122756,
Switzerland,2021-02-17,"Moderna, Pfizer/BioNTech",https://opendata.swiss/en/dataset/covid-19-schweiz?detGeo=CH,610998,466325,136316,
Switzerland,2021-02-18,"Moderna, Pfizer/BioNTech",https://opendata.swiss/en/dataset/covid-19-schweiz?detGeo=CH,639762,477945,152962,
Switzerland,2021-02-19,"Moderna, Pfizer/BioNTech",https://opendata.swiss/en/dataset/covid-19-schweiz?detGeo=CH,664268,487532,167568,
Switzerland,2021-02-20,"Moderna, Pfizer/BioNTech",https://opendata.swiss/en/dataset/covid-19-schweiz?detGeo=CH,671546,490245,172116,
Switzerland,2021-02-21,"Moderna, Pfizer/BioNTech",https://opendata.swiss/en/dataset/covid-19-schweiz?detGeo=CH,673194,491053,172956,
Switzerland,2021-02-22,"Moderna, Pfizer/BioNTech",https://opendata.swiss/en/dataset/covid-19-schweiz?detGeo=CH,693329,497963,185809,
Switzerland,2021-02-23,"Moderna, Pfizer/BioNTech",https://opendata.swiss/en/dataset/covid-19-schweiz?detGeo=CH,720193,507638,202434,
Switzerland,2021-02-24,"Moderna, Pfizer/BioNTech",https://opendata.swiss/en/dataset/covid-19-schweiz?detGeo=CH,748503,517489,220552,
Switzerland,2021-02-25,"Moderna, Pfizer/BioNTech",https://opendata.swiss/en/dataset/covid-19-schweiz?detGeo=CH,778239,527313,239824,
Switzerland,2021-02-26,"Moderna, Pfizer/BioNTech",https://opendata.swiss/en/dataset/covid-19-schweiz?detGeo=CH,803172,535563,255992,
Switzerland,2021-02-27,"Moderna, Pfizer/BioNTech",https://opendata.swiss/en/dataset/covid-19-schweiz?detGeo=CH,809743,537752,260369,
Switzerland,2021-02-28,"Moderna, Pfizer/BioNTech",https://opendata.swiss/en/dataset/covid-19-schweiz?detGeo=CH,811732,538363,261746,
Switzerland,2021-03-01,"Moderna, Pfizer/BioNTech",https://opendata.swiss/en/dataset/covid-19-schweiz?detGeo=CH,834007,548676,273374,
Switzerland,2021-03-02,"Moderna, Pfizer/BioNTech",https://opendata.swiss/en/dataset/covid-19-schweiz?detGeo=CH,860002,559952,287647,
Switzerland,2021-03-03,"Moderna, Pfizer/BioNTech",https://opendata.swiss/en/dataset/covid-19-schweiz?detGeo=CH,892020,575497,303614,
Switzerland,2021-03-04,"Moderna, Pfizer/BioNTech",https://opendata.swiss/en/dataset/covid-19-schweiz?detGeo=CH,925861,592704,319610,
Switzerland,2021-03-05,"Moderna, Pfizer/BioNTech",https://opendata.swiss/en/dataset/covid-19-schweiz?detGeo=CH,955308,607232,333889,
Switzerland,2021-03-06,"Moderna, Pfizer/BioNTech",https://opendata.swiss/en/dataset/covid-19-schweiz?detGeo=CH,961633,610618,336738,
Switzerland,2021-03-07,"Moderna, Pfizer/BioNTech",https://opendata.swiss/en/dataset/covid-19-schweiz?detGeo=CH,963590,611645,337668,
Switzerland,2021-03-08,"Moderna, Pfizer/BioNTech",https://opendata.swiss/en/dataset/covid-19-schweiz?detGeo=CH,987053,624489,347974,
Switzerland,2021-03-09,"Moderna, Pfizer/BioNTech",https://opendata.swiss/en/dataset/covid-19-schweiz?detGeo=CH,1017754,641714,360917,
Switzerland,2021-03-10,"Moderna, Pfizer/BioNTech",https://opendata.swiss/en/dataset/covid-19-schweiz?detGeo=CH,1048198,660380,372086,
Switzerland,2021-03-11,"Moderna, Pfizer/BioNTech",https://opendata.swiss/en/dataset/covid-19-schweiz?detGeo=CH,1080690,679336,384977,
Switzerland,2021-03-12,"Moderna, Pfizer/BioNTech",https://opendata.swiss/en/dataset/covid-19-schweiz?detGeo=CH,1108269,695172,396405,
Switzerland,2021-03-13,"Moderna, Pfizer/BioNTech",https://opendata.swiss/en/dataset/covid-19-schweiz?detGeo=CH,1114293,698950,398647,
Switzerland,2021-03-14,"Moderna, Pfizer/BioNTech",https://opendata.swiss/en/dataset/covid-19-schweiz?detGeo=CH,1115741,699934,399109,
Switzerland,2021-03-15,"Moderna, Pfizer/BioNTech",https://opendata.swiss/en/dataset/covid-19-schweiz?detGeo=CH,1136858,710669,409282,
Switzerland,2021-03-16,"Moderna, Pfizer/BioNTech",https://opendata.swiss/en/dataset/covid-19-schweiz?detGeo=CH,1165976,725576,422957,
Switzerland,2021-03-17,"Moderna, Pfizer/BioNTech",https://opendata.swiss/en/dataset/covid-19-schweiz?detGeo=CH,1197983,741033,438840,
Switzerland,2021-03-18,"Moderna, Pfizer/BioNTech",https://opendata.swiss/en/dataset/covid-19-schweiz?detGeo=CH,1231569,757849,455024,
Switzerland,2021-03-19,"Moderna, Pfizer/BioNTech",https://opendata.swiss/en/dataset/covid-19-schweiz?detGeo=CH,1259567,772476,468069,
Switzerland,2021-03-20,"Moderna, Pfizer/BioNTech",https://opendata.swiss/en/dataset/covid-19-schweiz?detGeo=CH,1265777,775863,470892,
Switzerland,2021-03-21,"Moderna, Pfizer/BioNTech",https://opendata.swiss/en/dataset/covid-19-schweiz?detGeo=CH,1267127,776822,471283,
Switzerland,2021-03-22,"Moderna, Pfizer/BioNTech",https://opendata.swiss/en/dataset/covid-19-schweiz?detGeo=CH,1292175,790305,482340,
Switzerland,2021-03-23,"Moderna, Pfizer/BioNTech",https://opendata.swiss/en/dataset/covid-19-schweiz?detGeo=CH,1324791,808513,496134,
Switzerland,2021-03-24,"Moderna, Pfizer/BioNTech",https://opendata.swiss/en/dataset/covid-19-schweiz?detGeo=CH,1360234,829410,509937,
Switzerland,2021-03-25,"Moderna, Pfizer/BioNTech",https://opendata.swiss/en/dataset/covid-19-schweiz?detGeo=CH,1399499,854505,523439,
Switzerland,2021-03-26,"Moderna, Pfizer/BioNTech",https://opendata.swiss/en/dataset/covid-19-schweiz?detGeo=CH,1435916,877728,535965,
Switzerland,2021-03-27,"Moderna, Pfizer/BioNTech",https://opendata.swiss/en/dataset/covid-19-schweiz?detGeo=CH,1446074,885375,538514,
Switzerland,2021-03-28,"Moderna, Pfizer/BioNTech",https://opendata.swiss/en/dataset/covid-19-schweiz?detGeo=CH,1449689,888274,539223,
Switzerland,2021-03-29,"Moderna, Pfizer/BioNTech",https://opendata.swiss/en/dataset/covid-19-schweiz?detGeo=CH,1483199,909020,551318,
Switzerland,2021-03-30,"Moderna, Pfizer/BioNTech",https://opendata.swiss/en/dataset/covid-19-schweiz?detGeo=CH,1524995,936968,564525,
Switzerland,2021-03-31,"Moderna, Pfizer/BioNTech",https://opendata.swiss/en/dataset/covid-19-schweiz?detGeo=CH,1564070,960980,579143,
Switzerland,2021-04-01,"Moderna, Pfizer/BioNTech",https://opendata.swiss/en/dataset/covid-19-schweiz?detGeo=CH,1605969,984738,596706,
Switzerland,2021-04-02,"Moderna, Pfizer/BioNTech",https://opendata.swiss/en/dataset/covid-19-schweiz?detGeo=CH,1616605,990835,601040,
Switzerland,2021-04-03,"Moderna, Pfizer/BioNTech",https://opendata.swiss/en/dataset/covid-19-schweiz?detGeo=CH,1623065,994784,603561,
Switzerland,2021-04-04,"Moderna, Pfizer/BioNTech",https://opendata.swiss/en/dataset/covid-19-schweiz?detGeo=CH,1624800,995854,604236,
Switzerland,2021-04-05,"Moderna, Pfizer/BioNTech",https://opendata.swiss/en/dataset/covid-19-schweiz?detGeo=CH,1630693,999567,606407,
Switzerland,2021-04-06,"Moderna, Pfizer/BioNTech",https://opendata.swiss/en/dataset/covid-19-schweiz?detGeo=CH,1669258,1018249,625666,
Switzerland,2021-04-07,"Moderna, Pfizer/BioNTech",https://opendata.swiss/en/dataset/covid-19-schweiz?detGeo=CH,1716069,1044535,645712,
Switzerland,2021-04-08,"Moderna, Pfizer/BioNTech",https://opendata.swiss/en/dataset/covid-19-schweiz?detGeo=CH,1768600,1075031,667101,
Switzerland,2021-04-09,"Moderna, Pfizer/BioNTech",https://opendata.swiss/en/dataset/covid-19-schweiz?detGeo=CH,1816689,1104966,684758,
Switzerland,2021-04-10,"Moderna, Pfizer/BioNTech",https://opendata.swiss/en/dataset/covid-19-schweiz?detGeo=CH,1831359,1115419,688980,
Switzerland,2021-04-11,"Moderna, Pfizer/BioNTech",https://opendata.swiss/en/dataset/covid-19-schweiz?detGeo=CH,1835484,1118273,690279,
Switzerland,2021-04-12,"Moderna, Pfizer/BioNTech",https://opendata.swiss/en/dataset/covid-19-schweiz?detGeo=CH,1880288,1149586,703213,
Switzerland,2021-04-13,"Moderna, Pfizer/BioNTech",https://opendata.swiss/en/dataset/covid-19-schweiz?detGeo=CH,1934811,1186885,719849,
Switzerland,2021-04-14,"Moderna, Pfizer/BioNTech",https://opendata.swiss/en/dataset/covid-19-schweiz?detGeo=CH,1992283,1226948,736741,
Switzerland,2021-04-15,"Moderna, Pfizer/BioNTech",https://opendata.swiss/en/dataset/covid-19-schweiz?detGeo=CH,2051131,1268219,753822,
Switzerland,2021-04-16,"Moderna, Pfizer/BioNTech",https://opendata.swiss/en/dataset/covid-19-schweiz?detGeo=CH,2106396,1306902,769998,
Switzerland,2021-04-17,"Moderna, Pfizer/BioNTech",https://opendata.swiss/en/dataset/covid-19-schweiz?detGeo=CH,2124455,1321375,773745,
Switzerland,2021-04-18,"Moderna, Pfizer/BioNTech",https://opendata.swiss/en/dataset/covid-19-schweiz?detGeo=CH,2130836,1326866,774669,
Switzerland,2021-04-19,"Moderna, Pfizer/BioNTech",https://opendata.swiss/en/dataset/covid-19-schweiz?detGeo=CH,2183216,1363100,789794,
Switzerland,2021-04-20,"Moderna, Pfizer/BioNTech",https://opendata.swiss/en/dataset/covid-19-schweiz?detGeo=CH,2247988,1407236,809569,
Switzerland,2021-04-21,"Moderna, Pfizer/BioNTech",https://opendata.swiss/en/dataset/covid-19-schweiz?detGeo=CH,2316282,1454206,830082,
Switzerland,2021-04-22,"Moderna, Pfizer/BioNTech",https://opendata.swiss/en/dataset/covid-19-schweiz?detGeo=CH,2391831,1505262,853932,
Switzerland,2021-04-23,"Moderna, Pfizer/BioNTech",https://opendata.swiss/en/dataset/covid-19-schweiz?detGeo=CH,2458953,1551486,874254,
Switzerland,2021-04-24,"Moderna, Pfizer/BioNTech",https://opendata.swiss/en/dataset/covid-19-schweiz?detGeo=CH,2486407,1572621,880635,
Switzerland,2021-04-25,"Moderna, Pfizer/BioNTech",https://opendata.swiss/en/dataset/covid-19-schweiz?detGeo=CH,2498496,1582031,883326,
Switzerland,2021-04-26,"Moderna, Pfizer/BioNTech",https://opendata.swiss/en/dataset/covid-19-schweiz?detGeo=CH,2555980,1620116,902516,
Switzerland,2021-04-27,"Moderna, Pfizer/BioNTech",https://opendata.swiss/en/dataset/covid-19-schweiz?detGeo=CH,2631011,1670135,927193,
Switzerland,2021-04-28,"Moderna, Pfizer/BioNTech",https://opendata.swiss/en/dataset/covid-19-schweiz?detGeo=CH,2705303,1722439,948997,
Switzerland,2021-04-29,"Moderna, Pfizer/BioNTech",https://opendata.swiss/en/dataset/covid-19-schweiz?detGeo=CH,2778897,1772649,972251,
Switzerland,2021-04-30,"Moderna, Pfizer/BioNTech",https://opendata.swiss/en/dataset/covid-19-schweiz?detGeo=CH,2844103,1825446,984808,
Switzerland,2021-05-01,"Moderna, Pfizer/BioNTech",https://opendata.swiss/en/dataset/covid-19-schweiz?detGeo=CH,2874260,1851863,988737,
Switzerland,2021-05-02,"Moderna, Pfizer/BioNTech",https://opendata.swiss/en/dataset/covid-19-schweiz?detGeo=CH,2886897,1863700,989741,
Switzerland,2021-05-03,"Moderna, Pfizer/BioNTech",https://opendata.swiss/en/dataset/covid-19-schweiz?detGeo=CH,2948104,1915371,1000050,
Switzerland,2021-05-04,"Moderna, Pfizer/BioNTech",https://opendata.swiss/en/dataset/covid-19-schweiz?detGeo=CH,3024717,1970794,1021638,
Switzerland,2021-05-05,"Moderna, Pfizer/BioNTech",https://opendata.swiss/en/dataset/covid-19-schweiz?detGeo=CH,3104146,2023798,1048345,
Switzerland,2021-05-06,"Moderna, Pfizer/BioNTech",https://opendata.swiss/en/dataset/covid-19-schweiz?detGeo=CH,3195502,2083814,1079986,
Switzerland,2021-05-07,"Moderna, Pfizer/BioNTech",https://opendata.swiss/en/dataset/covid-19-schweiz?detGeo=CH,3282020,2140157,1110609,
Switzerland,2021-05-08,"Moderna, Pfizer/BioNTech",https://opendata.swiss/en/dataset/covid-19-schweiz?detGeo=CH,3322664,2170423,1121265,
Switzerland,2021-05-09,"Moderna, Pfizer/BioNTech",https://opendata.swiss/en/dataset/covid-19-schweiz?detGeo=CH,3338766,2183419,1124645,
Switzerland,2021-05-10,"Moderna, Pfizer/BioNTech",https://opendata.swiss/en/dataset/covid-19-schweiz?detGeo=CH,3420642,2230974,1158738,
Switzerland,2021-05-11,"Moderna, Pfizer/BioNTech",https://opendata.swiss/en/dataset/covid-19-schweiz?detGeo=CH,3517567,2287285,1199413,
Switzerland,2021-05-12,"Moderna, Pfizer/BioNTech",https://opendata.swiss/en/dataset/covid-19-schweiz?detGeo=CH,3616120,2343241,1242416,
Switzerland,2021-05-13,"Moderna, Pfizer/BioNTech",https://opendata.swiss/en/dataset/covid-19-schweiz?detGeo=CH,3662435,2374035,1258133,
Switzerland,2021-05-14,"Moderna, Pfizer/BioNTech",https://opendata.swiss/en/dataset/covid-19-schweiz?detGeo=CH,3744712,2420075,1294811,
Switzerland,2021-05-15,"Moderna, Pfizer/BioNTech",https://opendata.swiss/en/dataset/covid-19-schweiz?detGeo=CH,3788910,2451724,1308023,
Switzerland,2021-05-16,"Moderna, Pfizer/BioNTech",https://opendata.swiss/en/dataset/covid-19-schweiz?detGeo=CH,3807931,2466846,1312396,
Switzerland,2021-05-17,"Moderna, Pfizer/BioNTech",https://opendata.swiss/en/dataset/covid-19-schweiz?detGeo=CH,3893369,2510370,1354215,
Switzerland,2021-05-18,"Moderna, Pfizer/BioNTech",https://opendata.swiss/en/dataset/covid-19-schweiz?detGeo=CH,3994959,2563988,1402614,
Switzerland,2021-05-19,"Moderna, Pfizer/BioNTech",https://opendata.swiss/en/dataset/covid-19-schweiz?detGeo=CH,4098526,2621257,1449562,
Switzerland,2021-05-20,"Moderna, Pfizer/BioNTech",https://opendata.swiss/en/dataset/covid-19-schweiz?detGeo=CH,4209429,2680268,1501976,
Switzerland,2021-05-21,"Moderna, Pfizer/BioNTech",https://opendata.swiss/en/dataset/covid-19-schweiz?detGeo=CH,4312555,2737440,1548437,
Switzerland,2021-05-22,"Moderna, Pfizer/BioNTech",https://opendata.swiss/en/dataset/covid-19-schweiz?detGeo=CH,4360273,2768886,1565455,
Switzerland,2021-05-23,"Moderna, Pfizer/BioNTech",https://opendata.swiss/en/dataset/covid-19-schweiz?detGeo=CH,4379006,2781985,1571560,
Switzerland,2021-05-24,"Moderna, Pfizer/BioNTech",https://opendata.swiss/en/dataset/covid-19-schweiz?detGeo=CH,4429604,2813431,1591213,
Switzerland,2021-05-25,"Moderna, Pfizer/BioNTech",https://opendata.swiss/en/dataset/covid-19-schweiz?detGeo=CH,4532407,2863996,1644025,
Switzerland,2021-05-26,"Moderna, Pfizer/BioNTech",https://opendata.swiss/en/dataset/covid-19-schweiz?detGeo=CH,4640715,2919126,1697759,
Switzerland,2021-05-27,"Moderna, Pfizer/BioNTech",https://opendata.swiss/en/dataset/covid-19-schweiz?detGeo=CH,4750087,2976681,1750159,
Switzerland,2021-05-28,"Moderna, Pfizer/BioNTech",https://opendata.swiss/en/dataset/covid-19-schweiz?detGeo=CH,4856507,3029798,1804394,
Switzerland,2021-05-29,"Moderna, Pfizer/BioNTech",https://opendata.swiss/en/dataset/covid-19-schweiz?detGeo=CH,4911089,3058666,1830815,
Switzerland,2021-05-30,"Moderna, Pfizer/BioNTech",https://opendata.swiss/en/dataset/covid-19-schweiz?detGeo=CH,4935749,3072763,1841792,
Switzerland,2021-05-31,"Moderna, Pfizer/BioNTech",https://opendata.swiss/en/dataset/covid-19-schweiz?detGeo=CH,5030103,3118095,1891436,
Switzerland,2021-06-01,"Moderna, Pfizer/BioNTech",https://opendata.swiss/en/dataset/covid-19-schweiz?detGeo=CH,5139722,3174228,1946019,
Switzerland,2021-06-02,"Moderna, Pfizer/BioNTech",https://opendata.swiss/en/dataset/covid-19-schweiz?detGeo=CH,5253408,3233989,2001053,
Switzerland,2021-06-03,"Moderna, Pfizer/BioNTech",https://opendata.swiss/en/dataset/covid-19-schweiz?detGeo=CH,5357908,3290071,2050623,
Switzerland,2021-06-04,"Moderna, Pfizer/BioNTech",https://opendata.swiss/en/dataset/covid-19-schweiz?detGeo=CH,5470149,3347025,2107081,
Switzerland,2021-06-05,"Moderna, Pfizer/BioNTech",https://opendata.swiss/en/dataset/covid-19-schweiz?detGeo=CH,5543900,3391807,2137441,
Switzerland,2021-06-06,"Moderna, Pfizer/BioNTech",https://opendata.swiss/en/dataset/covid-19-schweiz?detGeo=CH,5571613,3407828,2149671,
Switzerland,2021-06-07,"Moderna, Pfizer/BioNTech",https://opendata.swiss/en/dataset/covid-19-schweiz?detGeo=CH,5674506,3461544,2199753,
Switzerland,2021-06-08,"Moderna, Pfizer/BioNTech",https://opendata.swiss/en/dataset/covid-19-schweiz?detGeo=CH,5787723,3518768,2257017,
Switzerland,2021-06-09,"Moderna, Pfizer/BioNTech",https://opendata.swiss/en/dataset/covid-19-schweiz?detGeo=CH,5901744,3579159,2312149,
Switzerland,2021-06-10,"Moderna, Pfizer/BioNTech",https://opendata.swiss/en/dataset/covid-19-schweiz?detGeo=CH,6008507,3643012,2356917,
Switzerland,2021-06-11,"Moderna, Pfizer/BioNTech",https://opendata.swiss/en/dataset/covid-19-schweiz?detGeo=CH,6117939,3704495,2406575,
Switzerland,2021-06-12,"Moderna, Pfizer/BioNTech",https://opendata.swiss/en/dataset/covid-19-schweiz?detGeo=CH,6189217,3747159,2436924,
Switzerland,2021-06-13,"Moderna, Pfizer/BioNTech",https://opendata.swiss/en/dataset/covid-19-schweiz?detGeo=CH,6216020,3759269,2452197,
Switzerland,2021-06-14,"Moderna, Pfizer/BioNTech",https://opendata.swiss/en/dataset/covid-19-schweiz?detGeo=CH,6314942,3814697,2497542,
Switzerland,2021-06-15,"Moderna, Pfizer/BioNTech",https://opendata.swiss/en/dataset/covid-19-schweiz?detGeo=CH,6420341,3869015,2550634,
Switzerland,2021-06-16,"Moderna, Pfizer/BioNTech",https://opendata.swiss/en/dataset/covid-19-schweiz?detGeo=CH,6524713,3920570,2605293,
Switzerland,2021-06-17,"Moderna, Pfizer/BioNTech",https://opendata.swiss/en/dataset/covid-19-schweiz?detGeo=CH,6632265,3972042,2663302,
Switzerland,2021-06-18,"Moderna, Pfizer/BioNTech",https://opendata.swiss/en/dataset/covid-19-schweiz?detGeo=CH,6735857,4020362,2720758,
Switzerland,2021-06-19,"Moderna, Pfizer/BioNTech",https://opendata.swiss/en/dataset/covid-19-schweiz?detGeo=CH,6799136,4055202,2751160,
Switzerland,2021-06-20,"Moderna, Pfizer/BioNTech",https://opendata.swiss/en/dataset/covid-19-schweiz?detGeo=CH,6819965,4065036,2763212,
Switzerland,2021-06-21,"Moderna, Pfizer/BioNTech",https://opendata.swiss/en/dataset/covid-19-schweiz?detGeo=CH,6908321,4111891,2808393,
Switzerland,2021-06-22,"Moderna, Pfizer/BioNTech",https://opendata.swiss/en/dataset/covid-19-schweiz?detGeo=CH,7001463,4153955,2861598,
Switzerland,2021-06-23,"Moderna, Pfizer/BioNTech",https://opendata.swiss/en/dataset/covid-19-schweiz?detGeo=CH,7092026,4192869,2915522,
Switzerland,2021-06-24,"Moderna, Pfizer/BioNTech",https://opendata.swiss/en/dataset/covid-19-schweiz?detGeo=CH,7181348,4228352,2971327,
Switzerland,2021-06-25,"Moderna, Pfizer/BioNTech",https://opendata.swiss/en/dataset/covid-19-schweiz?detGeo=CH,7269794,4265029,3025420,
Switzerland,2021-06-26,"Moderna, Pfizer/BioNTech",https://opendata.swiss/en/dataset/covid-19-schweiz?detGeo=CH,7321079,4289838,3053839,
Switzerland,2021-06-27,"Moderna, Pfizer/BioNTech",https://opendata.swiss/en/dataset/covid-19-schweiz?detGeo=CH,7339608,4294972,3067674,
Switzerland,2021-06-28,"Moderna, Pfizer/BioNTech",https://opendata.swiss/en/dataset/covid-19-schweiz?detGeo=CH,7414836,4320752,3118531,
Switzerland,2021-06-29,"Moderna, Pfizer/BioNTech",https://opendata.swiss/en/dataset/covid-19-schweiz?detGeo=CH,7494644,4345515,3174843,
Switzerland,2021-06-30,"Moderna, Pfizer/BioNTech",https://opendata.swiss/en/dataset/covid-19-schweiz?detGeo=CH,7578374,4368503,3236661,
Switzerland,2021-07-01,"Moderna, Pfizer/BioNTech",https://opendata.swiss/en/dataset/covid-19-schweiz?detGeo=CH,7651913,4388393,3291189,
Switzerland,2021-07-02,"Moderna, Pfizer/BioNTech",https://opendata.swiss/en/dataset/covid-19-schweiz?detGeo=CH,7726883,4408580,3347089,
Switzerland,2021-07-03,"Moderna, Pfizer/BioNTech",https://opendata.swiss/en/dataset/covid-19-schweiz?detGeo=CH,7774378,4418836,3385126,
Switzerland,2021-07-04,"Moderna, Pfizer/BioNTech",https://opendata.swiss/en/dataset/covid-19-schweiz?detGeo=CH,7789324,4421536,3397571,
Switzerland,2021-07-05,"Moderna, Pfizer/BioNTech",https://opendata.swiss/en/dataset/covid-19-schweiz?detGeo=CH,7861342,4437200,3454572,
Switzerland,2021-07-06,"Moderna, Pfizer/BioNTech",https://opendata.swiss/en/dataset/covid-19-schweiz?detGeo=CH,7935304,4455616,3510800,
Switzerland,2021-07-07,"Moderna, Pfizer/BioNTech",https://opendata.swiss/en/dataset/covid-19-schweiz?detGeo=CH,8006514,4471891,3566146,
Switzerland,2021-07-08,"Moderna, Pfizer/BioNTech",https://opendata.swiss/en/dataset/covid-19-schweiz?detGeo=CH,8078819,4485563,3624797,
Switzerland,2021-07-09,"Moderna, Pfizer/BioNTech",https://opendata.swiss/en/dataset/covid-19-schweiz?detGeo=CH,8150214,4499592,3682261,
Switzerland,2021-07-10,"Moderna, Pfizer/BioNTech",https://opendata.swiss/en/dataset/covid-19-schweiz?detGeo=CH,8192377,4505957,3718232,
Switzerland,2021-07-11,"Moderna, Pfizer/BioNTech",https://opendata.swiss/en/dataset/covid-19-schweiz?detGeo=CH,8205270,4508459,3728764,
Switzerland,2021-07-12,"Moderna, Pfizer/BioNTech",https://opendata.swiss/en/dataset/covid-19-schweiz?detGeo=CH,8276324,4521931,3786144,
Switzerland,2021-07-13,"Moderna, Pfizer/BioNTech",https://opendata.swiss/en/dataset/covid-19-schweiz?detGeo=CH,8346878,4536322,3841938,
Switzerland,2021-07-14,"Moderna, Pfizer/BioNTech",https://opendata.swiss/en/dataset/covid-19-schweiz?detGeo=CH,8409938,4550958,3890933,
Switzerland,2021-07-15,"Moderna, Pfizer/BioNTech",https://opendata.swiss/en/dataset/covid-19-schweiz?detGeo=CH,8472517,4564832,3939378,
Switzerland,2021-07-16,"Moderna, Pfizer/BioNTech",https://opendata.swiss/en/dataset/covid-19-schweiz?detGeo=CH,8534094,4579166,3986761,
Switzerland,2021-07-17,"Moderna, Pfizer/BioNTech",https://opendata.swiss/en/dataset/covid-19-schweiz?detGeo=CH,8567307,4584873,4014153,
Switzerland,2021-07-18,"Moderna, Pfizer/BioNTech",https://opendata.swiss/en/dataset/covid-19-schweiz?detGeo=CH,8575173,4585640,4021206,
Switzerland,2021-07-19,"Moderna, Pfizer/BioNTech",https://opendata.swiss/en/dataset/covid-19-schweiz?detGeo=CH,8639313,4597673,4073331,
Switzerland,2021-07-20,"Moderna, Pfizer/BioNTech",https://opendata.swiss/en/dataset/covid-19-schweiz?detGeo=CH,8695079,4610471,4116438,
Switzerland,2021-07-21,"Moderna, Pfizer/BioNTech",https://opendata.swiss/en/dataset/covid-19-schweiz?detGeo=CH,8744843,4623804,4153198,
Switzerland,2021-07-22,"Moderna, Pfizer/BioNTech",https://opendata.swiss/en/dataset/covid-19-schweiz?detGeo=CH,8790272,4635476,4187118,
Switzerland,2021-07-23,"Moderna, Pfizer/BioNTech",https://opendata.swiss/en/dataset/covid-19-schweiz?detGeo=CH,8839520,4649084,4222792,
Switzerland,2021-07-24,"Moderna, Pfizer/BioNTech",https://opendata.swiss/en/dataset/covid-19-schweiz?detGeo=CH,8865168,4654609,4243064,
Switzerland,2021-07-25,"Moderna, Pfizer/BioNTech",https://opendata.swiss/en/dataset/covid-19-schweiz?detGeo=CH,8870063,4655416,4247121,
Switzerland,2021-07-26,"Moderna, Pfizer/BioNTech",https://opendata.swiss/en/dataset/covid-19-schweiz?detGeo=CH,8913151,4668964,4277360,
Switzerland,2021-07-27,"Moderna, Pfizer/BioNTech",https://opendata.swiss/en/dataset/covid-19-schweiz?detGeo=CH,8949009,4680505,4302041,
Switzerland,2021-07-28,"Moderna, Pfizer/BioNTech",https://opendata.swiss/en/dataset/covid-19-schweiz?detGeo=CH,8980967,4692404,4322621,
Switzerland,2021-07-29,"Moderna, Pfizer/BioNTech",https://opendata.swiss/en/dataset/covid-19-schweiz?detGeo=CH,9012115,4703631,4343032,
Switzerland,2021-07-30,"Moderna, Pfizer/BioNTech",https://opendata.swiss/en/dataset/covid-19-schweiz?detGeo=CH,9044369,4716341,4363253,
Switzerland,2021-07-31,"Moderna, Pfizer/BioNTech",https://opendata.swiss/en/dataset/covid-19-schweiz?detGeo=CH,9055801,4720849,4370453,
Switzerland,2021-08-01,"Moderna, Pfizer/BioNTech",https://opendata.swiss/en/dataset/covid-19-schweiz?detGeo=CH,9057276,4721179,4371594,
Switzerland,2021-08-02,"Moderna, Pfizer/BioNTech",https://opendata.swiss/en/dataset/covid-19-schweiz?detGeo=CH,9079192,4729013,4386047,
Switzerland,2021-08-03,"Moderna, Pfizer/BioNTech",https://opendata.swiss/en/dataset/covid-19-schweiz?detGeo=CH,9106025,4738048,4404054,
Switzerland,2021-08-04,"Moderna, Pfizer/BioNTech",https://opendata.swiss/en/dataset/covid-19-schweiz?detGeo=CH,9130193,4748597,4418343,
Switzerland,2021-08-05,"Moderna, Pfizer/BioNTech",https://opendata.swiss/en/dataset/covid-19-schweiz?detGeo=CH,9155619,4758986,4434088,
Switzerland,2021-08-06,"Moderna, Pfizer/BioNTech",https://opendata.swiss/en/dataset/covid-19-schweiz?detGeo=CH,9183834,4770593,4451345,
Switzerland,2021-08-07,"Moderna, Pfizer/BioNTech",https://opendata.swiss/en/dataset/covid-19-schweiz?detGeo=CH,9193084,4774761,4456660,
Switzerland,2021-08-08,"Moderna, Pfizer/BioNTech",https://opendata.swiss/en/dataset/covid-19-schweiz?detGeo=CH,9193910,4774998,4457288,
Switzerland,2021-08-09,"Moderna, Pfizer/BioNTech",https://opendata.swiss/en/dataset/covid-19-schweiz?detGeo=CH,9217141,4784377,4471148,
Switzerland,2021-08-10,"Moderna, Pfizer/BioNTech",https://opendata.swiss/en/dataset/covid-19-schweiz?detGeo=CH,9240745,4794372,4485120,
Switzerland,2021-08-11,"Moderna, Pfizer/BioNTech",https://opendata.swiss/en/dataset/covid-19-schweiz?detGeo=CH,9265845,4805042,4499715,
Switzerland,2021-08-12,"Moderna, Pfizer/BioNTech",https://opendata.swiss/en/dataset/covid-19-schweiz?detGeo=CH,9292660,4817706,4514448,
Switzerland,2021-08-13,"Moderna, Pfizer/BioNTech",https://opendata.swiss/en/dataset/covid-19-schweiz?detGeo=CH,9321273,4830972,4530183,
Switzerland,2021-08-14,"Moderna, Pfizer/BioNTech",https://opendata.swiss/en/dataset/covid-19-schweiz?detGeo=CH,9331755,4836782,4535152,
Switzerland,2021-08-15,"Moderna, Pfizer/BioNTech",https://opendata.swiss/en/dataset/covid-19-schweiz?detGeo=CH,9332337,4837092,4535454,
Switzerland,2021-08-16,"Moderna, Pfizer/BioNTech",https://opendata.swiss/en/dataset/covid-19-schweiz?detGeo=CH,9355302,4846800,4549085,
Switzerland,2021-08-17,"Moderna, Pfizer/BioNTech",https://opendata.swiss/en/dataset/covid-19-schweiz?detGeo=CH,9379176,4857897,4562180,
Switzerland,2021-08-18,"Moderna, Pfizer/BioNTech",https://opendata.swiss/en/dataset/covid-19-schweiz?detGeo=CH,9406204,4870749,4576746,
Switzerland,2021-08-19,"Moderna, Pfizer/BioNTech",https://opendata.swiss/en/dataset/covid-19-schweiz?detGeo=CH,9432241,4884784,4589543,
Switzerland,2021-08-20,"Moderna, Pfizer/BioNTech",https://opendata.swiss/en/dataset/covid-19-schweiz?detGeo=CH,9464421,4901365,4606083,
Switzerland,2021-08-21,"Moderna, Pfizer/BioNTech",https://opendata.swiss/en/dataset/covid-19-schweiz?detGeo=CH,9476872,4908861,4611287,
Switzerland,2021-08-22,"Moderna, Pfizer/BioNTech",https://opendata.swiss/en/dataset/covid-19-schweiz?detGeo=CH,9477756,4909326,4611734,
Switzerland,2021-08-23,"Moderna, Pfizer/BioNTech",https://opendata.swiss/en/dataset/covid-19-schweiz?detGeo=CH,9500473,4921070,4623347,
Switzerland,2021-08-24,"Moderna, Pfizer/BioNTech",https://opendata.swiss/en/dataset/covid-19-schweiz?detGeo=CH,9525415,4933946,4635668,
Switzerland,2021-08-25,"Moderna, Pfizer/BioNTech",https://opendata.swiss/en/dataset/covid-19-schweiz?detGeo=CH,9554498,4949949,4649572,
Switzerland,2021-08-26,"Moderna, Pfizer/BioNTech",https://opendata.swiss/en/dataset/covid-19-schweiz?detGeo=CH,9584009,4967183,4662827,
Switzerland,2021-08-27,"Moderna, Pfizer/BioNTech",https://opendata.swiss/en/dataset/covid-19-schweiz?detGeo=CH,9619017,4987540,4678577,
Switzerland,2021-08-28,"Moderna, Pfizer/BioNTech",https://opendata.swiss/en/dataset/covid-19-schweiz?detGeo=CH,9636400,4999389,4685013,
Switzerland,2021-08-29,"Moderna, Pfizer/BioNTech",https://opendata.swiss/en/dataset/covid-19-schweiz?detGeo=CH,9638326,5000936,4685524,
Switzerland,2021-08-30,"Moderna, Pfizer/BioNTech",https://opendata.swiss/en/dataset/covid-19-schweiz?detGeo=CH,9661251,5015744,4694579,
Switzerland,2021-08-31,"Moderna, Pfizer/BioNTech",https://opendata.swiss/en/dataset/covid-19-schweiz?detGeo=CH,9685556,5031239,4704409,
Switzerland,2021-09-01,"Moderna, Pfizer/BioNTech",https://opendata.swiss/en/dataset/covid-19-schweiz?detGeo=CH,9713756,5048831,4716292,
Switzerland,2021-09-02,"Moderna, Pfizer/BioNTech",https://opendata.swiss/en/dataset/covid-19-schweiz?detGeo=CH,9742004,5067392,4727348,
Switzerland,2021-09-03,"Moderna, Pfizer/BioNTech",https://opendata.swiss/en/dataset/covid-19-schweiz?detGeo=CH,9774816,5089023,4740206,
Switzerland,2021-09-04,"Moderna, Pfizer/BioNTech",https://opendata.swiss/en/dataset/covid-19-schweiz?detGeo=CH,9791350,5100805,4745960,
Switzerland,2021-09-05,"Moderna, Pfizer/BioNTech",https://opendata.swiss/en/dataset/covid-19-schweiz?detGeo=CH,9794008,5103193,4746486,
Switzerland,2021-09-06,"Moderna, Pfizer/BioNTech",https://opendata.swiss/en/dataset/covid-19-schweiz?detGeo=CH,9817455,5118628,4755787,
Switzerland,2021-09-07,"Moderna, Pfizer/BioNTech",https://opendata.swiss/en/dataset/covid-19-schweiz?detGeo=CH,9843313,5134879,4766312,
Switzerland,2021-09-08,"Moderna, Pfizer/BioNTech",https://opendata.swiss/en/dataset/covid-19-schweiz?detGeo=CH,9876559,5157016,4779122,
Switzerland,2021-09-09,"Moderna, Pfizer/BioNTech",https://opendata.swiss/en/dataset/covid-19-schweiz?detGeo=CH,9910977,5181564,4791255,
Switzerland,2021-09-10,"Moderna, Pfizer/BioNTech",https://opendata.swiss/en/dataset/covid-19-schweiz?detGeo=CH,9955065,5211241,4808276,
Switzerland,2021-09-11,"Moderna, Pfizer/BioNTech",https://opendata.swiss/en/dataset/covid-19-schweiz?detGeo=CH,9982110,5232003,4816895,
Switzerland,2021-09-12,"Moderna, Pfizer/BioNTech",https://opendata.swiss/en/dataset/covid-19-schweiz?detGeo=CH,9986486,5235927,4817869,
Switzerland,2021-09-13,"Moderna, Pfizer/BioNTech",https://opendata.swiss/en/dataset/covid-19-schweiz?detGeo=CH,10019641,5259305,4829393,
Switzerland,2021-09-14,"Moderna, Pfizer/BioNTech",https://opendata.swiss/en/dataset/covid-19-schweiz?detGeo=CH,10055442,5284323,4842317,
Switzerland,2021-09-15,"Moderna, Pfizer/BioNTech",https://opendata.swiss/en/dataset/covid-19-schweiz?detGeo=CH,10097444,5313002,4858421,
Switzerland,2021-09-16,"Moderna, Pfizer/BioNTech",https://opendata.swiss/en/dataset/covid-19-schweiz?detGeo=CH,10135988,5338388,4874265,
Switzerland,2021-09-17,"Moderna, Pfizer/BioNTech",https://opendata.swiss/en/dataset/covid-19-schweiz?detGeo=CH,10180559,5365935,4894242,
Switzerland,2021-09-18,"Moderna, Pfizer/BioNTech",https://opendata.swiss/en/dataset/covid-19-schweiz?detGeo=CH,10204526,5381538,4904118,
Switzerland,2021-09-19,"Moderna, Pfizer/BioNTech",https://opendata.swiss/en/dataset/covid-19-schweiz?detGeo=CH,10208049,5384616,4904908,
Switzerland,2021-09-20,"Moderna, Pfizer/BioNTech",https://opendata.swiss/en/dataset/covid-19-schweiz?detGeo=CH,10236794,5402483,4917266,
Switzerland,2021-09-21,"Moderna, Pfizer/BioNTech",https://opendata.swiss/en/dataset/covid-19-schweiz?detGeo=CH,10269380,5422767,4931228,
Switzerland,2021-09-22,"Moderna, Pfizer/BioNTech",https://opendata.swiss/en/dataset/covid-19-schweiz?detGeo=CH,10304152,5443704,4947207,
Switzerland,2021-09-23,"Moderna, Pfizer/BioNTech",https://opendata.swiss/en/dataset/covid-19-schweiz?detGeo=CH,10339106,5463325,4964582,
Switzerland,2021-09-24,"Moderna, Pfizer/BioNTech",https://opendata.swiss/en/dataset/covid-19-schweiz?detGeo=CH,10377115,5481827,4985689,
Switzerland,2021-09-25,"Moderna, Pfizer/BioNTech",https://opendata.swiss/en/dataset/covid-19-schweiz?detGeo=CH,10400014,5492817,4998695,
Switzerland,2021-09-26,"Moderna, Pfizer/BioNTech",https://opendata.swiss/en/dataset/covid-19-schweiz?detGeo=CH,10403243,5494966,5000039,
Switzerland,2021-09-27,"Moderna, Pfizer/BioNTech",https://opendata.swiss/en/dataset/covid-19-schweiz?detGeo=CH,10429862,5507141,5015444,
Switzerland,2021-09-28,"Moderna, Pfizer/BioNTech",https://opendata.swiss/en/dataset/covid-19-schweiz?detGeo=CH,10455704,5520130,5029290,
Switzerland,2021-09-29,"Moderna, Pfizer/BioNTech",https://opendata.swiss/en/dataset/covid-19-schweiz?detGeo=CH,10486326,5533619,5047602,
Switzerland,2021-09-30,"Moderna, Pfizer/BioNTech",https://opendata.swiss/en/dataset/covid-19-schweiz?detGeo=CH,10514297,5544990,5065138,
Switzerland,2021-10-01,"Moderna, Pfizer/BioNTech",https://opendata.swiss/en/dataset/covid-19-schweiz?detGeo=CH,10546954,5557311,5086476,
Switzerland,2021-10-02,"Moderna, Pfizer/BioNTech",https://opendata.swiss/en/dataset/covid-19-schweiz?detGeo=CH,10564607,5564293,5097779,
Switzerland,2021-10-03,"Moderna, Pfizer/BioNTech",https://opendata.swiss/en/dataset/covid-19-schweiz?detGeo=CH,10568015,5565799,5099859,
Switzerland,2021-10-04,"Moderna, Pfizer/BioNTech",https://opendata.swiss/en/dataset/covid-19-schweiz?detGeo=CH,10593047,5574275,5117003,
Switzerland,2021-10-05,"Moderna, Pfizer/BioNTech",https://opendata.swiss/en/dataset/covid-19-schweiz?detGeo=CH,10617430,5582999,5133348,
Switzerland,2021-10-06,"Moderna, Pfizer/BioNTech",https://opendata.swiss/en/dataset/covid-19-schweiz?detGeo=CH,10646902,5593136,5153639,
Switzerland,2021-10-07,"Moderna, Pfizer/BioNTech",https://opendata.swiss/en/dataset/covid-19-schweiz?detGeo=CH,10674148,5601513,5173682,
Switzerland,2021-10-08,"Moderna, Pfizer/BioNTech",https://opendata.swiss/en/dataset/covid-19-schweiz?detGeo=CH,10708074,5611086,5199719,
Switzerland,2021-10-09,"Moderna, Pfizer/BioNTech",https://opendata.swiss/en/dataset/covid-19-schweiz?detGeo=CH,10728498,5617064,5215068,
Switzerland,2021-10-10,"Moderna, Pfizer/BioNTech",https://opendata.swiss/en/dataset/covid-19-schweiz?detGeo=CH,10731765,5617994,5217548,
Switzerland,2021-10-11,"Moderna, Pfizer/BioNTech",https://opendata.swiss/en/dataset/covid-19-schweiz?detGeo=CH,10757109,5625286,5236929,
Switzerland,2021-10-12,"Moderna, Pfizer/BioNTech",https://opendata.swiss/en/dataset/covid-19-schweiz?detGeo=CH,10782976,5632884,5256613,
Switzerland,2021-10-13,"Moderna, Pfizer/BioNTech",https://opendata.swiss/en/dataset/covid-19-schweiz?detGeo=CH,10815744,5641901,5282151,
Switzerland,2021-10-14,"Moderna, Pfizer/BioNTech",https://opendata.swiss/en/dataset/covid-19-schweiz?detGeo=CH,10844915,5649944,5304983,
Switzerland,2021-10-15,"Moderna, Pfizer/BioNTech",https://opendata.swiss/en/dataset/covid-19-schweiz?detGeo=CH,10880865,5659151,5333346,
Switzerland,2021-10-16,"Moderna, Pfizer/BioNTech",https://opendata.swiss/en/dataset/covid-19-schweiz?detGeo=CH,10899018,5664465,5347240,
Switzerland,2021-10-17,"Moderna, Pfizer/BioNTech",https://opendata.swiss/en/dataset/covid-19-schweiz?detGeo=CH,10900868,5664976,5348715,
Switzerland,2021-10-18,"Moderna, Pfizer/BioNTech",https://opendata.swiss/en/dataset/covid-19-schweiz?detGeo=CH,10924514,5671085,5367135,
Switzerland,2021-10-19,"Moderna, Pfizer/BioNTech",https://opendata.swiss/en/dataset/covid-19-schweiz?detGeo=CH,10948905,5677472,5386009,
Switzerland,2021-10-20,"Moderna, Pfizer/BioNTech",https://opendata.swiss/en/dataset/covid-19-schweiz?detGeo=CH,10976090,5684470,5407520,
Switzerland,2021-10-21,"Moderna, Pfizer/BioNTech",https://opendata.swiss/en/dataset/covid-19-schweiz?detGeo=CH,10999538,5690501,5426061,
Switzerland,2021-10-22,"Moderna, Pfizer/BioNTech",https://opendata.swiss/en/dataset/covid-19-schweiz?detGeo=CH,11025905,5697587,5446501,
Switzerland,2021-10-23,"Moderna, Pfizer/BioNTech",https://opendata.swiss/en/dataset/covid-19-schweiz?detGeo=CH,11040763,5701791,5457813,
Switzerland,2021-10-24,"Moderna, Pfizer/BioNTech",https://opendata.swiss/en/dataset/covid-19-schweiz?detGeo=CH,11042459,5702252,5459115,
Switzerland,2021-10-25,"Moderna, Pfizer/BioNTech",https://opendata.swiss/en/dataset/covid-19-schweiz?detGeo=CH,11059286,5706691,5472046,
Switzerland,2021-10-26,"Moderna, Pfizer/BioNTech",https://opendata.swiss/en/dataset/covid-19-schweiz?detGeo=CH,11076868,5711475,5485365,
Switzerland,2021-10-27,"Moderna, Pfizer/BioNTech",https://opendata.swiss/en/dataset/covid-19-schweiz?detGeo=CH,11096754,5717120,5500187,
Switzerland,2021-10-28,"Moderna, Pfizer/BioNTech",https://opendata.swiss/en/dataset/covid-19-schweiz?detGeo=CH,11112940,5721831,5512293,
Switzerland,2021-10-29,"Moderna, Pfizer/BioNTech",https://opendata.swiss/en/dataset/covid-19-schweiz?detGeo=CH,11133197,5727450,5527266,
Switzerland,2021-10-30,"Moderna, Pfizer/BioNTech",https://opendata.swiss/en/dataset/covid-19-schweiz?detGeo=CH,11141832,5730209,5533391,
Switzerland,2021-10-31,"Moderna, Pfizer/BioNTech",https://opendata.swiss/en/dataset/covid-19-schweiz?detGeo=CH,11142481,5730443,5533865,
Switzerland,2021-11-01,"Moderna, Pfizer/BioNTech",https://opendata.swiss/en/dataset/covid-19-schweiz?detGeo=CH,11151630,5733456,5540337,
Switzerland,2021-11-02,"Moderna, Pfizer/BioNTech",https://opendata.swiss/en/dataset/covid-19-schweiz?detGeo=CH,11165009,5737680,5549494,
Switzerland,2021-11-03,"Moderna, Pfizer/BioNTech",https://opendata.swiss/en/dataset/covid-19-schweiz?detGeo=CH,11180185,5742620,5559892,
Switzerland,2021-11-04,"Moderna, Pfizer/BioNTech",https://opendata.swiss/en/dataset/covid-19-schweiz?detGeo=CH,11192623,5746932,5567919,
Switzerland,2021-11-05,"Moderna, Pfizer/BioNTech",https://opendata.swiss/en/dataset/covid-19-schweiz?detGeo=CH,11209016,5752252,5578602,
Switzerland,2021-11-06,"Moderna, Pfizer/BioNTech",https://opendata.swiss/en/dataset/covid-19-schweiz?detGeo=CH,11217708,5755051,5583930,
Switzerland,2021-11-07,"Moderna, Pfizer/BioNTech",https://opendata.swiss/en/dataset/covid-19-schweiz?detGeo=CH,11218193,5755238,5584229,
Switzerland,2021-11-08,"Moderna, Pfizer/BioNTech",https://opendata.swiss/en/dataset/covid-19-schweiz?detGeo=CH,11233114,5760271,5591393,
Switzerland,2021-11-09,"Moderna, Pfizer/BioNTech",https://opendata.swiss/en/dataset/covid-19-schweiz?detGeo=CH,11251139,5765845,5598365,
Switzerland,2021-11-10,"Moderna, Pfizer/BioNTech",https://opendata.swiss/en/dataset/covid-19-schweiz?detGeo=CH,11271322,5772319,5606860,
Switzerland,2021-11-11,"Moderna, Pfizer/BioNTech",https://opendata.swiss/en/dataset/covid-19-schweiz?detGeo=CH,11288561,5776929,5613347,
Switzerland,2021-11-12,"Moderna, Pfizer/BioNTech",https://opendata.swiss/en/dataset/covid-19-schweiz?detGeo=CH,11310363,5783396,5622008,
Switzerland,2021-11-13,"Moderna, Pfizer/BioNTech",https://opendata.swiss/en/dataset/covid-19-schweiz?detGeo=CH,11322500,5787801,5626863,
Switzerland,2021-11-14,"Moderna, Pfizer/BioNTech",https://opendata.swiss/en/dataset/covid-19-schweiz?detGeo=CH,11324153,5788540,5627288,
Switzerland,2021-11-15,"Moderna, Pfizer/BioNTech",https://opendata.swiss/en/dataset/covid-19-schweiz?detGeo=CH,11349251,5791943,5632232,
