location,date,vaccine,source_url,total_vaccinations,people_vaccinated,people_fully_vaccinated,total_boosters
Vietnam,2021-03-07,Oxford/AstraZeneca,https://asia.nikkei.com/Spotlight/Coronavirus/Vietnam-begins-COVID-vaccinations-with-AstraZeneca-shots,0,0,,
Vietnam,2021-03-08,Oxford/AstraZeneca,https://vnexpress.net/377-nguoi-dau-tien-tiem-vaccine-covid-19-chua-ghi-nhan-bat-thuong-4245376.html,377,377,,
Vietnam,2021-03-09,Oxford/AstraZeneca,https://nhandan.com.vn/tin-tuc-y-te/522-nguoi-viet-nam-da-tiem-vaccine-phong-covid-19-637981,522,522,,
Vietnam,2021-03-10,Oxford/AstraZeneca,https://vnexpress.net/sang-11-3-khong-them-ca-covid-19-4246625.html,955,955,,
Vietnam,2021-03-11,Oxford/AstraZeneca,https://vnexpress.net/9-tinh-thanh-da-tiem-vaccine-covid-19-4247230.html,1585,1585,,
Vietnam,2021-03-12,Oxford/AstraZeneca,https://vnexpress.net/hon-5-200-nguoi-da-tiem-vaccine-covid-19-4247804.html,5248,5248,,
Vietnam,2021-03-13,Oxford/AstraZeneca,https://vnexpress.net/hon-10-000-nguoi-da-tiem-vaccine-covid-19-4248130.html,10041,10041,,
Vietnam,2021-03-14,Oxford/AstraZeneca,https://tuoitrenews.vn/news/society/20210315/vietnam-records-two-more-severe-reactions-after-covid19-vaccination/59794.html,11605,11605,,
Vietnam,2021-03-15,Oxford/AstraZeneca,https://vov.vn/xa-hoi/tin-24h/viet-nam-co-gan-16000-nguoi-duoc-tiem-vaccine-phong-covid-19-843426.vov,15865,15865,,
Vietnam,2021-03-16,Oxford/AstraZeneca,https://tuoitre.vn/tren-20-000-nguoi-da-tiem-vac-xin-ngua-covid-19-sang-17-3-khong-co-ca-mac-moi-20210317061543497.htm,20695,20695,,
Vietnam,2021-03-17,Oxford/AstraZeneca,https://nhandan.com.vn/tin-tuc-y-te/khong-co-ca-mac-moi-viet-nam-da-co-hon-24-nghin-nguoi-tiem-vaccine-638835/,24054,24054,,
Vietnam,2021-03-18,Oxford/AstraZeneca,https://nhandan.com.vn/tin-tuc-y-te/sang-19-3-khong-co-ca-mac-moi-27-546-nguoi-duoc-tiem-vaccine--638975/,27546,27546,,
Vietnam,2021-03-19,Oxford/AstraZeneca,https://nhandan.com.vn/tin-tuc-y-te/viet-nam-khong-co-ca-covid-19-moi-30-971-nguoi-da-duoc-tiem-chung-639140/,30971,30971,,
Vietnam,2021-03-20,Oxford/AstraZeneca,https://nhandan.com.vn/tin-tuc-y-te/sang-21-3-viet-nam-khong-co-ca-covid-19-moi-hon-32-nghin-nguoi-duoc-tiem-vaccine-639214/,32361,32361,,
Vietnam,2021-03-21,Oxford/AstraZeneca,https://nhandan.com.vn/tin-tuc-y-te/sang-22-3-khong-co-ca-mac-moi-gan-34-nghin-nguoi-duoc-tiem-vaccine-639281/,33891,33891,,
Vietnam,2021-03-22,Oxford/AstraZeneca,https://nhandan.com.vn/tin-tuc-y-te/khong-co-ca-covid-19-moi-hon-36-nghin-nguoi-duoc-tiem-vaccine-639416/,36082,36082,,
Vietnam,2021-03-23,"Oxford/AstraZeneca, Sputnik V",https://en.vietnamplus.vn/nearly-38000-people-vaccinated-against-covid19/197998.vnp,37911,37911,,
Vietnam,2021-03-24,"Oxford/AstraZeneca, Sputnik V",https://vnexpress.net/khong-ca-nhiem-moi-19-dia-phuong-da-tiem-vaccine-covid-19-4253567.html,39817,39817,,
Vietnam,2021-03-25,"Oxford/AstraZeneca, Sputnik V",https://nhandan.com.vn/tin-tuc-y-te/ghi-nhan-hai-ca-covid-19-nhap-canh-trai-phep-639796/,42225,42225,,
Vietnam,2021-03-26,"Oxford/AstraZeneca, Sputnik V",https://laodong.vn/y-te/khong-co-ca-mac-moi-covid-19-da-co-44000-nguoi-duoc-tiem-vaccine-892982.ldo,44000,44000,,
Vietnam,2021-03-27,"Oxford/AstraZeneca, Sputnik V",https://vnexpress.net/them-4-nguoi-nhap-canh-mac-covid-19-4254561.html,44278,44278,,
Vietnam,2021-03-28,"Oxford/AstraZeneca, Sputnik V",https://vovlive.vn/sang-29-3-viet-nam-khong-ghi-nhan-them-ca-mac-covid-19-69940.html,45140,45140,,
Vietnam,2021-03-29,"Oxford/AstraZeneca, Sputnik V",https://vnexpress.net/sang-30-3-khong-them-ca-covid-19-4255232.html,46416,46416,,
Vietnam,2021-03-30,"Oxford/AstraZeneca, Sputnik V",https://laodong.vn/y-te/48256-nguoi-tai-19-tinh-thanh-da-duoc-tiem-vaccine-covid-19-894300.ldo,48256,48256,,
Vietnam,2021-03-31,"Oxford/AstraZeneca, Sputnik V",https://nhandan.com.vn/tin-tuc-y-te/sang-1-4-viet-nam-khong-ghi-nhan-ca-nhiem-covid-19-moi-640479/,49743,49743,,
Vietnam,2021-04-01,"Oxford/AstraZeneca, Sputnik V",https://nhandan.com.vn/tin-tuc-y-te/sang-2-4-khong-co-ca-covid-19-moi-hon-51-nghin-nguoi-da-tiem-vaccine-640619/,51216,51216,,
Vietnam,2021-04-02,"Oxford/AstraZeneca, Sputnik V",https://nhandan.com.vn/tin-tuc-y-te/khong-co-ca-covid-19-moi-ha-noi-co-46-ngay-an-toan-trong-cong-dong-640770/,52091,52091,,
Vietnam,2021-04-03,"Oxford/AstraZeneca, Sputnik V",https://vnexpress.net/ba-nguoi-dan-ong-nhap-canh-mac-covid-19-4257715.html,52335,52335,,
Vietnam,2021-04-04,"Oxford/AstraZeneca, Sputnik V",https://nhandan.org.vn/tin-tuc-y-te/sang-5-4-viet-nam-khong-phat-hien-them-ca-nhiem-covid-19-moi-640943/,52413,52413,,
Vietnam,2021-04-05,"Oxford/AstraZeneca, Sputnik V",https://nhandan.com.vn/tin-tuc-y-te/sang-6-4-khong-ca-mac-moi-gan-53-nghin-nguoi-da-duoc-tiem-vaccine-641058/,52868,52868,,
Vietnam,2021-04-06,"Oxford/AstraZeneca, Sputnik V",https://nhandan.com.vn/tin-tuc-y-te/sang-7-4-khong-co-ca-moi-gan-54-nghin-nguoi-da-tiem-vaccine-641142/,53953,53953,,
Vietnam,2021-04-07,"Oxford/AstraZeneca, Sputnik V",https://vnexpress.net/sang-8-4-khong-ca-nhiem-bat-dau-tiem-vaccine-covid-19-dot-hai-4259647.html,55151,55151,,
Vietnam,2021-04-08,"Oxford/AstraZeneca, Sputnik V",https://thanhnien.vn/thoi-su/sang-nay-ghi-nhan-ca-nhap-canh-cach-ly-tai-bac-ninh-duong-tinh-covid-19-1365746.html,56359,,,
Vietnam,2021-04-09,"Oxford/AstraZeneca, Sputnik V",https://nhandan.com.vn/tin-tuc-y-te/sang-ngay-thu-16-viet-nam-khong-co-ca-lay-nhiem-trong-cong-dong-641521/,58037,58037,,
Vietnam,2021-04-10,"Oxford/AstraZeneca, Sputnik V",https://nhandan.com.vn/tin-tuc-y-te/sang-11-4-khong-ca-mac-moi-58-248-nguoi-da-duoc-tiem-chung-641613/,58248,58248,,
Vietnam,2021-04-11,"Oxford/AstraZeneca, Sputnik V",https://nhandan.com.vn/tin-tuc-y-te/ghi-nhan-ba-ca-nhiem-covid-19-moi-cach-ly-ngay-sau-khi-nhap-canh-641678/,58418,58418,,
Vietnam,2021-04-12,"Oxford/AstraZeneca, Sputnik V",https://nhandan.com.vn/tin-tuc-y-te/sang-13-4-hai-ca-covid-19-moi-59-249-nguoi-da-duoc-tiem-vaccine-641822/,59249,59249,,
Vietnam,2021-04-13,"Oxford/AstraZeneca, Sputnik V",https://vnexpress.net/them-3-nguoi-nhap-canh-mac-covid-19-4262482.html,60139,60139,,
Vietnam,2021-04-14,"Oxford/AstraZeneca, Sputnik V",https://vnexpress.net/them-4-ca-covid-19-nhap-canh-4263076.html,62028,62028,,
Vietnam,2021-04-15,"Oxford/AstraZeneca, Sputnik V",https://nhandan.com.vn/tin-tuc-y-te/21-ngay-khong-co-ca-covid-19-cong-dong-63-758-nguoi-da-tiem-vaccine-642192/,63758,63758,,
Vietnam,2021-04-16,"Oxford/AstraZeneca, Sputnik V",https://suckhoedoisong.vn/bo-y-te-66366-nguoi-da-tiem-vac-xin-covid-19-cac-dia-phuong-phai-trien-khai-tiem-nhanh-dot-2-n190147.html,66366,66366,,
Vietnam,2021-04-17,"Oxford/AstraZeneca, Sputnik V",https://vnexpress.net/khong-them-ca-nhiem-gan-68-000-nguoi-da-tiem-vaccine-covid-19-4264616.html,67789,67789,,
Vietnam,2021-04-18,"Oxford/AstraZeneca, Sputnik V",https://nhandan.com.vn/tin-tuc-y-te/da-nang-ghi-nhan-mot-ca-benh-covid-19-moi-642494/,79182,79182,,
Vietnam,2021-04-19,"Oxford/AstraZeneca, Sputnik V",https://www.vietnamplus.vn/khong-ghi-nhan-ca-mac-moi-covid19-gan-81000-nguoi-duoc-tiem-vaccine/706765.vnp,80857,80857,,
Vietnam,2021-04-20,"Oxford/AstraZeneca, Sputnik V",https://vnexpress.net/sang-21-4-khong-ca-nhiem-hon-100-000-nguoi-da-tiem-vaccine-4266034.html,106929,106929,,
Vietnam,2021-04-21,"Oxford/AstraZeneca, Sputnik V",https://nhandan.com.vn/tin-tuc-y-te/viet-nam-co-them-sau-ca-covid-19-moi-tai-thai-binh-yen-bai-642861/,108897,108897,,
Vietnam,2021-04-22,"Oxford/AstraZeneca, Sputnik V",https://nhandan.com.vn/tin-tuc-y-te/ghi-nhan-tam-ca-covid-19-moi-tai-tp-ho-chi-minh-va-nam-dinh-643044/,128610,128610,,
Vietnam,2021-04-23,"Oxford/AstraZeneca, Sputnik V",https://nhandan.com.vn/tin-tuc-y-te/ghi-nhan-hai-ca-nhiem-covid-19-moi-tai-yen-bai-va-thai-binh-643212/,176037,176037,,
Vietnam,2021-04-24,"Oxford/AstraZeneca, Sputnik V",https://nhandan.com.vn/tin-tuc-y-te/31-ngay-khong-co-ca-covid-19-cong-dong-643297/,198972,198972,,
Vietnam,2021-04-25,"Oxford/AstraZeneca, Sputnik V",https://nhandan.com.vn/tin-tuc-y-te/sang-26-4-them-ba-ca-covid-19-nhap-canh-643400/,209632,209632,,
Vietnam,2021-04-26,"Oxford/AstraZeneca, Sputnik V",https://nhandan.com.vn/tin-tuc-y-te/sang-27-4-viet-nam-khong-ghi-nhan-them-ca-nhiem-covid-19-moi-643573/,259736,259736,,
Vietnam,2021-04-27,"Oxford/AstraZeneca, Sputnik V",https://nhandan.com.vn/tin-tuc-y-te/sang-28-4-khong-co-ca-mac-covid-19-moi-318-792-nguoi-da-tiem-vaccine-643715/,318792,318792,,
Vietnam,2021-04-28,"Oxford/AstraZeneca, Sputnik V",https://vnexpress.net/hon-425-000-nguoi-da-tiem-vaccine-covid-19-4270067.html,425638,425638,,
Vietnam,2021-04-29,"Oxford/AstraZeneca, Sputnik V",https://vnexpress.net/them-3-ca-lay-nhiem-tu-benh-nhan-covid-19-o-ha-nam-4270750.html,506435,506435,,
Vietnam,2021-04-30,"Oxford/AstraZeneca, Sputnik V",https://tuoitre.vn/chieu-1-5-viet-nam-them-14-ca-covid-19-co-3-ca-cong-dong-o-ha-nam-20210501182737571.htm,519262,509855,9407,
Vietnam,2021-05-01,"Oxford/AstraZeneca, Sputnik V",https://tuoitre.vn/sang-2-5-viet-nam-khong-them-ca-covid-19-moi-da-tiem-ngua-cho-hon-511-400-nguoi-20210502062146084.htm,,511435,,
Vietnam,2021-05-02,"Oxford/AstraZeneca, Sputnik V",https://www.vietnamplus.vn/khong-ghi-nhan-ca-mac-moi-them-6143-nguoi-duoc-tiem-vaccine/710093.vnp,,532247,,
Vietnam,2021-05-03,"Oxford/AstraZeneca, Sputnik V",https://nhandan.com.vn/tin-tuc-y-te/sang-4-5-ghi-nhan-hai-ca-covid-19-nhap-canh-hai-ca-cong-dong-644477,,539062,,
Vietnam,2021-05-04,"Oxford/AstraZeneca, Sputnik V",https://ncov.moh.gov.vn/vi/web/guest/-/6847426-2850,,585539,,
Vietnam,2021-05-05,"Oxford/AstraZeneca, Sputnik V",https://ncov.moh.gov.vn/vi/web/guest/-/6847426-2919,,675956,,
Vietnam,2021-05-06,"Oxford/AstraZeneca, Sputnik V",https://ncov.moh.gov.vn/web/guest/-/6847426-2998,,747827,,
Vietnam,2021-05-07,"Oxford/AstraZeneca, Sputnik V",https://ncov.moh.gov.vn/web/guest/-/6847426-3088,,801957,,
Vietnam,2021-05-08,"Oxford/AstraZeneca, Sputnik V",https://ncov.moh.gov.vn/web/guest/-/6847426-3162,,832635,,
Vietnam,2021-05-09,"Oxford/AstraZeneca, Sputnik V",https://ncov.moh.gov.vn/web/guest/-/6847426-3244,,851513,,
Vietnam,2021-05-10,"Oxford/AstraZeneca, Sputnik V",https://ncov.moh.gov.vn/web/guest/-/6847426-3310,892454,,,
Vietnam,2021-05-11,"Oxford/AstraZeneca, Sputnik V",https://ncov.moh.gov.vn/vi/web/guest/-/6847426-3370,,887705,,
Vietnam,2021-05-12,"Oxford/AstraZeneca, Sputnik V",https://moh.gov.vn/tin-lien-quan/-/asset_publisher/vjYyM7O9aWnX/content/bo-y-te-ca-nuoc-co-942-030-nguoi-a-tiem-chung-vac-xin-phong-covid-19,942030,,,
Vietnam,2021-05-13,"Oxford/AstraZeneca, Sputnik V",https://ncov.moh.gov.vn/web/guest/-/6847426-3474,959182,,,
Vietnam,2021-05-14,"Oxford/AstraZeneca, Sputnik V",https://ncov.moh.gov.vn/web/guest/-/6847426-3506,969697,948655,21042,
Vietnam,2021-05-15,"Oxford/AstraZeneca, Sputnik V",https://ncov.moh.gov.vn/web/guest/-/6847426-3537,977032,954520,22512,
Vietnam,2021-05-16,"Oxford/AstraZeneca, Sputnik V",https://ncov.moh.gov.vn/en/-/6847426-3585,979238,956677,22561,
Vietnam,2021-05-18,"Oxford/AstraZeneca, Sputnik V",https://ncov.moh.gov.vn/en/web/guest/-/6847426-3679,1011395,982543,28852,
Vietnam,2021-05-22,"Oxford/AstraZeneca, Sputnik V",https://suckhoedoisong.vn/tiem-vac-xin-phong-covid-19-cho-can-bo-y-te-dam-bao-an-toan-n193314.html,1027659,998698,28961,
Vietnam,2021-05-26,"Oxford/AstraZeneca, Sputnik V",https://suckhoedoisong.vn/trien-khai-tiem-vac-xin-phong-covid-19-cho-cong-nhan-n193582.html,1034867,1005906,28961,
Vietnam,2021-05-31,"Oxford/AstraZeneca, Sputnik V",https://ncov.moh.gov.vn/web/guest/-/6847426-4187,1102099,1071497,30602,
Vietnam,2021-06-02,"Oxford/AstraZeneca, Sputnik V",https://suckhoedoisong.vn/sang-3-6-bac-giang-va-bac-ninh-co-52-ca-mac-covid-19-n194148.html,1110111,1078934,31177,
Vietnam,2021-06-03,"Oxford/AstraZeneca, Sputnik V",https://suckhoedoisong.vn/sang-4-6-them-52-ca-mac-covid-19-trong-nuoc-viet-nam-co-8115-benh-nhan-n194233.html,1156056,1124505,31551,
Vietnam,2021-06-04,"Oxford/AstraZeneca, Sputnik V",https://suckhoedoisong.vn/sang-5-6-co-75-ca-mac-covid-19-trong-nuoc-nang-tong-so-benh-nhan-tai-viet-nam-len-8364-n194315.html,1217607,1185206,32401,
Vietnam,2021-06-05,"Oxford/AstraZeneca, Sputnik V",https://suckhoedoisong.vn/sang-6-6-them-39-ca-mac-covid-19-tai-3-dia-phuong-viet-nam-co-8580-benh-nhan-n194392.html,1243304,1209672,33632,
Vietnam,2021-06-06,"Oxford/AstraZeneca, Sputnik V",https://suckhoedoisong.vn/sang-7-6-them-44-ca-mac-covid-19-trong-nuoc-co-12-ca-lien-quan-den-nhom-truyen-giao-phuc-hung-n194436.html,1248559,1214916,33643,
Vietnam,2021-06-07,"Oxford/AstraZeneca, Sputnik V",https://suckhoedoisong.vn/sang-8-6-them-43-ca-mac-covid-19-trong-nuoc-viet-nam-co-9027-benh-nhan-n194525.html,1340098,1301932,38166,
Vietnam,2021-06-08,"Oxford/AstraZeneca, Sputnik V",https://suckhoedoisong.vn/sang-9-6-them-64-ca-mac-tai-5-tinh-thanh-pho-viet-nam-co-9222-benh-nhan-covid-19-n194621.html,1354856,1312741,42115,
Vietnam,2021-06-09,"Oxford/AstraZeneca, Sputnik V",https://suckhoedoisong.vn/sang-10-6-co-70-ca-mac-covid-19-tphcm-nhieu-nhat-voi-26-truong-hop-n194688.html,1389887,1342708,47179,
Vietnam,2021-06-10,"Oxford/AstraZeneca, Sputnik V",https://suckhoedoisong.vn/sang-11-6-them-51-ca-mac-covid-19-viet-nam-da-co-9835-benh-nhan-n194776.html,1411548,1361525,50023,
Vietnam,2021-06-11,"Oxford/AstraZeneca, Sputnik V",https://suckhoedoisong.vn/sang-12-6-them-68-ca-mac-covid-19-trong-nuoc-viet-nam-vuot-moc-10000-benh-nhan-n194868.html,1445723,1392596,53127,
Vietnam,2021-06-12,"Oxford/AstraZeneca, Sputnik V",https://suckhoedoisong.vn/sang-13-6-them-96-ca-mac-covid-19-bac-ninh-chiem-nhieu-nhat-voi-34-truong-hop-n194916.html,1454221,1399836,54385,
Vietnam,2021-06-13,"Oxford/AstraZeneca, Sputnik V",https://moh.gov.vn/tin-lien-quan/-/asset_publisher/vjYyM7O9aWnX/content/ban-tin-dich-covid-19-sang-14-6-them-92-ca-mac-covid-19-tphcm-van-nhieu-nhat-voi-30-truong-hop,1498323,1443058,55265,
Vietnam,2021-06-14,"Oxford/AstraZeneca, Sputnik V",https://suckhoedoisong.vn/sang-15-6-them-71-ca-mac-covid-19-rieng-tphcm-23-truong-hop-n195020.html,1552651,1493043,59608,
Vietnam,2021-06-15,"Oxford/AstraZeneca, Sputnik V",https://suckhoedoisong.vn/sang-16-6-them-92-ca-mac-covid-19-viet-nam-co-11304-benh-nhan-n195114.html,1648072,1584436,63636,
Vietnam,2021-06-16,"Oxford/AstraZeneca, Sputnik V",https://suckhoedoisong.vn/sang-17-6-them-159-ca-mac-covid-19-rieng-tphcm-la-45-truong-hop-n195213.html,1773297,1700972,72325,
Vietnam,2021-06-17,"Oxford/AstraZeneca, Sputnik V",https://suckhoedoisong.vn/sang-18-6-them-81-ca-mac-covid-19-rieng-tphcm-nhieu-nhat-voi-60-nguoi-n195281.html,1991059,1901226,89833,
Vietnam,2021-06-18,"Oxford/AstraZeneca, Sputnik V",https://suckhoedoisong.vn/trua-19-6-them-112-ca-mac-covid-19-viet-nam-co-tong-cong-12620-benh-nhan-n195400.html,2233208,2127352,105856,
Vietnam,2021-06-19,"Oxford/AstraZeneca, Sputnik V",https://dangcongsan.vn/thoi-su/sang-20-6-them-78-ca-mac-covid-19-rieng-tpho-chi-minh-40-ca-583478.html,2359376,2244061,115315,
Vietnam,2021-06-20,"Oxford/AstraZeneca, Sputnik V",https://suckhoedoisong.vn/sang-21-6-them-47-ca-mac-covid-19-viet-nam-ghi-nhan-tong-cong-13258-benh-nhan-n195481.html,2422643,2300960,121683,
Vietnam,2021-06-22,"Oxford/AstraZeneca, Sputnik V",https://suckhoedoisong.vn/sang-23-6-ca-nuoc-co-55-ca-mac-covid-19-rieng-tp-ho-chi-minh-da-51-ca-n195642.html,2569156,2435313,133843,
Vietnam,2021-06-23,"Oxford/AstraZeneca, Sputnik V",https://suckhoedoisong.vn/sang-24-6-them-42-ca-mac-covid-19-viet-nam-co-tong-so-13989-benh-nhan-n195712.html,2626337,2488655,137682,
Vietnam,2021-06-24,"Oxford/AstraZeneca, Sputnik V",https://suckhoedoisong.vn/sang-25-6-them-91-ca-mac-covid-19-trong-do-tphcm-tiep-tuc-nhieu-nhat-57-ca-n195802.html,2920248,2777127,143121,
Vietnam,2021-06-25,"Oxford/AstraZeneca, Sputnik V",https://suckhoedoisong.vn/sang-26-6-viet-nam-da-co-15115-benh-nhan-covid-19-thuc-hien-hon-3-trieu-mui-tiem-vac-xin-n195870.html,3087580,2937264,150316,
Vietnam,2021-06-26,"Oxford/AstraZeneca, Sputnik V",https://suckhoedoisong.vn/sang-27-6-co-50-ca-mac-covid-19-trong-nuoc-rieng-tp-ho-chi-minh-40-ca-n195944.html,3299232,3143744,155488,
Vietnam,2021-06-27,"Oxford/AstraZeneca, Sputnik V",https://suckhoedoisong.vn/sang-28-6-them-97-ca-mac-covid-19-trong-nuoc-tp-ho-chi-minh-nhieu-nhat-62-ca-n195995.html,3386607,3229471,157136,
Vietnam,2021-06-28,"Oxford/AstraZeneca, Sputnik V",https://suckhoedoisong.vn/sang-29-6-them-95-ca-mac-covid-19-viet-nam-co-tong-cong-16136-benh-nhan-n196073.html,3497104,3324110,172994,
Vietnam,2021-06-29,"Oxford/AstraZeneca, Sputnik V",https://suckhoedoisong.vn/sang-30-6-them-94-ca-mac-covid-19-rieng-tp-ho-chi-minh-62-ca-n196180.html,3593970,3411489,182481,
Vietnam,2021-06-30,"Oxford/AstraZeneca, Sputnik V",https://suckhoedoisong.vn/sang-1-7-tp-ho-chi-minh-co-158-ca-mac-covid-19-viet-nam-da-vuot-17000-benh-nhan-n196266.html,3776980,3583939,193041,
Vietnam,2021-07-01,"Oxford/AstraZeneca, Sputnik V",https://suckhoedoisong.vn/sang-2-7-co-151-ca-mac-covid-19-tp-ho-chi-minh-nhieu-nhat-118-ca-n196339.html,3813767,3609761,204006,
Vietnam,2021-07-02,"Oxford/AstraZeneca, Sputnik V",https://suckhoedoisong.vn/sang-3-7-them-239-ca-mac-covid-19-tp-ho-chi-minh-da-chiem-den-215-ca-n196412.html,3842646,3628241,214405,
Vietnam,2021-07-03,"Oxford/AstraZeneca, Sputnik V",https://suckhoedoisong.vn/sang-4-7-them-267-ca-mac-covid-19-viet-nam-da-ghi-nhan-19310-benh-nhan-n196460.html,3867407,3648805,218602,
Vietnam,2021-07-04,"Oxford/AstraZeneca, Sputnik V",https://suckhoedoisong.vn/sang-5-7-co-328-ca-mac-moi-den-nay-viet-nam-da-ghi-nhan-20261-benh-nhan-covid-19-n196514.html,3890855,3667519,223336,
Vietnam,2021-07-05,"Oxford/AstraZeneca, Sputnik V",https://moh.gov.vn/tin-tong-hop/-/asset_publisher/k206Q9qkZOqn/content/ban-tin-dich-sang-6-7-them-277-ca-mac-covid-19-rieng-tp-ho-chi-minh-la-230-ca,3903105,3676247,226858,
Vietnam,2021-07-06,"Oxford/AstraZeneca, Sputnik V",https://suckhoedoisong.vn/sang-7-7-co-277-ca-mac-covid-19-rieng-tp-ho-chi-minh-da-270-ca-n196667.html,3928001,3692431,235570,
Vietnam,2021-07-07,"Oxford/AstraZeneca, Sputnik V",https://suckhoedoisong.vn/sang-8-7-tp-ho-chi-minh-va-binh-duong-co-314-ca-mac-covid-19-n196747.html,3960956,3719043,241913,
Vietnam,2021-07-08,"Oxford/AstraZeneca, Sputnik V",https://suckhoedoisong.vn/sang-9-7-them-425-ca-mac-covid-19-tp-ho-chi-minh-chiem-den-350-ca-n196832.html,3983800,3734268,249532,
Vietnam,2021-07-09,"Oxford/AstraZeneca, Sputnik V",https://suckhoedoisong.vn/sang-10-7-co-598-ca-mac-covid-19-tp-ho-chi-minh-tiep-tuc-nhieu-ca-nhat-n196897.html,4010786,3752512,258274,
Vietnam,2021-07-10,"Oxford/AstraZeneca, Sinopharm/Beijing, Sputnik V",https://suckhoedoisong.vn/sang-11-7-them-607-ca-mac-covid-19-rieng-tp-ho-chi-minh-443-ca-n196960.html,4040783,3769374,271409,
Vietnam,2021-07-11,"Oxford/AstraZeneca, Sinopharm/Beijing, Sputnik V",https://moh.gov.vn/tin-lien-quan/-/asset_publisher/vjYyM7O9aWnX/content/sang-12-7-them-662-ca-covid-19-tong-so-mac-en-nay-o-nuoc-ta-vuot-30-000-ca,4051585,3774138,277447,
Vietnam,2021-07-12,"Oxford/AstraZeneca, Sinopharm/Beijing, Sputnik V",https://suckhoedoisong.vn/sang-13-7-them-466-ca-mac-covid-19-tp-ho-chi-minh-nhieu-nhat-voi-365-ca-n197100.html,4063872,3783505,280367,
Vietnam,2021-07-13,"Oxford/AstraZeneca, Sinopharm/Beijing, Sputnik V",https://suckhoedoisong.vn/sang-14-7-them-909-ca-mac-covid-19-tp-ho-chi-minh-van-nhieu-nhat-voi-666-ca-n197190.html,4079066,3795182,283884,
Vietnam,2021-07-14,"Oxford/AstraZeneca, Sinopharm/Beijing, Sputnik V",https://suckhoedoisong.vn/sang-15-7-them-805-ca-mac-covid-19-rieng-tp-ho-chi-minh-da-603-ca-n197279.html,4146767,3859995,286772,
Vietnam,2021-07-15,"Oxford/AstraZeneca, Sinopharm/Beijing, Sputnik V",https://suckhoedoisong.vn/sang-16-7-tp-ho-chi-minh-co-1071-ca-mac-covid-19-tren-tong-so-1438-ca-cua-ca-nuoc-n197393.html,4185623,3890947,294676,
Vietnam,2021-07-16,"Oxford/AstraZeneca, Sinopharm/Beijing, Sputnik V",https://moh.gov.vn/hoat-dong-cua-dia-phuong/-/asset_publisher/gHbla8vOQDuS/content/ban-tin-dich-sang-17-7-them-2-106-ca-mac-covid-19-rieng-tp-ho-chi-minh-nhieu-nhat-voi-1-769-ca,4233896,3935719,298177,
Vietnam,2021-07-17,"Moderna, Oxford/AstraZeneca, Pfizer/BioNTech, Sinopharm/Beijing, Sputnik V",https://suckhoedoisong.vn/sang-18-7-them-2472-ca-mac-moi-covid-19-va-626-ca-tp-ho-chi-minh-dang-ky-bo-sung-viet-nam-da-co-tren-51000-benh-nhan-n197566.html,4261252,3956254,304998,
Vietnam,2021-07-18,"Moderna, Oxford/AstraZeneca, Pfizer/BioNTech, Sinopharm/Beijing, Sputnik V",https://ncov.moh.gov.vn/vi/web/guest/-/6847426-5934,4283906,3977431,306475,
Vietnam,2021-07-19,"Moderna, Oxford/AstraZeneca, Pfizer/BioNTech, Sinopharm/Beijing, Sputnik V",https://moh.gov.vn/tin-lien-quan/-/asset_publisher/vjYyM7O9aWnX/content/sang-20-7-co-2-155-ca-mac-covid-19-nang-tong-so-mac-tai-viet-nam-en-nay-len-hon-60-000-ca,4305501,3995710,309791,
Vietnam,2021-07-20,"Moderna, Oxford/AstraZeneca, Pfizer/BioNTech, Sinopharm/Beijing, Sputnik V",https://moh.gov.vn/tin-tong-hop/-/asset_publisher/k206Q9qkZOqn/content/ban-tin-dich-covid-19-sang-21-7-co-2-787-ca-mac-covid-19-trong-o-tp-ho-chi-minh-nhieu-nhat-voi-1-739-ca,4336833,4019161,317672,
Vietnam,2021-07-21,"Moderna, Oxford/AstraZeneca, Pfizer/BioNTech, Sinopharm/Beijing, Sputnik V",https://ncov.moh.gov.vn/en/web/guest/-/6847426-6081,4367939,4042984,324955,
Vietnam,2021-07-22,"Moderna, Oxford/AstraZeneca, Pfizer/BioNTech, Sinopharm/Beijing, Sputnik V",https://suckhoedoisong.vn/sang-23-7-them-3898-ca-mac-covid-19-rieng-tp-ho-chi-minh-da-co-den-3302-ca-n198019.html,4411659,4077099,334560,
Vietnam,2021-07-23,"Moderna, Oxford/AstraZeneca, Pfizer/BioNTech, Sinopharm/Beijing, Sputnik V",https://suckhoedoisong.vn/sang-24-7-co-3991-ca-mac-covid-19-tai-tp-ho-chi-minh-va-18-dia-phuong-n198101.html,4478757,4125156,353601,
Vietnam,2021-07-24,"Moderna, Oxford/AstraZeneca, Pfizer/BioNTech, Sinopharm/Beijing, Sputnik V",https://suckhoedoisong.vn/sang-25-7-co-3979-ca-mac-covid-19-tai-tp-ho-chi-minh-va-20-dia-phuong-khac-n198171.html,4535741,4163388,372353,
Vietnam,2021-07-25,"Moderna, Oxford/AstraZeneca, Pfizer/BioNTech, Sinopharm/Beijing, Sputnik V",https://moh.gov.vn/tin-lien-quan/-/asset_publisher/vjYyM7O9aWnX/content/ban-tin-dich-covid-19-sang-26-7-them-2-708-ca-mac-covid-19-tong-so-mac-tai-viet-nam-en-nay-hon-101-000-ca,4613491,4223628,389863,
Vietnam,2021-07-26,"Moderna, Oxford/AstraZeneca, Pfizer/BioNTech, Sinopharm/Beijing, Sputnik V",https://suckhoedoisong.vn/sang-27-7-co-2764-ca-mac-covid-19-tong-so-mac-tai-viet-nam-den-nay-la-hon-109000-ca-n198315.html,4746642,4323571,423071,
Vietnam,2021-07-27,"Moderna, Oxford/AstraZeneca, Pfizer/BioNTech, Sinopharm/Beijing, Sputnik V",https://suckhoedoisong.vn/sang-28-7-them-2861-ca-mac-covid-19-hon-5-trieu-lieu-vac-xin-da-duoc-tiem-chung-tai-viet-nam-n198400.html,5013175,4562339,450836,
Vietnam,2021-07-28,"Moderna, Oxford/AstraZeneca, Pfizer/BioNTech, Sinopharm/Beijing, Sputnik V",https://suckhoedoisong.vn/sang-29-7-co-2821-ca-mac-covid-19-hon-53-trieu-lieu-vac-xin-da-duoc-tiem-chung-n198484.html,5321839,4825209,496630,
Vietnam,2021-07-29,"Moderna, Oxford/AstraZeneca, Pfizer/BioNTech, Sinopharm/Beijing, Sputnik V",https://suckhoedoisong.vn/sang-30-7-co-4992-ca-mac-covid-19-hon-55-trieu-lieu-vac-xin-da-duoc-tiem-chung-n198550.html,5529898,4983496,546402,
Vietnam,2021-07-30,"Moderna, Oxford/AstraZeneca, Pfizer/BioNTech, Sinopharm/Beijing, Sputnik V",https://suckhoedoisong.vn/sang-31-7-co-4060-ca-mac-covid-19-gan-6-trieu-lieu-vac-xin-da-duoc-tiem-chung--n198625.html,5931376,5342483,588893,
Vietnam,2021-07-31,"Moderna, Oxford/AstraZeneca, Pfizer/BioNTech, Sinopharm/Beijing, Sputnik V",https://ncov.moh.gov.vn/vi/web/guest/-/6847426-6429,6203866,5583255,620611,
Vietnam,2021-08-01,"Moderna, Oxford/AstraZeneca, Pfizer/BioNTech, Sinopharm/Beijing, Sputnik V",https://ncov.moh.gov.vn/vi/web/guest/-/6847426-6462,6415219,5756155,659064,
Vietnam,2021-08-02,"Moderna, Oxford/AstraZeneca, Pfizer/BioNTech, Sinopharm/Beijing, Sputnik V",https://suckhoedoisong.vn/sang-3-8-co-3578-ca-mac-covid-19-gan-7-trieu-lieu-vac-xin-duoc-tiem-chung-tai-viet-nam-16921080306010566.htm,6959197,6246333,712864,
Vietnam,2021-08-03,"Moderna, Oxford/AstraZeneca, Pfizer/BioNTech, Sinopharm/Beijing, Sputnik V",https://suckhoedoisong.vn/sang-4-8-them-4271-ca-mac-covid-19-rieng-binh-duong-1032-ca-169210803223055569.htm,7291808,6547477,744331,
Vietnam,2021-08-04,"Moderna, Oxford/AstraZeneca, Pfizer/BioNTech, Sinopharm/Beijing, Sputnik V",https://suckhoedoisong.vn/sang-5-8-co-3943-ca-mac-covid-19-gan-76-trieu-lieu-vaccine-da-duoc-tiem-169210804232900848.htm,7553318,6774332,778986,
Vietnam,2021-08-05,"Moderna, Oxford/AstraZeneca, Pfizer/BioNTech, Sinopharm/Beijing, Sputnik V",https://suckhoedoisong.vn/sang-6-8-them-4009-ca-mac-covid-19-hon-8-trieu-lieu-vaccine-da-duoc-tiem-chung-169210805234435012.htm,8061116,7241093,820023,
Vietnam,2021-08-06,"Moderna, Oxford/AstraZeneca, Pfizer/BioNTech, Sinopharm/Beijing, Sputnik V",https://moh.gov.vn/tin-tong-hop/-/asset_publisher/k206Q9qkZOqn/content/ban-tin-dich-covid-19-sang-7-8-tp-ho-chi-minh-va-16-tinh-thanh-khac-co-them-3-794-ca-mac-covid-19,8528267,7664944,863323,
Vietnam,2021-08-07,"Moderna, Oxford/AstraZeneca, Pfizer/BioNTech, Sinopharm/Beijing, Sputnik V",https://moh.gov.vn/tin-tong-hop/-/asset_publisher/k206Q9qkZOqn/content/ban-tin-dich-covid-19-sang-8-8-co-4-941-ca-mac-covid-19-gan-8-9-trieu-lieu-vaccine-a-uoc-tiem-chung,8896615,8008156,888459,
Vietnam,2021-08-08,"Moderna, Oxford/AstraZeneca, Pfizer/BioNTech, Sinopharm/Beijing, Sputnik V",https://suckhoedoisong.vn/sang-9-8-them-5155-ca-mac-covid-19-tai-22-tinh-thanh-pho-rieng-binh-duong-1725-ca-169210809060139919.htm,9405819,8460013,945806,
Vietnam,2021-08-09,"Moderna, Oxford/AstraZeneca, Pfizer/BioNTech, Sinopharm/Beijing, Sputnik V",https://suckhoedoisong.vn/sang-10-8-co-5149-ca-mac-covid-19-tai-tp-hcm-va-22-dia-phuong-khac-169210809235049813.htm,9987587,8984300,1003287,
Vietnam,2021-08-10,"Moderna, Oxford/AstraZeneca, Pfizer/BioNTech, Sinopharm/Beijing, Sputnik V",https://suckhoedoisong.vn/sang-11-8-them-4892-ca-mac-covid-19-ky-luc-tiem-hon-14-trieu-lieu-vaccine-trong-1-ngay-169210810234709829.htm,11341864,10305762,1036102,
Vietnam,2021-08-11,"Moderna, Oxford/AstraZeneca, Pfizer/BioNTech, Sinopharm/Beijing, Sputnik V",https://suckhoedoisong.vn/sang-12-8-co-4642-ca-mac-covid-19-tai-tp-hcm-va-23-dia-phuong-khac-169210811230126042.htm,12098821,11006121,1092700,
Vietnam,2021-08-12,"Moderna, Oxford/AstraZeneca, Pfizer/BioNTech, Sinopharm/Beijing, Sputnik V",https://moh.gov.vn/tin-tong-hop/-/asset_publisher/k206Q9qkZOqn/content/ban-tin-dich-covid-19-ngay-13-8-ca-nuoc-ghi-nhan-9-150-ca-mac-moi-covid-19-tp-hcm-va-binh-duong-chiem-en-6-347-ca,13256472,12064617,1191855,
Vietnam,2021-08-13,"Moderna, Oxford/AstraZeneca, Pfizer/BioNTech, Sinopharm/Beijing, Sputnik V",https://moh.gov.vn/tin-lien-quan/-/asset_publisher/vjYyM7O9aWnX/content/ban-tin-dich-covid-19-ngay-14-8-them-9-716-ca-mac-covid-19-rieng-tp-hcm-4-231-ca,13772920,12500947,1271973,
Vietnam,2021-08-14,"Moderna, Oxford/AstraZeneca, Pfizer/BioNTech, Sinopharm/Beijing, Sputnik V",https://moh.gov.vn/tin-tong-hop/-/asset_publisher/k206Q9qkZOqn/content/ban-tin-dich-covid-19-toi-15-8-them-9-580-ca-mac-covid-19-rieng-tp-hcm-va-binh-duong-6-874-ca,14434017,13078340,1355677,
Vietnam,2021-08-15,"Moderna, Oxford/AstraZeneca, Pfizer/BioNTech, Sinopharm/Beijing, Sputnik V",https://moh.gov.vn/tin-tong-hop/-/asset_publisher/k206Q9qkZOqn/content/ban-tin-dich-covid-19-cua-bo-y-te-toi-16-8-them-8-644-ca-mac-covid-19-tai-tp-hcm-va-42-tinh-thanh,14666708,13287434,1379274,
Vietnam,2021-08-16,"Moderna, Oxford/AstraZeneca, Pfizer/BioNTech, Sinopharm/Beijing, Sputnik V",https://moh.gov.vn/tin-lien-quan/-/asset_publisher/vjYyM7O9aWnX/content/ban-tin-dich-covid-19-toi-17-8-ghi-nhan-them-9-605-ca-mac-covid-19-rieng-binh-duong-3-332-ca,15271562,13869728,1401834,
Vietnam,2021-08-17,"Moderna, Oxford/AstraZeneca, Pfizer/BioNTech, Sinopharm/Beijing, Sputnik V",https://moh.gov.vn/tin-lien-quan/-/asset_publisher/vjYyM7O9aWnX/content/ban-tin-dich-covid-19-toi-18-8-them-8-800-ca-mac-covid-19-va-3-751-benh-nhan-khoi,15518869,14032444,1486425,
Vietnam,2021-08-18,"Moderna, Oxford/AstraZeneca, Pfizer/BioNTech, Sinopharm/Beijing, Sputnik V",https://ncov.moh.gov.vn/vi/web/guest/-/6847426-6914,15922537,14359868,1562669,
Vietnam,2021-08-19,"Moderna, Oxford/AstraZeneca, Pfizer/BioNTech, Sinopharm/Beijing, Sputnik V",https://moh.gov.vn/tin-lien-quan/-/asset_publisher/vjYyM7O9aWnX/content/ban-tin-dich-covid-19-oi-20-8-them-10-657-ca-covid-19-binh-duong-co-so-mac-cao-nhat-voi-4-223-ca,16306199,14669827,1636372,
Vietnam,2021-08-20,"Moderna, Oxford/AstraZeneca, Pfizer/BioNTech, Sinopharm/Beijing, Sputnik V",https://moh.gov.vn/tin-tong-hop/-/asset_publisher/k206Q9qkZOqn/content/ban-tin-dich-covid-19-toi-21-8-them-11-321-ca-covid-19-binh-duong-tiep-tuc-nhieu-nhat-voi-4-505-ca,16494665,14787599,1707066,
Vietnam,2021-08-21,"Moderna, Oxford/AstraZeneca, Pfizer/BioNTech, Sinopharm/Beijing, Sputnik V",https://ehealth.gov.vn/?action=News&newsId=54384,17065896,15274648,1791248,
Vietnam,2021-08-22,"Moderna, Oxford/AstraZeneca, Pfizer/BioNTech, Sinopharm/Beijing, Sputnik V",https://moh.gov.vn/tin-tong-hop/-/asset_publisher/k206Q9qkZOqn/content/ban-tin-dich-covid-19-toi-23-8-them-10-266-ca-mac-covid-19-tp-hcm-van-nhieu-nhat-voi-4-251-ca,17364569,15530221,1834348,
Vietnam,2021-08-23,"Moderna, Oxford/AstraZeneca, Pfizer/BioNTech, Sinopharm/Beijing, Sputnik V",https://moh.gov.vn/tin-lien-quan/-/asset_publisher/vjYyM7O9aWnX/content/ban-tin-dich-covid-19-toi-24-8-them-10-811-ca-covid-19-tp-ho-chi-minh-va-binh-duong-a-co-en-8-255-ca,17647353,15725040,1922313,
Vietnam,2021-08-24,"Moderna, Oxford/AstraZeneca, Pfizer/BioNTech, Sinopharm/Beijing, Sputnik V",https://moh.gov.vn/tin-lien-quan/-/asset_publisher/vjYyM7O9aWnX/content/toi-25-8-them-12-096-ca-mac-covid-19-rieng-tp-hcm-a-5-294-ca,18095473,16056222,2039251,
Vietnam,2021-08-25,"Moderna, Oxford/AstraZeneca, Pfizer/BioNTech, Sinopharm/Beijing, Sputnik V",https://moh.gov.vn/tin-lien-quan/-/asset_publisher/vjYyM7O9aWnX/content/ban-tin-dich-covid-19-toi-26-8-them-11-575-ca-mac-covid-19-ky-luc-hon-18-560-benh-nhan-uoc-chua-khoi,18522203,16382658,2139545,
Vietnam,2021-08-26,"Moderna, Oxford/AstraZeneca, Pfizer/BioNTech, Sinopharm/Beijing, Sputnik V",https://moh.gov.vn/tin-tong-hop/-/asset_publisher/k206Q9qkZOqn/content/ban-tin-dich-covid-19-toi-27-8-them-12-920-ca-mac-covid-19-cao-hon-1-345-ca-so-voi-hom-qua,18843004,16607991,2235013,
Vietnam,2021-08-27,"Moderna, Oxford/AstraZeneca, Pfizer/BioNTech, Sinopharm/Beijing, Sputnik V",https://suckhoedoisong.vn/toi-28-8-co-12103-ca-mac-covid-19-rieng-tp-hcm-va-binh-duong-9530-ca-169210828180600805.htm,19151122,16822691,2328431,
Vietnam,2021-08-28,"Moderna, Oxford/AstraZeneca, Pfizer/BioNTech, Sinopharm/Beijing, Sputnik V",https://moh.gov.vn:443/tin-tong-hop/-/asset_publisher/k206Q9qkZOqn/content/ban-tin-dich-covid-19-toi-29-8-them-12-796-ca-mac-covid-19-binh-duong-nhieu-nhat-voi-5-414-ca,19431093,16999888,2431205,
Vietnam,2021-08-29,"Moderna, Oxford/AstraZeneca, Pfizer/BioNTech, Sinopharm/Beijing, Sputnik V",https://moh.gov.vn:443/tin-tong-hop/-/asset_publisher/k206Q9qkZOqn/content/ban-tin-dich-covid-19-toi-30-8-them-14-224-ca-mac-covid-19-tang-1-467-ca-so-voi-hom-qua,19710560,17186153,2524407,
Vietnam,2021-08-30,"Moderna, Oxford/AstraZeneca, Pfizer/BioNTech, Sinopharm/Beijing, Sputnik V",https://moh.gov.vn:443/tin-tong-hop/-/asset_publisher/k206Q9qkZOqn/content/ban-tin-dich-covid-19-toi-31-8-them-12-607-ca-mac-moi-covid-19-tp-hcm-va-binh-duong-a-gan-10-000-ca,19966724,17347538,2619186,
Vietnam,2021-08-31,"Moderna, Oxford/AstraZeneca, Pfizer/BioNTech, Sinopharm/Beijing, Sputnik V",https://moh.gov.vn:443/tin-tong-hop/-/asset_publisher/k206Q9qkZOqn/content/ban-tin-dich-covid-19-toi-1-9-them-11-434-ca-mac-covid-19-tp-hcm-nhieu-nhat-voi-5-368-ca,20210381,17483818,2726563,
Vietnam,2021-09-01,"Moderna, Oxford/AstraZeneca, Pfizer/BioNTech, Sinopharm/Beijing, Sputnik V",https://moh.gov.vn/tin-lien-quan/-/asset_publisher/vjYyM7O9aWnX/content/ban-tin-dich-covid-19-ngay-2-9-them-13-197-ca-mac-covid-19-cao-hon-hom-qua-1-763-ca,20542325,17660772,2881553,
Vietnam,2021-09-02,"Moderna, Oxford/AstraZeneca, Pfizer/BioNTech, Sinopharm/Beijing, Sputnik V",https://moh.gov.vn/tin-lien-quan/-/asset_publisher/vjYyM7O9aWnX/content/ngay-3-9-them-14-922-ca-mac-covid-19-rieng-tp-hcm-co-en-8-499-ca,20831478,17872356,2959122,
Vietnam,2021-09-03,"Moderna, Oxford/AstraZeneca, Pfizer/BioNTech, Sinopharm/Beijing, Sputnik V",https://suckhoedoisong.vn/ngay-4-9-co-9521-ca-mac-covid-19-thap-hon-5401-ca-so-voi-hom-qua-169210904181341051.htm,21046279,17998754,3047525,
Vietnam,2021-09-04,"Moderna, Oxford/AstraZeneca, Pfizer/BioNTech, Sinopharm/Beijing, Sputnik V",https://moh.gov.vn:443/tin-tong-hop/-/asset_publisher/k206Q9qkZOqn/content/ngay-5-9-them-13-137-ca-mac-covid-19-rieng-tp-hcm-va-binh-duong-a-gan-9-800-ca,21445181,18246636,3198545,
Vietnam,2021-09-05,"Moderna, Oxford/AstraZeneca, Pfizer/BioNTech, Sinopharm/Beijing, Sputnik V",https://moh.gov.vn:443/tin-tong-hop/-/asset_publisher/k206Q9qkZOqn/content/ngay-6-9-them-12-481-ca-mac-covid-19-rieng-tp-hcm-7-122-ca,22012123,18673340,3338783,
Vietnam,2021-09-06,"Moderna, Oxford/AstraZeneca, Pfizer/BioNTech, Sinopharm/Beijing, Sputnik V",https://moh.gov.vn:443/tin-tong-hop/-/asset_publisher/k206Q9qkZOqn/content/ngay-7-9-them-14-208-ca-mac-covid-19-cao-hon-hom-qua-1-727-ca,22675644,19231238,3444406,
Vietnam,2021-09-07,"Moderna, Oxford/AstraZeneca, Pfizer/BioNTech, Sinopharm/Beijing, Sputnik V",https://moh.gov.vn:443/tin-tong-hop/-/asset_publisher/k206Q9qkZOqn/content/ngay-8-9-them-12-680-ca-mac-covid-19-tp-hcm-va-binh-duong-gan-10-500-ca,23577917,19809234,3768683,
Vietnam,2021-09-08,"Moderna, Oxford/AstraZeneca, Pfizer/BioNTech, Sinopharm/Beijing, Sputnik V",https://suckhoedoisong.vn/ngay-9-9-viet-nam-ghi-nhan-12420-ca-mac-covid-19-va-12523-benh-nhan-khoi-169210909181525359.htm,24781185,20591403,4189782,
Vietnam,2021-09-09,"Moderna, Oxford/AstraZeneca, Pfizer/BioNTech, Sinopharm/Beijing, Sputnik V",https://moh.gov.vn:443/tin-tong-hop/-/asset_publisher/k206Q9qkZOqn/content/ban-tin-dich-ngay-10-9-tp-hcm-ghi-nhan-7-539-ca-trong-tong-so-13-321-ca-cua-ca-nuoc,25926688,21459102,4467586,
Vietnam,2021-09-10,"Moderna, Oxford/AstraZeneca, Pfizer/BioNTech, Sinopharm/Beijing, Sputnik V",https://moh.gov.vn:443/tin-tong-hop/-/asset_publisher/k206Q9qkZOqn/content/ngay-11-9-co-11-932-ca-mac-covid-19-it-hon-hom-qua-gan-1-400-ca,27108588,22367824,4740764,
Vietnam,2021-09-11,"Moderna, Oxford/AstraZeneca, Pfizer/BioNTech, Sinopharm/Beijing, Sputnik V",https://moh.gov.vn:443/tin-tong-hop/-/asset_publisher/k206Q9qkZOqn/content/ngay-12-9-them-11-478-ca-mac-covid-19-rieng-tp-hcm-va-binh-duong-ghi-nhan-gan-9-350-ca,28213392,23157067,5056325,
Vietnam,2021-09-12,"Moderna, Oxford/AstraZeneca, Pfizer/BioNTech, Sinopharm/Beijing, Sputnik V",https://moh.gov.vn:443/tin-tong-hop/-/asset_publisher/k206Q9qkZOqn/content/ngay-13-9-co-11-172-ca-mac-covid-19-tp-hcm-nhieu-nhat-voi-5-446-ca,29280307,23954248,5326059,
Vietnam,2021-09-13,"Moderna, Oxford/AstraZeneca, Pfizer/BioNTech, Sinopharm/Beijing, Sputnik V",https://moh.gov.vn:443/tin-tong-hop/-/asset_publisher/k206Q9qkZOqn/content/ngay-14-9-them-10-508-ca-mac-covid-19-trong-o-tp-hcm-va-binh-duong-a-gan-8-500-ca,30348920,24727517,5621403,
Vietnam,2021-09-14,"Moderna, Oxford/AstraZeneca, Pfizer/BioNTech, Sinopharm/Beijing, Sputnik V",https://moh.gov.vn:443/tin-tong-hop/-/asset_publisher/k206Q9qkZOqn/content/ngay-15-9-co-10-585-ca-mac-covid-19-rieng-tp-hcm-a-5-301-ca,31254856,25420169,5834687,
Vietnam,2021-09-15,"Moderna, Oxford/AstraZeneca, Pfizer/BioNTech, Sinopharm/Beijing, Sputnik V",https://moh.gov.vn:443/tin-tong-hop/-/asset_publisher/k206Q9qkZOqn/content/ngay-16-9-them-10-489-ca-mac-covid-19-rieng-tp-hcm-va-binh-duong-hon-8-700-ca,32296517,26307653,5988864,
Vietnam,2021-09-16,"Moderna, Oxford/AstraZeneca, Pfizer/BioNTech, Sinopharm/Beijing, Sputnik V",https://moh.gov.vn/tin-lien-quan/-/asset_publisher/vjYyM7O9aWnX/content/ngay-17-9-co-11-521-ca-mac-covid-19-trong-o-tp-hcm-va-binh-duong-a-gan-10-000-ca,33006632,26821906,6184726,
Vietnam,2021-09-17,"Moderna, Oxford/AstraZeneca, Pfizer/BioNTech, Sinopharm/Beijing, Sputnik V",https://moh.gov.vn:443/tin-tong-hop/-/asset_publisher/k206Q9qkZOqn/content/ngay-18-9-co-9-373-ca-mac-covid-19-thap-hon-hom-qua-2-146-ca,33555359,27208264,6347095,
Vietnam,2021-09-18,"Moderna, Oxford/AstraZeneca, Pfizer/BioNTech, Sinopharm/Beijing, Sputnik V",https://moh.gov.vn:443/tin-tong-hop/-/asset_publisher/k206Q9qkZOqn/content/ngay-19-9-them-10-040-ca-mac-covid-19-trong-o-rieng-tp-hcm-co-5-496-ca,34095243,27577472,6517771,
Vietnam,2021-09-19,"Moderna, Oxford/AstraZeneca, Pfizer/BioNTech, Sinopharm/Beijing, Sputnik V",https://moh.gov.vn:443/tin-tong-hop/-/asset_publisher/k206Q9qkZOqn/content/ngay-20-9-co-8-681-ca-mac-covid-19-rieng-tp-hcm-5-171-ca,34553590,27913529,6640061,
Vietnam,2021-09-20,"Moderna, Oxford/AstraZeneca, Pfizer/BioNTech, Sinopharm/Beijing, Sputnik V",https://moh.gov.vn:443/tin-tong-hop/-/asset_publisher/k206Q9qkZOqn/content/ngay-21-9-co-11-692-ca-mac-covid-19-tai-tp-hcm-va-33-tinh-thanh-pho,35071714,28288007,6783707,
Vietnam,2021-09-21,"Moderna, Oxford/AstraZeneca, Pfizer/BioNTech, Sinopharm/Beijing, Sputnik V",https://moh.gov.vn:443/tin-tong-hop/-/asset_publisher/k206Q9qkZOqn/content/ngay-22-9-co-11-527-ca-mac-covid-19-rieng-tp-hcm-va-binh-duong-a-ghi-nhan-hon-9-600-ca,35675840,28745680,6930160,
Vietnam,2021-09-22,"Moderna, Oxford/AstraZeneca, Pfizer/BioNTech, Sinopharm/Beijing, Sputnik V",https://suckhoedoisong.vn/ngay-23-9-co-9472-ca-mac-covid-19-giam-2060-ca-so-voi-ngay-hom-qua-169210923175100815.htm,36152556,29094447,7058109,
Vietnam,2021-09-23,"Moderna, Oxford/AstraZeneca, Pfizer/BioNTech, Sinopharm/Beijing, Sputnik V",https://moh.gov.vn:443/tin-tong-hop/-/asset_publisher/k206Q9qkZOqn/content/ngay-24-9-ghi-nhan-8-537-ca-mac-covid-19-thap-nhat-trong-hon-1-thang-qua-cua-ot-dich-nay,36793910,29534498,7259412,
Vietnam,2021-09-24,"Moderna, Oxford/AstraZeneca, Pfizer/BioNTech, Sinopharm/Beijing, Sputnik V",https://moh.gov.vn:443/tin-tong-hop/-/asset_publisher/k206Q9qkZOqn/content/ngay-25-9-co-9-706-ca-mac-covid-19-trong-o-tp-hcm-va-binh-duong-a-ghi-nhan-7-675-ca,37583248,30027703,7555545,
Vietnam,2021-09-25,"Moderna, Oxford/AstraZeneca, Pfizer/BioNTech, Sinopharm/Beijing, Sputnik V",https://moh.gov.vn:443/tin-tong-hop/-/asset_publisher/k206Q9qkZOqn/content/ngay-26-9-them-10-011-ca-mac-covid-19-rieng-tp-hcm-a-5-121-ca,38367246,30420963,7946283,
Vietnam,2021-09-26,"Moderna, Oxford/AstraZeneca, Pfizer/BioNTech, Sinopharm/Beijing, Sputnik V",https://moh.gov.vn:443/tin-tong-hop/-/asset_publisher/k206Q9qkZOqn/content/ngay-27-9-co-9-362-ca-mac-covid-19-tai-tp-hcm-binh-duong-va-34-tinh-thanh-pho,39232772,30946214,8286558,
Vietnam,2021-09-27,"Moderna, Oxford/AstraZeneca, Pfizer/BioNTech, Sinopharm/Beijing, Sputnik V",https://suckhoedoisong.vn/ngay-28-9-so-mac-moi-covid-19-chi-4589-ca-trong-khi-so-khoi-nhieu-gap-gan-5-lan-169210928180738217.htm,40095031,31497967,8597064,
Vietnam,2021-09-28,"Moderna, Oxford/AstraZeneca, Pfizer/BioNTech, Sinopharm/Beijing, Sputnik V",https://moh.gov.vn:443/tin-tong-hop/-/asset_publisher/k206Q9qkZOqn/content/ngay-29-9-co-8-758-ca-mac-covid-19-so-benh-nhan-khoi-ky-luc-voi-23-568-ca,41153041,32171641,8981400,
Vietnam,2021-09-29,"Moderna, Oxford/AstraZeneca, Pfizer/BioNTech, Sinopharm/Beijing, Sputnik V",https://suckhoedoisong.vn/ngay-30-9-co-7940-ca-mac-covid-19-so-benh-nhan-khoi-lap-ky-luc-moi-voi-25322-ca-169210930181734537.htm,42165168,32669057,9496111,
Vietnam,2021-09-30,"Moderna, Oxford/AstraZeneca, Pfizer/BioNTech, Sinopharm/Beijing, Sputnik V",https://moh.gov.vn:443/tin-tong-hop/-/asset_publisher/k206Q9qkZOqn/content/ngay-1-10-them-6-957-ca-mac-covid-19-ky-luc-moi-27-520-nguoi-khoi-benh,42888157,33069709,9818448,
Vietnam,2021-10-01,"Moderna, Oxford/AstraZeneca, Pfizer/BioNTech, Sinopharm/Beijing, Sputnik V",https://moh.gov.vn:443/tin-tong-hop/-/asset_publisher/k206Q9qkZOqn/content/ngay-2-10-co-5-490-ca-mac-moi-covid-19-thap-nhat-trong-hon-1-thang-qua,43658818,33532395,10126423,
Vietnam,2021-10-02,"Moderna, Oxford/AstraZeneca, Pfizer/BioNTech, Sinopharm/Beijing, Sputnik V",https://moh.gov.vn:443/tin-tong-hop/-/asset_publisher/k206Q9qkZOqn/content/ngay-3-10-co-5-376-ca-mac-covid-19-so-benh-nhan-khoi-lap-ky-luc-moi-voi-28-859-ca,44637911,34155519,10482392,
Vietnam,2021-10-03,"Moderna, Oxford/AstraZeneca, Pfizer/BioNTech, Sinopharm/Beijing, Sputnik V",https://moh.gov.vn:443/tin-tong-hop/-/asset_publisher/k206Q9qkZOqn/content/ngay-4-10-co-5-383-ca-mac-moi-covid-19-rieng-tp-hcm-la-2-490-ca,45496123,34622194,10873929,
Vietnam,2021-10-04,"Moderna, Oxford/AstraZeneca, Pfizer/BioNTech, Sinopharm/Beijing, Sputnik V",https://moh.gov.vn:443/tin-tong-hop/-/asset_publisher/k206Q9qkZOqn/content/ngay-5-10-co-4-363-ca-mac-covid-19-thap-nhat-trong-khoang-1-5-thang-qua,46969510,35355593,11613917,
Vietnam,2021-10-05,"Moderna, Oxford/AstraZeneca, Pfizer/BioNTech, Sinopharm/Beijing, Sputnik V",https://moh.gov.vn:443/tin-tong-hop/-/asset_publisher/k206Q9qkZOqn/content/ngay-6-10-co-4-363-ca-mac-covid-19-tai-tp-hcm-va-39-tinh-thanh-pho,48155037,35933360,12221677,
Vietnam,2021-10-06,"Moderna, Oxford/AstraZeneca, Pfizer/BioNTech, Sinopharm/Beijing, Sputnik V",https://moh.gov.vn:443/tin-tong-hop/-/asset_publisher/k206Q9qkZOqn/content/ngay-7-10-co-4-150-ca-mac-covid-19-giam-hon-200-ca-so-voi-hom-qua,49254925,36448527,12806398,
Vietnam,2021-10-08,"Moderna, Oxford/AstraZeneca, Pfizer/BioNTech, Sinopharm/Beijing, Sputnik V",https://moh.gov.vn:443/tin-tong-hop/-/asset_publisher/k206Q9qkZOqn/content/ngay-9-10-co-4-513-ca-mac-covid-19-tai-tp-hcm-va-39-tinh-thanh-pho-giam-261-ca-so-voi-hom-qua,51968108,37725480,14242628,
Vietnam,2021-10-10,"Moderna, Oxford/AstraZeneca, Pfizer/BioNTech, Sinopharm/Beijing, Sputnik V",https://moh.gov.vn:443/tin-tong-hop/-/asset_publisher/k206Q9qkZOqn/content/ngay-11-10-co-3-619-ca-mac-covid-19-tai-44-ia-phuong-rieng-tp-hcm-1-527-ca,54279564,38698136,15581428,
Vietnam,2021-10-11,"Moderna, Oxford/AstraZeneca, Pfizer/BioNTech, Sinopharm/Beijing, Sputnik V",https://moh.gov.vn:443/tin-tong-hop/-/asset_publisher/k206Q9qkZOqn/content/ngay-12-10-chi-co-2-949-ca-mac-covid-19-tai-43-ia-phuong-thap-nhat-trong-2-5-thang-qua,55229124,39088086,16141038,
Vietnam,2021-10-12,"Moderna, Oxford/AstraZeneca, Pfizer/BioNTech, Sinopharm/Beijing, Sputnik V",https://moh.gov.vn:443/tin-tong-hop/-/asset_publisher/k206Q9qkZOqn/content/ngay-13-10-co-3-461-ca-mac-covid-19-tai-tp-hcm-ha-noi-va-45-ia-phuong-khac,56330750,39837150,16493600,
Vietnam,2021-10-13,"Moderna, Oxford/AstraZeneca, Pfizer/BioNTech, Sinopharm/Beijing, Sputnik V",https://moh.gov.vn:443/tin-tong-hop/-/asset_publisher/k206Q9qkZOqn/content/ngay-14-10-co-3-092-ca-mac-covid-19-rieng-tp-hcm-909-ca,57457092,40654892,16802200,
Vietnam,2021-10-14,"Moderna, Oxford/AstraZeneca, Pfizer/BioNTech, Sinopharm/Beijing, Sputnik V",https://moh.gov.vn:443/tin-tong-hop/-/asset_publisher/k206Q9qkZOqn/content/ngay-15-10-co-3-797-ca-mac-covid-19-tai-tp-hcm-soc-trang-va-45-ia-phuong-khac,59003239,41811429,17191810,
Vietnam,2021-10-16,"Moderna, Oxford/AstraZeneca, Pfizer/BioNTech, Sinopharm/Beijing, Sputnik V",https://moh.gov.vn:443/tin-tong-hop/-/asset_publisher/k206Q9qkZOqn/content/ngay-17-10-co-3-193-ca-mac-covid-19-rieng-tp-hcm-la-1-059-ca-so-tu-vong-giam-con-63-ca,61919937,44070286,17849651,
Vietnam,2021-10-17,"Moderna, Oxford/AstraZeneca, Pfizer/BioNTech, Sinopharm/Beijing, Sputnik V",https://moh.gov.vn:443/tin-tong-hop/-/asset_publisher/k206Q9qkZOqn/content/ngay-18-10-co-3-168-ca-mac-covid-19-tai-tp-hcm-soc-trang-va-43-tinh-thanh-khac,63434180,45281937,18152243,
Vietnam,2021-10-18,"Moderna, Oxford/AstraZeneca, Pfizer/BioNTech, Sinopharm/Beijing, Sputnik V",https://moh.gov.vn:443/tin-tong-hop/-/asset_publisher/k206Q9qkZOqn/content/ngay-19-10-co-3-034-ca-mac-covid-19-tai-tp-hcm-va-48-tinh-thanh-khac-giam-132-ca-voi-ngay-qua,64992488,46493751,18498737,
Vietnam,2021-10-19,"Moderna, Oxford/AstraZeneca, Pfizer/BioNTech, Sinopharm/Beijing, Sputnik V",https://moh.gov.vn:443/tin-tong-hop/-/asset_publisher/k206Q9qkZOqn/content/ngay-20-10-co-3-646-ca-mac-covid-19-hon-1-700-benh-nhan-khoi,67083557,47997541,19086016,
Vietnam,2021-10-20,"Moderna, Oxford/AstraZeneca, Pfizer/BioNTech, Sinopharm/Beijing, Sputnik V",https://moh.gov.vn:443/tin-tong-hop/-/asset_publisher/k206Q9qkZOqn/content/ngay-21-10-co-3-636-ca-mac-covid-19-tai-50-tinh-thanh-1-541-benh-nhan-khoi,68809880,49352317,19457563,
Vietnam,2021-10-22,"Moderna, Oxford/AstraZeneca, Pfizer/BioNTech, Sinopharm/Beijing, Sputnik V",https://www.moh.gov.vn:443/web/guest/tin-tong-hop/-/asset_publisher/k206Q9qkZOqn/content/ngay-23-10-co-3-373-ca-mac-covid-19-tai-47-tinh-thanh-giam-616-ca-so-voi-hom-qua,71889209,51157792,20731417,
Vietnam,2021-10-23,"Moderna, Oxford/AstraZeneca, Pfizer/BioNTech, Sinopharm/Beijing, Sputnik V",https://moh.gov.vn:443/tin-tong-hop/-/asset_publisher/k206Q9qkZOqn/content/ngay-24-10-co-4-045-ca-mac-covid-19-tai-47-tinh-thanh-them-386-400-lieu-vaccine-astrazeneca-ve-viet-nam,72929311,51883474,21045837,
Vietnam,2021-10-25,"Moderna, Oxford/AstraZeneca, Pfizer/BioNTech, Sinopharm/Beijing, Sputnik V",https://www.moh.gov.vn:443/web/guest/tin-tong-hop/-/asset_publisher/k206Q9qkZOqn/content/ngay-26-10-co-3-595-ca-mac-covid-19-tai-tp-hcm-ha-noi-va-47-tinh-thanh-gan-3-000-benh-nhan-khoi,74950393,53125886,21824507,
Vietnam,2021-10-26,"Moderna, Oxford/AstraZeneca, Pfizer/BioNTech, Sinopharm/Beijing, Sputnik V",https://moh.gov.vn:443/tin-tong-hop/-/asset_publisher/k206Q9qkZOqn/content/ngay-27-10-co-4-411-ca-mac-covid-19-tai-47-tinh-thanh-tang-hon-800-ca-so-voi-ngay-qua,75970872,53738466,22232406,
Vietnam,2021-10-27,"Moderna, Oxford/AstraZeneca, Pfizer/BioNTech, Sinopharm/Beijing, Sputnik V",https://www.moh.gov.vn:443/web/guest/tin-tong-hop/-/asset_publisher/k206Q9qkZOqn/content/ngay-28-10-co-4-892-ca-mac-covid-19-tai-tp-hcm-va-48-tinh-thanh-1-649-benh-nhan-khoi,77145612,54520772,22624840,
Vietnam,2021-10-28,"Moderna, Oxford/AstraZeneca, Pfizer/BioNTech, Sinopharm/Beijing, Sputnik V",https://www.moh.gov.vn:443/web/guest/tin-tong-hop/-/asset_publisher/k206Q9qkZOqn/content/ngay-29-10-co-4-899-ca-mac-covid-19-tai-50-tinh-thanh-va-2-169-benh-nhan-khoi,78940403,55578783,23361620,
Vietnam,2021-10-29,"Moderna, Oxford/AstraZeneca, Pfizer/BioNTech, Sinopharm/Beijing, Sputnik V",https://moh.gov.vn:443/tin-tong-hop/-/asset_publisher/k206Q9qkZOqn/content/ngay-30-10-co-5-227-ca-mac-covid-19-tai-tp-hcm-ha-noi-va-48-tinh-thanh-2-204-ca-khoi,80528570,56616780,23911790,
Vietnam,2021-10-30,"Moderna, Oxford/AstraZeneca, Pfizer/BioNTech, Sinopharm/Beijing, Sputnik V",https://moh.gov.vn:443/tin-tong-hop/-/asset_publisher/k206Q9qkZOqn/content/ngay-31-10-co-5-519-ca-mac-covid-19-tai-tp-hcm-bac-lieu-ha-noi-va-43-tinh-khac,81375376,57044159,24331217,
Vietnam,2021-10-31,"Moderna, Oxford/AstraZeneca, Pfizer/BioNTech, Sinopharm/Beijing, Sputnik V",https://moh.gov.vn:443/tin-tong-hop/-/asset_publisher/k206Q9qkZOqn/content/ngay-1-11-co-5-598-ca-mac-covid-19-tai-tp-hcm-an-giang-kien-giang-va-46-tinh-thanh-khac,81929875,57332644,24597231,
Vietnam,2021-11-01,"Moderna, Oxford/AstraZeneca, Pfizer/BioNTech, Sinopharm/Beijing, Sputnik V",https://moh.gov.vn:443/tin-tong-hop/-/asset_publisher/k206Q9qkZOqn/content/ngay-2-11-co-5-637-ca-mac-covid-19-tai-52-ia-phuong-ong-nai-nhieu-nhat-858-ca,83131464,58013895,25117569,
Vietnam,2021-11-02,"Moderna, Oxford/AstraZeneca, Pfizer/BioNTech, Sinopharm/Beijing, Sputnik V",https://moh.gov.vn:443/tin-tong-hop/-/asset_publisher/k206Q9qkZOqn/content/ngay-3-11-co-6-192-ca-mac-covid-19-tai-tp-hcm-va-57-tinh-thanh-8-869-ca-khoi-benh,84090899,58449622,25641277,
Vietnam,2021-11-03,"Moderna, Oxford/AstraZeneca, Pfizer/BioNTech, Sinopharm/Beijing, Sputnik V",https://moh.gov.vn:443/tin-tong-hop/-/asset_publisher/k206Q9qkZOqn/content/ngay-4-11-co-6-580-ca-mac-covid-19-trong-o-tp-hcm-ong-nai-va-binh-duong-chiem-gan-3-000-ca,84884074,58807646,26076428,
Vietnam,2021-11-04,"Moderna, Oxford/AstraZeneca, Pfizer/BioNTech, Sinopharm/Beijing, Sputnik V",https://www.moh.gov.vn:443/web/guest/tin-tong-hop/-/asset_publisher/k206Q9qkZOqn/content/ngay-5-11-them-7-504-ca-mac-moi-covid-19-tai-60-tinh-thanh-ong-nai-nhieu-nhat-voi-gan-1-000-ca,86319808,59355699,26964109,
Vietnam,2021-11-06,"Moderna, Oxford/AstraZeneca, Pfizer/BioNTech, Sinopharm/Beijing, Sputnik V",https://moh.gov.vn:443/tin-tong-hop/-/asset_publisher/k206Q9qkZOqn/content/ngay-7-11-co-7-646-ca-mac-covid-19-tai-56-ia-phuong-tp-hcm-nhieu-nhat-voi-1-009-ca,89620701,60845405,28775296,
Vietnam,2021-11-08,"Moderna, Oxford/AstraZeneca, Pfizer/BioNTech, Sinopharm/Beijing, Sputnik V",https://moh.gov.vn:443/tin-tong-hop/-/asset_publisher/k206Q9qkZOqn/content/ngay-9-11-co-8-133-ca-mac-covid-19-tai-55-tinh-thanh-1-325-benh-nhan-khoi,92211330,61907563,30303767,
Vietnam,2021-11-09,"Moderna, Oxford/AstraZeneca, Pfizer/BioNTech, Sinopharm/Beijing, Sputnik V",https://moh.gov.vn:443/tin-tong-hop/-/asset_publisher/k206Q9qkZOqn/content/ngay-10-11-co-7-930-ca-covid-19-nhieu-ia-phuong-gia-tang-so-mac-moi,93962665,62806992,31155673,
Vietnam,2021-11-11,"Moderna, Oxford/AstraZeneca, Pfizer/BioNTech, Sinopharm/Beijing, Sputnik V",https://moh.gov.vn:443/tin-tong-hop/-/asset_publisher/k206Q9qkZOqn/content/ngay-12-11-co-8-982-ca-mac-covid-19-tai-56-tinh-thanh-hon-10-200-benh-nhan-khoi,96557452,63682168,32875284,
Vietnam,2021-11-12,"Moderna, Oxford/AstraZeneca, Pfizer/BioNTech, Sinopharm/Beijing, Sputnik V",https://moh.gov.vn:443/tin-tong-hop/-/asset_publisher/k206Q9qkZOqn/content/ngay-13-11-co-8-467-ca-mac-covid-19-tp-hcm-van-nhieu-nhat-voi-1-240-ca,97831758,64073710,33758048,
Vietnam,2021-11-13,"Moderna, Oxford/AstraZeneca, Pfizer/BioNTech, Sinopharm/Beijing, Sputnik V",https://moh.gov.vn:443/tin-tong-hop/-/asset_publisher/k206Q9qkZOqn/content/ngay-14-11-co-8-176-ca-mac-moi-covid-19-cac-tinh-an-giang-binh-thuan-va-ak-lak-tang-so-mac,98930571,64322087,34608484,
Vietnam,2021-11-14,"Moderna, Oxford/AstraZeneca, Pfizer/BioNTech, Sinopharm/Beijing, Sputnik V",https://www.moh.gov.vn:443/web/guest/tin-tong-hop/-/asset_publisher/k206Q9qkZOqn/content/ngay-15-11-them-8-616-ca-covid-19-tp-hcm-va-an-giang-co-so-mac-nhieu-nhat,99751224,64467940,35283284,
Vietnam,2021-11-15,"Moderna, Oxford/AstraZeneca, Pfizer/BioNTech, Sinopharm/Beijing, Sputnik V",https://www.moh.gov.vn:443/web/guest/tin-tong-hop/-/asset_publisher/k206Q9qkZOqn/content/ngay-16-11-co-9-650-ca-mac-covid-19-tai-59-tinh-thanh-tang-hon-1-000-ca-so-voi-hom-qua,100862898,64767521,36095377,
